[
  {
    "accumulate": false,
    "code": 1,
    "count": 100,
    "link": "ms-xbl-72EE054A://default?trackId=1",
    "name": "\uc77c\ubc18 \uac8c\uc784 \uc2dc\uc791",
    "parameter1": "",
    "parameter2": "",
    "parameter3": "",
    "parameter4": "",
    "platform": "PLAYFAB_XBOX",
    "type": "StartGame"
  },
  {
    "accumulate": false,
    "code": 2,
    "count": 100,
    "link": "ms-xbl-72EE054A://default?trackId=2",
    "name": "\ud55c \uac8c\uc784 \uc548\uc5d0\uc11c \uc57c\uc0dd\ub3d9\ubb3c 30\ub9c8\ub9ac \uc0ac\ub0e5",
    "parameter1": 30,
    "parameter2": "None",
    "parameter3": "",
    "parameter4": "",
    "platform": "PLAYFAB_XBOX",
    "type": "KillMonster"
  },
  {
    "accumulate": false,
    "code": 3,
    "count": 100,
    "link": "ms-xbl-72EE054A://default?trackId=3",
    "name": "\ud55c \uac8c\uc784 \uc548\uc5d0\uc11c \uc804\uc124 \uc544\uc774\ud15c 6\ud68c \uc81c\uc791",
    "parameter1": 6,
    "parameter2": "Legend",
    "parameter3": "",
    "parameter4": "",
    "platform": "PLAYFAB_XBOX",
    "type": "None"
  },
  {
    "accumulate": false,
    "code": 4,
    "count": 100,
    "link": "ms-xbl-72EE054A://default?trackId=4",
    "name": "\uc54c\ud30c \ucc98\uce58",
    "parameter1": 1,
    "parameter2": "Alpha",
    "parameter3": "",
    "parameter4": "",
    "platform": "PLAYFAB_XBOX",
    "type": "KillMonster"
  },
  {
    "accumulate": false,
    "code": 5,
    "count": 100,
    "link": "ms-xbl-72EE054A://default?trackId=5",
    "name": "\uc624\uba54\uac00 \ucc98\uce58",
    "parameter1": 1,
    "parameter2": "Omega",
    "parameter3": "",
    "parameter4": "",
    "platform": "PLAYFAB_XBOX",
    "type": "KillMonster"
  },
  {
    "accumulate": false,
    "code": 6,
    "count": 100,
    "link": "ms-xbl-72EE054A://default?trackId=6",
    "name": "\uc704\ud074\ub77c\uc778 \ubc15\uc0ac \ucc98\uce58",
    "parameter1": 1,
    "parameter2": "Wickline",
    "parameter3": "",
    "parameter4": "",
    "platform": "PLAYFAB_XBOX",
    "type": "KillMonster"
  },
  {
    "accumulate": false,
    "code": 7,
    "count": 100,
    "link": "ms-xbl-72EE054A://default?trackId=7",
    "name": "\uacc4\uc815 11\ub808\ubca8 \ub2ec\uc131",
    "parameter1": 11,
    "parameter2": "",
    "parameter3": "",
    "parameter4": "",
    "platform": "PLAYFAB_XBOX",
    "type": "LevelUpAccount"
  },
  {
    "accumulate": false,
    "code": 8,
    "count": 100,
    "link": "ms-xbl-72EE054A://default?trackId=8",
    "name": "\uacc4\uc815 20\ub808\ubca8 \ub2ec\uc131",
    "parameter1": 20,
    "parameter2": "",
    "parameter3": "",
    "parameter4": "",
    "platform": "PLAYFAB_XBOX",
    "type": "LevelUpAccount"
  },
  {
    "accumulate": false,
    "code": 9,
    "count": 100,
    "link": "ms-xbl-72EE054A://default?trackId=9",
    "name": "5\uc704 \ub0b4\uc758 \uc21c\uc704\ub85c \uc2e4\ud5d8 \uc885\ub8cc",
    "parameter1": 5,
    "parameter2": "",
    "parameter3": "",
    "parameter4": "",
    "platform": "PLAYFAB_XBOX",
    "type": "EndGame"
  },
  {
    "accumulate": false,
    "code": 10,
    "count": 100,
    "link": "ms-xbl-72EE054A://default?trackId=10",
    "name": "1\uc704\ub85c \uc2e4\ud5d8 \uc885\ub8cc",
    "parameter1": 1,
    "parameter2": "",
    "parameter3": "",
    "parameter4": "",
    "platform": "PLAYFAB_XBOX",
    "type": "EndGame"
  },
  {
    "accumulate": false,
    "code": 11,
    "count": 100,
    "link": "ms-xbl-72EE054A://default?trackId=11",
    "name": "\ud55c \uac8c\uc784 \uc548\uc5d0\uc11c \ub8e8\ubbf8\uc544\uc12c \ubaa8\ub4e0 \uad6c\uc5ed \ub3cc\uc544\ubcf4\uae30",
    "parameter1": "",
    "parameter2": "",
    "parameter3": "",
    "parameter4": "",
    "platform": "PLAYFAB_XBOX",
    "type": "EnterAllArea"
  },
  {
    "accumulate": false,
    "code": 12,
    "count": 100,
    "link": "ms-xbl-72EE054A://default?trackId=12",
    "name": "\uc5f0\uad6c\uc18c \uc9c4\uc785",
    "parameter1": 16,
    "parameter2": "",
    "parameter3": "",
    "parameter4": "",
    "platform": "PLAYFAB_XBOX",
    "type": "EnterArea"
  },
  {
    "accumulate": false,
    "code": 13,
    "count": 100,
    "link": "ms-xbl-72EE054A://default?trackId=13",
    "name": "\uc5f0\uad6c\uc18c\uc5d0\uc11c \uc0ac\ub9dd\ud558\uae30",
    "parameter1": 16,
    "parameter2": "",
    "parameter3": "",
    "parameter4": "",
    "platform": "PLAYFAB_XBOX",
    "type": "Dead"
  },
  {
    "accumulate": false,
    "code": 14,
    "count": 100,
    "link": "ms-xbl-72EE054A://default?trackId=14",
    "name": "\uc6b4\uc11d\uc744 \ub9de\uace0 \uc0b4\uc544\ub0a8\uae30",
    "parameter1": "",
    "parameter2": "",
    "parameter3": "",
    "parameter4": "",
    "platform": "PLAYFAB_XBOX",
    "type": "None"
  },
  {
    "accumulate": false,
    "code": 15,
    "count": 100,
    "link": "ms-xbl-72EE054A://default?trackId=15",
    "name": "\uc6b4\uc11d\uc5d0 \ub9de\uc544 \uc8fd\uae30",
    "parameter1": 0,
    "parameter2": "Meteorite",
    "parameter3": "",
    "parameter4": "",
    "platform": "PLAYFAB_XBOX",
    "type": "Dead"
  },
  {
    "accumulate": true,
    "code": 16,
    "count": 12,
    "link": "ms-xbl-72EE054A://default?trackId=16",
    "name": "\uc6b4\uc11d 9\ubc88 \ub9de\uace0 \uc0b4\uc544\ub0a8\uae30",
    "parameter1": "",
    "parameter2": "",
    "parameter3": "",
    "parameter4": "",
    "platform": "PLAYFAB_XBOX",
    "type": "None"
  },
  {
    "accumulate": false,
    "code": 17,
    "count": 100,
    "link": "ms-xbl-72EE054A://default?trackId=17",
    "name": "\ud55c \uac8c\uc784 \uc548\uc5d0\uc11c \ub2e4\ub978 \uc2e4\ud5d8\uccb4 5\uba85 \ucc98\uce58",
    "parameter1": 0,
    "parameter2": "None",
    "parameter3": 0,
    "parameter4": 5,
    "platform": "PLAYFAB_XBOX",
    "type": "KillPlayer"
  },
  {
    "accumulate": false,
    "code": 18,
    "count": 100,
    "link": "ms-xbl-72EE054A://default?trackId=18",
    "name": "\ud55c \uac8c\uc784 \uc548\uc5d0\uc11c \ub2e4\ub978 \uc2e4\ud5d8\uccb4 10\uba85 \ucc98\uce58",
    "parameter1": 0,
    "parameter2": "None",
    "parameter3": 0,
    "parameter4": 10,
    "platform": "PLAYFAB_XBOX",
    "type": "KillPlayer"
  },
  {
    "accumulate": true,
    "code": 19,
    "count": 1,
    "link": "ms-xbl-72EE054A://default?trackId=19",
    "name": "\uc0c1\uc790\ub97c \ucd1d 100\ubc88 \ud0d0\uc0c9 \ud558\uae30",
    "parameter1": "",
    "parameter2": "",
    "parameter3": "",
    "parameter4": "",
    "platform": "PLAYFAB_XBOX",
    "type": "OpenBox"
  },
  {
    "accumulate": true,
    "code": 20,
    "count": 2,
    "link": "ms-xbl-72EE054A://default?trackId=20",
    "name": "CCTV\ub97c \ucd1d 50\ubc88 \ud65c\uc131\ud654",
    "parameter1": "",
    "parameter2": "",
    "parameter3": "",
    "parameter4": "",
    "platform": "PLAYFAB_XBOX",
    "type": "UseCCTV"
  },
  {
    "accumulate": true,
    "code": 21,
    "count": 2,
    "link": "ms-xbl-72EE054A://default?trackId=21",
    "name": "\ud558\uc774\ud37c\ub8e8\ud504\ub85c \ucd1d 50\ubc88 \uc774\ub3d9 \ud558\uae30",
    "parameter1": "",
    "parameter2": "",
    "parameter3": "",
    "parameter4": "",
    "platform": "PLAYFAB_XBOX",
    "type": "UseHyperLoop"
  },
  {
    "accumulate": false,
    "code": 22,
    "count": 100,
    "link": "ms-xbl-72EE054A://default?trackId=22",
    "name": "\uc0dd\uba85\uc758 \ub098\ubb34 \ud68d\ub4dd\ud558\uae30",
    "parameter1": 401208,
    "parameter2": "",
    "parameter3": "",
    "parameter4": "",
    "platform": "PLAYFAB_XBOX",
    "type": "None"
  },
  {
    "accumulate": false,
    "code": 23,
    "count": 100,
    "link": "ms-xbl-72EE054A://default?trackId=23",
    "name": "\uc6b4\uc11d \ud68d\ub4dd\ud558\uae30",
    "parameter1": 401209,
    "parameter2": "",
    "parameter3": "",
    "parameter4": "",
    "platform": "PLAYFAB_XBOX",
    "type": "None"
  },
  {
    "accumulate": false,
    "code": 24,
    "count": 100,
    "link": "ms-xbl-72EE054A://default?trackId=24",
    "name": "\ud55c \uac8c\uc784 \uc548\uc5d0\uc11c \uc57c\uc0dd\ub3d9\ubb3c \uc885\ub958\ubcc4\ub85c \uc0ac\ub0e5 \ud558\uae30",
    "parameter1": "",
    "parameter2": "",
    "parameter3": "",
    "parameter4": "",
    "platform": "PLAYFAB_XBOX",
    "type": "KillAllMonsters"
  },
  {
    "accumulate": true,
    "code": 25,
    "count": 1,
    "link": "ms-xbl-72EE054A://default?trackId=25",
    "name": "\uc74c\uc2dd/\uc74c\ub8cc\ub97c \ucd1d 100\ubc88 \uba39\uae30",
    "parameter1": "",
    "parameter2": "",
    "parameter3": "",
    "parameter4": "",
    "platform": "PLAYFAB_XBOX",
    "type": "UseFoodAndBeverage"
  },
  {
    "accumulate": false,
    "code": 26,
    "count": 100,
    "link": "ms-xbl-72EE054A://default?trackId=26",
    "name": "\uae08\uc9c0\uad6c\uc5ed\uc5d0\uc11c \ud3ed\uc0ac \ud558\uae30",
    "parameter1": 0,
    "parameter2": "RedZone",
    "parameter3": "",
    "parameter4": "",
    "platform": "PLAYFAB_XBOX",
    "type": "Dead"
  },
  {
    "accumulate": false,
    "code": 27,
    "count": 100,
    "link": "ms-xbl-72EE054A://default?trackId=27",
    "name": "\ubaa8\ub4e0 \ud29c\ud1a0\ub9ac\uc5bc \uc644\ub8cc",
    "parameter1": "",
    "parameter2": "",
    "parameter3": "",
    "parameter4": "",
    "platform": "PLAYFAB_XBOX",
    "type": "CompleteAllTutorial"
  },
  {
    "accumulate": true,
    "code": 28,
    "count": 34,
    "link": "ms-xbl-72EE054A://default?trackId=28",
    "name": "\uc624\ub298\uc758 \ub3c4\uc804 \ucd1d 3\ud68c \uc644\ub8cc",
    "parameter1": "",
    "parameter2": "",
    "parameter3": "",
    "parameter4": "",
    "platform": "PLAYFAB_XBOX",
    "type": "CompleteDailyMission"
  },
  {
    "accumulate": true,
    "code": 29,
    "count": 5,
    "link": "ms-xbl-72EE054A://default?trackId=29",
    "name": "\uc624\ub298\uc758 \ub3c4\uc804 \ucd1d 20\ud68c \uc644\ub8cc",
    "parameter1": "",
    "parameter2": "",
    "parameter3": "",
    "parameter4": "",
    "platform": "PLAYFAB_XBOX",
    "type": "CompleteDailyMission"
  },
  {
    "accumulate": true,
    "code": 30,
    "count": 2,
    "link": "ms-xbl-72EE054A://default?trackId=30",
    "name": "\uc2e4\ud5d8\uc5d0 \ucd1d 50\ud68c \ucc38\uc5ec",
    "parameter1": 99,
    "parameter2": "",
    "parameter3": "",
    "parameter4": "",
    "platform": "PLAYFAB_XBOX",
    "type": "EndGame"
  },
  {
    "accumulate": true,
    "code": 31,
    "count": 1,
    "link": "ms-xbl-72EE054A://default?trackId=31",
    "name": "\uc2e4\ud5d8\uc5d0 \ucd1d 100\ud68c \ucc38\uc5ec",
    "parameter1": 99,
    "parameter2": "",
    "parameter3": "",
    "parameter4": "",
    "platform": "PLAYFAB_XBOX",
    "type": "EndGame"
  },
  {
    "accumulate": false,
    "code": 32,
    "count": 100,
    "link": "ms-xbl-72EE054A://default?trackId=32",
    "name": "\uc704\ud074\ub77c\uc778 \ubc15\uc0ac\uc5d0\uac8c \ud328\ubc30",
    "parameter1": 0,
    "parameter2": "Wickline",
    "parameter3": "",
    "parameter4": "",
    "platform": "PLAYFAB_XBOX",
    "type": "Dead"
  },
  {
    "accumulate": false,
    "code": 33,
    "count": 100,
    "link": "ms-xbl-72EE054A://default?trackId=33",
    "name": "\uc57c\uc0dd\ub3d9\ubb3c\uc5d0\uac8c \ud328\ubc30",
    "parameter1": 0,
    "parameter2": "Monster",
    "parameter3": "",
    "parameter4": "",
    "platform": "PLAYFAB_XBOX",
    "type": "Dead"
  },
  {
    "accumulate": false,
    "code": 34,
    "count": 100,
    "link": "ms-xbl-72EE054A://default?trackId=34",
    "name": "\ud3ed\uc0ac \uce74\uc6b4\ud2b8 1\ucd08 \ub0a8\uae30\uace0 \uc2e4\ud5d8 \uc885\ub8cc",
    "parameter1": 1,
    "parameter2": "",
    "parameter3": "",
    "parameter4": "",
    "platform": "PLAYFAB_XBOX",
    "type": "EndGameInRestrictedTime"
  },
  {
    "accumulate": false,
    "code": 35,
    "count": 100,
    "link": "ms-xbl-72EE054A://default?trackId=35",
    "name": "\ud55c \uac8c\uc784 \uc548\uc5d0\uc11c \ub8e8\ubbf8\uc544\uc12c\uc758 \ubaa8\ub4e0 CCTV \ud65c\uc131\ud654 \ud574\ubcf4\uae30",
    "parameter1": "",
    "parameter2": "",
    "parameter3": "",
    "parameter4": "",
    "platform": "PLAYFAB_XBOX",
    "type": "UseAllCCTV"
  },
  {
    "accumulate": false,
    "code": 36,
    "count": 100,
    "link": "ms-xbl-72EE054A://default?trackId=36",
    "name": "\ud56d\uad6c\uc5d0\uc11c \ub2e4\ub978 \uc2e4\ud5d8\uccb4 \ucc98\uce58",
    "parameter1": 1,
    "parameter2": "",
    "parameter3": "",
    "parameter4": "",
    "platform": "PLAYFAB_XBOX",
    "type": "KillPlayer"
  },
  {
    "accumulate": false,
    "code": 37,
    "count": 100,
    "link": "ms-xbl-72EE054A://default?trackId=37",
    "name": "\ud56d\uad6c\uc5d0\uc11c \uc0ac\ub9dd",
    "parameter1": 1,
    "parameter2": "",
    "parameter3": "",
    "parameter4": "",
    "platform": "PLAYFAB_XBOX",
    "type": "Dead"
  },
  {
    "accumulate": false,
    "code": 38,
    "count": 100,
    "link": "ms-xbl-72EE054A://default?trackId=38",
    "name": "\uc5f0\ubabb\uc5d0\uc11c \ub2e4\ub978 \uc2e4\ud5d8\uccb4 \ucc98\uce58",
    "parameter1": 2,
    "parameter2": "",
    "parameter3": "",
    "parameter4": "",
    "platform": "PLAYFAB_XBOX",
    "type": "KillPlayer"
  },
  {
    "accumulate": false,
    "code": 39,
    "count": 100,
    "link": "ms-xbl-72EE054A://default?trackId=39",
    "name": "\uc5f0\ubabb\uc5d0\uc11c \uc0ac\ub9dd",
    "parameter1": 2,
    "parameter2": "",
    "parameter3": "",
    "parameter4": "",
    "platform": "PLAYFAB_XBOX",
    "type": "Dead"
  },
  {
    "accumulate": false,
    "code": 40,
    "count": 100,
    "link": "ms-xbl-72EE054A://default?trackId=40",
    "name": "\ubaa8\ub798\uc0ac\uc7a5\uc5d0\uc11c \ub2e4\ub978 \uc2e4\ud5d8\uccb4 \ucc98\uce58",
    "parameter1": 3,
    "parameter2": "",
    "parameter3": "",
    "parameter4": "",
    "platform": "PLAYFAB_XBOX",
    "type": "KillPlayer"
  },
  {
    "accumulate": false,
    "code": 41,
    "count": 100,
    "link": "ms-xbl-72EE054A://default?trackId=41",
    "name": "\ubaa8\ub798\uc0ac\uc7a5\uc5d0\uc11c \uc0ac\ub9dd",
    "parameter1": 3,
    "parameter2": "",
    "parameter3": "",
    "parameter4": "",
    "platform": "PLAYFAB_XBOX",
    "type": "Dead"
  },
  {
    "accumulate": false,
    "code": 42,
    "count": 100,
    "link": "ms-xbl-72EE054A://default?trackId=42",
    "name": "\uace0\uae09\uc8fc\ud0dd\uac00\uc5d0\uc11c \ub2e4\ub978 \uc2e4\ud5d8\uccb4 \ucc98\uce58",
    "parameter1": 4,
    "parameter2": "",
    "parameter3": "",
    "parameter4": "",
    "platform": "PLAYFAB_XBOX",
    "type": "KillPlayer"
  },
  {
    "accumulate": false,
    "code": 43,
    "count": 100,
    "link": "ms-xbl-72EE054A://default?trackId=43",
    "name": "\uace0\uae09\uc8fc\ud0dd\uac00\uc5d0\uc11c \uc0ac\ub9dd",
    "parameter1": 4,
    "parameter2": "",
    "parameter3": "",
    "parameter4": "",
    "platform": "PLAYFAB_XBOX",
    "type": "Dead"
  },
  {
    "accumulate": false,
    "code": 44,
    "count": 100,
    "link": "ms-xbl-72EE054A://default?trackId=44",
    "name": "\uace8\ubaa9\uae38\uc5d0\uc11c \ub2e4\ub978 \uc2e4\ud5d8\uccb4 \ucc98\uce58",
    "parameter1": 5,
    "parameter2": "",
    "parameter3": "",
    "parameter4": "",
    "platform": "PLAYFAB_XBOX",
    "type": "KillPlayer"
  },
  {
    "accumulate": false,
    "code": 45,
    "count": 100,
    "link": "ms-xbl-72EE054A://default?trackId=45",
    "name": "\uace8\ubaa9\uae38\uc5d0\uc11c \uc0ac\ub9dd",
    "parameter1": 5,
    "parameter2": "",
    "parameter3": "",
    "parameter4": "",
    "platform": "PLAYFAB_XBOX",
    "type": "Dead"
  },
  {
    "accumulate": false,
    "code": 46,
    "count": 100,
    "link": "ms-xbl-72EE054A://default?trackId=46",
    "name": "\ud638\ud154\uc5d0\uc11c \ub2e4\ub978 \uc2e4\ud5d8\uccb4 \ucc98\uce58",
    "parameter1": 6,
    "parameter2": "",
    "parameter3": "",
    "parameter4": "",
    "platform": "PLAYFAB_XBOX",
    "type": "KillPlayer"
  },
  {
    "accumulate": false,
    "code": 47,
    "count": 100,
    "link": "ms-xbl-72EE054A://default?trackId=47",
    "name": "\ud638\ud154\uc5d0\uc11c \uc0ac\ub9dd",
    "parameter1": 6,
    "parameter2": "",
    "parameter3": "",
    "parameter4": "",
    "platform": "PLAYFAB_XBOX",
    "type": "Dead"
  },
  {
    "accumulate": false,
    "code": 48,
    "count": 100,
    "link": "ms-xbl-72EE054A://default?trackId=48",
    "name": "\ubc88\ud654\uac00\uc5d0\uc11c \ub2e4\ub978 \uc2e4\ud5d8\uccb4 \ucc98\uce58",
    "parameter1": 7,
    "parameter2": "",
    "parameter3": "",
    "parameter4": "",
    "platform": "PLAYFAB_XBOX",
    "type": "KillPlayer"
  },
  {
    "accumulate": false,
    "code": 49,
    "count": 100,
    "link": "ms-xbl-72EE054A://default?trackId=49",
    "name": "\ubc88\ud654\uac00\uc5d0\uc11c \uc0ac\ub9dd",
    "parameter1": 7,
    "parameter2": "",
    "parameter3": "",
    "parameter4": "",
    "platform": "PLAYFAB_XBOX",
    "type": "Dead"
  },
  {
    "accumulate": false,
    "code": 50,
    "count": 100,
    "link": "ms-xbl-72EE054A://default?trackId=50",
    "name": "\ubcd1\uc6d0\uc5d0\uc11c \ub2e4\ub978 \uc2e4\ud5d8\uccb4 \ucc98\uce58",
    "parameter1": 8,
    "parameter2": "",
    "parameter3": "",
    "parameter4": "",
    "platform": "PLAYFAB_XBOX",
    "type": "KillPlayer"
  },
  {
    "accumulate": false,
    "code": 51,
    "count": 100,
    "link": "ms-xbl-72EE054A://default?trackId=51",
    "name": "\ubcd1\uc6d0\uc5d0\uc11c \uc0ac\ub9dd",
    "parameter1": 8,
    "parameter2": "",
    "parameter3": "",
    "parameter4": "",
    "platform": "PLAYFAB_XBOX",
    "type": "Dead"
  },
  {
    "accumulate": false,
    "code": 52,
    "count": 100,
    "link": "ms-xbl-72EE054A://default?trackId=52",
    "name": "\uc808\uc5d0\uc11c \ub2e4\ub978 \uc2e4\ud5d8\uccb4 \ucc98\uce58",
    "parameter1": 9,
    "parameter2": "",
    "parameter3": "",
    "parameter4": "",
    "platform": "PLAYFAB_XBOX",
    "type": "KillPlayer"
  },
  {
    "accumulate": false,
    "code": 53,
    "count": 100,
    "link": "ms-xbl-72EE054A://default?trackId=53",
    "name": "\uc808\uc5d0\uc11c \uc0ac\ub9dd",
    "parameter1": 9,
    "parameter2": "",
    "parameter3": "",
    "parameter4": "",
    "platform": "PLAYFAB_XBOX",
    "type": "Dead"
  },
  {
    "accumulate": false,
    "code": 54,
    "count": 100,
    "link": "ms-xbl-72EE054A://default?trackId=54",
    "name": "\uc591\uad81\uc7a5\uc5d0\uc11c \ub2e4\ub978 \uc2e4\ud5d8\uccb4 \ucc98\uce58",
    "parameter1": 10,
    "parameter2": "",
    "parameter3": "",
    "parameter4": "",
    "platform": "PLAYFAB_XBOX",
    "type": "KillPlayer"
  },
  {
    "accumulate": false,
    "code": 55,
    "count": 100,
    "link": "ms-xbl-72EE054A://default?trackId=55",
    "name": "\uc591\uad81\uc7a5\uc5d0\uc11c \uc0ac\ub9dd",
    "parameter1": 10,
    "parameter2": "",
    "parameter3": "",
    "parameter4": "",
    "platform": "PLAYFAB_XBOX",
    "type": "Dead"
  },
  {
    "accumulate": false,
    "code": 56,
    "count": 100,
    "link": "ms-xbl-72EE054A://default?trackId=56",
    "name": "\ubb18\uc9c0\uc5d0\uc11c \ub2e4\ub978 \uc2e4\ud5d8\uccb4 \ucc98\uce58",
    "parameter1": 11,
    "parameter2": "",
    "parameter3": "",
    "parameter4": "",
    "platform": "PLAYFAB_XBOX",
    "type": "KillPlayer"
  },
  {
    "accumulate": false,
    "code": 57,
    "count": 100,
    "link": "ms-xbl-72EE054A://default?trackId=57",
    "name": "\ubb18\uc9c0\uc5d0\uc11c \uc0ac\ub9dd",
    "parameter1": 11,
    "parameter2": "",
    "parameter3": "",
    "parameter4": "",
    "platform": "PLAYFAB_XBOX",
    "type": "Dead"
  },
  {
    "accumulate": false,
    "code": 58,
    "count": 100,
    "link": "ms-xbl-72EE054A://default?trackId=58",
    "name": "\uc232\uc5d0\uc11c \ub2e4\ub978 \uc2e4\ud5d8\uccb4 \ucc98\uce58",
    "parameter1": 12,
    "parameter2": "",
    "parameter3": "",
    "parameter4": "",
    "platform": "PLAYFAB_XBOX",
    "type": "KillPlayer"
  },
  {
    "accumulate": false,
    "code": 59,
    "count": 100,
    "link": "ms-xbl-72EE054A://default?trackId=59",
    "name": "\uc232\uc5d0\uc11c \uc0ac\ub9dd",
    "parameter1": 12,
    "parameter2": "",
    "parameter3": "",
    "parameter4": "",
    "platform": "PLAYFAB_XBOX",
    "type": "Dead"
  },
  {
    "accumulate": false,
    "code": 60,
    "count": 100,
    "link": "ms-xbl-72EE054A://default?trackId=60",
    "name": "\uacf5\uc7a5\uc5d0\uc11c \ub2e4\ub978 \uc2e4\ud5d8\uccb4 \ucc98\uce58",
    "parameter1": 13,
    "parameter2": "",
    "parameter3": "",
    "parameter4": "",
    "platform": "PLAYFAB_XBOX",
    "type": "KillPlayer"
  },
  {
    "accumulate": false,
    "code": 61,
    "count": 100,
    "link": "ms-xbl-72EE054A://default?trackId=61",
    "name": "\uacf5\uc7a5\uc5d0\uc11c \uc0ac\ub9dd",
    "parameter1": 13,
    "parameter2": "",
    "parameter3": "",
    "parameter4": "",
    "platform": "PLAYFAB_XBOX",
    "type": "Dead"
  },
  {
    "accumulate": false,
    "code": 62,
    "count": 100,
    "link": "ms-xbl-72EE054A://default?trackId=62",
    "name": "\uc131\ub2f9\uc5d0\uc11c \ub2e4\ub978 \uc2e4\ud5d8\uccb4 \ucc98\uce58",
    "parameter1": 14,
    "parameter2": "",
    "parameter3": "",
    "parameter4": "",
    "platform": "PLAYFAB_XBOX",
    "type": "KillPlayer"
  },
  {
    "accumulate": false,
    "code": 63,
    "count": 100,
    "link": "ms-xbl-72EE054A://default?trackId=63",
    "name": "\uc131\ub2f9\uc5d0\uc11c \uc0ac\ub9dd",
    "parameter1": 14,
    "parameter2": "",
    "parameter3": "",
    "parameter4": "",
    "platform": "PLAYFAB_XBOX",
    "type": "Dead"
  },
  {
    "accumulate": false,
    "code": 64,
    "count": 100,
    "link": "ms-xbl-72EE054A://default?trackId=64",
    "name": "\ud559\uad50\uc5d0\uc11c \ub2e4\ub978 \uc2e4\ud5d8\uccb4 \ucc98\uce58",
    "parameter1": 15,
    "parameter2": "",
    "parameter3": "",
    "parameter4": "",
    "platform": "PLAYFAB_XBOX",
    "type": "KillPlayer"
  },
  {
    "accumulate": false,
    "code": 65,
    "count": 100,
    "link": "ms-xbl-72EE054A://default?trackId=65",
    "name": "\ud559\uad50\uc5d0\uc11c \uc0ac\ub9dd",
    "parameter1": 15,
    "parameter2": "",
    "parameter3": "",
    "parameter4": "",
    "platform": "PLAYFAB_XBOX",
    "type": "Dead"
  },
  {
    "accumulate": false,
    "code": 66,
    "count": 100,
    "link": "ms-xbl-72EE054A://default?trackId=66",
    "name": "\ud2b8\ub7a9\uc73c\ub85c \ub2e4\ub978 \uc2e4\ud5d8\uccb4 \ucc98\uce58",
    "parameter1": 0,
    "parameter2": "Trap",
    "parameter3": "",
    "parameter4": "",
    "platform": "PLAYFAB_XBOX",
    "type": "KillPlayer"
  },
  {
    "accumulate": false,
    "code": 67,
    "count": 100,
    "link": "ms-xbl-72EE054A://default?trackId=67",
    "name": "\ud2b8\ub7a9\uc5d0 \uac78\ub824 \uc0ac\ub9dd",
    "parameter1": 0,
    "parameter2": "Trap",
    "parameter3": "",
    "parameter4": "",
    "platform": "PLAYFAB_XBOX",
    "type": "Dead"
  },
  {
    "accumulate": false,
    "code": 68,
    "count": 100,
    "link": "ms-xbl-72EE054A://default?trackId=68",
    "name": "\ud55c \uac8c\uc784 \uc548\uc5d0\uc11c \uc81c\uc791 \uc219\ub828\ub3c4 20 \uc62c\ub9ac\uae30",
    "parameter1": 20,
    "parameter2": "Craft",
    "parameter3": "",
    "parameter4": "",
    "platform": "PLAYFAB_XBOX",
    "type": "CompleteMastery"
  },
  {
    "accumulate": false,
    "code": 69,
    "count": 100,
    "link": "ms-xbl-72EE054A://default?trackId=69",
    "name": "\uc194\ub85c 0\ud0ac \uc6b0\uc2b9",
    "parameter1": 1,
    "parameter2": "Solo",
    "parameter3": 0,
    "parameter4": "",
    "platform": "PLAYFAB_XBOX",
    "type": "EndGame"
  },
  {
    "accumulate": false,
    "code": 70,
    "count": 100,
    "link": "ms-xbl-72EE054A://default?trackId=70",
    "name": "\uc0dd\uc874\uc790\uc5d0\uac8c \uac00\ud55c \ud53c\ud574 0\uc73c\ub85c \uc6b0\uc2b9\ud558\uae30",
    "parameter1": 1,
    "parameter2": "None",
    "parameter3": 0,
    "parameter4": 0,
    "platform": "PLAYFAB_XBOX",
    "type": "None"
  },
  {
    "accumulate": false,
    "code": 71,
    "count": 100,
    "link": "ms-xbl-72EE054A://default?trackId=71",
    "name": "\uac8c\uc784 \uc2dc\uc791 \ud6c4 86\ucd08 \uc548\uc5d0 \uc2e4\ud5d8\uccb4 \ucc98\uce58\ud558\uae30",
    "parameter1": 0,
    "parameter2": "None",
    "parameter3": 86,
    "parameter4": "",
    "platform": "PLAYFAB_XBOX",
    "type": "KillPlayer"
  },
  {
    "accumulate": false,
    "code": 72,
    "count": 100,
    "link": "ms-xbl-72EE054A://default?trackId=72",
    "name": "\uac8c\uc784 \uc2dc\uc791 15\ucd08 \ub0b4\uc5d0 \uc0ac\ub9dd\ud558\uae30",
    "parameter1": 0,
    "parameter2": "None",
    "parameter3": 15,
    "parameter4": "",
    "platform": "PLAYFAB_XBOX",
    "type": "Dead"
  },
  {
    "accumulate": false,
    "code": 73,
    "count": 100,
    "link": "ms-xbl-72EE054A://default?trackId=73",
    "name": "\ud55c \uac8c\uc784 \uc548\uc5d0\uc11c \ub0a0 \uc8fd\uc778 \uc560\ub97c, \ubd80\ud65c \ud574\uc11c \ucc98\uce58\ud558\uae30",
    "parameter1": "",
    "parameter2": "",
    "parameter3": "",
    "parameter4": "",
    "platform": "PLAYFAB_XBOX",
    "type": "DoRevenge"
  },
  {
    "accumulate": false,
    "code": 74,
    "count": 100,
    "link": "ms-xbl-72EE054A://default?trackId=74",
    "name": "\ud55c \uac8c\uc784 \uc548\uc5d0\uc11c \ub0b4\uac00 \ucc98\uce58\ud588\ub358 \uc2e4\ud5d8\uccb4, \ub610 \uc8fd\uc774\uae30",
    "parameter1": "",
    "parameter2": "",
    "parameter3": "",
    "parameter4": "",
    "platform": "PLAYFAB_XBOX",
    "type": "KillPlayerAgain"
  },
  {
    "accumulate": false,
    "code": 75,
    "count": 100,
    "link": "ms-xbl-72EE054A://default?trackId=75",
    "name": "\ud55c \uac8c\uc784 \uc548\uc5d0\uc11c \ubd80\ud65c 3\ubc88 \ud558\uae30",
    "parameter1": 3,
    "parameter2": "",
    "parameter3": "",
    "parameter4": "",
    "platform": "PLAYFAB_XBOX",
    "type": "DoResurrection"
  }
]