[
  {
    "actionWaitTime": 0,
    "castingAnimTrigger": "sleep",
    "castingBarImgName": "",
    "code": 11,
    "effectCancelCondition": "DamageAndNotControl",
    "sp": 0,
    "time": 0.1,
    "type": "ToRest"
  },
  {
    "actionWaitTime": 0,
    "castingAnimTrigger": "",
    "castingBarImgName": "",
    "code": 12,
    "effectCancelCondition": "DamageAndNotControl",
    "sp": 0,
    "time": 1,
    "type": "ToSearch"
  },
  {
    "actionWaitTime": 0,
    "castingAnimTrigger": "awake",
    "castingBarImgName": "",
    "code": 13,
    "effectCancelCondition": "NonStop",
    "sp": 0,
    "time": 0.3,
    "type": "ToBattle"
  },
  {
    "actionWaitTime": 0.25,
    "castingAnimTrigger": "airDropOpen",
    "castingBarImgName": "",
    "code": 21,
    "effectCancelCondition": "NotControl",
    "sp": 40,
    "time": 3,
    "type": "AirSupplyOpen"
  },
  {
    "actionWaitTime": 0.25,
    "castingAnimTrigger": "collect",
    "castingBarImgName": "",
    "code": 22,
    "effectCancelCondition": "NotControl",
    "sp": 40,
    "time": 3,
    "type": "CollectibleOpen"
  },
  {
    "actionWaitTime": 0,
    "castingAnimTrigger": "",
    "castingBarImgName": "",
    "code": 23,
    "effectCancelCondition": "DamageAndNotControl",
    "sp": 5,
    "time": 0,
    "type": "BoxOpen"
  },
  {
    "actionWaitTime": 0.15,
    "castingAnimTrigger": "collectWater",
    "castingBarImgName": "",
    "code": 24,
    "effectCancelCondition": "NotControl",
    "sp": 40,
    "time": 1,
    "type": "CollectibleOpenWater"
  },
  {
    "actionWaitTime": 0.15,
    "castingAnimTrigger": "collectWood",
    "castingBarImgName": "",
    "code": 25,
    "effectCancelCondition": "NotControl",
    "sp": 40,
    "time": 1.5,
    "type": "CollectibleOpenWood"
  },
  {
    "actionWaitTime": 0.15,
    "castingAnimTrigger": "collectStone",
    "castingBarImgName": "",
    "code": 26,
    "effectCancelCondition": "NotControl",
    "sp": 40,
    "time": 1.5,
    "type": "CollectibleOpenStone"
  },
  {
    "actionWaitTime": 0.15,
    "castingAnimTrigger": "fishing",
    "castingBarImgName": "",
    "code": 27,
    "effectCancelCondition": "NotControl",
    "sp": 40,
    "time": 1.5,
    "type": "CollectibleOpenSeaFish"
  },
  {
    "actionWaitTime": 0.15,
    "castingAnimTrigger": "fishing",
    "castingBarImgName": "",
    "code": 28,
    "effectCancelCondition": "NotControl",
    "sp": 40,
    "time": 1.5,
    "type": "CollectibleOpenFreshWaterFish"
  },
  {
    "actionWaitTime": 0.15,
    "castingAnimTrigger": "collect",
    "castingBarImgName": "",
    "code": 29,
    "effectCancelCondition": "NotControl",
    "sp": 40,
    "time": 1.5,
    "type": "CollectibleOpenPotato"
  },
  {
    "actionWaitTime": 0.25,
    "castingAnimTrigger": "collectWood",
    "castingBarImgName": "",
    "code": 30,
    "effectCancelCondition": "NotControl",
    "sp": 40,
    "time": 7,
    "type": "CollectibleOpenTreeOfLife"
  },
  {
    "actionWaitTime": 0.25,
    "castingAnimTrigger": "collectStone",
    "castingBarImgName": "",
    "code": 31,
    "effectCancelCondition": "NotControl",
    "sp": 40,
    "time": 7,
    "type": "CollectibleOpenMeteorite"
  },
  {
    "actionWaitTime": 0,
    "castingAnimTrigger": "",
    "castingBarImgName": "",
    "code": 41,
    "effectCancelCondition": "NotControl",
    "sp": 5,
    "time": 1.2,
    "type": "CraftCommon"
  },
  {
    "actionWaitTime": 0,
    "castingAnimTrigger": "",
    "castingBarImgName": "",
    "code": 42,
    "effectCancelCondition": "NotControl",
    "sp": 5,
    "time": 1.2,
    "type": "CraftUncommon"
  },
  {
    "actionWaitTime": 0.15,
    "castingAnimTrigger": "",
    "castingBarImgName": "",
    "code": 43,
    "effectCancelCondition": "NotControl",
    "sp": 5,
    "time": 2,
    "type": "CraftRare"
  },
  {
    "actionWaitTime": 0.25,
    "castingAnimTrigger": "",
    "castingBarImgName": "",
    "code": 44,
    "effectCancelCondition": "NotControl",
    "sp": 10,
    "time": 4,
    "type": "CraftEpic"
  },
  {
    "actionWaitTime": 0.25,
    "castingAnimTrigger": "",
    "castingBarImgName": "",
    "code": 45,
    "effectCancelCondition": "NotControl",
    "sp": 10,
    "time": 5.5,
    "type": "CraftLegend"
  },
  {
    "actionWaitTime": 0,
    "castingAnimTrigger": "",
    "castingBarImgName": "",
    "code": 46,
    "effectCancelCondition": "NotControl",
    "sp": 5,
    "time": 1,
    "type": "CraftCommonFood"
  },
  {
    "actionWaitTime": 0,
    "castingAnimTrigger": "",
    "castingBarImgName": "",
    "code": 47,
    "effectCancelCondition": "NotControl",
    "sp": 5,
    "time": 1,
    "type": "CraftUncommonFood"
  },
  {
    "actionWaitTime": 0.15,
    "castingAnimTrigger": "",
    "castingBarImgName": "",
    "code": 48,
    "effectCancelCondition": "NotControl",
    "sp": 5,
    "time": 2,
    "type": "CraftRareFood"
  },
  {
    "actionWaitTime": 0.25,
    "castingAnimTrigger": "",
    "castingBarImgName": "",
    "code": 49,
    "effectCancelCondition": "NotControl",
    "sp": 10,
    "time": 3.5,
    "type": "CraftEpicFood"
  },
  {
    "actionWaitTime": 0.25,
    "castingAnimTrigger": "",
    "castingBarImgName": "",
    "code": 50,
    "effectCancelCondition": "NotControl",
    "sp": 10,
    "time": 5,
    "type": "CraftLegendFood"
  },
  {
    "actionWaitTime": 0.25,
    "castingAnimTrigger": "tSecurityCameraAction",
    "castingBarImgName": "",
    "code": 51,
    "effectCancelCondition": "NotControl",
    "sp": 50,
    "time": 3,
    "type": "AreaSecurityCameraSight"
  },
  {
    "actionWaitTime": 0.25,
    "castingAnimTrigger": "tRemoteCameraAction",
    "castingBarImgName": "",
    "code": 52,
    "effectCancelCondition": "NotControl",
    "sp": 100,
    "time": 4,
    "type": "RemoteSecurityCameraSight"
  },
  {
    "actionWaitTime": 0,
    "castingAnimTrigger": "tBackdoorAction",
    "castingBarImgName": "",
    "code": 53,
    "effectCancelCondition": "NotControl",
    "sp": 100,
    "time": 5,
    "type": "HackingBackdoor"
  },
  {
    "actionWaitTime": 0,
    "castingAnimTrigger": "tExclusiveAction",
    "castingBarImgName": "",
    "code": 54,
    "effectCancelCondition": "NotControl",
    "sp": 100,
    "time": 5,
    "type": "HackingExclusiveControl"
  },
  {
    "actionWaitTime": 0,
    "castingAnimTrigger": "tShutdownAction",
    "castingBarImgName": "",
    "code": 55,
    "effectCancelCondition": "NotControl",
    "sp": 150,
    "time": 6,
    "type": "HackingShutdown"
  },
  {
    "actionWaitTime": 0,
    "castingAnimTrigger": "tTeleportAction",
    "castingBarImgName": "",
    "code": 61,
    "effectCancelCondition": "NotControl",
    "sp": 100,
    "time": 3,
    "type": "Hyperloop"
  },
  {
    "actionWaitTime": 0.15,
    "castingAnimTrigger": "tTrapInstall",
    "castingBarImgName": "",
    "code": 71,
    "effectCancelCondition": "NotControl",
    "sp": 30,
    "time": 0.7,
    "type": "InstallTrap"
  },
  {
    "actionWaitTime": 0.25,
    "castingAnimTrigger": "tResurrect",
    "castingBarImgName": "",
    "code": 81,
    "effectCancelCondition": "NotControl",
    "sp": 0,
    "time": 5,
    "type": "Resurrect"
  },
  {
    "actionWaitTime": 0,
    "castingAnimTrigger": "",
    "castingBarImgName": "",
    "code": 82,
    "effectCancelCondition": "NonStop",
    "sp": 0,
    "time": 5,
    "type": "Resurrected"
  },
  {
    "actionWaitTime": 0,
    "castingAnimTrigger": "tResurrect",
    "castingBarImgName": "",
    "code": 91,
    "effectCancelCondition": "DamageAndNotControl",
    "sp": 0,
    "time": 3,
    "type": "RetrieveBracelet"
  },
  {
    "actionWaitTime": 0,
    "castingAnimTrigger": "tTeleportAction",
    "castingBarImgName": "",
    "code": 92,
    "effectCancelCondition": "DamageAndNotControl",
    "sp": 0,
    "time": 3,
    "type": "ResurrectionConsole"
  },
  {
    "actionWaitTime": 0,
    "castingAnimTrigger": "",
    "castingBarImgName": "",
    "code": 93,
    "effectCancelCondition": "NonStop",
    "sp": 0,
    "time": 3,
    "type": "AutoResurrection"
  },
  {
    "actionWaitTime": 0.15,
    "castingAnimTrigger": "collect",
    "castingBarImgName": "",
    "code": 94,
    "effectCancelCondition": "NotControl",
    "sp": 40,
    "time": 1.5,
    "type": "CollectibleOpenFlower"
  },
  {
    "actionWaitTime": 0.25,
    "castingAnimTrigger": "airDropOpen",
    "castingBarImgName": "",
    "code": 95,
    "effectCancelCondition": "NotControl",
    "sp": 40,
    "time": 3,
    "type": "TransferSupplyBoxOpen"
  },
  {
    "actionWaitTime": 0,
    "castingAnimTrigger": "",
    "castingBarImgName": "",
    "code": 96,
    "effectCancelCondition": "DamageAndNotControl",
    "sp": 0,
    "time": 0,
    "type": "ItemShredderOpen"
  },
  {
    "actionWaitTime": 0,
    "castingAnimTrigger": "",
    "castingBarImgName": "",
    "code": 97,
    "effectCancelCondition": "NonStop",
    "sp": 0,
    "time": 4,
    "type": "EscapeTriggerObject"
  },
  {
    "actionWaitTime": 0,
    "castingAnimTrigger": "tSecurityCameraAction",
    "castingBarImgName": "",
    "code": 98,
    "effectCancelCondition": "DamageAndNotControl",
    "sp": 0,
    "time": 5,
    "type": "EscapeObject"
  },
  {
    "actionWaitTime": 0,
    "castingAnimTrigger": "tResurrect",
    "castingBarImgName": "",
    "code": 100,
    "effectCancelCondition": "DamageAndNotControl",
    "sp": 0,
    "time": 1,
    "type": "RetrieveEscapeMaterial"
  },
  {
    "actionWaitTime": 0,
    "castingAnimTrigger": "",
    "castingBarImgName": "Img_HyperloopGauge_Escape",
    "code": 101,
    "effectCancelCondition": "NonStop",
    "sp": 0,
    "time": 3,
    "type": "TeleportToTeamMemberInAreaAttributes"
  },
  {
    "actionWaitTime": 0,
    "castingAnimTrigger": "tTeleportAction",
    "castingBarImgName": "",
    "code": 102,
    "effectCancelCondition": "NotControl",
    "sp": 100,
    "time": 3,
    "type": "HyperloopToTeammate"
  },
  {
    "actionWaitTime": 0.15,
    "castingAnimTrigger": "tSecurityCameraAction",
    "castingBarImgName": "",
    "code": 2101,
    "effectCancelCondition": "NotControl",
    "sp": 0,
    "time": 3,
    "type": "TakeOverTurbine"
  },
  {
    "actionWaitTime": 0,
    "castingAnimTrigger": "",
    "castingBarImgName": "",
    "code": 2102,
    "effectCancelCondition": "DamageAndNotControl",
    "sp": 0,
    "time": 6,
    "type": "CraftMythic"
  },
  {
    "actionWaitTime": 0,
    "castingAnimTrigger": "",
    "castingBarImgName": "",
    "code": 2103,
    "effectCancelCondition": "DamageAndNotControl",
    "sp": 0,
    "time": 6,
    "type": "CraftMythicFood"
  },
  {
    "actionWaitTime": 0,
    "castingAnimTrigger": "airDropOpen",
    "castingBarImgName": "",
    "code": 2104,
    "effectCancelCondition": "DamageAndNotControl",
    "sp": 40,
    "time": 3,
    "type": "CarePackageOpen"
  }
]