[
  {
    "areaType": "Lumia",
    "code": 1,
    "isProvideCollectibleItem": true,
    "maskCode": 10,
    "modeType": 7,
    "name": "Harbor",
    "routeCalcBitCode": 1,
    "startingArea": true
  },
  {
    "areaType": "Lumia",
    "code": 2,
    "isProvideCollectibleItem": true,
    "maskCode": 11,
    "modeType": 7,
    "name": "Pond",
    "routeCalcBitCode": 2,
    "startingArea": true
  },
  {
    "areaType": "Lumia",
    "code": 3,
    "isProvideCollectibleItem": true,
    "maskCode": 12,
    "modeType": 7,
    "name": "SandyBeach",
    "routeCalcBitCode": 4,
    "startingArea": true
  },
  {
    "areaType": "Lumia",
    "code": 4,
    "isProvideCollectibleItem": true,
    "maskCode": 13,
    "modeType": 7,
    "name": "Uptown",
    "routeCalcBitCode": 8,
    "startingArea": true
  },
  {
    "areaType": "Lumia",
    "code": 5,
    "isProvideCollectibleItem": true,
    "maskCode": 14,
    "modeType": 7,
    "name": "Alley",
    "routeCalcBitCode": 16,
    "startingArea": true
  },
  {
    "areaType": "Lumia",
    "code": 6,
    "isProvideCollectibleItem": true,
    "maskCode": 15,
    "modeType": 7,
    "name": "Hotel",
    "routeCalcBitCode": 32,
    "startingArea": true
  },
  {
    "areaType": "Lumia",
    "code": 7,
    "isProvideCollectibleItem": true,
    "maskCode": 16,
    "modeType": 7,
    "name": "Downtown",
    "routeCalcBitCode": 64,
    "startingArea": true
  },
  {
    "areaType": "Lumia",
    "code": 8,
    "isProvideCollectibleItem": true,
    "maskCode": 17,
    "modeType": 7,
    "name": "Hospital",
    "routeCalcBitCode": 128,
    "startingArea": true
  },
  {
    "areaType": "Lumia",
    "code": 9,
    "isProvideCollectibleItem": true,
    "maskCode": 18,
    "modeType": 7,
    "name": "Temple",
    "routeCalcBitCode": 256,
    "startingArea": true
  },
  {
    "areaType": "Lumia",
    "code": 10,
    "isProvideCollectibleItem": true,
    "maskCode": 19,
    "modeType": 7,
    "name": "Archery",
    "routeCalcBitCode": 512,
    "startingArea": true
  },
  {
    "areaType": "Lumia",
    "code": 11,
    "isProvideCollectibleItem": true,
    "maskCode": 20,
    "modeType": 7,
    "name": "Cemetery",
    "routeCalcBitCode": 1024,
    "startingArea": true
  },
  {
    "areaType": "Lumia",
    "code": 12,
    "isProvideCollectibleItem": true,
    "maskCode": 21,
    "modeType": 7,
    "name": "Forest",
    "routeCalcBitCode": 2048,
    "startingArea": true
  },
  {
    "areaType": "Lumia",
    "code": 13,
    "isProvideCollectibleItem": true,
    "maskCode": 22,
    "modeType": 7,
    "name": "Factory",
    "routeCalcBitCode": 4096,
    "startingArea": true
  },
  {
    "areaType": "Lumia",
    "code": 14,
    "isProvideCollectibleItem": true,
    "maskCode": 23,
    "modeType": 7,
    "name": "Church",
    "routeCalcBitCode": 8192,
    "startingArea": true
  },
  {
    "areaType": "Lumia",
    "code": 15,
    "isProvideCollectibleItem": true,
    "maskCode": 24,
    "modeType": 7,
    "name": "School",
    "routeCalcBitCode": 16384,
    "startingArea": true
  },
  {
    "areaType": "Lumia",
    "code": 16,
    "isProvideCollectibleItem": false,
    "maskCode": 25,
    "modeType": 7,
    "name": "Laboratory",
    "routeCalcBitCode": 0,
    "startingArea": false
  },
  {
    "areaType": "Escape_Wait",
    "code": 17,
    "isProvideCollectibleItem": false,
    "maskCode": 27,
    "modeType": 7,
    "name": "EscapeM",
    "routeCalcBitCode": 0,
    "startingArea": false
  },
  {
    "areaType": "Escape_Boarding",
    "code": 18,
    "isProvideCollectibleItem": false,
    "maskCode": 28,
    "modeType": 7,
    "name": "EscapeA",
    "routeCalcBitCode": 0,
    "startingArea": false
  },
  {
    "areaType": "Escape_Boarding",
    "code": 19,
    "isProvideCollectibleItem": false,
    "maskCode": 29,
    "modeType": 7,
    "name": "EscapeB",
    "routeCalcBitCode": 0,
    "startingArea": false
  },
  {
    "areaType": "Lumia",
    "code": 20,
    "isProvideCollectibleItem": false,
    "maskCode": 30,
    "modeType": 7,
    "name": "BriefingRoom",
    "routeCalcBitCode": 0,
    "startingArea": false
  },
  {
    "areaType": "Cobalt",
    "code": 101,
    "isProvideCollectibleItem": false,
    "maskCode": 3,
    "modeType": 8,
    "name": "Cobalt1",
    "routeCalcBitCode": 0,
    "startingArea": false
  },
  {
    "areaType": "Cobalt",
    "code": 102,
    "isProvideCollectibleItem": false,
    "maskCode": 4,
    "modeType": 8,
    "name": "Cobalt2",
    "routeCalcBitCode": 0,
    "startingArea": false
  },
  {
    "areaType": "Cobalt",
    "code": 103,
    "isProvideCollectibleItem": false,
    "maskCode": 5,
    "modeType": 8,
    "name": "Cobalt3",
    "routeCalcBitCode": 0,
    "startingArea": false
  },
  {
    "areaType": "Cobalt",
    "code": 104,
    "isProvideCollectibleItem": false,
    "maskCode": 6,
    "modeType": 8,
    "name": "Cobalt4",
    "routeCalcBitCode": 0,
    "startingArea": false
  },
  {
    "areaType": "Cobalt",
    "code": 105,
    "isProvideCollectibleItem": false,
    "maskCode": 7,
    "modeType": 8,
    "name": "Cobalt5",
    "routeCalcBitCode": 0,
    "startingArea": false
  },
  {
    "areaType": "Cobalt",
    "code": 106,
    "isProvideCollectibleItem": false,
    "maskCode": 8,
    "modeType": 8,
    "name": "Cobalt6",
    "routeCalcBitCode": 0,
    "startingArea": false
  },
  {
    "areaType": "Cobalt",
    "code": 107,
    "isProvideCollectibleItem": false,
    "maskCode": 9,
    "modeType": 8,
    "name": "Cobalt7",
    "routeCalcBitCode": 0,
    "startingArea": true
  }
]