[
  {
    "craftSetPoint": 1,
    "easy": "Common",
    "hard": "Common",
    "normal": "Common",
    "pvp": "Common",
    "type": "Food"
  },
  {
    "craftSetPoint": 1,
    "easy": "Common",
    "hard": "Common",
    "normal": "Common",
    "pvp": "Common",
    "type": "Beverage"
  },
  {
    "craftSetPoint": 1,
    "easy": "None",
    "hard": "None",
    "normal": "None",
    "pvp": "None",
    "type": "Food"
  },
  {
    "craftSetPoint": 1,
    "easy": "None",
    "hard": "None",
    "normal": "None",
    "pvp": "None",
    "type": "Beverage"
  },
  {
    "craftSetPoint": 1,
    "easy": "None",
    "hard": "None",
    "normal": "None",
    "pvp": "None",
    "type": "Summon"
  },
  {
    "craftSetPoint": 2,
    "easy": "Common",
    "hard": "Uncommon",
    "normal": "Uncommon",
    "pvp": "Rare",
    "type": "Weapon"
  },
  {
    "craftSetPoint": 2,
    "easy": "Common",
    "hard": "Uncommon",
    "normal": "Uncommon",
    "pvp": "Uncommon",
    "type": "Head"
  },
  {
    "craftSetPoint": 2,
    "easy": "Common",
    "hard": "Uncommon",
    "normal": "Uncommon",
    "pvp": "Uncommon",
    "type": "Chest"
  },
  {
    "craftSetPoint": 2,
    "easy": "Common",
    "hard": "Uncommon",
    "normal": "Uncommon",
    "pvp": "Uncommon",
    "type": "Arm"
  },
  {
    "craftSetPoint": 2,
    "easy": "Common",
    "hard": "Uncommon",
    "normal": "Uncommon",
    "pvp": "Common",
    "type": "Leg"
  },
  {
    "craftSetPoint": 2,
    "easy": "Common",
    "hard": "Uncommon",
    "normal": "Uncommon",
    "pvp": "Uncommon",
    "type": "Trinket"
  },
  {
    "craftSetPoint": 2,
    "easy": "Common",
    "hard": "Common",
    "normal": "Common",
    "pvp": "Common",
    "type": "Food"
  },
  {
    "craftSetPoint": 2,
    "easy": "Common",
    "hard": "Common",
    "normal": "Common",
    "pvp": "None",
    "type": "Beverage"
  },
  {
    "craftSetPoint": 3,
    "easy": "Uncommon",
    "hard": "Rare",
    "normal": "Rare",
    "pvp": "Epic",
    "type": "Weapon"
  },
  {
    "craftSetPoint": 3,
    "easy": "Common",
    "hard": "Rare",
    "normal": "Uncommon",
    "pvp": "Uncommon",
    "type": "Head"
  },
  {
    "craftSetPoint": 3,
    "easy": "Common",
    "hard": "Epic",
    "normal": "Uncommon",
    "pvp": "Rare",
    "type": "Chest"
  },
  {
    "craftSetPoint": 3,
    "easy": "Common",
    "hard": "Epic",
    "normal": "Rare",
    "pvp": "Rare",
    "type": "Arm"
  },
  {
    "craftSetPoint": 3,
    "easy": "Common",
    "hard": "Rare",
    "normal": "Uncommon",
    "pvp": "Rare",
    "type": "Leg"
  },
  {
    "craftSetPoint": 3,
    "easy": "Common",
    "hard": "Rare",
    "normal": "Uncommon",
    "pvp": "Rare",
    "type": "Trinket"
  },
  {
    "craftSetPoint": 3,
    "easy": "Common",
    "hard": "Common",
    "normal": "Common",
    "pvp": "Common",
    "type": "Food"
  },
  {
    "craftSetPoint": 3,
    "easy": "Common",
    "hard": "Uncommon",
    "normal": "Common",
    "pvp": "Uncommon",
    "type": "Beverage"
  },
  {
    "craftSetPoint": 4,
    "easy": "Uncommon",
    "hard": "Epic",
    "normal": "Rare",
    "pvp": "Epic",
    "type": "Weapon"
  },
  {
    "craftSetPoint": 4,
    "easy": "Common",
    "hard": "Rare",
    "normal": "Epic",
    "pvp": "Rare",
    "type": "Head"
  },
  {
    "craftSetPoint": 4,
    "easy": "Common",
    "hard": "Rare",
    "normal": "Rare",
    "pvp": "Rare",
    "type": "Chest"
  },
  {
    "craftSetPoint": 4,
    "easy": "Uncommon",
    "hard": "Epic",
    "normal": "Rare",
    "pvp": "Rare",
    "type": "Arm"
  },
  {
    "craftSetPoint": 4,
    "easy": "Common",
    "hard": "Epic",
    "normal": "Rare",
    "pvp": "Epic",
    "type": "Leg"
  },
  {
    "craftSetPoint": 4,
    "easy": "Common",
    "hard": "Epic",
    "normal": "Rare",
    "pvp": "Epic",
    "type": "Trinket"
  },
  {
    "craftSetPoint": 4,
    "easy": "Common",
    "hard": "Uncommon",
    "normal": "Common",
    "pvp": "Uncommon",
    "type": "Food"
  },
  {
    "craftSetPoint": 4,
    "easy": "Common",
    "hard": "Uncommon",
    "normal": "Uncommon",
    "pvp": "Common",
    "type": "Beverage"
  },
  {
    "craftSetPoint": 5,
    "easy": "Uncommon",
    "hard": "Legend",
    "normal": "Epic",
    "pvp": "Legend",
    "type": "Weapon"
  },
  {
    "craftSetPoint": 5,
    "easy": "Common",
    "hard": "Epic",
    "normal": "Epic",
    "pvp": "Epic",
    "type": "Head"
  },
  {
    "craftSetPoint": 5,
    "easy": "Uncommon",
    "hard": "Rare",
    "normal": "Legend",
    "pvp": "Rare",
    "type": "Chest"
  },
  {
    "craftSetPoint": 5,
    "easy": "Uncommon",
    "hard": "Epic",
    "normal": "Epic",
    "pvp": "Epic",
    "type": "Arm"
  },
  {
    "craftSetPoint": 5,
    "easy": "Common",
    "hard": "Epic",
    "normal": "Epic",
    "pvp": "Epic",
    "type": "Leg"
  },
  {
    "craftSetPoint": 5,
    "easy": "Common",
    "hard": "Epic",
    "normal": "Epic",
    "pvp": "Epic",
    "type": "Trinket"
  },
  {
    "craftSetPoint": 5,
    "easy": "Common",
    "hard": "Rare",
    "normal": "Uncommon",
    "pvp": "Uncommon",
    "type": "Food"
  },
  {
    "craftSetPoint": 5,
    "easy": "Common",
    "hard": "Rare",
    "normal": "Uncommon",
    "pvp": "Common",
    "type": "Beverage"
  },
  {
    "craftSetPoint": 6,
    "easy": "Uncommon",
    "hard": "Epic",
    "normal": "Epic",
    "pvp": "Legend",
    "type": "Weapon"
  },
  {
    "craftSetPoint": 6,
    "easy": "Common",
    "hard": "Epic",
    "normal": "Epic",
    "pvp": "Epic",
    "type": "Head"
  },
  {
    "craftSetPoint": 6,
    "easy": "Uncommon",
    "hard": "Epic",
    "normal": "Legend",
    "pvp": "Epic",
    "type": "Chest"
  },
  {
    "craftSetPoint": 6,
    "easy": "Uncommon",
    "hard": "Legend",
    "normal": "Epic",
    "pvp": "Epic",
    "type": "Arm"
  },
  {
    "craftSetPoint": 6,
    "easy": "Common",
    "hard": "Epic",
    "normal": "Epic",
    "pvp": "Legend",
    "type": "Leg"
  },
  {
    "craftSetPoint": 6,
    "easy": "Common",
    "hard": "Epic",
    "normal": "Epic",
    "pvp": "Epic",
    "type": "Trinket"
  },
  {
    "craftSetPoint": 6,
    "easy": "Common",
    "hard": "Rare",
    "normal": "Uncommon",
    "pvp": "Rare",
    "type": "Food"
  },
  {
    "craftSetPoint": 6,
    "easy": "Common",
    "hard": "Rare",
    "normal": "Uncommon",
    "pvp": "Common",
    "type": "Beverage"
  },
  {
    "craftSetPoint": 11,
    "easy": "Common",
    "hard": "Common",
    "normal": "Common",
    "pvp": "Common",
    "type": "Food"
  },
  {
    "craftSetPoint": 11,
    "easy": "Common",
    "hard": "Common",
    "normal": "Common",
    "pvp": "Common",
    "type": "Beverage"
  },
  {
    "craftSetPoint": 11,
    "easy": "None",
    "hard": "None",
    "normal": "None",
    "pvp": "None",
    "type": "Food"
  },
  {
    "craftSetPoint": 11,
    "easy": "None",
    "hard": "None",
    "normal": "None",
    "pvp": "None",
    "type": "Beverage"
  },
  {
    "craftSetPoint": 11,
    "easy": "None",
    "hard": "None",
    "normal": "None",
    "pvp": "None",
    "type": "Summon"
  },
  {
    "craftSetPoint": 12,
    "easy": "Common",
    "hard": "Uncommon",
    "normal": "Uncommon",
    "pvp": "Uncommon",
    "type": "Weapon"
  },
  {
    "craftSetPoint": 12,
    "easy": "Common",
    "hard": "Uncommon",
    "normal": "Uncommon",
    "pvp": "Uncommon",
    "type": "Head"
  },
  {
    "craftSetPoint": 12,
    "easy": "Common",
    "hard": "Rare",
    "normal": "Uncommon",
    "pvp": "Rare",
    "type": "Chest"
  },
  {
    "craftSetPoint": 12,
    "easy": "Common",
    "hard": "Uncommon",
    "normal": "Uncommon",
    "pvp": "Uncommon",
    "type": "Arm"
  },
  {
    "craftSetPoint": 12,
    "easy": "Common",
    "hard": "Uncommon",
    "normal": "Rare",
    "pvp": "Uncommon",
    "type": "Leg"
  },
  {
    "craftSetPoint": 12,
    "easy": "Common",
    "hard": "Uncommon",
    "normal": "Uncommon",
    "pvp": "Uncommon",
    "type": "Trinket"
  },
  {
    "craftSetPoint": 12,
    "easy": "Common",
    "hard": "Uncommon",
    "normal": "Uncommon",
    "pvp": "Common",
    "type": "Food"
  },
  {
    "craftSetPoint": 12,
    "easy": "Common",
    "hard": "Uncommon",
    "normal": "Uncommon",
    "pvp": "Common",
    "type": "Beverage"
  },
  {
    "craftSetPoint": 13,
    "easy": "Common",
    "hard": "Uncommon",
    "normal": "Rare",
    "pvp": "Uncommon",
    "type": "Weapon"
  },
  {
    "craftSetPoint": 13,
    "easy": "Common",
    "hard": "Rare",
    "normal": "Uncommon",
    "pvp": "Rare",
    "type": "Head"
  },
  {
    "craftSetPoint": 13,
    "easy": "Common",
    "hard": "Epic",
    "normal": "Uncommon",
    "pvp": "Rare",
    "type": "Chest"
  },
  {
    "craftSetPoint": 13,
    "easy": "Common",
    "hard": "Epic",
    "normal": "Rare",
    "pvp": "Epic",
    "type": "Arm"
  },
  {
    "craftSetPoint": 13,
    "easy": "Common",
    "hard": "Rare",
    "normal": "Rare",
    "pvp": "Rare",
    "type": "Leg"
  },
  {
    "craftSetPoint": 13,
    "easy": "Common",
    "hard": "Rare",
    "normal": "Uncommon",
    "pvp": "Rare",
    "type": "Trinket"
  },
  {
    "craftSetPoint": 13,
    "easy": "Common",
    "hard": "Rare",
    "normal": "Uncommon",
    "pvp": "Uncommon",
    "type": "Food"
  },
  {
    "craftSetPoint": 13,
    "easy": "Common",
    "hard": "Rare",
    "normal": "Uncommon",
    "pvp": "Common",
    "type": "Beverage"
  },
  {
    "craftSetPoint": 14,
    "easy": "Uncommon",
    "hard": "Epic",
    "normal": "Rare",
    "pvp": "Rare",
    "type": "Weapon"
  },
  {
    "craftSetPoint": 14,
    "easy": "Common",
    "hard": "Rare",
    "normal": "Epic",
    "pvp": "Rare",
    "type": "Head"
  },
  {
    "craftSetPoint": 14,
    "easy": "Common",
    "hard": "Rare",
    "normal": "Rare",
    "pvp": "Rare",
    "type": "Chest"
  },
  {
    "craftSetPoint": 14,
    "easy": "Common",
    "hard": "Epic",
    "normal": "Rare",
    "pvp": "Epic",
    "type": "Arm"
  },
  {
    "craftSetPoint": 14,
    "easy": "Common",
    "hard": "Rare",
    "normal": "Rare",
    "pvp": "Rare",
    "type": "Leg"
  },
  {
    "craftSetPoint": 14,
    "easy": "Common",
    "hard": "Epic",
    "normal": "Rare",
    "pvp": "Epic",
    "type": "Trinket"
  },
  {
    "craftSetPoint": 14,
    "easy": "Common",
    "hard": "Rare",
    "normal": "Rare",
    "pvp": "Common",
    "type": "Food"
  },
  {
    "craftSetPoint": 14,
    "easy": "Common",
    "hard": "Rare",
    "normal": "Rare",
    "pvp": "Uncommon",
    "type": "Beverage"
  },
  {
    "craftSetPoint": 15,
    "easy": "Uncommon",
    "hard": "Epic",
    "normal": "Epic",
    "pvp": "Rare",
    "type": "Weapon"
  },
  {
    "craftSetPoint": 15,
    "easy": "Common",
    "hard": "Epic",
    "normal": "Epic",
    "pvp": "Epic",
    "type": "Head"
  },
  {
    "craftSetPoint": 15,
    "easy": "Common",
    "hard": "Rare",
    "normal": "Rare",
    "pvp": "Rare",
    "type": "Chest"
  },
  {
    "craftSetPoint": 15,
    "easy": "Common",
    "hard": "Epic",
    "normal": "Epic",
    "pvp": "Epic",
    "type": "Arm"
  },
  {
    "craftSetPoint": 15,
    "easy": "Common",
    "hard": "Rare",
    "normal": "Rare",
    "pvp": "Rare",
    "type": "Leg"
  },
  {
    "craftSetPoint": 15,
    "easy": "Common",
    "hard": "Epic",
    "normal": "Epic",
    "pvp": "Epic",
    "type": "Trinket"
  },
  {
    "craftSetPoint": 15,
    "easy": "Common",
    "hard": "Rare",
    "normal": "Rare",
    "pvp": "Rare",
    "type": "Food"
  },
  {
    "craftSetPoint": 15,
    "easy": "Common",
    "hard": "Rare",
    "normal": "Rare",
    "pvp": "Uncommon",
    "type": "Beverage"
  },
  {
    "craftSetPoint": 15,
    "easy": "Epic",
    "hard": "Epic",
    "normal": "Epic",
    "pvp": "Epic",
    "type": "Material"
  },
  {
    "craftSetPoint": 16,
    "easy": "Uncommon",
    "hard": "Epic",
    "normal": "Epic",
    "pvp": "Epic",
    "type": "Weapon"
  },
  {
    "craftSetPoint": 16,
    "easy": "Common",
    "hard": "Epic",
    "normal": "Epic",
    "pvp": "Epic",
    "type": "Head"
  },
  {
    "craftSetPoint": 16,
    "easy": "Common",
    "hard": "Rare",
    "normal": "Rare",
    "pvp": "Rare",
    "type": "Chest"
  },
  {
    "craftSetPoint": 16,
    "easy": "Uncommon",
    "hard": "Epic",
    "normal": "Rare",
    "pvp": "Epic",
    "type": "Arm"
  },
  {
    "craftSetPoint": 16,
    "easy": "Common",
    "hard": "Epic",
    "normal": "Epic",
    "pvp": "Epic",
    "type": "Leg"
  },
  {
    "craftSetPoint": 16,
    "easy": "Common",
    "hard": "Rare",
    "normal": "Rare",
    "pvp": "Epic",
    "type": "Trinket"
  },
  {
    "craftSetPoint": 16,
    "easy": "Common",
    "hard": "Rare",
    "normal": "Uncommon",
    "pvp": "Uncommon",
    "type": "Food"
  },
  {
    "craftSetPoint": 16,
    "easy": "Common",
    "hard": "Rare",
    "normal": "Uncommon",
    "pvp": "Rare",
    "type": "Beverage"
  },
  {
    "craftSetPoint": 21,
    "easy": "Common",
    "hard": "Common",
    "normal": "Common",
    "pvp": "Common",
    "type": "Food"
  },
  {
    "craftSetPoint": 21,
    "easy": "Common",
    "hard": "Common",
    "normal": "Common",
    "pvp": "Common",
    "type": "Beverage"
  },
  {
    "craftSetPoint": 21,
    "easy": "None",
    "hard": "None",
    "normal": "None",
    "pvp": "None",
    "type": "Food"
  },
  {
    "craftSetPoint": 21,
    "easy": "None",
    "hard": "None",
    "normal": "None",
    "pvp": "None",
    "type": "Beverage"
  },
  {
    "craftSetPoint": 21,
    "easy": "None",
    "hard": "None",
    "normal": "None",
    "pvp": "None",
    "type": "Summon"
  },
  {
    "craftSetPoint": 22,
    "easy": "Common",
    "hard": "Uncommon",
    "normal": "Uncommon",
    "pvp": "Uncommon",
    "type": "Weapon"
  },
  {
    "craftSetPoint": 22,
    "easy": "Common",
    "hard": "Uncommon",
    "normal": "Uncommon",
    "pvp": "Uncommon",
    "type": "Head"
  },
  {
    "craftSetPoint": 22,
    "easy": "Common",
    "hard": "Uncommon",
    "normal": "Uncommon",
    "pvp": "Uncommon",
    "type": "Chest"
  },
  {
    "craftSetPoint": 22,
    "easy": "Common",
    "hard": "Uncommon",
    "normal": "Uncommon",
    "pvp": "Uncommon",
    "type": "Arm"
  },
  {
    "craftSetPoint": 22,
    "easy": "Common",
    "hard": "Uncommon",
    "normal": "Uncommon",
    "pvp": "Uncommon",
    "type": "Leg"
  },
  {
    "craftSetPoint": 22,
    "easy": "Common",
    "hard": "Uncommon",
    "normal": "Uncommon",
    "pvp": "Uncommon",
    "type": "Trinket"
  },
  {
    "craftSetPoint": 22,
    "easy": "Common",
    "hard": "Uncommon",
    "normal": "Uncommon",
    "pvp": "Common",
    "type": "Food"
  },
  {
    "craftSetPoint": 22,
    "easy": "Common",
    "hard": "Common",
    "normal": "Common",
    "pvp": "Uncommon",
    "type": "Beverage"
  },
  {
    "craftSetPoint": 23,
    "easy": "Common",
    "hard": "Uncommon",
    "normal": "Uncommon",
    "pvp": "Rare",
    "type": "Weapon"
  },
  {
    "craftSetPoint": 23,
    "easy": "Common",
    "hard": "Uncommon",
    "normal": "Uncommon",
    "pvp": "Uncommon",
    "type": "Head"
  },
  {
    "craftSetPoint": 23,
    "easy": "Common",
    "hard": "Uncommon",
    "normal": "Uncommon",
    "pvp": "Rare",
    "type": "Chest"
  },
  {
    "craftSetPoint": 23,
    "easy": "Common",
    "hard": "Uncommon",
    "normal": "Uncommon",
    "pvp": "Uncommon",
    "type": "Arm"
  },
  {
    "craftSetPoint": 23,
    "easy": "Common",
    "hard": "Uncommon",
    "normal": "Uncommon",
    "pvp": "Rare",
    "type": "Leg"
  },
  {
    "craftSetPoint": 23,
    "easy": "Common",
    "hard": "Uncommon",
    "normal": "Uncommon",
    "pvp": "Uncommon",
    "type": "Trinket"
  },
  {
    "craftSetPoint": 23,
    "easy": "Common",
    "hard": "Uncommon",
    "normal": "Uncommon",
    "pvp": "Uncommon",
    "type": "Food"
  },
  {
    "craftSetPoint": 23,
    "easy": "Common",
    "hard": "Uncommon",
    "normal": "Uncommon",
    "pvp": "Common",
    "type": "Beverage"
  },
  {
    "craftSetPoint": 24,
    "easy": "Common",
    "hard": "Uncommon",
    "normal": "Uncommon",
    "pvp": "Rare",
    "type": "Weapon"
  },
  {
    "craftSetPoint": 24,
    "easy": "Common",
    "hard": "Rare",
    "normal": "Uncommon",
    "pvp": "Uncommon",
    "type": "Head"
  },
  {
    "craftSetPoint": 24,
    "easy": "Uncommon",
    "hard": "Uncommon",
    "normal": "Uncommon",
    "pvp": "Rare",
    "type": "Chest"
  },
  {
    "craftSetPoint": 24,
    "easy": "Common",
    "hard": "Uncommon",
    "normal": "Uncommon",
    "pvp": "Epic",
    "type": "Arm"
  },
  {
    "craftSetPoint": 24,
    "easy": "Common",
    "hard": "Uncommon",
    "normal": "Uncommon",
    "pvp": "Rare",
    "type": "Leg"
  },
  {
    "craftSetPoint": 24,
    "easy": "Common",
    "hard": "Uncommon",
    "normal": "Uncommon",
    "pvp": "Epic",
    "type": "Trinket"
  },
  {
    "craftSetPoint": 24,
    "easy": "Common",
    "hard": "Uncommon",
    "normal": "Uncommon",
    "pvp": "Uncommon",
    "type": "Food"
  },
  {
    "craftSetPoint": 24,
    "easy": "Common",
    "hard": "Uncommon",
    "normal": "Uncommon",
    "pvp": "Uncommon",
    "type": "Beverage"
  },
  {
    "craftSetPoint": 25,
    "easy": "Common",
    "hard": "Uncommon",
    "normal": "Uncommon",
    "pvp": "Rare",
    "type": "Weapon"
  },
  {
    "craftSetPoint": 25,
    "easy": "Common",
    "hard": "Rare",
    "normal": "Uncommon",
    "pvp": "Epic",
    "type": "Head"
  },
  {
    "craftSetPoint": 25,
    "easy": "Uncommon",
    "hard": "Uncommon",
    "normal": "Uncommon",
    "pvp": "Rare",
    "type": "Chest"
  },
  {
    "craftSetPoint": 25,
    "easy": "Common",
    "hard": "Uncommon",
    "normal": "Uncommon",
    "pvp": "Epic",
    "type": "Arm"
  },
  {
    "craftSetPoint": 25,
    "easy": "Common",
    "hard": "Uncommon",
    "normal": "Uncommon",
    "pvp": "Uncommon",
    "type": "Leg"
  },
  {
    "craftSetPoint": 25,
    "easy": "Common",
    "hard": "Uncommon",
    "normal": "Uncommon",
    "pvp": "Epic",
    "type": "Trinket"
  },
  {
    "craftSetPoint": 25,
    "easy": "Common",
    "hard": "Uncommon",
    "normal": "Uncommon",
    "pvp": "Uncommon",
    "type": "Food"
  },
  {
    "craftSetPoint": 25,
    "easy": "Common",
    "hard": "Uncommon",
    "normal": "Uncommon",
    "pvp": "Uncommon",
    "type": "Beverage"
  },
  {
    "craftSetPoint": 25,
    "easy": "Epic",
    "hard": "Epic",
    "normal": "Epic",
    "pvp": "Epic",
    "type": "Material"
  },
  {
    "craftSetPoint": 26,
    "easy": "Uncommon",
    "hard": "Uncommon",
    "normal": "Uncommon",
    "pvp": "Epic",
    "type": "Weapon"
  },
  {
    "craftSetPoint": 26,
    "easy": "Uncommon",
    "hard": "Rare",
    "normal": "Uncommon",
    "pvp": "Epic",
    "type": "Head"
  },
  {
    "craftSetPoint": 26,
    "easy": "Common",
    "hard": "Uncommon",
    "normal": "Uncommon",
    "pvp": "Rare",
    "type": "Chest"
  },
  {
    "craftSetPoint": 26,
    "easy": "Common",
    "hard": "Uncommon",
    "normal": "Uncommon",
    "pvp": "Epic",
    "type": "Arm"
  },
  {
    "craftSetPoint": 26,
    "easy": "Common",
    "hard": "Uncommon",
    "normal": "Uncommon",
    "pvp": "Epic",
    "type": "Leg"
  },
  {
    "craftSetPoint": 26,
    "easy": "Common",
    "hard": "Uncommon",
    "normal": "Uncommon",
    "pvp": "Epic",
    "type": "Trinket"
  },
  {
    "craftSetPoint": 26,
    "easy": "Common",
    "hard": "Uncommon",
    "normal": "Uncommon",
    "pvp": "Uncommon",
    "type": "Food"
  },
  {
    "craftSetPoint": 26,
    "easy": "Common",
    "hard": "Uncommon",
    "normal": "Uncommon",
    "pvp": "Rare",
    "type": "Beverage"
  },
  {
    "craftSetPoint": 31,
    "easy": "Common",
    "hard": "Common",
    "normal": "Common",
    "pvp": "Common",
    "type": "Food"
  },
  {
    "craftSetPoint": 31,
    "easy": "Common",
    "hard": "Common",
    "normal": "Common",
    "pvp": "Common",
    "type": "Beverage"
  },
  {
    "craftSetPoint": 31,
    "easy": "None",
    "hard": "None",
    "normal": "None",
    "pvp": "None",
    "type": "Food"
  },
  {
    "craftSetPoint": 31,
    "easy": "None",
    "hard": "None",
    "normal": "None",
    "pvp": "None",
    "type": "Beverage"
  },
  {
    "craftSetPoint": 31,
    "easy": "None",
    "hard": "None",
    "normal": "None",
    "pvp": "None",
    "type": "Summon"
  },
  {
    "craftSetPoint": 32,
    "easy": "Common",
    "hard": "Uncommon",
    "normal": "Uncommon",
    "pvp": "Common",
    "type": "Weapon"
  },
  {
    "craftSetPoint": 32,
    "easy": "Common",
    "hard": "Uncommon",
    "normal": "Uncommon",
    "pvp": "Common",
    "type": "Head"
  },
  {
    "craftSetPoint": 32,
    "easy": "Common",
    "hard": "Uncommon",
    "normal": "Uncommon",
    "pvp": "Rare",
    "type": "Chest"
  },
  {
    "craftSetPoint": 32,
    "easy": "Common",
    "hard": "Uncommon",
    "normal": "Uncommon",
    "pvp": "Uncommon",
    "type": "Arm"
  },
  {
    "craftSetPoint": 32,
    "easy": "Common",
    "hard": "Uncommon",
    "normal": "Uncommon",
    "pvp": "Uncommon",
    "type": "Leg"
  },
  {
    "craftSetPoint": 32,
    "easy": "Common",
    "hard": "Uncommon",
    "normal": "Uncommon",
    "pvp": "Uncommon",
    "type": "Trinket"
  },
  {
    "craftSetPoint": 32,
    "easy": "Common",
    "hard": "Uncommon",
    "normal": "Uncommon",
    "pvp": "Uncommon",
    "type": "Food"
  },
  {
    "craftSetPoint": 32,
    "easy": "Common",
    "hard": "Uncommon",
    "normal": "Uncommon",
    "pvp": "Uncommon",
    "type": "Beverage"
  },
  {
    "craftSetPoint": 32,
    "easy": "Common",
    "hard": "Uncommon",
    "normal": "Uncommon",
    "pvp": "Common",
    "type": "Food"
  },
  {
    "craftSetPoint": 32,
    "easy": "Common",
    "hard": "Common",
    "normal": "Common",
    "pvp": "Common",
    "type": "Beverage"
  },
  {
    "craftSetPoint": 32,
    "easy": "None",
    "hard": "None",
    "normal": "None",
    "pvp": "Uncommon",
    "type": "Summon"
  },
  {
    "craftSetPoint": 33,
    "easy": "Common",
    "hard": "Uncommon",
    "normal": "Uncommon",
    "pvp": "Epic",
    "type": "Weapon"
  },
  {
    "craftSetPoint": 33,
    "easy": "Common",
    "hard": "Uncommon",
    "normal": "Uncommon",
    "pvp": "Rare",
    "type": "Head"
  },
  {
    "craftSetPoint": 33,
    "easy": "Common",
    "hard": "Uncommon",
    "normal": "Uncommon",
    "pvp": "Rare",
    "type": "Chest"
  },
  {
    "craftSetPoint": 33,
    "easy": "Common",
    "hard": "Uncommon",
    "normal": "Uncommon",
    "pvp": "Rare",
    "type": "Arm"
  },
  {
    "craftSetPoint": 33,
    "easy": "Common",
    "hard": "Uncommon",
    "normal": "Uncommon",
    "pvp": "Rare",
    "type": "Leg"
  },
  {
    "craftSetPoint": 33,
    "easy": "Common",
    "hard": "Uncommon",
    "normal": "Uncommon",
    "pvp": "Rare",
    "type": "Trinket"
  },
  {
    "craftSetPoint": 33,
    "easy": "Common",
    "hard": "Uncommon",
    "normal": "Uncommon",
    "pvp": "Uncommon",
    "type": "Food"
  },
  {
    "craftSetPoint": 33,
    "easy": "Common",
    "hard": "Uncommon",
    "normal": "Uncommon",
    "pvp": "Common",
    "type": "Beverage"
  },
  {
    "craftSetPoint": 34,
    "easy": "Uncommon",
    "hard": "Rare",
    "normal": "Uncommon",
    "pvp": "Epic",
    "type": "Weapon"
  },
  {
    "craftSetPoint": 34,
    "easy": "Common",
    "hard": "Uncommon",
    "normal": "Uncommon",
    "pvp": "Rare",
    "type": "Head"
  },
  {
    "craftSetPoint": 34,
    "easy": "Common",
    "hard": "Uncommon",
    "normal": "Uncommon",
    "pvp": "Epic",
    "type": "Chest"
  },
  {
    "craftSetPoint": 34,
    "easy": "Uncommon",
    "hard": "Uncommon",
    "normal": "Uncommon",
    "pvp": "Rare",
    "type": "Arm"
  },
  {
    "craftSetPoint": 34,
    "easy": "Common",
    "hard": "Uncommon",
    "normal": "Uncommon",
    "pvp": "Rare",
    "type": "Leg"
  },
  {
    "craftSetPoint": 34,
    "easy": "Common",
    "hard": "Uncommon",
    "normal": "Uncommon",
    "pvp": "Rare",
    "type": "Trinket"
  },
  {
    "craftSetPoint": 34,
    "easy": "Common",
    "hard": "Uncommon",
    "normal": "Uncommon",
    "pvp": "Epic",
    "type": "Food"
  },
  {
    "craftSetPoint": 34,
    "easy": "Common",
    "hard": "Uncommon",
    "normal": "Uncommon",
    "pvp": "Rare",
    "type": "Beverage"
  },
  {
    "craftSetPoint": 34,
    "easy": "Common",
    "hard": "Uncommon",
    "normal": "Uncommon",
    "pvp": "Uncommon",
    "type": "Food"
  },
  {
    "craftSetPoint": 34,
    "easy": "Common",
    "hard": "Uncommon",
    "normal": "Uncommon",
    "pvp": "Uncommon",
    "type": "Beverage"
  },
  {
    "craftSetPoint": 34,
    "easy": "None",
    "hard": "None",
    "normal": "None",
    "pvp": "Epic",
    "type": "Summon"
  },
  {
    "craftSetPoint": 35,
    "easy": "Uncommon",
    "hard": "Rare",
    "normal": "Uncommon",
    "pvp": "Rare",
    "type": "Weapon"
  },
  {
    "craftSetPoint": 35,
    "easy": "Common",
    "hard": "Uncommon",
    "normal": "Uncommon",
    "pvp": "Rare",
    "type": "Head"
  },
  {
    "craftSetPoint": 35,
    "easy": "Common",
    "hard": "Uncommon",
    "normal": "Uncommon",
    "pvp": "Epic",
    "type": "Chest"
  },
  {
    "craftSetPoint": 35,
    "easy": "Uncommon",
    "hard": "Uncommon",
    "normal": "Uncommon",
    "pvp": "Epic",
    "type": "Arm"
  },
  {
    "craftSetPoint": 35,
    "easy": "Common",
    "hard": "Uncommon",
    "normal": "Uncommon",
    "pvp": "Rare",
    "type": "Leg"
  },
  {
    "craftSetPoint": 35,
    "easy": "Uncommon",
    "hard": "Uncommon",
    "normal": "Uncommon",
    "pvp": "Epic",
    "type": "Trinket"
  },
  {
    "craftSetPoint": 35,
    "easy": "Common",
    "hard": "Uncommon",
    "normal": "Uncommon",
    "pvp": "Epic",
    "type": "Food"
  },
  {
    "craftSetPoint": 35,
    "easy": "Common",
    "hard": "Uncommon",
    "normal": "Uncommon",
    "pvp": "Epic",
    "type": "Beverage"
  },
  {
    "craftSetPoint": 36,
    "easy": "Uncommon",
    "hard": "Rare",
    "normal": "Uncommon",
    "pvp": "Epic",
    "type": "Weapon"
  },
  {
    "craftSetPoint": 36,
    "easy": "Common",
    "hard": "Uncommon",
    "normal": "Uncommon",
    "pvp": "Rare",
    "type": "Head"
  },
  {
    "craftSetPoint": 36,
    "easy": "Common",
    "hard": "Uncommon",
    "normal": "Uncommon",
    "pvp": "Rare",
    "type": "Chest"
  },
  {
    "craftSetPoint": 36,
    "easy": "Uncommon",
    "hard": "Rare",
    "normal": "Uncommon",
    "pvp": "Epic",
    "type": "Arm"
  },
  {
    "craftSetPoint": 36,
    "easy": "Common",
    "hard": "Uncommon",
    "normal": "Uncommon",
    "pvp": "Epic",
    "type": "Leg"
  },
  {
    "craftSetPoint": 36,
    "easy": "Uncommon",
    "hard": "Uncommon",
    "normal": "Uncommon",
    "pvp": "Rare",
    "type": "Trinket"
  },
  {
    "craftSetPoint": 36,
    "easy": "Common",
    "hard": "Uncommon",
    "normal": "Uncommon",
    "pvp": "Uncommon",
    "type": "Food"
  },
  {
    "craftSetPoint": 36,
    "easy": "Common",
    "hard": "Uncommon",
    "normal": "Uncommon",
    "pvp": "Uncommon",
    "type": "Beverage"
  },
  {
    "craftSetPoint": 36,
    "easy": "Common",
    "hard": "Uncommon",
    "normal": "Uncommon",
    "pvp": "Uncommon",
    "type": "Food"
  },
  {
    "craftSetPoint": 36,
    "easy": "Common",
    "hard": "Rare",
    "normal": "Uncommon",
    "pvp": "Uncommon",
    "type": "Beverage"
  },
  {
    "craftSetPoint": 36,
    "easy": "None",
    "hard": "None",
    "normal": "None",
    "pvp": "Epic",
    "type": "Summon"
  },
  {
    "craftSetPoint": 99,
    "easy": "None",
    "hard": "None",
    "normal": "None",
    "pvp": "None",
    "type": "Food"
  },
  {
    "craftSetPoint": 99,
    "easy": "None",
    "hard": "None",
    "normal": "None",
    "pvp": "None",
    "type": "Beverage"
  },
  {
    "craftSetPoint": 99,
    "easy": "Common",
    "hard": "Uncommon",
    "normal": "Uncommon",
    "pvp": "Uncommon",
    "type": "Food"
  },
  {
    "craftSetPoint": 99,
    "easy": "Common",
    "hard": "Uncommon",
    "normal": "Uncommon",
    "pvp": "Uncommon",
    "type": "Beverage"
  }
]