[
  {
    "capacity": 6,
    "count": 6,
    "initCount": 0,
    "itemCode": 116101,
    "loadType": "Reload",
    "time": 2
  },
  {
    "capacity": 6,
    "count": 6,
    "initCount": 0,
    "itemCode": 116201,
    "loadType": "Reload",
    "time": 2
  },
  {
    "capacity": 6,
    "count": 6,
    "initCount": 0,
    "itemCode": 116202,
    "loadType": "Reload",
    "time": 2
  },
  {
    "capacity": 6,
    "count": 6,
    "initCount": 0,
    "itemCode": 116301,
    "loadType": "Reload",
    "time": 2
  },
  {
    "capacity": 6,
    "count": 6,
    "initCount": 0,
    "itemCode": 116401,
    "loadType": "Reload",
    "time": 2
  },
  {
    "capacity": 6,
    "count": 6,
    "initCount": 0,
    "itemCode": 116402,
    "loadType": "Reload",
    "time": 2
  },
  {
    "capacity": 2,
    "count": 2,
    "initCount": 0,
    "itemCode": 116408,
    "loadType": "Reload",
    "time": 2
  },
  {
    "capacity": 3,
    "count": 3,
    "initCount": 0,
    "itemCode": 116403,
    "loadType": "Reload",
    "time": 2
  },
  {
    "capacity": 6,
    "count": 6,
    "initCount": 0,
    "itemCode": 116404,
    "loadType": "Reload",
    "time": 2
  },
  {
    "capacity": 10,
    "count": 10,
    "initCount": 0,
    "itemCode": 116405,
    "loadType": "Reload",
    "time": 2
  },
  {
    "capacity": 6,
    "count": 6,
    "initCount": 0,
    "itemCode": 116406,
    "loadType": "Reload",
    "time": 2
  },
  {
    "capacity": 8,
    "count": 8,
    "initCount": 0,
    "itemCode": 116407,
    "loadType": "Reload",
    "time": 2
  },
  {
    "capacity": 2,
    "count": 2,
    "initCount": 0,
    "itemCode": 116409,
    "loadType": "Reload",
    "time": 2
  },
  {
    "capacity": 10,
    "count": 10,
    "initCount": 0,
    "itemCode": 116501,
    "loadType": "Reload",
    "time": 2
  },
  {
    "capacity": 30,
    "count": 30,
    "initCount": 0,
    "itemCode": 117403,
    "loadType": "Reload",
    "time": 2
  },
  {
    "capacity": 30,
    "count": 30,
    "initCount": 0,
    "itemCode": 117101,
    "loadType": "Reload",
    "time": 2
  },
  {
    "capacity": 30,
    "count": 30,
    "initCount": 0,
    "itemCode": 117201,
    "loadType": "Reload",
    "time": 2
  },
  {
    "capacity": 30,
    "count": 30,
    "initCount": 0,
    "itemCode": 117301,
    "loadType": "Reload",
    "time": 2
  },
  {
    "capacity": 30,
    "count": 30,
    "initCount": 0,
    "itemCode": 117401,
    "loadType": "Reload",
    "time": 2
  },
  {
    "capacity": 30,
    "count": 30,
    "initCount": 0,
    "itemCode": 117402,
    "loadType": "Reload",
    "time": 2
  },
  {
    "capacity": 30,
    "count": 30,
    "initCount": 0,
    "itemCode": 117501,
    "loadType": "Reload",
    "time": 2
  },
  {
    "capacity": 30,
    "count": 30,
    "initCount": 0,
    "itemCode": 117404,
    "loadType": "Reload",
    "time": 2
  },
  {
    "capacity": 30,
    "count": 30,
    "initCount": 0,
    "itemCode": 117405,
    "loadType": "Reload",
    "time": 2
  },
  {
    "capacity": 120,
    "count": 120,
    "initCount": 0,
    "itemCode": 117406,
    "loadType": "Reload",
    "time": 2
  },
  {
    "capacity": 30,
    "count": 30,
    "initCount": 0,
    "itemCode": 117501,
    "loadType": "Reload",
    "time": 2
  },
  {
    "capacity": 1,
    "count": 1,
    "initCount": 0,
    "itemCode": 118101,
    "loadType": "Reload",
    "time": 2
  },
  {
    "capacity": 1,
    "count": 1,
    "initCount": 0,
    "itemCode": 118201,
    "loadType": "Reload",
    "time": 2
  },
  {
    "capacity": 2,
    "count": 2,
    "initCount": 0,
    "itemCode": 118301,
    "loadType": "Reload",
    "time": 2
  },
  {
    "capacity": 1,
    "count": 1,
    "initCount": 0,
    "itemCode": 118401,
    "loadType": "Reload",
    "time": 2
  },
  {
    "capacity": 3,
    "count": 3,
    "initCount": 0,
    "itemCode": 118402,
    "loadType": "Reload",
    "time": 2
  },
  {
    "capacity": 2,
    "count": 2,
    "initCount": 0,
    "itemCode": 118403,
    "loadType": "Reload",
    "time": 2
  },
  {
    "capacity": 2,
    "count": 2,
    "initCount": 0,
    "itemCode": 118404,
    "loadType": "Reload",
    "time": 2
  },
  {
    "capacity": 1,
    "count": 1,
    "initCount": 0,
    "itemCode": 118405,
    "loadType": "Reload",
    "time": 2
  },
  {
    "capacity": 4,
    "count": 4,
    "initCount": 0,
    "itemCode": 118406,
    "loadType": "Reload",
    "time": 2
  },
  {
    "capacity": 2,
    "count": 2,
    "initCount": 0,
    "itemCode": 118501,
    "loadType": "Reload",
    "time": 2
  },
  {
    "capacity": 1,
    "count": 1,
    "initCount": 0,
    "itemCode": 118502,
    "loadType": "Reload",
    "time": 2
  },
  {
    "capacity": 50,
    "count": 1,
    "initCount": 50,
    "itemCode": 112103,
    "loadType": "Charge",
    "time": 1
  },
  {
    "capacity": 50,
    "count": 1,
    "initCount": 50,
    "itemCode": 112105,
    "loadType": "Charge",
    "time": 1
  },
  {
    "capacity": 8,
    "count": 1,
    "initCount": 8,
    "itemCode": 112202,
    "loadType": "Charge",
    "time": 1
  },
  {
    "capacity": 20,
    "count": 1,
    "initCount": 20,
    "itemCode": 112203,
    "loadType": "Charge",
    "time": 1
  },
  {
    "capacity": 50,
    "count": 1,
    "initCount": 50,
    "itemCode": 112204,
    "loadType": "Charge",
    "time": 1
  },
  {
    "capacity": 50,
    "count": 1,
    "initCount": 50,
    "itemCode": 112205,
    "loadType": "Charge",
    "time": 1
  },
  {
    "capacity": 20,
    "count": 1,
    "initCount": 20,
    "itemCode": 112301,
    "loadType": "Charge",
    "time": 1
  },
  {
    "capacity": 50,
    "count": 1,
    "initCount": 50,
    "itemCode": 112302,
    "loadType": "Charge",
    "time": 1
  },
  {
    "capacity": 50,
    "count": 1,
    "initCount": 50,
    "itemCode": 112303,
    "loadType": "Charge",
    "time": 1
  },
  {
    "capacity": 50,
    "count": 1,
    "initCount": 50,
    "itemCode": 112304,
    "loadType": "Charge",
    "time": 1
  },
  {
    "capacity": 24,
    "count": 1,
    "initCount": 24,
    "itemCode": 112306,
    "loadType": "Charge",
    "time": 1
  },
  {
    "capacity": 18,
    "count": 1,
    "initCount": 18,
    "itemCode": 112305,
    "loadType": "Charge",
    "time": 1
  },
  {
    "capacity": 50,
    "count": 1,
    "initCount": 50,
    "itemCode": 112401,
    "loadType": "Charge",
    "time": 1
  },
  {
    "capacity": 30,
    "count": 1,
    "initCount": 30,
    "itemCode": 112402,
    "loadType": "Charge",
    "time": 1
  },
  {
    "capacity": 50,
    "count": 1,
    "initCount": 50,
    "itemCode": 112403,
    "loadType": "Charge",
    "time": 1
  },
  {
    "capacity": 8,
    "count": 1,
    "initCount": 8,
    "itemCode": 112404,
    "loadType": "Charge",
    "time": 1
  },
  {
    "capacity": 50,
    "count": 1,
    "initCount": 50,
    "itemCode": 112501,
    "loadType": "Charge",
    "time": 1
  },
  {
    "capacity": 50,
    "count": 1,
    "initCount": 50,
    "itemCode": 112405,
    "loadType": "Charge",
    "time": 1
  },
  {
    "capacity": 36,
    "count": 1,
    "initCount": 36,
    "itemCode": 112407,
    "loadType": "Charge",
    "time": 1
  },
  {
    "capacity": 20,
    "count": 1,
    "initCount": 20,
    "itemCode": 112408,
    "loadType": "Charge",
    "time": 1
  },
  {
    "capacity": 50,
    "count": 1,
    "initCount": 50,
    "itemCode": 112406,
    "loadType": "Charge",
    "time": 1
  },
  {
    "capacity": 50,
    "count": 1,
    "initCount": 50,
    "itemCode": 113101,
    "loadType": "Charge",
    "time": 1
  },
  {
    "capacity": 52,
    "count": 1,
    "initCount": 52,
    "itemCode": 113102,
    "loadType": "Charge",
    "time": 1
  },
  {
    "capacity": 50,
    "count": 1,
    "initCount": 50,
    "itemCode": 113104,
    "loadType": "Charge",
    "time": 1
  },
  {
    "capacity": 24,
    "count": 1,
    "initCount": 24,
    "itemCode": 113201,
    "loadType": "Charge",
    "time": 1
  },
  {
    "capacity": 10,
    "count": 1,
    "initCount": 10,
    "itemCode": 113202,
    "loadType": "Charge",
    "time": 1
  },
  {
    "capacity": 50,
    "count": 1,
    "initCount": 50,
    "itemCode": 113203,
    "loadType": "Charge",
    "time": 1
  },
  {
    "capacity": 50,
    "count": 1,
    "initCount": 50,
    "itemCode": 113205,
    "loadType": "Charge",
    "time": 1
  },
  {
    "capacity": 50,
    "count": 1,
    "initCount": 50,
    "itemCode": 113206,
    "loadType": "Charge",
    "time": 1
  },
  {
    "capacity": 50,
    "count": 1,
    "initCount": 50,
    "itemCode": 113207,
    "loadType": "Charge",
    "time": 1
  },
  {
    "capacity": 50,
    "count": 1,
    "initCount": 50,
    "itemCode": 113301,
    "loadType": "Charge",
    "time": 1
  },
  {
    "capacity": 50,
    "count": 1,
    "initCount": 50,
    "itemCode": 113302,
    "loadType": "Charge",
    "time": 1
  },
  {
    "capacity": 52,
    "count": 1,
    "initCount": 52,
    "itemCode": 113401,
    "loadType": "Charge",
    "time": 1
  },
  {
    "capacity": 3,
    "count": 1,
    "initCount": 3,
    "itemCode": 113402,
    "loadType": "Charge",
    "time": 1
  },
  {
    "capacity": 50,
    "count": 1,
    "initCount": 50,
    "itemCode": 113403,
    "loadType": "Charge",
    "time": 1
  },
  {
    "capacity": 24,
    "count": 1,
    "initCount": 24,
    "itemCode": 113404,
    "loadType": "Charge",
    "time": 1
  },
  {
    "capacity": 20,
    "count": 1,
    "initCount": 20,
    "itemCode": 113405,
    "loadType": "Charge",
    "time": 1
  },
  {
    "capacity": 50,
    "count": 1,
    "initCount": 50,
    "itemCode": 113406,
    "loadType": "Charge",
    "time": 1
  },
  {
    "capacity": 3,
    "count": 1,
    "initCount": 3,
    "itemCode": 113408,
    "loadType": "Charge",
    "time": 1
  },
  {
    "capacity": 50,
    "count": 1,
    "initCount": 50,
    "itemCode": 113409,
    "loadType": "Charge",
    "time": 1
  },
  {
    "capacity": 24,
    "count": 1,
    "initCount": 24,
    "itemCode": 113410,
    "loadType": "Charge",
    "time": 1
  },
  {
    "capacity": 50,
    "count": 1,
    "initCount": 50,
    "itemCode": 113411,
    "loadType": "Charge",
    "time": 1
  },
  {
    "capacity": 20,
    "count": 1,
    "initCount": 20,
    "itemCode": 113412,
    "loadType": "Charge",
    "time": 1
  },
  {
    "capacity": 50,
    "count": 1,
    "initCount": 50,
    "itemCode": 113501,
    "loadType": "Charge",
    "time": 1
  },
  {
    "capacity": 4,
    "count": 1,
    "initCount": 4,
    "itemCode": 113502,
    "loadType": "Charge",
    "time": 1
  }
]