[
  {
    "dropType": "Exclusive",
    "groupCode": 101,
    "itemCode": 401103,
    "max": 1,
    "min": 1,
    "probability": 1
  },
  {
    "dropType": "Random",
    "groupCode": 101,
    "itemCode": 301111,
    "max": 1,
    "min": 1,
    "probability": 3
  },
  {
    "dropType": "Random",
    "groupCode": 101,
    "itemCode": 205101,
    "max": 1,
    "min": 1,
    "probability": 1
  },
  {
    "dropType": "Exclusive",
    "groupCode": 102,
    "itemCode": 502101,
    "max": 1,
    "min": 1,
    "probability": 1
  },
  {
    "dropType": "Random",
    "groupCode": 102,
    "itemCode": 401103,
    "max": 1,
    "min": 1,
    "probability": 30
  },
  {
    "dropType": "Random",
    "groupCode": 102,
    "itemCode": 205108,
    "max": 1,
    "min": 1,
    "probability": 15
  },
  {
    "dropType": "Random",
    "groupCode": 102,
    "itemCode": 205106,
    "max": 1,
    "min": 1,
    "probability": 15
  },
  {
    "dropType": "Random",
    "groupCode": 102,
    "itemCode": 401101,
    "max": 1,
    "min": 1,
    "probability": 6
  },
  {
    "dropType": "Random",
    "groupCode": 102,
    "itemCode": 401104,
    "max": 1,
    "min": 1,
    "probability": 6
  },
  {
    "dropType": "Random",
    "groupCode": 102,
    "itemCode": 101101,
    "max": 1,
    "min": 1,
    "probability": 6
  },
  {
    "dropType": "Random",
    "groupCode": 102,
    "itemCode": 203102,
    "max": 1,
    "min": 1,
    "probability": 6
  },
  {
    "dropType": "Random",
    "groupCode": 102,
    "itemCode": 205110,
    "max": 1,
    "min": 1,
    "probability": 6
  },
  {
    "dropType": "Random",
    "groupCode": 102,
    "itemCode": 401121,
    "max": 1,
    "min": 1,
    "probability": 6
  },
  {
    "dropType": "Random",
    "groupCode": 102,
    "itemCode": 401105,
    "max": 1,
    "min": 1,
    "probability": 3
  },
  {
    "dropType": "Random",
    "groupCode": 102,
    "itemCode": 205107,
    "max": 1,
    "min": 1,
    "probability": 3
  },
  {
    "dropType": "Random",
    "groupCode": 102,
    "itemCode": 105102,
    "max": 1,
    "min": 1,
    "probability": 3
  },
  {
    "dropType": "Random",
    "groupCode": 102,
    "itemCode": 120101,
    "max": 1,
    "min": 1,
    "probability": 3
  },
  {
    "dropType": "Random",
    "groupCode": 102,
    "itemCode": 201101,
    "max": 1,
    "min": 1,
    "probability": 3
  },
  {
    "dropType": "Random",
    "groupCode": 102,
    "itemCode": 201102,
    "max": 1,
    "min": 1,
    "probability": 3
  },
  {
    "dropType": "Random",
    "groupCode": 102,
    "itemCode": 401112,
    "max": 1,
    "min": 1,
    "probability": 3
  },
  {
    "dropType": "Random",
    "groupCode": 102,
    "itemCode": 113104,
    "max": 1,
    "min": 1,
    "probability": 3
  },
  {
    "dropType": "Random",
    "groupCode": 102,
    "itemCode": 401116,
    "max": 1,
    "min": 1,
    "probability": 3
  },
  {
    "dropType": "Random",
    "groupCode": 102,
    "itemCode": 401117,
    "max": 1,
    "min": 1,
    "probability": 3
  },
  {
    "dropType": "Random",
    "groupCode": 102,
    "itemCode": 204101,
    "max": 1,
    "min": 1,
    "probability": 3
  },
  {
    "dropType": "Random",
    "groupCode": 102,
    "itemCode": 113101,
    "max": 1,
    "min": 1,
    "probability": 3
  },
  {
    "dropType": "Random",
    "groupCode": 102,
    "itemCode": 108103,
    "max": 1,
    "min": 1,
    "probability": 3
  },
  {
    "dropType": "Exclusive",
    "groupCode": 103,
    "itemCode": 301111,
    "max": 1,
    "min": 1,
    "probability": 1
  },
  {
    "dropType": "Random",
    "groupCode": 103,
    "itemCode": 502102,
    "max": 2,
    "min": 2,
    "probability": 4
  },
  {
    "dropType": "Random",
    "groupCode": 103,
    "itemCode": 502103,
    "max": 2,
    "min": 2,
    "probability": 4
  },
  {
    "dropType": "Random",
    "groupCode": 103,
    "itemCode": 202103,
    "max": 1,
    "min": 1,
    "probability": 4
  },
  {
    "dropType": "Random",
    "groupCode": 103,
    "itemCode": 401113,
    "max": 1,
    "min": 1,
    "probability": 4
  },
  {
    "dropType": "Random",
    "groupCode": 103,
    "itemCode": 205102,
    "max": 2,
    "min": 2,
    "probability": 4
  },
  {
    "dropType": "Random",
    "groupCode": 103,
    "itemCode": 401118,
    "max": 2,
    "min": 2,
    "probability": 4
  },
  {
    "dropType": "Random",
    "groupCode": 103,
    "itemCode": 112104,
    "max": 2,
    "min": 2,
    "probability": 4
  },
  {
    "dropType": "Random",
    "groupCode": 103,
    "itemCode": 113102,
    "max": 1,
    "min": 1,
    "probability": 4
  },
  {
    "dropType": "Random",
    "groupCode": 103,
    "itemCode": 101102,
    "max": 1,
    "min": 1,
    "probability": 2
  },
  {
    "dropType": "Random",
    "groupCode": 103,
    "itemCode": 502104,
    "max": 1,
    "min": 1,
    "probability": 2
  },
  {
    "dropType": "Random",
    "groupCode": 103,
    "itemCode": 204103,
    "max": 1,
    "min": 1,
    "probability": 2
  },
  {
    "dropType": "Random",
    "groupCode": 103,
    "itemCode": 107101,
    "max": 1,
    "min": 1,
    "probability": 2
  },
  {
    "dropType": "Random",
    "groupCode": 103,
    "itemCode": 401109,
    "max": 1,
    "min": 1,
    "probability": 2
  },
  {
    "dropType": "Random",
    "groupCode": 103,
    "itemCode": 401111,
    "max": 1,
    "min": 1,
    "probability": 2
  },
  {
    "dropType": "Random",
    "groupCode": 103,
    "itemCode": 201104,
    "max": 1,
    "min": 1,
    "probability": 2
  },
  {
    "dropType": "Random",
    "groupCode": 103,
    "itemCode": 101104,
    "max": 1,
    "min": 1,
    "probability": 2
  },
  {
    "dropType": "Random",
    "groupCode": 103,
    "itemCode": 401120,
    "max": 1,
    "min": 1,
    "probability": 2
  },
  {
    "dropType": "Random",
    "groupCode": 103,
    "itemCode": 119101,
    "max": 1,
    "min": 1,
    "probability": 2
  },
  {
    "dropType": "Random",
    "groupCode": 103,
    "itemCode": 112103,
    "max": 1,
    "min": 1,
    "probability": 2
  },
  {
    "dropType": "Random",
    "groupCode": 103,
    "itemCode": 104101,
    "max": 1,
    "min": 1,
    "probability": 2
  },
  {
    "dropType": "Exclusive",
    "groupCode": 104,
    "itemCode": 401103,
    "max": 1,
    "min": 1,
    "probability": 1
  },
  {
    "dropType": "Random",
    "groupCode": 104,
    "itemCode": 401110,
    "max": 1,
    "min": 1,
    "probability": 4
  },
  {
    "dropType": "Random",
    "groupCode": 104,
    "itemCode": 401107,
    "max": 1,
    "min": 1,
    "probability": 4
  },
  {
    "dropType": "Random",
    "groupCode": 104,
    "itemCode": 401114,
    "max": 2,
    "min": 2,
    "probability": 4
  },
  {
    "dropType": "Random",
    "groupCode": 104,
    "itemCode": 401106,
    "max": 1,
    "min": 1,
    "probability": 4
  },
  {
    "dropType": "Random",
    "groupCode": 104,
    "itemCode": 105103,
    "max": 1,
    "min": 1,
    "probability": 2
  },
  {
    "dropType": "Random",
    "groupCode": 104,
    "itemCode": 401108,
    "max": 1,
    "min": 1,
    "probability": 2
  },
  {
    "dropType": "Random",
    "groupCode": 104,
    "itemCode": 108102,
    "max": 1,
    "min": 1,
    "probability": 2
  },
  {
    "dropType": "Random",
    "groupCode": 104,
    "itemCode": 202101,
    "max": 1,
    "min": 1,
    "probability": 2
  },
  {
    "dropType": "Random",
    "groupCode": 104,
    "itemCode": 202106,
    "max": 1,
    "min": 1,
    "probability": 2
  },
  {
    "dropType": "Random",
    "groupCode": 104,
    "itemCode": 202105,
    "max": 1,
    "min": 1,
    "probability": 2
  },
  {
    "dropType": "Random",
    "groupCode": 104,
    "itemCode": 203101,
    "max": 1,
    "min": 1,
    "probability": 2
  },
  {
    "dropType": "Random",
    "groupCode": 104,
    "itemCode": 203104,
    "max": 1,
    "min": 1,
    "probability": 2
  },
  {
    "dropType": "Random",
    "groupCode": 104,
    "itemCode": 204102,
    "max": 1,
    "min": 1,
    "probability": 2
  },
  {
    "dropType": "Random",
    "groupCode": 104,
    "itemCode": 205103,
    "max": 1,
    "min": 1,
    "probability": 2
  },
  {
    "dropType": "Random",
    "groupCode": 104,
    "itemCode": 205105,
    "max": 1,
    "min": 1,
    "probability": 2
  },
  {
    "dropType": "Random",
    "groupCode": 104,
    "itemCode": 205109,
    "max": 1,
    "min": 1,
    "probability": 2
  },
  {
    "dropType": "Exclusive",
    "groupCode": 105,
    "itemCode": 301111,
    "max": 1,
    "min": 1,
    "probability": 1
  },
  {
    "dropType": "Exclusive",
    "groupCode": 105,
    "itemCode": 401103,
    "max": 1,
    "min": 1,
    "probability": 1
  },
  {
    "dropType": "Random",
    "groupCode": 105,
    "itemCode": 401201,
    "max": 2,
    "min": 2,
    "probability": 2
  },
  {
    "dropType": "Random",
    "groupCode": 105,
    "itemCode": 401202,
    "max": 2,
    "min": 2,
    "probability": 2
  },
  {
    "dropType": "Random",
    "groupCode": 105,
    "itemCode": 401203,
    "max": 2,
    "min": 2,
    "probability": 2
  },
  {
    "dropType": "Random",
    "groupCode": 105,
    "itemCode": 401217,
    "max": 1,
    "min": 1,
    "probability": 2
  },
  {
    "dropType": "Random",
    "groupCode": 105,
    "itemCode": 401206,
    "max": 1,
    "min": 1,
    "probability": 2
  },
  {
    "dropType": "Random",
    "groupCode": 105,
    "itemCode": 401210,
    "max": 1,
    "min": 1,
    "probability": 2
  },
  {
    "dropType": "Random",
    "groupCode": 105,
    "itemCode": 401211,
    "max": 1,
    "min": 1,
    "probability": 2
  },
  {
    "dropType": "Random",
    "groupCode": 105,
    "itemCode": 401212,
    "max": 1,
    "min": 1,
    "probability": 2
  },
  {
    "dropType": "Random",
    "groupCode": 105,
    "itemCode": 401213,
    "max": 2,
    "min": 2,
    "probability": 2
  },
  {
    "dropType": "Random",
    "groupCode": 105,
    "itemCode": 401214,
    "max": 1,
    "min": 1,
    "probability": 2
  },
  {
    "dropType": "Random",
    "groupCode": 105,
    "itemCode": 401215,
    "max": 2,
    "min": 2,
    "probability": 2
  },
  {
    "dropType": "Random",
    "groupCode": 105,
    "itemCode": 205209,
    "max": 1,
    "min": 1,
    "probability": 2
  },
  {
    "dropType": "Random",
    "groupCode": 105,
    "itemCode": 401216,
    "max": 1,
    "min": 1,
    "probability": 2
  },
  {
    "dropType": "Random",
    "groupCode": 105,
    "itemCode": 401218,
    "max": 1,
    "min": 1,
    "probability": 2
  },
  {
    "dropType": "Random",
    "groupCode": 105,
    "itemCode": 401302,
    "max": 1,
    "min": 1,
    "probability": 2
  },
  {
    "dropType": "Random",
    "groupCode": 105,
    "itemCode": 401303,
    "max": 1,
    "min": 1,
    "probability": 2
  },
  {
    "dropType": "Random",
    "groupCode": 105,
    "itemCode": 401305,
    "max": 1,
    "min": 1,
    "probability": 2
  },
  {
    "dropType": "Random",
    "groupCode": 105,
    "itemCode": 401306,
    "max": 1,
    "min": 1,
    "probability": 2
  },
  {
    "dropType": "Exclusive",
    "groupCode": 109,
    "itemCode": 301111,
    "max": 1,
    "min": 1,
    "probability": 1
  },
  {
    "dropType": "Exclusive",
    "groupCode": 109,
    "itemCode": 401103,
    "max": 1,
    "min": 1,
    "probability": 1
  },
  {
    "dropType": "Probability",
    "groupCode": 109,
    "itemCode": 409401,
    "max": 1,
    "min": 1,
    "probability": 20
  },
  {
    "dropType": "Random",
    "groupCode": 109,
    "itemCode": 401201,
    "max": 2,
    "min": 2,
    "probability": 55
  },
  {
    "dropType": "Random",
    "groupCode": 109,
    "itemCode": 401202,
    "max": 2,
    "min": 2,
    "probability": 55
  },
  {
    "dropType": "Random",
    "groupCode": 109,
    "itemCode": 401203,
    "max": 2,
    "min": 2,
    "probability": 55
  },
  {
    "dropType": "Random",
    "groupCode": 109,
    "itemCode": 401217,
    "max": 1,
    "min": 1,
    "probability": 55
  },
  {
    "dropType": "Random",
    "groupCode": 109,
    "itemCode": 401206,
    "max": 1,
    "min": 1,
    "probability": 55
  },
  {
    "dropType": "Random",
    "groupCode": 109,
    "itemCode": 401210,
    "max": 1,
    "min": 1,
    "probability": 55
  },
  {
    "dropType": "Random",
    "groupCode": 109,
    "itemCode": 401211,
    "max": 1,
    "min": 1,
    "probability": 55
  },
  {
    "dropType": "Random",
    "groupCode": 109,
    "itemCode": 401212,
    "max": 1,
    "min": 1,
    "probability": 55
  },
  {
    "dropType": "Random",
    "groupCode": 109,
    "itemCode": 401213,
    "max": 2,
    "min": 2,
    "probability": 55
  },
  {
    "dropType": "Random",
    "groupCode": 109,
    "itemCode": 401214,
    "max": 1,
    "min": 1,
    "probability": 55
  },
  {
    "dropType": "Random",
    "groupCode": 109,
    "itemCode": 401215,
    "max": 2,
    "min": 2,
    "probability": 55
  },
  {
    "dropType": "Random",
    "groupCode": 109,
    "itemCode": 205209,
    "max": 1,
    "min": 1,
    "probability": 55
  },
  {
    "dropType": "Random",
    "groupCode": 109,
    "itemCode": 401216,
    "max": 1,
    "min": 1,
    "probability": 55
  },
  {
    "dropType": "Random",
    "groupCode": 109,
    "itemCode": 401218,
    "max": 1,
    "min": 1,
    "probability": 55
  },
  {
    "dropType": "Random",
    "groupCode": 109,
    "itemCode": 401302,
    "max": 1,
    "min": 1,
    "probability": 55
  },
  {
    "dropType": "Random",
    "groupCode": 109,
    "itemCode": 401303,
    "max": 1,
    "min": 1,
    "probability": 55
  },
  {
    "dropType": "Random",
    "groupCode": 109,
    "itemCode": 401305,
    "max": 1,
    "min": 1,
    "probability": 55
  },
  {
    "dropType": "Random",
    "groupCode": 109,
    "itemCode": 401306,
    "max": 1,
    "min": 1,
    "probability": 55
  },
  {
    "dropType": "Random",
    "groupCode": 109,
    "itemCode": 401208,
    "max": 1,
    "min": 1,
    "probability": 42
  },
  {
    "dropType": "Random",
    "groupCode": 109,
    "itemCode": 401209,
    "max": 1,
    "min": 1,
    "probability": 21
  },
  {
    "dropType": "Exclusive",
    "groupCode": 106,
    "itemCode": 301111,
    "max": 1,
    "min": 1,
    "probability": 1
  },
  {
    "dropType": "Exclusive",
    "groupCode": 106,
    "itemCode": 401103,
    "max": 1,
    "min": 1,
    "probability": 1
  },
  {
    "dropType": "Random",
    "groupCode": 106,
    "itemCode": 401201,
    "max": 2,
    "min": 2,
    "probability": 3
  },
  {
    "dropType": "Random",
    "groupCode": 106,
    "itemCode": 401202,
    "max": 2,
    "min": 2,
    "probability": 3
  },
  {
    "dropType": "Random",
    "groupCode": 106,
    "itemCode": 401203,
    "max": 2,
    "min": 2,
    "probability": 3
  },
  {
    "dropType": "Random",
    "groupCode": 106,
    "itemCode": 401217,
    "max": 1,
    "min": 1,
    "probability": 3
  },
  {
    "dropType": "Random",
    "groupCode": 106,
    "itemCode": 401210,
    "max": 1,
    "min": 1,
    "probability": 3
  },
  {
    "dropType": "Random",
    "groupCode": 106,
    "itemCode": 401211,
    "max": 1,
    "min": 1,
    "probability": 3
  },
  {
    "dropType": "Random",
    "groupCode": 106,
    "itemCode": 401212,
    "max": 1,
    "min": 1,
    "probability": 3
  },
  {
    "dropType": "Random",
    "groupCode": 106,
    "itemCode": 401213,
    "max": 2,
    "min": 2,
    "probability": 3
  },
  {
    "dropType": "Random",
    "groupCode": 106,
    "itemCode": 401214,
    "max": 1,
    "min": 1,
    "probability": 3
  },
  {
    "dropType": "Random",
    "groupCode": 106,
    "itemCode": 401215,
    "max": 2,
    "min": 2,
    "probability": 3
  },
  {
    "dropType": "Random",
    "groupCode": 106,
    "itemCode": 401206,
    "max": 1,
    "min": 1,
    "probability": 2
  },
  {
    "dropType": "Random",
    "groupCode": 106,
    "itemCode": 401216,
    "max": 1,
    "min": 1,
    "probability": 2
  },
  {
    "dropType": "Random",
    "groupCode": 106,
    "itemCode": 401218,
    "max": 1,
    "min": 1,
    "probability": 2
  },
  {
    "dropType": "Random",
    "groupCode": 106,
    "itemCode": 401302,
    "max": 1,
    "min": 1,
    "probability": 2
  },
  {
    "dropType": "Random",
    "groupCode": 106,
    "itemCode": 401303,
    "max": 1,
    "min": 1,
    "probability": 2
  },
  {
    "dropType": "Random",
    "groupCode": 106,
    "itemCode": 401305,
    "max": 1,
    "min": 1,
    "probability": 2
  },
  {
    "dropType": "Random",
    "groupCode": 106,
    "itemCode": 401306,
    "max": 1,
    "min": 1,
    "probability": 2
  },
  {
    "dropType": "Random",
    "groupCode": 106,
    "itemCode": 501401,
    "max": 1,
    "min": 1,
    "probability": 1
  },
  {
    "dropType": "Exclusive",
    "groupCode": 108,
    "itemCode": 301111,
    "max": 1,
    "min": 1,
    "probability": 1
  },
  {
    "dropType": "Exclusive",
    "groupCode": 108,
    "itemCode": 401103,
    "max": 1,
    "min": 1,
    "probability": 1
  },
  {
    "dropType": "Probability",
    "groupCode": 108,
    "itemCode": 409401,
    "max": 1,
    "min": 1,
    "probability": 25
  },
  {
    "dropType": "Random",
    "groupCode": 108,
    "itemCode": 401201,
    "max": 2,
    "min": 2,
    "probability": 5
  },
  {
    "dropType": "Random",
    "groupCode": 108,
    "itemCode": 401202,
    "max": 2,
    "min": 2,
    "probability": 5
  },
  {
    "dropType": "Random",
    "groupCode": 108,
    "itemCode": 401203,
    "max": 2,
    "min": 2,
    "probability": 5
  },
  {
    "dropType": "Random",
    "groupCode": 108,
    "itemCode": 401217,
    "max": 1,
    "min": 1,
    "probability": 5
  },
  {
    "dropType": "Random",
    "groupCode": 108,
    "itemCode": 401206,
    "max": 1,
    "min": 1,
    "probability": 5
  },
  {
    "dropType": "Random",
    "groupCode": 108,
    "itemCode": 401210,
    "max": 1,
    "min": 1,
    "probability": 5
  },
  {
    "dropType": "Random",
    "groupCode": 108,
    "itemCode": 401211,
    "max": 1,
    "min": 1,
    "probability": 5
  },
  {
    "dropType": "Random",
    "groupCode": 108,
    "itemCode": 401212,
    "max": 1,
    "min": 1,
    "probability": 5
  },
  {
    "dropType": "Random",
    "groupCode": 108,
    "itemCode": 401213,
    "max": 2,
    "min": 2,
    "probability": 5
  },
  {
    "dropType": "Random",
    "groupCode": 108,
    "itemCode": 401214,
    "max": 1,
    "min": 1,
    "probability": 5
  },
  {
    "dropType": "Random",
    "groupCode": 108,
    "itemCode": 401215,
    "max": 2,
    "min": 2,
    "probability": 5
  },
  {
    "dropType": "Random",
    "groupCode": 108,
    "itemCode": 401216,
    "max": 1,
    "min": 1,
    "probability": 5
  },
  {
    "dropType": "Random",
    "groupCode": 108,
    "itemCode": 401218,
    "max": 1,
    "min": 1,
    "probability": 5
  },
  {
    "dropType": "Random",
    "groupCode": 108,
    "itemCode": 401302,
    "max": 1,
    "min": 1,
    "probability": 5
  },
  {
    "dropType": "Random",
    "groupCode": 108,
    "itemCode": 401303,
    "max": 1,
    "min": 1,
    "probability": 5
  },
  {
    "dropType": "Random",
    "groupCode": 108,
    "itemCode": 401304,
    "max": 1,
    "min": 1,
    "probability": 5
  },
  {
    "dropType": "Random",
    "groupCode": 108,
    "itemCode": 401305,
    "max": 1,
    "min": 1,
    "probability": 5
  },
  {
    "dropType": "Random",
    "groupCode": 108,
    "itemCode": 401306,
    "max": 1,
    "min": 1,
    "probability": 5
  },
  {
    "dropType": "Random",
    "groupCode": 108,
    "itemCode": 501401,
    "max": 1,
    "min": 1,
    "probability": 5
  },
  {
    "dropType": "Random",
    "groupCode": 108,
    "itemCode": 401208,
    "max": 1,
    "min": 1,
    "probability": 3
  },
  {
    "dropType": "Random",
    "groupCode": 108,
    "itemCode": 401209,
    "max": 1,
    "min": 1,
    "probability": 3
  },
  {
    "dropType": "Random",
    "groupCode": 108,
    "itemCode": 401403,
    "max": 1,
    "min": 1,
    "probability": 2
  },
  {
    "dropType": "Exclusive",
    "groupCode": 110,
    "itemCode": 401304,
    "max": 1,
    "min": 1,
    "probability": 2
  },
  {
    "dropType": "Exclusive",
    "groupCode": 110,
    "itemCode": 502208,
    "max": 2,
    "min": 2,
    "probability": 2
  },
  {
    "dropType": "Random",
    "groupCode": 110,
    "itemCode": 201204,
    "max": 1,
    "min": 1,
    "probability": 2
  },
  {
    "dropType": "Random",
    "groupCode": 110,
    "itemCode": 202201,
    "max": 1,
    "min": 1,
    "probability": 2
  },
  {
    "dropType": "Random",
    "groupCode": 110,
    "itemCode": 202207,
    "max": 1,
    "min": 1,
    "probability": 2
  },
  {
    "dropType": "Random",
    "groupCode": 110,
    "itemCode": 203201,
    "max": 1,
    "min": 1,
    "probability": 2
  },
  {
    "dropType": "Random",
    "groupCode": 110,
    "itemCode": 204202,
    "max": 1,
    "min": 1,
    "probability": 2
  },
  {
    "dropType": "Random",
    "groupCode": 110,
    "itemCode": 205208,
    "max": 1,
    "min": 1,
    "probability": 2
  },
  {
    "dropType": "Random",
    "groupCode": 110,
    "itemCode": 401218,
    "max": 1,
    "min": 1,
    "probability": 2
  },
  {
    "dropType": "Random",
    "groupCode": 110,
    "itemCode": 302102,
    "max": 3,
    "min": 3,
    "probability": 1
  },
  {
    "dropType": "Random",
    "groupCode": 110,
    "itemCode": 502104,
    "max": 1,
    "min": 1,
    "probability": 1
  },
  {
    "dropType": "Exclusive",
    "groupCode": 111,
    "itemCode": 401403,
    "max": 1,
    "min": 1,
    "probability": 2
  },
  {
    "dropType": "Exclusive",
    "groupCode": 111,
    "itemCode": 502308,
    "max": 1,
    "min": 1,
    "probability": 2
  },
  {
    "dropType": "Random",
    "groupCode": 111,
    "itemCode": 302312,
    "max": 3,
    "min": 3,
    "probability": 1
  },
  {
    "dropType": "Random",
    "groupCode": 111,
    "itemCode": 301305,
    "max": 3,
    "min": 3,
    "probability": 1
  },
  {
    "dropType": "Random",
    "groupCode": 111,
    "itemCode": 301329,
    "max": 3,
    "min": 3,
    "probability": 1
  },
  {
    "dropType": "Exclusive",
    "groupCode": 107,
    "itemCode": 401401,
    "max": 1,
    "min": 1,
    "probability": 2
  },
  {
    "dropType": "Random",
    "groupCode": 107,
    "itemCode": 401304,
    "max": 1,
    "min": 1,
    "probability": 2
  },
  {
    "dropType": "Random",
    "groupCode": 107,
    "itemCode": 401209,
    "max": 1,
    "min": 1,
    "probability": 2
  },
  {
    "dropType": "Random",
    "groupCode": 107,
    "itemCode": 401208,
    "max": 1,
    "min": 1,
    "probability": 2
  },
  {
    "dropType": "Random",
    "groupCode": 107,
    "itemCode": 302312,
    "max": 3,
    "min": 3,
    "probability": 2
  },
  {
    "dropType": "Random",
    "groupCode": 107,
    "itemCode": 301305,
    "max": 3,
    "min": 3,
    "probability": 2
  },
  {
    "dropType": "Random",
    "groupCode": 107,
    "itemCode": 301329,
    "max": 3,
    "min": 3,
    "probability": 2
  },
  {
    "dropType": "Exclusive",
    "groupCode": 301,
    "itemCode": 401103,
    "max": 1,
    "min": 1,
    "probability": 1
  },
  {
    "dropType": "Probability",
    "groupCode": 301,
    "itemCode": 409401,
    "max": 1,
    "min": 1,
    "probability": 30
  },
  {
    "dropType": "Random",
    "groupCode": 301,
    "itemCode": 301111,
    "max": 1,
    "min": 1,
    "probability": 3
  },
  {
    "dropType": "Random",
    "groupCode": 301,
    "itemCode": 205101,
    "max": 1,
    "min": 1,
    "probability": 1
  },
  {
    "dropType": "Exclusive",
    "groupCode": 302,
    "itemCode": 502101,
    "max": 1,
    "min": 1,
    "probability": 1
  },
  {
    "dropType": "Probability",
    "groupCode": 302,
    "itemCode": 409401,
    "max": 1,
    "min": 1,
    "probability": 30
  },
  {
    "dropType": "Random",
    "groupCode": 302,
    "itemCode": 401103,
    "max": 1,
    "min": 1,
    "probability": 30
  },
  {
    "dropType": "Random",
    "groupCode": 302,
    "itemCode": 205108,
    "max": 1,
    "min": 1,
    "probability": 15
  },
  {
    "dropType": "Random",
    "groupCode": 302,
    "itemCode": 205106,
    "max": 1,
    "min": 1,
    "probability": 15
  },
  {
    "dropType": "Random",
    "groupCode": 302,
    "itemCode": 401101,
    "max": 1,
    "min": 1,
    "probability": 6
  },
  {
    "dropType": "Random",
    "groupCode": 302,
    "itemCode": 401104,
    "max": 1,
    "min": 1,
    "probability": 6
  },
  {
    "dropType": "Random",
    "groupCode": 302,
    "itemCode": 101101,
    "max": 1,
    "min": 1,
    "probability": 6
  },
  {
    "dropType": "Random",
    "groupCode": 302,
    "itemCode": 203102,
    "max": 1,
    "min": 1,
    "probability": 6
  },
  {
    "dropType": "Random",
    "groupCode": 302,
    "itemCode": 205110,
    "max": 1,
    "min": 1,
    "probability": 6
  },
  {
    "dropType": "Random",
    "groupCode": 302,
    "itemCode": 401121,
    "max": 1,
    "min": 1,
    "probability": 6
  },
  {
    "dropType": "Random",
    "groupCode": 302,
    "itemCode": 401105,
    "max": 1,
    "min": 1,
    "probability": 3
  },
  {
    "dropType": "Random",
    "groupCode": 302,
    "itemCode": 205107,
    "max": 1,
    "min": 1,
    "probability": 3
  },
  {
    "dropType": "Random",
    "groupCode": 302,
    "itemCode": 105102,
    "max": 1,
    "min": 1,
    "probability": 3
  },
  {
    "dropType": "Random",
    "groupCode": 302,
    "itemCode": 120101,
    "max": 1,
    "min": 1,
    "probability": 3
  },
  {
    "dropType": "Random",
    "groupCode": 302,
    "itemCode": 201101,
    "max": 1,
    "min": 1,
    "probability": 3
  },
  {
    "dropType": "Random",
    "groupCode": 302,
    "itemCode": 201102,
    "max": 1,
    "min": 1,
    "probability": 3
  },
  {
    "dropType": "Random",
    "groupCode": 302,
    "itemCode": 401112,
    "max": 1,
    "min": 1,
    "probability": 3
  },
  {
    "dropType": "Random",
    "groupCode": 302,
    "itemCode": 113104,
    "max": 1,
    "min": 1,
    "probability": 3
  },
  {
    "dropType": "Random",
    "groupCode": 302,
    "itemCode": 401116,
    "max": 1,
    "min": 1,
    "probability": 3
  },
  {
    "dropType": "Random",
    "groupCode": 302,
    "itemCode": 401117,
    "max": 1,
    "min": 1,
    "probability": 3
  },
  {
    "dropType": "Random",
    "groupCode": 302,
    "itemCode": 204101,
    "max": 1,
    "min": 1,
    "probability": 3
  },
  {
    "dropType": "Random",
    "groupCode": 302,
    "itemCode": 113101,
    "max": 1,
    "min": 1,
    "probability": 3
  },
  {
    "dropType": "Random",
    "groupCode": 302,
    "itemCode": 108103,
    "max": 1,
    "min": 1,
    "probability": 3
  },
  {
    "dropType": "Exclusive",
    "groupCode": 303,
    "itemCode": 301111,
    "max": 1,
    "min": 1,
    "probability": 1
  },
  {
    "dropType": "Probability",
    "groupCode": 303,
    "itemCode": 409401,
    "max": 1,
    "min": 1,
    "probability": 35
  },
  {
    "dropType": "Random",
    "groupCode": 303,
    "itemCode": 502102,
    "max": 2,
    "min": 2,
    "probability": 4
  },
  {
    "dropType": "Random",
    "groupCode": 303,
    "itemCode": 502103,
    "max": 2,
    "min": 2,
    "probability": 4
  },
  {
    "dropType": "Random",
    "groupCode": 303,
    "itemCode": 202103,
    "max": 1,
    "min": 1,
    "probability": 4
  },
  {
    "dropType": "Random",
    "groupCode": 303,
    "itemCode": 401113,
    "max": 1,
    "min": 1,
    "probability": 4
  },
  {
    "dropType": "Random",
    "groupCode": 303,
    "itemCode": 205102,
    "max": 2,
    "min": 2,
    "probability": 4
  },
  {
    "dropType": "Random",
    "groupCode": 303,
    "itemCode": 401118,
    "max": 2,
    "min": 2,
    "probability": 4
  },
  {
    "dropType": "Random",
    "groupCode": 303,
    "itemCode": 112104,
    "max": 2,
    "min": 2,
    "probability": 4
  },
  {
    "dropType": "Random",
    "groupCode": 303,
    "itemCode": 113102,
    "max": 1,
    "min": 1,
    "probability": 4
  },
  {
    "dropType": "Random",
    "groupCode": 303,
    "itemCode": 101102,
    "max": 1,
    "min": 1,
    "probability": 2
  },
  {
    "dropType": "Random",
    "groupCode": 303,
    "itemCode": 502104,
    "max": 1,
    "min": 1,
    "probability": 2
  },
  {
    "dropType": "Random",
    "groupCode": 303,
    "itemCode": 204103,
    "max": 1,
    "min": 1,
    "probability": 2
  },
  {
    "dropType": "Random",
    "groupCode": 303,
    "itemCode": 107101,
    "max": 1,
    "min": 1,
    "probability": 2
  },
  {
    "dropType": "Random",
    "groupCode": 303,
    "itemCode": 401109,
    "max": 1,
    "min": 1,
    "probability": 2
  },
  {
    "dropType": "Random",
    "groupCode": 303,
    "itemCode": 401111,
    "max": 1,
    "min": 1,
    "probability": 2
  },
  {
    "dropType": "Random",
    "groupCode": 303,
    "itemCode": 201104,
    "max": 1,
    "min": 1,
    "probability": 2
  },
  {
    "dropType": "Random",
    "groupCode": 303,
    "itemCode": 101104,
    "max": 1,
    "min": 1,
    "probability": 2
  },
  {
    "dropType": "Random",
    "groupCode": 303,
    "itemCode": 401120,
    "max": 1,
    "min": 1,
    "probability": 2
  },
  {
    "dropType": "Random",
    "groupCode": 303,
    "itemCode": 119101,
    "max": 1,
    "min": 1,
    "probability": 2
  },
  {
    "dropType": "Random",
    "groupCode": 303,
    "itemCode": 112103,
    "max": 1,
    "min": 1,
    "probability": 2
  },
  {
    "dropType": "Random",
    "groupCode": 303,
    "itemCode": 104101,
    "max": 1,
    "min": 1,
    "probability": 2
  },
  {
    "dropType": "Exclusive",
    "groupCode": 304,
    "itemCode": 401103,
    "max": 1,
    "min": 1,
    "probability": 1
  },
  {
    "dropType": "Probability",
    "groupCode": 304,
    "itemCode": 409401,
    "max": 1,
    "min": 1,
    "probability": 35
  },
  {
    "dropType": "Random",
    "groupCode": 304,
    "itemCode": 401110,
    "max": 1,
    "min": 1,
    "probability": 4
  },
  {
    "dropType": "Random",
    "groupCode": 304,
    "itemCode": 401107,
    "max": 1,
    "min": 1,
    "probability": 4
  },
  {
    "dropType": "Random",
    "groupCode": 304,
    "itemCode": 401114,
    "max": 2,
    "min": 2,
    "probability": 4
  },
  {
    "dropType": "Random",
    "groupCode": 304,
    "itemCode": 401106,
    "max": 1,
    "min": 1,
    "probability": 4
  },
  {
    "dropType": "Random",
    "groupCode": 304,
    "itemCode": 105103,
    "max": 1,
    "min": 1,
    "probability": 2
  },
  {
    "dropType": "Random",
    "groupCode": 304,
    "itemCode": 401108,
    "max": 1,
    "min": 1,
    "probability": 2
  },
  {
    "dropType": "Random",
    "groupCode": 304,
    "itemCode": 108102,
    "max": 1,
    "min": 1,
    "probability": 2
  },
  {
    "dropType": "Random",
    "groupCode": 304,
    "itemCode": 202101,
    "max": 1,
    "min": 1,
    "probability": 2
  },
  {
    "dropType": "Random",
    "groupCode": 304,
    "itemCode": 202106,
    "max": 1,
    "min": 1,
    "probability": 2
  },
  {
    "dropType": "Random",
    "groupCode": 304,
    "itemCode": 202105,
    "max": 1,
    "min": 1,
    "probability": 2
  },
  {
    "dropType": "Random",
    "groupCode": 304,
    "itemCode": 203101,
    "max": 1,
    "min": 1,
    "probability": 2
  },
  {
    "dropType": "Random",
    "groupCode": 304,
    "itemCode": 203104,
    "max": 1,
    "min": 1,
    "probability": 2
  },
  {
    "dropType": "Random",
    "groupCode": 304,
    "itemCode": 204102,
    "max": 1,
    "min": 1,
    "probability": 2
  },
  {
    "dropType": "Random",
    "groupCode": 304,
    "itemCode": 205103,
    "max": 1,
    "min": 1,
    "probability": 2
  },
  {
    "dropType": "Random",
    "groupCode": 304,
    "itemCode": 205105,
    "max": 1,
    "min": 1,
    "probability": 2
  },
  {
    "dropType": "Random",
    "groupCode": 304,
    "itemCode": 205109,
    "max": 1,
    "min": 1,
    "probability": 2
  },
  {
    "dropType": "Exclusive",
    "groupCode": 305,
    "itemCode": 301111,
    "max": 1,
    "min": 1,
    "probability": 1
  },
  {
    "dropType": "Exclusive",
    "groupCode": 305,
    "itemCode": 401103,
    "max": 1,
    "min": 1,
    "probability": 1
  },
  {
    "dropType": "Probability",
    "groupCode": 305,
    "itemCode": 409401,
    "max": 1,
    "min": 1,
    "probability": 45
  },
  {
    "dropType": "Random",
    "groupCode": 305,
    "itemCode": 401201,
    "max": 2,
    "min": 2,
    "probability": 55
  },
  {
    "dropType": "Random",
    "groupCode": 305,
    "itemCode": 401202,
    "max": 2,
    "min": 2,
    "probability": 55
  },
  {
    "dropType": "Random",
    "groupCode": 305,
    "itemCode": 401203,
    "max": 2,
    "min": 2,
    "probability": 55
  },
  {
    "dropType": "Random",
    "groupCode": 305,
    "itemCode": 401217,
    "max": 1,
    "min": 1,
    "probability": 55
  },
  {
    "dropType": "Random",
    "groupCode": 305,
    "itemCode": 401206,
    "max": 1,
    "min": 1,
    "probability": 55
  },
  {
    "dropType": "Random",
    "groupCode": 305,
    "itemCode": 401210,
    "max": 1,
    "min": 1,
    "probability": 55
  },
  {
    "dropType": "Random",
    "groupCode": 305,
    "itemCode": 401211,
    "max": 1,
    "min": 1,
    "probability": 55
  },
  {
    "dropType": "Random",
    "groupCode": 305,
    "itemCode": 401212,
    "max": 1,
    "min": 1,
    "probability": 55
  },
  {
    "dropType": "Random",
    "groupCode": 305,
    "itemCode": 401213,
    "max": 2,
    "min": 2,
    "probability": 55
  },
  {
    "dropType": "Random",
    "groupCode": 305,
    "itemCode": 401214,
    "max": 1,
    "min": 1,
    "probability": 55
  },
  {
    "dropType": "Random",
    "groupCode": 305,
    "itemCode": 401215,
    "max": 2,
    "min": 2,
    "probability": 55
  },
  {
    "dropType": "Random",
    "groupCode": 305,
    "itemCode": 205209,
    "max": 1,
    "min": 1,
    "probability": 55
  },
  {
    "dropType": "Random",
    "groupCode": 305,
    "itemCode": 401216,
    "max": 1,
    "min": 1,
    "probability": 55
  },
  {
    "dropType": "Random",
    "groupCode": 305,
    "itemCode": 401218,
    "max": 1,
    "min": 1,
    "probability": 55
  },
  {
    "dropType": "Random",
    "groupCode": 305,
    "itemCode": 401302,
    "max": 1,
    "min": 1,
    "probability": 55
  },
  {
    "dropType": "Random",
    "groupCode": 305,
    "itemCode": 401303,
    "max": 1,
    "min": 1,
    "probability": 55
  },
  {
    "dropType": "Random",
    "groupCode": 305,
    "itemCode": 401305,
    "max": 1,
    "min": 1,
    "probability": 55
  },
  {
    "dropType": "Random",
    "groupCode": 305,
    "itemCode": 401306,
    "max": 1,
    "min": 1,
    "probability": 55
  },
  {
    "dropType": "Random",
    "groupCode": 305,
    "itemCode": 401208,
    "max": 1,
    "min": 1,
    "probability": 42
  },
  {
    "dropType": "Random",
    "groupCode": 305,
    "itemCode": 401209,
    "max": 1,
    "min": 1,
    "probability": 21
  },
  {
    "dropType": "Exclusive",
    "groupCode": 309,
    "itemCode": 301111,
    "max": 1,
    "min": 1,
    "probability": 1
  },
  {
    "dropType": "Exclusive",
    "groupCode": 309,
    "itemCode": 401103,
    "max": 1,
    "min": 1,
    "probability": 1
  },
  {
    "dropType": "Probability",
    "groupCode": 309,
    "itemCode": 409401,
    "max": 1,
    "min": 1,
    "probability": 45
  },
  {
    "dropType": "Random",
    "groupCode": 309,
    "itemCode": 401201,
    "max": 2,
    "min": 2,
    "probability": 55
  },
  {
    "dropType": "Random",
    "groupCode": 309,
    "itemCode": 401202,
    "max": 2,
    "min": 2,
    "probability": 55
  },
  {
    "dropType": "Random",
    "groupCode": 309,
    "itemCode": 401203,
    "max": 2,
    "min": 2,
    "probability": 55
  },
  {
    "dropType": "Random",
    "groupCode": 309,
    "itemCode": 401217,
    "max": 1,
    "min": 1,
    "probability": 55
  },
  {
    "dropType": "Random",
    "groupCode": 309,
    "itemCode": 401206,
    "max": 1,
    "min": 1,
    "probability": 55
  },
  {
    "dropType": "Random",
    "groupCode": 309,
    "itemCode": 401210,
    "max": 1,
    "min": 1,
    "probability": 55
  },
  {
    "dropType": "Random",
    "groupCode": 309,
    "itemCode": 401211,
    "max": 1,
    "min": 1,
    "probability": 55
  },
  {
    "dropType": "Random",
    "groupCode": 309,
    "itemCode": 401212,
    "max": 1,
    "min": 1,
    "probability": 55
  },
  {
    "dropType": "Random",
    "groupCode": 309,
    "itemCode": 401213,
    "max": 2,
    "min": 2,
    "probability": 55
  },
  {
    "dropType": "Random",
    "groupCode": 309,
    "itemCode": 401214,
    "max": 1,
    "min": 1,
    "probability": 55
  },
  {
    "dropType": "Random",
    "groupCode": 309,
    "itemCode": 401215,
    "max": 2,
    "min": 2,
    "probability": 55
  },
  {
    "dropType": "Random",
    "groupCode": 309,
    "itemCode": 205209,
    "max": 1,
    "min": 1,
    "probability": 55
  },
  {
    "dropType": "Random",
    "groupCode": 309,
    "itemCode": 401216,
    "max": 1,
    "min": 1,
    "probability": 55
  },
  {
    "dropType": "Random",
    "groupCode": 309,
    "itemCode": 401218,
    "max": 1,
    "min": 1,
    "probability": 55
  },
  {
    "dropType": "Random",
    "groupCode": 309,
    "itemCode": 401302,
    "max": 1,
    "min": 1,
    "probability": 55
  },
  {
    "dropType": "Random",
    "groupCode": 309,
    "itemCode": 401303,
    "max": 1,
    "min": 1,
    "probability": 55
  },
  {
    "dropType": "Random",
    "groupCode": 309,
    "itemCode": 401305,
    "max": 1,
    "min": 1,
    "probability": 55
  },
  {
    "dropType": "Random",
    "groupCode": 309,
    "itemCode": 401306,
    "max": 1,
    "min": 1,
    "probability": 55
  },
  {
    "dropType": "Random",
    "groupCode": 309,
    "itemCode": 401208,
    "max": 1,
    "min": 1,
    "probability": 42
  },
  {
    "dropType": "Random",
    "groupCode": 309,
    "itemCode": 401209,
    "max": 1,
    "min": 1,
    "probability": 21
  },
  {
    "dropType": "Exclusive",
    "groupCode": 306,
    "itemCode": 301111,
    "max": 1,
    "min": 1,
    "probability": 1
  },
  {
    "dropType": "Exclusive",
    "groupCode": 306,
    "itemCode": 401103,
    "max": 1,
    "min": 1,
    "probability": 1
  },
  {
    "dropType": "Probability",
    "groupCode": 306,
    "itemCode": 409401,
    "max": 1,
    "min": 1,
    "probability": 50
  },
  {
    "dropType": "Random",
    "groupCode": 306,
    "itemCode": 401201,
    "max": 2,
    "min": 2,
    "probability": 3
  },
  {
    "dropType": "Random",
    "groupCode": 306,
    "itemCode": 401202,
    "max": 2,
    "min": 2,
    "probability": 3
  },
  {
    "dropType": "Random",
    "groupCode": 306,
    "itemCode": 401203,
    "max": 2,
    "min": 2,
    "probability": 3
  },
  {
    "dropType": "Random",
    "groupCode": 306,
    "itemCode": 401217,
    "max": 1,
    "min": 1,
    "probability": 3
  },
  {
    "dropType": "Random",
    "groupCode": 306,
    "itemCode": 401210,
    "max": 1,
    "min": 1,
    "probability": 3
  },
  {
    "dropType": "Random",
    "groupCode": 306,
    "itemCode": 401211,
    "max": 1,
    "min": 1,
    "probability": 3
  },
  {
    "dropType": "Random",
    "groupCode": 306,
    "itemCode": 401212,
    "max": 1,
    "min": 1,
    "probability": 3
  },
  {
    "dropType": "Random",
    "groupCode": 306,
    "itemCode": 401213,
    "max": 2,
    "min": 2,
    "probability": 3
  },
  {
    "dropType": "Random",
    "groupCode": 306,
    "itemCode": 401214,
    "max": 1,
    "min": 1,
    "probability": 3
  },
  {
    "dropType": "Random",
    "groupCode": 306,
    "itemCode": 401215,
    "max": 2,
    "min": 2,
    "probability": 3
  },
  {
    "dropType": "Random",
    "groupCode": 306,
    "itemCode": 401206,
    "max": 1,
    "min": 1,
    "probability": 2
  },
  {
    "dropType": "Random",
    "groupCode": 306,
    "itemCode": 401216,
    "max": 1,
    "min": 1,
    "probability": 2
  },
  {
    "dropType": "Random",
    "groupCode": 306,
    "itemCode": 401218,
    "max": 1,
    "min": 1,
    "probability": 2
  },
  {
    "dropType": "Random",
    "groupCode": 306,
    "itemCode": 401302,
    "max": 1,
    "min": 1,
    "probability": 2
  },
  {
    "dropType": "Random",
    "groupCode": 306,
    "itemCode": 401303,
    "max": 1,
    "min": 1,
    "probability": 2
  },
  {
    "dropType": "Random",
    "groupCode": 306,
    "itemCode": 401305,
    "max": 1,
    "min": 1,
    "probability": 2
  },
  {
    "dropType": "Random",
    "groupCode": 306,
    "itemCode": 401306,
    "max": 1,
    "min": 1,
    "probability": 2
  },
  {
    "dropType": "Random",
    "groupCode": 306,
    "itemCode": 501401,
    "max": 1,
    "min": 1,
    "probability": 1
  },
  {
    "dropType": "Exclusive",
    "groupCode": 308,
    "itemCode": 301111,
    "max": 1,
    "min": 1,
    "probability": 1
  },
  {
    "dropType": "Exclusive",
    "groupCode": 308,
    "itemCode": 401103,
    "max": 1,
    "min": 1,
    "probability": 1
  },
  {
    "dropType": "Probability",
    "groupCode": 308,
    "itemCode": 409401,
    "max": 1,
    "min": 1,
    "probability": 50
  },
  {
    "dropType": "Random",
    "groupCode": 308,
    "itemCode": 401201,
    "max": 2,
    "min": 2,
    "probability": 5
  },
  {
    "dropType": "Random",
    "groupCode": 308,
    "itemCode": 401202,
    "max": 2,
    "min": 2,
    "probability": 5
  },
  {
    "dropType": "Random",
    "groupCode": 308,
    "itemCode": 401203,
    "max": 2,
    "min": 2,
    "probability": 5
  },
  {
    "dropType": "Random",
    "groupCode": 308,
    "itemCode": 401217,
    "max": 1,
    "min": 1,
    "probability": 5
  },
  {
    "dropType": "Random",
    "groupCode": 308,
    "itemCode": 401206,
    "max": 1,
    "min": 1,
    "probability": 5
  },
  {
    "dropType": "Random",
    "groupCode": 308,
    "itemCode": 401210,
    "max": 1,
    "min": 1,
    "probability": 5
  },
  {
    "dropType": "Random",
    "groupCode": 308,
    "itemCode": 401211,
    "max": 1,
    "min": 1,
    "probability": 5
  },
  {
    "dropType": "Random",
    "groupCode": 308,
    "itemCode": 401212,
    "max": 1,
    "min": 1,
    "probability": 5
  },
  {
    "dropType": "Random",
    "groupCode": 308,
    "itemCode": 401213,
    "max": 2,
    "min": 2,
    "probability": 5
  },
  {
    "dropType": "Random",
    "groupCode": 308,
    "itemCode": 401214,
    "max": 1,
    "min": 1,
    "probability": 5
  },
  {
    "dropType": "Random",
    "groupCode": 308,
    "itemCode": 401215,
    "max": 2,
    "min": 2,
    "probability": 5
  },
  {
    "dropType": "Random",
    "groupCode": 308,
    "itemCode": 401216,
    "max": 1,
    "min": 1,
    "probability": 5
  },
  {
    "dropType": "Random",
    "groupCode": 308,
    "itemCode": 401218,
    "max": 1,
    "min": 1,
    "probability": 5
  },
  {
    "dropType": "Random",
    "groupCode": 308,
    "itemCode": 401302,
    "max": 1,
    "min": 1,
    "probability": 5
  },
  {
    "dropType": "Random",
    "groupCode": 308,
    "itemCode": 401303,
    "max": 1,
    "min": 1,
    "probability": 5
  },
  {
    "dropType": "Random",
    "groupCode": 308,
    "itemCode": 401304,
    "max": 1,
    "min": 1,
    "probability": 5
  },
  {
    "dropType": "Random",
    "groupCode": 308,
    "itemCode": 401305,
    "max": 1,
    "min": 1,
    "probability": 5
  },
  {
    "dropType": "Random",
    "groupCode": 308,
    "itemCode": 401306,
    "max": 1,
    "min": 1,
    "probability": 5
  },
  {
    "dropType": "Random",
    "groupCode": 308,
    "itemCode": 501401,
    "max": 1,
    "min": 1,
    "probability": 5
  },
  {
    "dropType": "Random",
    "groupCode": 308,
    "itemCode": 401208,
    "max": 1,
    "min": 1,
    "probability": 3
  },
  {
    "dropType": "Random",
    "groupCode": 308,
    "itemCode": 401209,
    "max": 1,
    "min": 1,
    "probability": 3
  },
  {
    "dropType": "Random",
    "groupCode": 308,
    "itemCode": 401403,
    "max": 1,
    "min": 1,
    "probability": 2
  },
  {
    "dropType": "Random",
    "groupCode": 201,
    "itemCode": 301205,
    "max": 1,
    "min": 1,
    "probability": 10
  },
  {
    "dropType": "Random",
    "groupCode": 201,
    "itemCode": 301209,
    "max": 1,
    "min": 1,
    "probability": 10
  },
  {
    "dropType": "Random",
    "groupCode": 201,
    "itemCode": 301230,
    "max": 1,
    "min": 1,
    "probability": 10
  },
  {
    "dropType": "Random",
    "groupCode": 201,
    "itemCode": 301232,
    "max": 1,
    "min": 1,
    "probability": 10
  },
  {
    "dropType": "Random",
    "groupCode": 201,
    "itemCode": 301234,
    "max": 1,
    "min": 1,
    "probability": 10
  },
  {
    "dropType": "Random",
    "groupCode": 201,
    "itemCode": 301237,
    "max": 1,
    "min": 1,
    "probability": 10
  },
  {
    "dropType": "Random",
    "groupCode": 201,
    "itemCode": 301218,
    "max": 1,
    "min": 1,
    "probability": 10
  },
  {
    "dropType": "Probability",
    "groupCode": 202,
    "itemCode": 409401,
    "max": 1,
    "min": 1,
    "probability": 35
  },
  {
    "dropType": "Random",
    "groupCode": 202,
    "itemCode": 301301,
    "max": 1,
    "min": 1,
    "probability": 10
  },
  {
    "dropType": "Random",
    "groupCode": 202,
    "itemCode": 301302,
    "max": 1,
    "min": 1,
    "probability": 10
  },
  {
    "dropType": "Random",
    "groupCode": 202,
    "itemCode": 301303,
    "max": 1,
    "min": 1,
    "probability": 10
  },
  {
    "dropType": "Random",
    "groupCode": 202,
    "itemCode": 301304,
    "max": 1,
    "min": 1,
    "probability": 10
  },
  {
    "dropType": "Random",
    "groupCode": 202,
    "itemCode": 301306,
    "max": 1,
    "min": 1,
    "probability": 10
  },
  {
    "dropType": "Random",
    "groupCode": 202,
    "itemCode": 301307,
    "max": 1,
    "min": 1,
    "probability": 10
  },
  {
    "dropType": "Random",
    "groupCode": 202,
    "itemCode": 301308,
    "max": 1,
    "min": 1,
    "probability": 10
  },
  {
    "dropType": "Random",
    "groupCode": 202,
    "itemCode": 301309,
    "max": 1,
    "min": 1,
    "probability": 10
  },
  {
    "dropType": "Random",
    "groupCode": 202,
    "itemCode": 301311,
    "max": 1,
    "min": 1,
    "probability": 10
  },
  {
    "dropType": "Random",
    "groupCode": 202,
    "itemCode": 301312,
    "max": 1,
    "min": 1,
    "probability": 10
  },
  {
    "dropType": "Random",
    "groupCode": 202,
    "itemCode": 301314,
    "max": 1,
    "min": 1,
    "probability": 10
  },
  {
    "dropType": "Random",
    "groupCode": 202,
    "itemCode": 301315,
    "max": 1,
    "min": 1,
    "probability": 10
  },
  {
    "dropType": "Random",
    "groupCode": 202,
    "itemCode": 301316,
    "max": 1,
    "min": 1,
    "probability": 10
  },
  {
    "dropType": "Random",
    "groupCode": 202,
    "itemCode": 301317,
    "max": 1,
    "min": 1,
    "probability": 10
  },
  {
    "dropType": "Random",
    "groupCode": 202,
    "itemCode": 301318,
    "max": 1,
    "min": 1,
    "probability": 10
  },
  {
    "dropType": "Random",
    "groupCode": 202,
    "itemCode": 301319,
    "max": 1,
    "min": 1,
    "probability": 10
  },
  {
    "dropType": "Random",
    "groupCode": 202,
    "itemCode": 301323,
    "max": 1,
    "min": 1,
    "probability": 10
  },
  {
    "dropType": "Random",
    "groupCode": 202,
    "itemCode": 301325,
    "max": 1,
    "min": 1,
    "probability": 10
  },
  {
    "dropType": "Random",
    "groupCode": 202,
    "itemCode": 301326,
    "max": 1,
    "min": 1,
    "probability": 10
  },
  {
    "dropType": "Random",
    "groupCode": 202,
    "itemCode": 301327,
    "max": 1,
    "min": 1,
    "probability": 10
  },
  {
    "dropType": "Random",
    "groupCode": 202,
    "itemCode": 301328,
    "max": 1,
    "min": 1,
    "probability": 10
  },
  {
    "dropType": "Random",
    "groupCode": 202,
    "itemCode": 301330,
    "max": 1,
    "min": 1,
    "probability": 10
  },
  {
    "dropType": "Random",
    "groupCode": 202,
    "itemCode": 301331,
    "max": 1,
    "min": 1,
    "probability": 10
  },
  {
    "dropType": "Random",
    "groupCode": 203,
    "itemCode": 301301,
    "max": 1,
    "min": 1,
    "probability": 40
  },
  {
    "dropType": "Random",
    "groupCode": 203,
    "itemCode": 301302,
    "max": 1,
    "min": 1,
    "probability": 40
  },
  {
    "dropType": "Random",
    "groupCode": 203,
    "itemCode": 301303,
    "max": 1,
    "min": 1,
    "probability": 40
  },
  {
    "dropType": "Random",
    "groupCode": 203,
    "itemCode": 301304,
    "max": 1,
    "min": 1,
    "probability": 40
  },
  {
    "dropType": "Random",
    "groupCode": 203,
    "itemCode": 301306,
    "max": 1,
    "min": 1,
    "probability": 40
  },
  {
    "dropType": "Random",
    "groupCode": 203,
    "itemCode": 301307,
    "max": 1,
    "min": 1,
    "probability": 40
  },
  {
    "dropType": "Random",
    "groupCode": 203,
    "itemCode": 301308,
    "max": 1,
    "min": 1,
    "probability": 40
  },
  {
    "dropType": "Random",
    "groupCode": 203,
    "itemCode": 301309,
    "max": 1,
    "min": 1,
    "probability": 40
  },
  {
    "dropType": "Random",
    "groupCode": 203,
    "itemCode": 301311,
    "max": 1,
    "min": 1,
    "probability": 40
  },
  {
    "dropType": "Random",
    "groupCode": 203,
    "itemCode": 301312,
    "max": 1,
    "min": 1,
    "probability": 40
  },
  {
    "dropType": "Random",
    "groupCode": 203,
    "itemCode": 301314,
    "max": 1,
    "min": 1,
    "probability": 40
  },
  {
    "dropType": "Random",
    "groupCode": 203,
    "itemCode": 301315,
    "max": 1,
    "min": 1,
    "probability": 40
  },
  {
    "dropType": "Random",
    "groupCode": 203,
    "itemCode": 301316,
    "max": 1,
    "min": 1,
    "probability": 40
  },
  {
    "dropType": "Random",
    "groupCode": 203,
    "itemCode": 301317,
    "max": 1,
    "min": 1,
    "probability": 40
  },
  {
    "dropType": "Random",
    "groupCode": 203,
    "itemCode": 301318,
    "max": 1,
    "min": 1,
    "probability": 40
  },
  {
    "dropType": "Random",
    "groupCode": 203,
    "itemCode": 301319,
    "max": 1,
    "min": 1,
    "probability": 40
  },
  {
    "dropType": "Random",
    "groupCode": 203,
    "itemCode": 301323,
    "max": 1,
    "min": 1,
    "probability": 40
  },
  {
    "dropType": "Random",
    "groupCode": 203,
    "itemCode": 301325,
    "max": 1,
    "min": 1,
    "probability": 40
  },
  {
    "dropType": "Random",
    "groupCode": 203,
    "itemCode": 301326,
    "max": 1,
    "min": 1,
    "probability": 40
  },
  {
    "dropType": "Random",
    "groupCode": 203,
    "itemCode": 301327,
    "max": 1,
    "min": 1,
    "probability": 40
  },
  {
    "dropType": "Random",
    "groupCode": 203,
    "itemCode": 301328,
    "max": 1,
    "min": 1,
    "probability": 40
  },
  {
    "dropType": "Random",
    "groupCode": 203,
    "itemCode": 301330,
    "max": 1,
    "min": 1,
    "probability": 40
  },
  {
    "dropType": "Random",
    "groupCode": 203,
    "itemCode": 301331,
    "max": 1,
    "min": 1,
    "probability": 40
  },
  {
    "dropType": "Random",
    "groupCode": 203,
    "itemCode": 401208,
    "max": 1,
    "min": 1,
    "probability": 54
  },
  {
    "dropType": "Random",
    "groupCode": 203,
    "itemCode": 401209,
    "max": 1,
    "min": 1,
    "probability": 27
  },
  {
    "dropType": "Random",
    "groupCode": 203,
    "itemCode": 401304,
    "max": 1,
    "min": 1,
    "probability": 27
  },
  {
    "dropType": "Random",
    "groupCode": 203,
    "itemCode": 401403,
    "max": 1,
    "min": 1,
    "probability": 20
  },
  {
    "dropType": "Random",
    "groupCode": 203,
    "itemCode": 201404,
    "max": 1,
    "min": 1,
    "probability": 20
  },
  {
    "dropType": "Random",
    "groupCode": 203,
    "itemCode": 201405,
    "max": 1,
    "min": 1,
    "probability": 20
  },
  {
    "dropType": "Random",
    "groupCode": 203,
    "itemCode": 201406,
    "max": 1,
    "min": 1,
    "probability": 20
  },
  {
    "dropType": "Random",
    "groupCode": 203,
    "itemCode": 201410,
    "max": 1,
    "min": 1,
    "probability": 20
  },
  {
    "dropType": "Random",
    "groupCode": 203,
    "itemCode": 201417,
    "max": 1,
    "min": 1,
    "probability": 20
  },
  {
    "dropType": "Random",
    "groupCode": 203,
    "itemCode": 202405,
    "max": 1,
    "min": 1,
    "probability": 20
  },
  {
    "dropType": "Random",
    "groupCode": 203,
    "itemCode": 202412,
    "max": 1,
    "min": 1,
    "probability": 20
  },
  {
    "dropType": "Random",
    "groupCode": 203,
    "itemCode": 202415,
    "max": 1,
    "min": 1,
    "probability": 20
  },
  {
    "dropType": "Random",
    "groupCode": 203,
    "itemCode": 203306,
    "max": 1,
    "min": 1,
    "probability": 20
  },
  {
    "dropType": "Random",
    "groupCode": 203,
    "itemCode": 203402,
    "max": 1,
    "min": 1,
    "probability": 20
  },
  {
    "dropType": "Random",
    "groupCode": 203,
    "itemCode": 203405,
    "max": 1,
    "min": 1,
    "probability": 20
  },
  {
    "dropType": "Random",
    "groupCode": 203,
    "itemCode": 203406,
    "max": 1,
    "min": 1,
    "probability": 20
  },
  {
    "dropType": "Random",
    "groupCode": 203,
    "itemCode": 203410,
    "max": 1,
    "min": 1,
    "probability": 20
  },
  {
    "dropType": "Random",
    "groupCode": 203,
    "itemCode": 204304,
    "max": 1,
    "min": 1,
    "probability": 20
  },
  {
    "dropType": "Random",
    "groupCode": 203,
    "itemCode": 204408,
    "max": 1,
    "min": 1,
    "probability": 20
  },
  {
    "dropType": "Random",
    "groupCode": 203,
    "itemCode": 204411,
    "max": 1,
    "min": 1,
    "probability": 20
  },
  {
    "dropType": "Random",
    "groupCode": 203,
    "itemCode": 502402,
    "max": 1,
    "min": 1,
    "probability": 10
  },
  {
    "dropType": "Random",
    "groupCode": 203,
    "itemCode": 502404,
    "max": 1,
    "min": 1,
    "probability": 10
  },
  {
    "dropType": "Random",
    "groupCode": 203,
    "itemCode": 502405,
    "max": 1,
    "min": 1,
    "probability": 10
  },
  {
    "dropType": "Random",
    "groupCode": 203,
    "itemCode": 502406,
    "max": 1,
    "min": 1,
    "probability": 10
  },
  {
    "dropType": "Random",
    "groupCode": 203,
    "itemCode": 502502,
    "max": 1,
    "min": 1,
    "probability": 10
  },
  {
    "dropType": "Probability",
    "groupCode": 203,
    "itemCode": 409401,
    "max": 1,
    "min": 1,
    "probability": 35
  },
  {
    "dropType": "Random",
    "groupCode": 204,
    "itemCode": 301401,
    "max": 1,
    "min": 1,
    "probability": 80
  },
  {
    "dropType": "Random",
    "groupCode": 204,
    "itemCode": 401208,
    "max": 1,
    "min": 1,
    "probability": 58
  },
  {
    "dropType": "Random",
    "groupCode": 204,
    "itemCode": 401209,
    "max": 1,
    "min": 1,
    "probability": 58
  },
  {
    "dropType": "Random",
    "groupCode": 204,
    "itemCode": 401304,
    "max": 1,
    "min": 1,
    "probability": 58
  },
  {
    "dropType": "Random",
    "groupCode": 204,
    "itemCode": 401403,
    "max": 1,
    "min": 1,
    "probability": 29
  },
  {
    "dropType": "Random",
    "groupCode": 204,
    "itemCode": 201404,
    "max": 1,
    "min": 1,
    "probability": 40
  },
  {
    "dropType": "Random",
    "groupCode": 204,
    "itemCode": 201405,
    "max": 1,
    "min": 1,
    "probability": 40
  },
  {
    "dropType": "Random",
    "groupCode": 204,
    "itemCode": 201406,
    "max": 1,
    "min": 1,
    "probability": 40
  },
  {
    "dropType": "Random",
    "groupCode": 204,
    "itemCode": 201410,
    "max": 1,
    "min": 1,
    "probability": 40
  },
  {
    "dropType": "Random",
    "groupCode": 204,
    "itemCode": 201417,
    "max": 1,
    "min": 1,
    "probability": 40
  },
  {
    "dropType": "Random",
    "groupCode": 204,
    "itemCode": 202405,
    "max": 1,
    "min": 1,
    "probability": 40
  },
  {
    "dropType": "Random",
    "groupCode": 204,
    "itemCode": 202412,
    "max": 1,
    "min": 1,
    "probability": 40
  },
  {
    "dropType": "Random",
    "groupCode": 204,
    "itemCode": 202415,
    "max": 1,
    "min": 1,
    "probability": 40
  },
  {
    "dropType": "Random",
    "groupCode": 204,
    "itemCode": 203306,
    "max": 1,
    "min": 1,
    "probability": 40
  },
  {
    "dropType": "Random",
    "groupCode": 204,
    "itemCode": 203402,
    "max": 1,
    "min": 1,
    "probability": 40
  },
  {
    "dropType": "Random",
    "groupCode": 204,
    "itemCode": 203405,
    "max": 1,
    "min": 1,
    "probability": 40
  },
  {
    "dropType": "Random",
    "groupCode": 204,
    "itemCode": 203406,
    "max": 1,
    "min": 1,
    "probability": 40
  },
  {
    "dropType": "Random",
    "groupCode": 204,
    "itemCode": 203410,
    "max": 1,
    "min": 1,
    "probability": 40
  },
  {
    "dropType": "Random",
    "groupCode": 204,
    "itemCode": 204304,
    "max": 1,
    "min": 1,
    "probability": 40
  },
  {
    "dropType": "Random",
    "groupCode": 204,
    "itemCode": 204408,
    "max": 1,
    "min": 1,
    "probability": 40
  },
  {
    "dropType": "Random",
    "groupCode": 204,
    "itemCode": 204411,
    "max": 1,
    "min": 1,
    "probability": 40
  },
  {
    "dropType": "Random",
    "groupCode": 204,
    "itemCode": 502402,
    "max": 1,
    "min": 1,
    "probability": 80
  },
  {
    "dropType": "Random",
    "groupCode": 204,
    "itemCode": 502404,
    "max": 1,
    "min": 1,
    "probability": 80
  },
  {
    "dropType": "Random",
    "groupCode": 204,
    "itemCode": 502405,
    "max": 1,
    "min": 1,
    "probability": 80
  },
  {
    "dropType": "Random",
    "groupCode": 204,
    "itemCode": 502406,
    "max": 1,
    "min": 1,
    "probability": 80
  },
  {
    "dropType": "Random",
    "groupCode": 204,
    "itemCode": 502502,
    "max": 1,
    "min": 1,
    "probability": 80
  },
  {
    "dropType": "Probability",
    "groupCode": 204,
    "itemCode": 409401,
    "max": 1,
    "min": 1,
    "probability": 35
  },
  {
    "dropType": "Random",
    "groupCode": 205,
    "itemCode": 301401,
    "max": 1,
    "min": 1,
    "probability": 80
  },
  {
    "dropType": "Random",
    "groupCode": 205,
    "itemCode": 401208,
    "max": 1,
    "min": 1,
    "probability": 31
  },
  {
    "dropType": "Random",
    "groupCode": 205,
    "itemCode": 401209,
    "max": 1,
    "min": 1,
    "probability": 31
  },
  {
    "dropType": "Random",
    "groupCode": 205,
    "itemCode": 401304,
    "max": 1,
    "min": 1,
    "probability": 31
  },
  {
    "dropType": "Random",
    "groupCode": 205,
    "itemCode": 401403,
    "max": 1,
    "min": 1,
    "probability": 15
  },
  {
    "dropType": "Random",
    "groupCode": 205,
    "itemCode": 401401,
    "max": 1,
    "min": 1,
    "probability": 15
  },
  {
    "dropType": "Random",
    "groupCode": 205,
    "itemCode": 201404,
    "max": 1,
    "min": 1,
    "probability": 40
  },
  {
    "dropType": "Random",
    "groupCode": 205,
    "itemCode": 201405,
    "max": 1,
    "min": 1,
    "probability": 40
  },
  {
    "dropType": "Random",
    "groupCode": 205,
    "itemCode": 201406,
    "max": 1,
    "min": 1,
    "probability": 40
  },
  {
    "dropType": "Random",
    "groupCode": 205,
    "itemCode": 201410,
    "max": 1,
    "min": 1,
    "probability": 40
  },
  {
    "dropType": "Random",
    "groupCode": 205,
    "itemCode": 201417,
    "max": 1,
    "min": 1,
    "probability": 40
  },
  {
    "dropType": "Random",
    "groupCode": 205,
    "itemCode": 202405,
    "max": 1,
    "min": 1,
    "probability": 40
  },
  {
    "dropType": "Random",
    "groupCode": 205,
    "itemCode": 202412,
    "max": 1,
    "min": 1,
    "probability": 40
  },
  {
    "dropType": "Random",
    "groupCode": 205,
    "itemCode": 202415,
    "max": 1,
    "min": 1,
    "probability": 40
  },
  {
    "dropType": "Random",
    "groupCode": 205,
    "itemCode": 203306,
    "max": 1,
    "min": 1,
    "probability": 40
  },
  {
    "dropType": "Random",
    "groupCode": 205,
    "itemCode": 203402,
    "max": 1,
    "min": 1,
    "probability": 40
  },
  {
    "dropType": "Random",
    "groupCode": 205,
    "itemCode": 203405,
    "max": 1,
    "min": 1,
    "probability": 40
  },
  {
    "dropType": "Random",
    "groupCode": 205,
    "itemCode": 203406,
    "max": 1,
    "min": 1,
    "probability": 40
  },
  {
    "dropType": "Random",
    "groupCode": 205,
    "itemCode": 203410,
    "max": 1,
    "min": 1,
    "probability": 40
  },
  {
    "dropType": "Random",
    "groupCode": 205,
    "itemCode": 204304,
    "max": 1,
    "min": 1,
    "probability": 40
  },
  {
    "dropType": "Random",
    "groupCode": 205,
    "itemCode": 204408,
    "max": 1,
    "min": 1,
    "probability": 40
  },
  {
    "dropType": "Random",
    "groupCode": 205,
    "itemCode": 204411,
    "max": 1,
    "min": 1,
    "probability": 40
  },
  {
    "dropType": "Random",
    "groupCode": 205,
    "itemCode": 502402,
    "max": 1,
    "min": 1,
    "probability": 80
  },
  {
    "dropType": "Random",
    "groupCode": 205,
    "itemCode": 502404,
    "max": 1,
    "min": 1,
    "probability": 80
  },
  {
    "dropType": "Random",
    "groupCode": 205,
    "itemCode": 502405,
    "max": 1,
    "min": 1,
    "probability": 80
  },
  {
    "dropType": "Random",
    "groupCode": 205,
    "itemCode": 502406,
    "max": 1,
    "min": 1,
    "probability": 80
  },
  {
    "dropType": "Random",
    "groupCode": 205,
    "itemCode": 502502,
    "max": 1,
    "min": 1,
    "probability": 80
  },
  {
    "dropType": "Probability",
    "groupCode": 205,
    "itemCode": 409401,
    "max": 1,
    "min": 1,
    "probability": 35
  },
  {
    "dropType": "Random",
    "groupCode": 206,
    "itemCode": 301401,
    "max": 1,
    "min": 1,
    "probability": 15
  },
  {
    "dropType": "Random",
    "groupCode": 206,
    "itemCode": 302312,
    "max": 1,
    "min": 1,
    "probability": 10
  },
  {
    "dropType": "Random",
    "groupCode": 206,
    "itemCode": 301305,
    "max": 1,
    "min": 1,
    "probability": 10
  },
  {
    "dropType": "Random",
    "groupCode": 206,
    "itemCode": 301329,
    "max": 1,
    "min": 1,
    "probability": 10
  },
  {
    "dropType": "Random",
    "groupCode": 206,
    "itemCode": 401403,
    "max": 1,
    "min": 1,
    "probability": 10
  },
  {
    "dropType": "Random",
    "groupCode": 206,
    "itemCode": 401401,
    "max": 1,
    "min": 1,
    "probability": 10
  },
  {
    "dropType": "Random",
    "groupCode": 206,
    "itemCode": 201404,
    "max": 1,
    "min": 1,
    "probability": 15
  },
  {
    "dropType": "Random",
    "groupCode": 206,
    "itemCode": 201405,
    "max": 1,
    "min": 1,
    "probability": 15
  },
  {
    "dropType": "Random",
    "groupCode": 206,
    "itemCode": 201406,
    "max": 1,
    "min": 1,
    "probability": 15
  },
  {
    "dropType": "Random",
    "groupCode": 206,
    "itemCode": 201410,
    "max": 1,
    "min": 1,
    "probability": 15
  },
  {
    "dropType": "Random",
    "groupCode": 206,
    "itemCode": 201417,
    "max": 1,
    "min": 1,
    "probability": 15
  },
  {
    "dropType": "Random",
    "groupCode": 206,
    "itemCode": 202405,
    "max": 1,
    "min": 1,
    "probability": 15
  },
  {
    "dropType": "Random",
    "groupCode": 206,
    "itemCode": 202412,
    "max": 1,
    "min": 1,
    "probability": 15
  },
  {
    "dropType": "Random",
    "groupCode": 206,
    "itemCode": 202415,
    "max": 1,
    "min": 1,
    "probability": 15
  },
  {
    "dropType": "Random",
    "groupCode": 206,
    "itemCode": 203306,
    "max": 1,
    "min": 1,
    "probability": 15
  },
  {
    "dropType": "Random",
    "groupCode": 206,
    "itemCode": 203402,
    "max": 1,
    "min": 1,
    "probability": 15
  },
  {
    "dropType": "Random",
    "groupCode": 206,
    "itemCode": 203405,
    "max": 1,
    "min": 1,
    "probability": 15
  },
  {
    "dropType": "Random",
    "groupCode": 206,
    "itemCode": 203406,
    "max": 1,
    "min": 1,
    "probability": 15
  },
  {
    "dropType": "Random",
    "groupCode": 206,
    "itemCode": 203410,
    "max": 1,
    "min": 1,
    "probability": 15
  },
  {
    "dropType": "Random",
    "groupCode": 206,
    "itemCode": 204304,
    "max": 1,
    "min": 1,
    "probability": 15
  },
  {
    "dropType": "Random",
    "groupCode": 206,
    "itemCode": 204408,
    "max": 1,
    "min": 1,
    "probability": 15
  },
  {
    "dropType": "Random",
    "groupCode": 206,
    "itemCode": 204411,
    "max": 1,
    "min": 1,
    "probability": 15
  },
  {
    "dropType": "Random",
    "groupCode": 206,
    "itemCode": 201403,
    "max": 1,
    "min": 1,
    "probability": 20
  },
  {
    "dropType": "Random",
    "groupCode": 206,
    "itemCode": 201408,
    "max": 1,
    "min": 1,
    "probability": 20
  },
  {
    "dropType": "Random",
    "groupCode": 206,
    "itemCode": 201411,
    "max": 1,
    "min": 1,
    "probability": 20
  },
  {
    "dropType": "Random",
    "groupCode": 206,
    "itemCode": 201501,
    "max": 1,
    "min": 1,
    "probability": 20
  },
  {
    "dropType": "Random",
    "groupCode": 206,
    "itemCode": 201503,
    "max": 1,
    "min": 1,
    "probability": 20
  },
  {
    "dropType": "Random",
    "groupCode": 206,
    "itemCode": 201502,
    "max": 1,
    "min": 1,
    "probability": 20
  },
  {
    "dropType": "Random",
    "groupCode": 206,
    "itemCode": 201504,
    "max": 1,
    "min": 1,
    "probability": 20
  },
  {
    "dropType": "Random",
    "groupCode": 206,
    "itemCode": 201505,
    "max": 1,
    "min": 1,
    "probability": 20
  },
  {
    "dropType": "Random",
    "groupCode": 206,
    "itemCode": 201506,
    "max": 1,
    "min": 1,
    "probability": 20
  },
  {
    "dropType": "Random",
    "groupCode": 206,
    "itemCode": 202407,
    "max": 1,
    "min": 1,
    "probability": 20
  },
  {
    "dropType": "Random",
    "groupCode": 206,
    "itemCode": 202416,
    "max": 1,
    "min": 1,
    "probability": 20
  },
  {
    "dropType": "Random",
    "groupCode": 206,
    "itemCode": 202501,
    "max": 1,
    "min": 1,
    "probability": 20
  },
  {
    "dropType": "Random",
    "groupCode": 206,
    "itemCode": 202502,
    "max": 1,
    "min": 1,
    "probability": 20
  },
  {
    "dropType": "Random",
    "groupCode": 206,
    "itemCode": 202503,
    "max": 1,
    "min": 1,
    "probability": 20
  },
  {
    "dropType": "Random",
    "groupCode": 206,
    "itemCode": 202504,
    "max": 1,
    "min": 1,
    "probability": 20
  },
  {
    "dropType": "Random",
    "groupCode": 206,
    "itemCode": 202507,
    "max": 1,
    "min": 1,
    "probability": 20
  },
  {
    "dropType": "Random",
    "groupCode": 206,
    "itemCode": 202508,
    "max": 1,
    "min": 1,
    "probability": 20
  },
  {
    "dropType": "Random",
    "groupCode": 206,
    "itemCode": 202509,
    "max": 1,
    "min": 1,
    "probability": 20
  },
  {
    "dropType": "Random",
    "groupCode": 206,
    "itemCode": 202510,
    "max": 1,
    "min": 1,
    "probability": 20
  },
  {
    "dropType": "Random",
    "groupCode": 206,
    "itemCode": 203404,
    "max": 1,
    "min": 1,
    "probability": 20
  },
  {
    "dropType": "Random",
    "groupCode": 206,
    "itemCode": 203408,
    "max": 1,
    "min": 1,
    "probability": 20
  },
  {
    "dropType": "Random",
    "groupCode": 206,
    "itemCode": 203413,
    "max": 1,
    "min": 1,
    "probability": 20
  },
  {
    "dropType": "Random",
    "groupCode": 206,
    "itemCode": 203501,
    "max": 1,
    "min": 1,
    "probability": 20
  },
  {
    "dropType": "Random",
    "groupCode": 206,
    "itemCode": 203502,
    "max": 1,
    "min": 1,
    "probability": 20
  },
  {
    "dropType": "Random",
    "groupCode": 206,
    "itemCode": 203503,
    "max": 1,
    "min": 1,
    "probability": 20
  },
  {
    "dropType": "Random",
    "groupCode": 206,
    "itemCode": 203504,
    "max": 1,
    "min": 1,
    "probability": 20
  },
  {
    "dropType": "Random",
    "groupCode": 206,
    "itemCode": 203505,
    "max": 1,
    "min": 1,
    "probability": 20
  },
  {
    "dropType": "Random",
    "groupCode": 206,
    "itemCode": 203507,
    "max": 1,
    "min": 1,
    "probability": 20
  },
  {
    "dropType": "Random",
    "groupCode": 206,
    "itemCode": 203508,
    "max": 1,
    "min": 1,
    "probability": 20
  },
  {
    "dropType": "Random",
    "groupCode": 206,
    "itemCode": 203509,
    "max": 1,
    "min": 1,
    "probability": 20
  },
  {
    "dropType": "Random",
    "groupCode": 206,
    "itemCode": 203510,
    "max": 1,
    "min": 1,
    "probability": 20
  },
  {
    "dropType": "Random",
    "groupCode": 206,
    "itemCode": 203511,
    "max": 1,
    "min": 1,
    "probability": 20
  },
  {
    "dropType": "Random",
    "groupCode": 206,
    "itemCode": 204407,
    "max": 1,
    "min": 1,
    "probability": 20
  },
  {
    "dropType": "Random",
    "groupCode": 206,
    "itemCode": 204410,
    "max": 1,
    "min": 1,
    "probability": 20
  },
  {
    "dropType": "Random",
    "groupCode": 206,
    "itemCode": 204413,
    "max": 1,
    "min": 1,
    "probability": 20
  },
  {
    "dropType": "Random",
    "groupCode": 206,
    "itemCode": 204414,
    "max": 1,
    "min": 1,
    "probability": 20
  },
  {
    "dropType": "Random",
    "groupCode": 206,
    "itemCode": 204501,
    "max": 1,
    "min": 1,
    "probability": 20
  },
  {
    "dropType": "Random",
    "groupCode": 206,
    "itemCode": 204502,
    "max": 1,
    "min": 1,
    "probability": 20
  },
  {
    "dropType": "Random",
    "groupCode": 206,
    "itemCode": 204503,
    "max": 1,
    "min": 1,
    "probability": 20
  },
  {
    "dropType": "Random",
    "groupCode": 206,
    "itemCode": 204504,
    "max": 1,
    "min": 1,
    "probability": 20
  },
  {
    "dropType": "Random",
    "groupCode": 206,
    "itemCode": 205401,
    "max": 1,
    "min": 1,
    "probability": 20
  },
  {
    "dropType": "Random",
    "groupCode": 206,
    "itemCode": 205406,
    "max": 1,
    "min": 1,
    "probability": 20
  },
  {
    "dropType": "Random",
    "groupCode": 206,
    "itemCode": 205407,
    "max": 1,
    "min": 1,
    "probability": 20
  },
  {
    "dropType": "Random",
    "groupCode": 206,
    "itemCode": 205408,
    "max": 1,
    "min": 1,
    "probability": 20
  },
  {
    "dropType": "Random",
    "groupCode": 206,
    "itemCode": 205409,
    "max": 1,
    "min": 1,
    "probability": 20
  },
  {
    "dropType": "Random",
    "groupCode": 206,
    "itemCode": 205501,
    "max": 1,
    "min": 1,
    "probability": 20
  },
  {
    "dropType": "Random",
    "groupCode": 206,
    "itemCode": 205502,
    "max": 1,
    "min": 1,
    "probability": 20
  },
  {
    "dropType": "Random",
    "groupCode": 206,
    "itemCode": 205503,
    "max": 1,
    "min": 1,
    "probability": 20
  },
  {
    "dropType": "Random",
    "groupCode": 206,
    "itemCode": 205506,
    "max": 1,
    "min": 1,
    "probability": 20
  },
  {
    "dropType": "Random",
    "groupCode": 206,
    "itemCode": 205504,
    "max": 1,
    "min": 1,
    "probability": 20
  },
  {
    "dropType": "Random",
    "groupCode": 206,
    "itemCode": 205507,
    "max": 1,
    "min": 1,
    "probability": 20
  },
  {
    "dropType": "Random",
    "groupCode": 206,
    "itemCode": 205505,
    "max": 1,
    "min": 1,
    "probability": 20
  },
  {
    "dropType": "Random",
    "groupCode": 206,
    "itemCode": 205508,
    "max": 1,
    "min": 1,
    "probability": 20
  },
  {
    "dropType": "Random",
    "groupCode": 206,
    "itemCode": 701451,
    "max": 1,
    "min": 1,
    "probability": 20
  },
  {
    "dropType": "Random",
    "groupCode": 206,
    "itemCode": 502402,
    "max": 1,
    "min": 1,
    "probability": 25
  },
  {
    "dropType": "Random",
    "groupCode": 206,
    "itemCode": 502404,
    "max": 1,
    "min": 1,
    "probability": 25
  },
  {
    "dropType": "Random",
    "groupCode": 206,
    "itemCode": 502405,
    "max": 1,
    "min": 1,
    "probability": 25
  },
  {
    "dropType": "Random",
    "groupCode": 206,
    "itemCode": 502406,
    "max": 1,
    "min": 1,
    "probability": 25
  },
  {
    "dropType": "Random",
    "groupCode": 206,
    "itemCode": 502502,
    "max": 1,
    "min": 1,
    "probability": 25
  },
  {
    "dropType": "Random",
    "groupCode": 206,
    "itemCode": 502501,
    "max": 1,
    "min": 1,
    "probability": 20
  },
  {
    "dropType": "Random",
    "groupCode": 206,
    "itemCode": 202511,
    "max": 1,
    "min": 1,
    "probability": 20
  },
  {
    "dropType": "Random",
    "groupCode": 206,
    "itemCode": 203512,
    "max": 1,
    "min": 1,
    "probability": 20
  },
  {
    "dropType": "Random",
    "groupCode": 206,
    "itemCode": 201507,
    "max": 1,
    "min": 1,
    "probability": 20
  },
  {
    "dropType": "Random",
    "groupCode": 206,
    "itemCode": 202512,
    "max": 1,
    "min": 1,
    "probability": 20
  },
  {
    "dropType": "Random",
    "groupCode": 207,
    "itemCode": 302312,
    "max": 1,
    "min": 1,
    "probability": 10
  },
  {
    "dropType": "Random",
    "groupCode": 207,
    "itemCode": 301305,
    "max": 1,
    "min": 1,
    "probability": 10
  },
  {
    "dropType": "Random",
    "groupCode": 207,
    "itemCode": 301329,
    "max": 1,
    "min": 1,
    "probability": 10
  },
  {
    "dropType": "Random",
    "groupCode": 207,
    "itemCode": 201403,
    "max": 1,
    "min": 1,
    "probability": 20
  },
  {
    "dropType": "Random",
    "groupCode": 207,
    "itemCode": 201408,
    "max": 1,
    "min": 1,
    "probability": 20
  },
  {
    "dropType": "Random",
    "groupCode": 207,
    "itemCode": 201411,
    "max": 1,
    "min": 1,
    "probability": 20
  },
  {
    "dropType": "Random",
    "groupCode": 207,
    "itemCode": 201501,
    "max": 1,
    "min": 1,
    "probability": 20
  },
  {
    "dropType": "Random",
    "groupCode": 207,
    "itemCode": 201503,
    "max": 1,
    "min": 1,
    "probability": 20
  },
  {
    "dropType": "Random",
    "groupCode": 207,
    "itemCode": 201502,
    "max": 1,
    "min": 1,
    "probability": 20
  },
  {
    "dropType": "Random",
    "groupCode": 207,
    "itemCode": 201504,
    "max": 1,
    "min": 1,
    "probability": 20
  },
  {
    "dropType": "Random",
    "groupCode": 207,
    "itemCode": 201505,
    "max": 1,
    "min": 1,
    "probability": 20
  },
  {
    "dropType": "Random",
    "groupCode": 207,
    "itemCode": 201506,
    "max": 1,
    "min": 1,
    "probability": 20
  },
  {
    "dropType": "Random",
    "groupCode": 207,
    "itemCode": 202407,
    "max": 1,
    "min": 1,
    "probability": 20
  },
  {
    "dropType": "Random",
    "groupCode": 207,
    "itemCode": 202416,
    "max": 1,
    "min": 1,
    "probability": 20
  },
  {
    "dropType": "Random",
    "groupCode": 207,
    "itemCode": 202501,
    "max": 1,
    "min": 1,
    "probability": 20
  },
  {
    "dropType": "Random",
    "groupCode": 207,
    "itemCode": 202502,
    "max": 1,
    "min": 1,
    "probability": 20
  },
  {
    "dropType": "Random",
    "groupCode": 207,
    "itemCode": 202503,
    "max": 1,
    "min": 1,
    "probability": 20
  },
  {
    "dropType": "Random",
    "groupCode": 207,
    "itemCode": 202504,
    "max": 1,
    "min": 1,
    "probability": 20
  },
  {
    "dropType": "Random",
    "groupCode": 207,
    "itemCode": 202507,
    "max": 1,
    "min": 1,
    "probability": 20
  },
  {
    "dropType": "Random",
    "groupCode": 207,
    "itemCode": 202508,
    "max": 1,
    "min": 1,
    "probability": 20
  },
  {
    "dropType": "Random",
    "groupCode": 207,
    "itemCode": 202509,
    "max": 1,
    "min": 1,
    "probability": 20
  },
  {
    "dropType": "Random",
    "groupCode": 207,
    "itemCode": 202510,
    "max": 1,
    "min": 1,
    "probability": 20
  },
  {
    "dropType": "Random",
    "groupCode": 207,
    "itemCode": 203404,
    "max": 1,
    "min": 1,
    "probability": 20
  },
  {
    "dropType": "Random",
    "groupCode": 207,
    "itemCode": 203408,
    "max": 1,
    "min": 1,
    "probability": 20
  },
  {
    "dropType": "Random",
    "groupCode": 207,
    "itemCode": 203413,
    "max": 1,
    "min": 1,
    "probability": 20
  },
  {
    "dropType": "Random",
    "groupCode": 207,
    "itemCode": 203501,
    "max": 1,
    "min": 1,
    "probability": 20
  },
  {
    "dropType": "Random",
    "groupCode": 207,
    "itemCode": 203502,
    "max": 1,
    "min": 1,
    "probability": 20
  },
  {
    "dropType": "Random",
    "groupCode": 207,
    "itemCode": 203503,
    "max": 1,
    "min": 1,
    "probability": 20
  },
  {
    "dropType": "Random",
    "groupCode": 207,
    "itemCode": 203504,
    "max": 1,
    "min": 1,
    "probability": 20
  },
  {
    "dropType": "Random",
    "groupCode": 207,
    "itemCode": 203505,
    "max": 1,
    "min": 1,
    "probability": 20
  },
  {
    "dropType": "Random",
    "groupCode": 207,
    "itemCode": 203507,
    "max": 1,
    "min": 1,
    "probability": 20
  },
  {
    "dropType": "Random",
    "groupCode": 207,
    "itemCode": 203508,
    "max": 1,
    "min": 1,
    "probability": 20
  },
  {
    "dropType": "Random",
    "groupCode": 207,
    "itemCode": 203509,
    "max": 1,
    "min": 1,
    "probability": 20
  },
  {
    "dropType": "Random",
    "groupCode": 207,
    "itemCode": 203510,
    "max": 1,
    "min": 1,
    "probability": 20
  },
  {
    "dropType": "Random",
    "groupCode": 207,
    "itemCode": 203511,
    "max": 1,
    "min": 1,
    "probability": 20
  },
  {
    "dropType": "Random",
    "groupCode": 207,
    "itemCode": 204407,
    "max": 1,
    "min": 1,
    "probability": 20
  },
  {
    "dropType": "Random",
    "groupCode": 207,
    "itemCode": 204410,
    "max": 1,
    "min": 1,
    "probability": 20
  },
  {
    "dropType": "Random",
    "groupCode": 207,
    "itemCode": 204413,
    "max": 1,
    "min": 1,
    "probability": 20
  },
  {
    "dropType": "Random",
    "groupCode": 207,
    "itemCode": 204414,
    "max": 1,
    "min": 1,
    "probability": 20
  },
  {
    "dropType": "Random",
    "groupCode": 207,
    "itemCode": 204501,
    "max": 1,
    "min": 1,
    "probability": 20
  },
  {
    "dropType": "Random",
    "groupCode": 207,
    "itemCode": 204502,
    "max": 1,
    "min": 1,
    "probability": 20
  },
  {
    "dropType": "Random",
    "groupCode": 207,
    "itemCode": 204503,
    "max": 1,
    "min": 1,
    "probability": 20
  },
  {
    "dropType": "Random",
    "groupCode": 207,
    "itemCode": 204504,
    "max": 1,
    "min": 1,
    "probability": 20
  },
  {
    "dropType": "Random",
    "groupCode": 207,
    "itemCode": 205401,
    "max": 1,
    "min": 1,
    "probability": 20
  },
  {
    "dropType": "Random",
    "groupCode": 207,
    "itemCode": 205406,
    "max": 1,
    "min": 1,
    "probability": 20
  },
  {
    "dropType": "Random",
    "groupCode": 207,
    "itemCode": 205407,
    "max": 1,
    "min": 1,
    "probability": 20
  },
  {
    "dropType": "Random",
    "groupCode": 207,
    "itemCode": 205408,
    "max": 1,
    "min": 1,
    "probability": 20
  },
  {
    "dropType": "Random",
    "groupCode": 207,
    "itemCode": 205409,
    "max": 1,
    "min": 1,
    "probability": 20
  },
  {
    "dropType": "Random",
    "groupCode": 207,
    "itemCode": 205501,
    "max": 1,
    "min": 1,
    "probability": 20
  },
  {
    "dropType": "Random",
    "groupCode": 207,
    "itemCode": 205502,
    "max": 1,
    "min": 1,
    "probability": 20
  },
  {
    "dropType": "Random",
    "groupCode": 207,
    "itemCode": 205503,
    "max": 1,
    "min": 1,
    "probability": 20
  },
  {
    "dropType": "Random",
    "groupCode": 207,
    "itemCode": 205506,
    "max": 1,
    "min": 1,
    "probability": 20
  },
  {
    "dropType": "Random",
    "groupCode": 207,
    "itemCode": 205504,
    "max": 1,
    "min": 1,
    "probability": 20
  },
  {
    "dropType": "Random",
    "groupCode": 207,
    "itemCode": 205507,
    "max": 1,
    "min": 1,
    "probability": 20
  },
  {
    "dropType": "Random",
    "groupCode": 207,
    "itemCode": 205505,
    "max": 1,
    "min": 1,
    "probability": 20
  },
  {
    "dropType": "Random",
    "groupCode": 207,
    "itemCode": 205508,
    "max": 1,
    "min": 1,
    "probability": 20
  },
  {
    "dropType": "Random",
    "groupCode": 207,
    "itemCode": 701451,
    "max": 1,
    "min": 1,
    "probability": 20
  },
  {
    "dropType": "Random",
    "groupCode": 207,
    "itemCode": 301401,
    "max": 1,
    "min": 1,
    "probability": 10
  },
  {
    "dropType": "Random",
    "groupCode": 207,
    "itemCode": 401403,
    "max": 1,
    "min": 1,
    "probability": 10
  },
  {
    "dropType": "Random",
    "groupCode": 207,
    "itemCode": 401401,
    "max": 1,
    "min": 1,
    "probability": 10
  },
  {
    "dropType": "Random",
    "groupCode": 207,
    "itemCode": 201404,
    "max": 1,
    "min": 1,
    "probability": 10
  },
  {
    "dropType": "Random",
    "groupCode": 207,
    "itemCode": 201405,
    "max": 1,
    "min": 1,
    "probability": 10
  },
  {
    "dropType": "Random",
    "groupCode": 207,
    "itemCode": 201406,
    "max": 1,
    "min": 1,
    "probability": 10
  },
  {
    "dropType": "Random",
    "groupCode": 207,
    "itemCode": 201410,
    "max": 1,
    "min": 1,
    "probability": 10
  },
  {
    "dropType": "Random",
    "groupCode": 207,
    "itemCode": 201417,
    "max": 1,
    "min": 1,
    "probability": 10
  },
  {
    "dropType": "Random",
    "groupCode": 207,
    "itemCode": 202405,
    "max": 1,
    "min": 1,
    "probability": 10
  },
  {
    "dropType": "Random",
    "groupCode": 207,
    "itemCode": 202412,
    "max": 1,
    "min": 1,
    "probability": 10
  },
  {
    "dropType": "Random",
    "groupCode": 207,
    "itemCode": 202415,
    "max": 1,
    "min": 1,
    "probability": 10
  },
  {
    "dropType": "Random",
    "groupCode": 207,
    "itemCode": 203306,
    "max": 1,
    "min": 1,
    "probability": 10
  },
  {
    "dropType": "Random",
    "groupCode": 207,
    "itemCode": 203402,
    "max": 1,
    "min": 1,
    "probability": 10
  },
  {
    "dropType": "Random",
    "groupCode": 207,
    "itemCode": 203405,
    "max": 1,
    "min": 1,
    "probability": 10
  },
  {
    "dropType": "Random",
    "groupCode": 207,
    "itemCode": 203406,
    "max": 1,
    "min": 1,
    "probability": 10
  },
  {
    "dropType": "Random",
    "groupCode": 207,
    "itemCode": 203410,
    "max": 1,
    "min": 1,
    "probability": 10
  },
  {
    "dropType": "Random",
    "groupCode": 207,
    "itemCode": 204304,
    "max": 1,
    "min": 1,
    "probability": 10
  },
  {
    "dropType": "Random",
    "groupCode": 207,
    "itemCode": 204408,
    "max": 1,
    "min": 1,
    "probability": 10
  },
  {
    "dropType": "Random",
    "groupCode": 207,
    "itemCode": 204411,
    "max": 1,
    "min": 1,
    "probability": 10
  },
  {
    "dropType": "Random",
    "groupCode": 207,
    "itemCode": 502402,
    "max": 1,
    "min": 1,
    "probability": 25
  },
  {
    "dropType": "Random",
    "groupCode": 207,
    "itemCode": 502404,
    "max": 1,
    "min": 1,
    "probability": 25
  },
  {
    "dropType": "Random",
    "groupCode": 207,
    "itemCode": 502405,
    "max": 1,
    "min": 1,
    "probability": 25
  },
  {
    "dropType": "Random",
    "groupCode": 207,
    "itemCode": 502406,
    "max": 1,
    "min": 1,
    "probability": 25
  },
  {
    "dropType": "Random",
    "groupCode": 207,
    "itemCode": 502502,
    "max": 1,
    "min": 1,
    "probability": 25
  },
  {
    "dropType": "Random",
    "groupCode": 207,
    "itemCode": 502501,
    "max": 1,
    "min": 1,
    "probability": 20
  },
  {
    "dropType": "Random",
    "groupCode": 207,
    "itemCode": 202511,
    "max": 1,
    "min": 1,
    "probability": 20
  },
  {
    "dropType": "Random",
    "groupCode": 207,
    "itemCode": 203512,
    "max": 1,
    "min": 1,
    "probability": 20
  },
  {
    "dropType": "Random",
    "groupCode": 207,
    "itemCode": 201507,
    "max": 1,
    "min": 1,
    "probability": 20
  },
  {
    "dropType": "Random",
    "groupCode": 207,
    "itemCode": 202512,
    "max": 1,
    "min": 1,
    "probability": 20
  },
  {
    "dropType": "Random",
    "groupCode": 208,
    "itemCode": 302312,
    "max": 1,
    "min": 1,
    "probability": 20
  },
  {
    "dropType": "Random",
    "groupCode": 208,
    "itemCode": 301305,
    "max": 1,
    "min": 1,
    "probability": 20
  },
  {
    "dropType": "Random",
    "groupCode": 208,
    "itemCode": 301329,
    "max": 1,
    "min": 1,
    "probability": 20
  },
  {
    "dropType": "Random",
    "groupCode": 208,
    "itemCode": 201403,
    "max": 1,
    "min": 1,
    "probability": 20
  },
  {
    "dropType": "Random",
    "groupCode": 208,
    "itemCode": 201408,
    "max": 1,
    "min": 1,
    "probability": 20
  },
  {
    "dropType": "Random",
    "groupCode": 208,
    "itemCode": 201411,
    "max": 1,
    "min": 1,
    "probability": 20
  },
  {
    "dropType": "Random",
    "groupCode": 208,
    "itemCode": 201501,
    "max": 1,
    "min": 1,
    "probability": 20
  },
  {
    "dropType": "Random",
    "groupCode": 208,
    "itemCode": 201503,
    "max": 1,
    "min": 1,
    "probability": 20
  },
  {
    "dropType": "Random",
    "groupCode": 208,
    "itemCode": 201502,
    "max": 1,
    "min": 1,
    "probability": 20
  },
  {
    "dropType": "Random",
    "groupCode": 208,
    "itemCode": 201504,
    "max": 1,
    "min": 1,
    "probability": 20
  },
  {
    "dropType": "Random",
    "groupCode": 208,
    "itemCode": 201505,
    "max": 1,
    "min": 1,
    "probability": 20
  },
  {
    "dropType": "Random",
    "groupCode": 208,
    "itemCode": 201506,
    "max": 1,
    "min": 1,
    "probability": 20
  },
  {
    "dropType": "Random",
    "groupCode": 208,
    "itemCode": 202407,
    "max": 1,
    "min": 1,
    "probability": 20
  },
  {
    "dropType": "Random",
    "groupCode": 208,
    "itemCode": 202416,
    "max": 1,
    "min": 1,
    "probability": 20
  },
  {
    "dropType": "Random",
    "groupCode": 208,
    "itemCode": 202501,
    "max": 1,
    "min": 1,
    "probability": 20
  },
  {
    "dropType": "Random",
    "groupCode": 208,
    "itemCode": 202502,
    "max": 1,
    "min": 1,
    "probability": 20
  },
  {
    "dropType": "Random",
    "groupCode": 208,
    "itemCode": 202503,
    "max": 1,
    "min": 1,
    "probability": 20
  },
  {
    "dropType": "Random",
    "groupCode": 208,
    "itemCode": 202504,
    "max": 1,
    "min": 1,
    "probability": 20
  },
  {
    "dropType": "Random",
    "groupCode": 208,
    "itemCode": 202507,
    "max": 1,
    "min": 1,
    "probability": 20
  },
  {
    "dropType": "Random",
    "groupCode": 208,
    "itemCode": 202508,
    "max": 1,
    "min": 1,
    "probability": 20
  },
  {
    "dropType": "Random",
    "groupCode": 208,
    "itemCode": 202509,
    "max": 1,
    "min": 1,
    "probability": 20
  },
  {
    "dropType": "Random",
    "groupCode": 208,
    "itemCode": 202510,
    "max": 1,
    "min": 1,
    "probability": 20
  },
  {
    "dropType": "Random",
    "groupCode": 208,
    "itemCode": 203404,
    "max": 1,
    "min": 1,
    "probability": 20
  },
  {
    "dropType": "Random",
    "groupCode": 208,
    "itemCode": 203408,
    "max": 1,
    "min": 1,
    "probability": 20
  },
  {
    "dropType": "Random",
    "groupCode": 208,
    "itemCode": 203413,
    "max": 1,
    "min": 1,
    "probability": 20
  },
  {
    "dropType": "Random",
    "groupCode": 208,
    "itemCode": 203501,
    "max": 1,
    "min": 1,
    "probability": 20
  },
  {
    "dropType": "Random",
    "groupCode": 208,
    "itemCode": 203502,
    "max": 1,
    "min": 1,
    "probability": 20
  },
  {
    "dropType": "Random",
    "groupCode": 208,
    "itemCode": 203503,
    "max": 1,
    "min": 1,
    "probability": 20
  },
  {
    "dropType": "Random",
    "groupCode": 208,
    "itemCode": 203504,
    "max": 1,
    "min": 1,
    "probability": 20
  },
  {
    "dropType": "Random",
    "groupCode": 208,
    "itemCode": 203505,
    "max": 1,
    "min": 1,
    "probability": 20
  },
  {
    "dropType": "Random",
    "groupCode": 208,
    "itemCode": 203507,
    "max": 1,
    "min": 1,
    "probability": 20
  },
  {
    "dropType": "Random",
    "groupCode": 208,
    "itemCode": 203508,
    "max": 1,
    "min": 1,
    "probability": 20
  },
  {
    "dropType": "Random",
    "groupCode": 208,
    "itemCode": 203509,
    "max": 1,
    "min": 1,
    "probability": 20
  },
  {
    "dropType": "Random",
    "groupCode": 208,
    "itemCode": 203510,
    "max": 1,
    "min": 1,
    "probability": 20
  },
  {
    "dropType": "Random",
    "groupCode": 208,
    "itemCode": 203511,
    "max": 1,
    "min": 1,
    "probability": 20
  },
  {
    "dropType": "Random",
    "groupCode": 208,
    "itemCode": 204407,
    "max": 1,
    "min": 1,
    "probability": 20
  },
  {
    "dropType": "Random",
    "groupCode": 208,
    "itemCode": 204410,
    "max": 1,
    "min": 1,
    "probability": 20
  },
  {
    "dropType": "Random",
    "groupCode": 208,
    "itemCode": 204413,
    "max": 1,
    "min": 1,
    "probability": 20
  },
  {
    "dropType": "Random",
    "groupCode": 208,
    "itemCode": 204414,
    "max": 1,
    "min": 1,
    "probability": 20
  },
  {
    "dropType": "Random",
    "groupCode": 208,
    "itemCode": 204501,
    "max": 1,
    "min": 1,
    "probability": 20
  },
  {
    "dropType": "Random",
    "groupCode": 208,
    "itemCode": 204502,
    "max": 1,
    "min": 1,
    "probability": 20
  },
  {
    "dropType": "Random",
    "groupCode": 208,
    "itemCode": 204503,
    "max": 1,
    "min": 1,
    "probability": 20
  },
  {
    "dropType": "Random",
    "groupCode": 208,
    "itemCode": 204504,
    "max": 1,
    "min": 1,
    "probability": 20
  },
  {
    "dropType": "Random",
    "groupCode": 208,
    "itemCode": 205401,
    "max": 1,
    "min": 1,
    "probability": 20
  },
  {
    "dropType": "Random",
    "groupCode": 208,
    "itemCode": 205406,
    "max": 1,
    "min": 1,
    "probability": 20
  },
  {
    "dropType": "Random",
    "groupCode": 208,
    "itemCode": 205407,
    "max": 1,
    "min": 1,
    "probability": 20
  },
  {
    "dropType": "Random",
    "groupCode": 208,
    "itemCode": 205408,
    "max": 1,
    "min": 1,
    "probability": 20
  },
  {
    "dropType": "Random",
    "groupCode": 208,
    "itemCode": 205409,
    "max": 1,
    "min": 1,
    "probability": 20
  },
  {
    "dropType": "Random",
    "groupCode": 208,
    "itemCode": 205501,
    "max": 1,
    "min": 1,
    "probability": 20
  },
  {
    "dropType": "Random",
    "groupCode": 208,
    "itemCode": 205502,
    "max": 1,
    "min": 1,
    "probability": 20
  },
  {
    "dropType": "Random",
    "groupCode": 208,
    "itemCode": 205503,
    "max": 1,
    "min": 1,
    "probability": 20
  },
  {
    "dropType": "Random",
    "groupCode": 208,
    "itemCode": 205506,
    "max": 1,
    "min": 1,
    "probability": 20
  },
  {
    "dropType": "Random",
    "groupCode": 208,
    "itemCode": 205504,
    "max": 1,
    "min": 1,
    "probability": 20
  },
  {
    "dropType": "Random",
    "groupCode": 208,
    "itemCode": 205507,
    "max": 1,
    "min": 1,
    "probability": 20
  },
  {
    "dropType": "Random",
    "groupCode": 208,
    "itemCode": 205505,
    "max": 1,
    "min": 1,
    "probability": 20
  },
  {
    "dropType": "Random",
    "groupCode": 208,
    "itemCode": 205508,
    "max": 1,
    "min": 1,
    "probability": 20
  },
  {
    "dropType": "Random",
    "groupCode": 208,
    "itemCode": 701451,
    "max": 1,
    "min": 1,
    "probability": 20
  },
  {
    "dropType": "Random",
    "groupCode": 208,
    "itemCode": 502501,
    "max": 1,
    "min": 1,
    "probability": 20
  },
  {
    "dropType": "Random",
    "groupCode": 208,
    "itemCode": 202511,
    "max": 1,
    "min": 1,
    "probability": 20
  },
  {
    "dropType": "Random",
    "groupCode": 208,
    "itemCode": 203512,
    "max": 1,
    "min": 1,
    "probability": 20
  },
  {
    "dropType": "Random",
    "groupCode": 208,
    "itemCode": 201507,
    "max": 1,
    "min": 1,
    "probability": 20
  },
  {
    "dropType": "Random",
    "groupCode": 208,
    "itemCode": 202512,
    "max": 1,
    "min": 1,
    "probability": 20
  },
  {
    "dropType": "Random",
    "groupCode": 1001,
    "itemCode": 202407,
    "max": 1,
    "min": 1,
    "probability": 20
  },
  {
    "dropType": "Random",
    "groupCode": 1001,
    "itemCode": 203404,
    "max": 1,
    "min": 1,
    "probability": 20
  },
  {
    "dropType": "Random",
    "groupCode": 1001,
    "itemCode": 203507,
    "max": 1,
    "min": 1,
    "probability": 20
  },
  {
    "dropType": "Random",
    "groupCode": 1001,
    "itemCode": 204503,
    "max": 1,
    "min": 1,
    "probability": 20
  },
  {
    "dropType": "Random",
    "groupCode": 1001,
    "itemCode": 202416,
    "max": 1,
    "min": 1,
    "probability": 20
  },
  {
    "dropType": "Random",
    "groupCode": 1001,
    "itemCode": 201504,
    "max": 1,
    "min": 1,
    "probability": 20
  },
  {
    "dropType": "Random",
    "groupCode": 1001,
    "itemCode": 201506,
    "max": 1,
    "min": 1,
    "probability": 20
  },
  {
    "dropType": "Random",
    "groupCode": 1001,
    "itemCode": 203408,
    "max": 1,
    "min": 1,
    "probability": 20
  },
  {
    "dropType": "Random",
    "groupCode": 1001,
    "itemCode": 202508,
    "max": 1,
    "min": 1,
    "probability": 20
  },
  {
    "dropType": "Random",
    "groupCode": 1001,
    "itemCode": 202511,
    "max": 1,
    "min": 1,
    "probability": 20
  },
  {
    "dropType": "Random",
    "groupCode": 1001,
    "itemCode": 701451,
    "max": 1,
    "min": 1,
    "probability": 20
  },
  {
    "dropType": "Random",
    "groupCode": 1001,
    "itemCode": 202510,
    "max": 1,
    "min": 1,
    "probability": 20
  },
  {
    "dropType": "Random",
    "groupCode": 1002,
    "itemCode": 202407,
    "max": 1,
    "min": 1,
    "probability": 20
  },
  {
    "dropType": "Random",
    "groupCode": 1002,
    "itemCode": 203404,
    "max": 1,
    "min": 1,
    "probability": 20
  },
  {
    "dropType": "Random",
    "groupCode": 1002,
    "itemCode": 203507,
    "max": 1,
    "min": 1,
    "probability": 20
  },
  {
    "dropType": "Random",
    "groupCode": 1002,
    "itemCode": 204503,
    "max": 1,
    "min": 1,
    "probability": 20
  },
  {
    "dropType": "Random",
    "groupCode": 1002,
    "itemCode": 202416,
    "max": 1,
    "min": 1,
    "probability": 20
  },
  {
    "dropType": "Random",
    "groupCode": 1002,
    "itemCode": 201504,
    "max": 1,
    "min": 1,
    "probability": 20
  },
  {
    "dropType": "Random",
    "groupCode": 1002,
    "itemCode": 201506,
    "max": 1,
    "min": 1,
    "probability": 20
  },
  {
    "dropType": "Random",
    "groupCode": 1002,
    "itemCode": 203408,
    "max": 1,
    "min": 1,
    "probability": 20
  },
  {
    "dropType": "Random",
    "groupCode": 1002,
    "itemCode": 202508,
    "max": 1,
    "min": 1,
    "probability": 20
  },
  {
    "dropType": "Random",
    "groupCode": 1002,
    "itemCode": 202511,
    "max": 1,
    "min": 1,
    "probability": 20
  },
  {
    "dropType": "Random",
    "groupCode": 1002,
    "itemCode": 701451,
    "max": 1,
    "min": 1,
    "probability": 20
  },
  {
    "dropType": "Random",
    "groupCode": 1002,
    "itemCode": 202510,
    "max": 1,
    "min": 1,
    "probability": 20
  },
  {
    "dropType": "Random",
    "groupCode": 1003,
    "itemCode": 802601,
    "max": 1,
    "min": 1,
    "probability": 20
  },
  {
    "dropType": "Random",
    "groupCode": 1003,
    "itemCode": 202407,
    "max": 1,
    "min": 1,
    "probability": 20
  },
  {
    "dropType": "Random",
    "groupCode": 1003,
    "itemCode": 203404,
    "max": 1,
    "min": 1,
    "probability": 20
  },
  {
    "dropType": "Random",
    "groupCode": 1003,
    "itemCode": 203507,
    "max": 1,
    "min": 1,
    "probability": 20
  },
  {
    "dropType": "Random",
    "groupCode": 1003,
    "itemCode": 204503,
    "max": 1,
    "min": 1,
    "probability": 20
  },
  {
    "dropType": "Random",
    "groupCode": 1003,
    "itemCode": 202416,
    "max": 1,
    "min": 1,
    "probability": 20
  },
  {
    "dropType": "Random",
    "groupCode": 1003,
    "itemCode": 201504,
    "max": 1,
    "min": 1,
    "probability": 20
  },
  {
    "dropType": "Random",
    "groupCode": 1003,
    "itemCode": 201506,
    "max": 1,
    "min": 1,
    "probability": 20
  },
  {
    "dropType": "Random",
    "groupCode": 1003,
    "itemCode": 203408,
    "max": 1,
    "min": 1,
    "probability": 20
  },
  {
    "dropType": "Random",
    "groupCode": 1003,
    "itemCode": 202508,
    "max": 1,
    "min": 1,
    "probability": 20
  },
  {
    "dropType": "Random",
    "groupCode": 1003,
    "itemCode": 202511,
    "max": 1,
    "min": 1,
    "probability": 20
  },
  {
    "dropType": "Random",
    "groupCode": 1003,
    "itemCode": 701451,
    "max": 1,
    "min": 1,
    "probability": 20
  },
  {
    "dropType": "Random",
    "groupCode": 1003,
    "itemCode": 202510,
    "max": 1,
    "min": 1,
    "probability": 20
  },
  {
    "dropType": "Random",
    "groupCode": 1004,
    "itemCode": 702601,
    "max": 1,
    "min": 1,
    "probability": 30
  },
  {
    "dropType": "Random",
    "groupCode": 1004,
    "itemCode": 802601,
    "max": 1,
    "min": 1,
    "probability": 10
  }
]