[
  {
    "cobaltExp": 100,
    "normalExp": 156,
    "rank": 1,
    "rankingExp": 187,
    "singleExp": 156
  },
  {
    "cobaltExp": 60,
    "normalExp": 146,
    "rank": 2,
    "rankingExp": 175,
    "singleExp": 146
  },
  {
    "cobaltExp": 10,
    "normalExp": 135,
    "rank": 3,
    "rankingExp": 162,
    "singleExp": 135
  },
  {
    "cobaltExp": 0,
    "normalExp": 125,
    "rank": 4,
    "rankingExp": 150,
    "singleExp": 125
  },
  {
    "cobaltExp": 0,
    "normalExp": 114,
    "rank": 5,
    "rankingExp": 137,
    "singleExp": 114
  },
  {
    "cobaltExp": 0,
    "normalExp": 104,
    "rank": 6,
    "rankingExp": 125,
    "singleExp": 104
  },
  {
    "cobaltExp": 0,
    "normalExp": 94,
    "rank": 7,
    "rankingExp": 113,
    "singleExp": 94
  },
  {
    "cobaltExp": 0,
    "normalExp": 83,
    "rank": 8,
    "rankingExp": 100,
    "singleExp": 83
  },
  {
    "cobaltExp": 0,
    "normalExp": 73,
    "rank": 9,
    "rankingExp": 88,
    "singleExp": 73
  },
  {
    "cobaltExp": 0,
    "normalExp": 62,
    "rank": 10,
    "rankingExp": 74,
    "singleExp": 62
  },
  {
    "cobaltExp": 0,
    "normalExp": 52,
    "rank": 11,
    "rankingExp": 62,
    "singleExp": 52
  },
  {
    "cobaltExp": 0,
    "normalExp": 42,
    "rank": 12,
    "rankingExp": 50,
    "singleExp": 42
  },
  {
    "cobaltExp": 0,
    "normalExp": 31,
    "rank": 13,
    "rankingExp": 37,
    "singleExp": 31
  },
  {
    "cobaltExp": 0,
    "normalExp": 21,
    "rank": 14,
    "rankingExp": 25,
    "singleExp": 21
  },
  {
    "cobaltExp": 0,
    "normalExp": 0,
    "rank": 15,
    "rankingExp": 0,
    "singleExp": 10
  },
  {
    "cobaltExp": 0,
    "normalExp": 0,
    "rank": 16,
    "rankingExp": 0,
    "singleExp": 10
  },
  {
    "cobaltExp": 0,
    "normalExp": 0,
    "rank": 17,
    "rankingExp": 0,
    "singleExp": 10
  },
  {
    "cobaltExp": 0,
    "normalExp": 0,
    "rank": 18,
    "rankingExp": 0,
    "singleExp": 10
  }
]