[
  {
    "isUniqueSKill": true,
    "itemSkillGroup": 6001000,
    "nameKey": "Item/Skills/6001000"
  },
  {
    "isUniqueSKill": true,
    "itemSkillGroup": 6001010,
    "nameKey": "Item/Skills/6001010"
  },
  {
    "isUniqueSKill": true,
    "itemSkillGroup": 6002000,
    "nameKey": "Item/Skills/6002000"
  },
  {
    "isUniqueSKill": true,
    "itemSkillGroup": 6002010,
    "nameKey": "Item/Skills/6002010"
  },
  {
    "isUniqueSKill": true,
    "itemSkillGroup": 6003000,
    "nameKey": "Item/Skills/6003000"
  },
  {
    "isUniqueSKill": true,
    "itemSkillGroup": 6004000,
    "nameKey": "Item/Skills/6004000"
  },
  {
    "isUniqueSKill": true,
    "itemSkillGroup": 6005000,
    "nameKey": "Item/Skills/6005000"
  },
  {
    "isUniqueSKill": true,
    "itemSkillGroup": 6006000,
    "nameKey": "Item/Skills/6006000"
  },
  {
    "isUniqueSKill": true,
    "itemSkillGroup": 6007000,
    "nameKey": "Item/Skills/6007000"
  },
  {
    "isUniqueSKill": true,
    "itemSkillGroup": 6007010,
    "nameKey": "Item/Skills/6007010"
  },
  {
    "isUniqueSKill": false,
    "itemSkillGroup": 6008000,
    "nameKey": "Item/Skills/6008000"
  },
  {
    "isUniqueSKill": false,
    "itemSkillGroup": 6008100,
    "nameKey": "Item/Skills/6008100"
  },
  {
    "isUniqueSKill": true,
    "itemSkillGroup": 6012000,
    "nameKey": "Item/Skills/6012000"
  },
  {
    "isUniqueSKill": true,
    "itemSkillGroup": 6013000,
    "nameKey": "Item/Skills/6013000"
  },
  {
    "isUniqueSKill": true,
    "itemSkillGroup": 6014000,
    "nameKey": "Item/Skills/6014000"
  },
  {
    "isUniqueSKill": true,
    "itemSkillGroup": 6015000,
    "nameKey": "Item/Skills/6015000"
  },
  {
    "isUniqueSKill": true,
    "itemSkillGroup": 6016000,
    "nameKey": "Item/Skills/6016000"
  },
  {
    "isUniqueSKill": true,
    "itemSkillGroup": 6017000,
    "nameKey": "Item/Skills/6017000"
  },
  {
    "isUniqueSKill": true,
    "itemSkillGroup": 6018000,
    "nameKey": "Item/Skills/6018000"
  },
  {
    "isUniqueSKill": true,
    "itemSkillGroup": 6019000,
    "nameKey": "Item/Skills/6019000"
  },
  {
    "isUniqueSKill": true,
    "itemSkillGroup": 6020000,
    "nameKey": "Item/Skills/6020000"
  },
  {
    "isUniqueSKill": true,
    "itemSkillGroup": "6021000",
    "nameKey": "Item/Skills/6021000"
  },
  {
    "isUniqueSKill": true,
    "itemSkillGroup": "6021010",
    "nameKey": "Item/Skills/6021010"
  },
  {
    "isUniqueSKill": true,
    "itemSkillGroup": "6022000",
    "nameKey": "Item/Skills/6022000"
  },
  {
    "isUniqueSKill": true,
    "itemSkillGroup": "6023000",
    "nameKey": "Item/Skills/6023000"
  },
  {
    "isUniqueSKill": true,
    "itemSkillGroup": "6024000",
    "nameKey": "Item/Skills/6024000"
  },
  {
    "isUniqueSKill": true,
    "itemSkillGroup": "6025000",
    "nameKey": "Item/Skills/6025000"
  },
  {
    "isUniqueSKill": true,
    "itemSkillGroup": "6026000",
    "nameKey": "Item/Skills/6026000"
  },
  {
    "isUniqueSKill": true,
    "itemSkillGroup": "6500000",
    "nameKey": "Item/Skills/6500000"
  },
  {
    "isUniqueSKill": true,
    "itemSkillGroup": "6501000",
    "nameKey": "Item/Skills/6501000"
  },
  {
    "isUniqueSKill": true,
    "itemSkillGroup": "6502000",
    "nameKey": "Item/Skills/6502000"
  },
  {
    "isUniqueSKill": true,
    "itemSkillGroup": "6503000",
    "nameKey": "Item/Skills/6503000"
  },
  {
    "isUniqueSKill": true,
    "itemSkillGroup": "6504000",
    "nameKey": "Item/Skills/6504000"
  },
  {
    "isUniqueSKill": true,
    "itemSkillGroup": "6505000",
    "nameKey": "Item/Skills/6505000"
  },
  {
    "isUniqueSKill": true,
    "itemSkillGroup": "6506000",
    "nameKey": "Item/Skills/6506000"
  },
  {
    "isUniqueSKill": true,
    "itemSkillGroup": "6507000",
    "nameKey": "Item/Skills/6507000"
  },
  {
    "isUniqueSKill": true,
    "itemSkillGroup": "6508000",
    "nameKey": "Item/Skills/6508000"
  },
  {
    "isUniqueSKill": true,
    "itemSkillGroup": "6509000",
    "nameKey": "Item/Skills/6509000"
  },
  {
    "isUniqueSKill": true,
    "itemSkillGroup": "6510000",
    "nameKey": "Item/Skills/6510000"
  },
  {
    "isUniqueSKill": true,
    "itemSkillGroup": "6511000",
    "nameKey": "Item/Skills/6511000"
  },
  {
    "isUniqueSKill": true,
    "itemSkillGroup": "6512000",
    "nameKey": "Item/Skills/6512000"
  },
  {
    "isUniqueSKill": true,
    "itemSkillGroup": "6513000",
    "nameKey": "Item/Skills/6513000"
  },
  {
    "isUniqueSKill": true,
    "itemSkillGroup": "6514000",
    "nameKey": "Item/Skills/6514000"
  },
  {
    "isUniqueSKill": true,
    "itemSkillGroup": 6514100,
    "nameKey": "Item/Skills/6514100"
  },
  {
    "isUniqueSKill": true,
    "itemSkillGroup": "6515000",
    "nameKey": "Item/Skills/6515000"
  },
  {
    "isUniqueSKill": true,
    "itemSkillGroup": "6516000",
    "nameKey": "Item/Skills/6516000"
  },
  {
    "isUniqueSKill": true,
    "itemSkillGroup": "6517000",
    "nameKey": "Item/Skills/6517000"
  }
]