[
  {
    "code": 1,
    "imageName": "Img_Loading_01",
    "loadingTipType": "Lumia",
    "maxLv": 15,
    "minLv": 0,
    "textKey": "\ub85c\ub529\ud301 \ud29c\ud1a0\ub9ac\uc5bc1"
  },
  {
    "code": 2,
    "imageName": "Img_Loading_02",
    "loadingTipType": "Lumia",
    "maxLv": 30,
    "minLv": 0,
    "textKey": "\ub85c\ub529\ud301 \ud29c\ud1a0\ub9ac\uc5bc2"
  },
  {
    "code": 3,
    "imageName": "Img_Loading_03",
    "loadingTipType": "Lumia",
    "maxLv": 15,
    "minLv": 0,
    "textKey": "\ub85c\ub529\ud301 \ud29c\ud1a0\ub9ac\uc5bc3"
  },
  {
    "code": 4,
    "imageName": "Img_Loading_04",
    "loadingTipType": "Lumia",
    "maxLv": 30,
    "minLv": 0,
    "textKey": "\ub85c\ub529\ud301 \ud29c\ud1a0\ub9ac\uc5bc4"
  },
  {
    "code": 5,
    "imageName": "Img_Loading_05",
    "loadingTipType": "Lumia",
    "maxLv": 999,
    "minLv": 0,
    "textKey": "\ub85c\ub529\ud301 \ud29c\ud1a0\ub9ac\uc5bc5"
  },
  {
    "code": 6,
    "imageName": "Img_Loading_06",
    "loadingTipType": "Lumia",
    "maxLv": 999,
    "minLv": 15,
    "textKey": "\ub85c\ub529\ud301 \ud29c\ud1a0\ub9ac\uc5bc6"
  },
  {
    "code": 7,
    "imageName": "Img_Loading_07",
    "loadingTipType": "Common",
    "maxLv": 30,
    "minLv": 0,
    "textKey": "\ub85c\ub529\ud301 \ud29c\ud1a0\ub9ac\uc5bc7"
  },
  {
    "code": 8,
    "imageName": "Img_Loading_08",
    "loadingTipType": "Lumia",
    "maxLv": 999,
    "minLv": 0,
    "textKey": "\ub85c\ub529\ud301 \ud29c\ud1a0\ub9ac\uc5bc8"
  },
  {
    "code": 9,
    "imageName": "Img_Loading_09",
    "loadingTipType": "Lumia",
    "maxLv": 30,
    "minLv": 0,
    "textKey": "\ub85c\ub529\ud301 \ud29c\ud1a0\ub9ac\uc5bc9"
  },
  {
    "code": 10,
    "imageName": "Img_Loading_10",
    "loadingTipType": "Lumia",
    "maxLv": 999,
    "minLv": 0,
    "textKey": "\ub85c\ub529\ud301 \ud29c\ud1a0\ub9ac\uc5bc10"
  },
  {
    "code": 11,
    "imageName": "Img_Loading_11",
    "loadingTipType": "Common",
    "maxLv": 30,
    "minLv": 0,
    "textKey": "\ub85c\ub529\ud301 \ud29c\ud1a0\ub9ac\uc5bc11"
  },
  {
    "code": 12,
    "imageName": "Img_Loading_12",
    "loadingTipType": "Common",
    "maxLv": 30,
    "minLv": 0,
    "textKey": "\ub85c\ub529\ud301 \ud29c\ud1a0\ub9ac\uc5bc12"
  },
  {
    "code": 13,
    "imageName": "Img_Loading_13",
    "loadingTipType": "Common",
    "maxLv": 999,
    "minLv": 0,
    "textKey": "\ub85c\ub529\ud301 \ud29c\ud1a0\ub9ac\uc5bc13"
  },
  {
    "code": 14,
    "imageName": "-",
    "loadingTipType": "Common",
    "maxLv": 999,
    "minLv": 0,
    "textKey": "\ub85c\ub529\ud301 \ud29c\ud1a0\ub9ac\uc5bc14"
  },
  {
    "code": 15,
    "imageName": "-",
    "loadingTipType": "Lumia",
    "maxLv": 999,
    "minLv": 15,
    "textKey": "\ub85c\ub529\ud301 \ud29c\ud1a0\ub9ac\uc5bc15"
  },
  {
    "code": 16,
    "imageName": "-",
    "loadingTipType": "Common",
    "maxLv": 999,
    "minLv": 15,
    "textKey": "\ub85c\ub529\ud301 \ud29c\ud1a0\ub9ac\uc5bc16"
  },
  {
    "code": 17,
    "imageName": "-",
    "loadingTipType": "Common",
    "maxLv": 999,
    "minLv": 15,
    "textKey": "\ub85c\ub529\ud301 \ud29c\ud1a0\ub9ac\uc5bc17"
  },
  {
    "code": 18,
    "imageName": "-",
    "loadingTipType": "Lumia",
    "maxLv": 999,
    "minLv": 15,
    "textKey": "\ub85c\ub529\ud301 \ud29c\ud1a0\ub9ac\uc5bc18"
  },
  {
    "code": 19,
    "imageName": "-",
    "loadingTipType": "Common",
    "maxLv": 30,
    "minLv": 0,
    "textKey": "\ub85c\ub529\ud301 \ud29c\ud1a0\ub9ac\uc5bc19"
  },
  {
    "code": 20,
    "imageName": "-",
    "loadingTipType": "Lumia",
    "maxLv": 30,
    "minLv": 0,
    "textKey": "\ub85c\ub529\ud301 \ud29c\ud1a0\ub9ac\uc5bc20"
  },
  {
    "code": 21,
    "imageName": "-",
    "loadingTipType": "Lumia",
    "maxLv": 30,
    "minLv": 0,
    "textKey": "\ub85c\ub529\ud301 \ud29c\ud1a0\ub9ac\uc5bc21"
  },
  {
    "code": 22,
    "imageName": "-",
    "loadingTipType": "Lumia",
    "maxLv": 30,
    "minLv": 0,
    "textKey": "\ub85c\ub529\ud301 \ud29c\ud1a0\ub9ac\uc5bc22"
  },
  {
    "code": 23,
    "imageName": "-",
    "loadingTipType": "Lumia",
    "maxLv": 999,
    "minLv": 0,
    "textKey": "\ub85c\ub529\ud301 \ud29c\ud1a0\ub9ac\uc5bc23"
  },
  {
    "code": 24,
    "imageName": "-",
    "loadingTipType": "Common",
    "maxLv": 999,
    "minLv": 15,
    "textKey": "\ub85c\ub529\ud301 \ud29c\ud1a0\ub9ac\uc5bc24"
  },
  {
    "code": 25,
    "imageName": "-",
    "loadingTipType": "Common",
    "maxLv": 999,
    "minLv": 15,
    "textKey": "\ub85c\ub529\ud301 \ud29c\ud1a0\ub9ac\uc5bc25"
  },
  {
    "code": 26,
    "imageName": "-",
    "loadingTipType": "Common",
    "maxLv": 999,
    "minLv": 15,
    "textKey": "\ub85c\ub529\ud301 \ud29c\ud1a0\ub9ac\uc5bc26"
  },
  {
    "code": 27,
    "imageName": "-",
    "loadingTipType": "Common",
    "maxLv": 999,
    "minLv": 15,
    "textKey": "\ub85c\ub529\ud301 \ud29c\ud1a0\ub9ac\uc5bc27"
  },
  {
    "code": 28,
    "imageName": "-",
    "loadingTipType": "Common",
    "maxLv": 999,
    "minLv": 15,
    "textKey": "\ub85c\ub529\ud301 \ud29c\ud1a0\ub9ac\uc5bc28"
  },
  {
    "code": 29,
    "imageName": "-",
    "loadingTipType": "Common",
    "maxLv": 999,
    "minLv": 15,
    "textKey": "\ub85c\ub529\ud301 \ud29c\ud1a0\ub9ac\uc5bc29"
  },
  {
    "code": 30,
    "imageName": "-",
    "loadingTipType": "Common",
    "maxLv": 999,
    "minLv": 15,
    "textKey": "\ub85c\ub529\ud301 \ud29c\ud1a0\ub9ac\uc5bc30"
  },
  {
    "code": 31,
    "imageName": "-",
    "loadingTipType": "Common",
    "maxLv": 999,
    "minLv": 15,
    "textKey": "\ub85c\ub529\ud301 \ud29c\ud1a0\ub9ac\uc5bc31"
  },
  {
    "code": 32,
    "imageName": "-",
    "loadingTipType": "Common",
    "maxLv": 999,
    "minLv": 15,
    "textKey": "\ub85c\ub529\ud301 \ud29c\ud1a0\ub9ac\uc5bc32"
  },
  {
    "code": 33,
    "imageName": "-",
    "loadingTipType": "Common",
    "maxLv": 999,
    "minLv": 15,
    "textKey": "\ub85c\ub529\ud301 \ud29c\ud1a0\ub9ac\uc5bc33"
  },
  {
    "code": 34,
    "imageName": "-",
    "loadingTipType": "Common",
    "maxLv": 999,
    "minLv": 15,
    "textKey": "\ub85c\ub529\ud301 \ud29c\ud1a0\ub9ac\uc5bc34"
  },
  {
    "code": 35,
    "imageName": "-",
    "loadingTipType": "Common",
    "maxLv": 999,
    "minLv": 15,
    "textKey": "\ub85c\ub529\ud301 \ud29c\ud1a0\ub9ac\uc5bc35"
  },
  {
    "code": 36,
    "imageName": "-",
    "loadingTipType": "Common",
    "maxLv": 999,
    "minLv": 15,
    "textKey": "\ub85c\ub529\ud301 \ud29c\ud1a0\ub9ac\uc5bc36"
  },
  {
    "code": 37,
    "imageName": "-",
    "loadingTipType": "Common",
    "maxLv": 999,
    "minLv": 15,
    "textKey": "\ub85c\ub529\ud301 \ud29c\ud1a0\ub9ac\uc5bc37"
  },
  {
    "code": 38,
    "imageName": "-",
    "loadingTipType": "Common",
    "maxLv": 999,
    "minLv": 15,
    "textKey": "\ub85c\ub529\ud301 \ud29c\ud1a0\ub9ac\uc5bc38"
  },
  {
    "code": 39,
    "imageName": "-",
    "loadingTipType": "Common",
    "maxLv": 999,
    "minLv": 15,
    "textKey": "\ub85c\ub529\ud301 \ud29c\ud1a0\ub9ac\uc5bc39"
  },
  {
    "code": 40,
    "imageName": "-",
    "loadingTipType": "Common",
    "maxLv": 999,
    "minLv": 15,
    "textKey": "\ub85c\ub529\ud301 \ud29c\ud1a0\ub9ac\uc5bc40"
  },
  {
    "code": 41,
    "imageName": "-",
    "loadingTipType": "Common",
    "maxLv": 999,
    "minLv": 15,
    "textKey": "\ub85c\ub529\ud301 \ud29c\ud1a0\ub9ac\uc5bc41"
  },
  {
    "code": 42,
    "imageName": "-",
    "loadingTipType": "Common",
    "maxLv": 999,
    "minLv": 15,
    "textKey": "\ub85c\ub529\ud301 \ud29c\ud1a0\ub9ac\uc5bc42"
  },
  {
    "code": 43,
    "imageName": "-",
    "loadingTipType": "Common",
    "maxLv": 999,
    "minLv": 15,
    "textKey": "\ub85c\ub529\ud301 \ud29c\ud1a0\ub9ac\uc5bc43"
  },
  {
    "code": 44,
    "imageName": "-",
    "loadingTipType": "Common",
    "maxLv": 999,
    "minLv": 15,
    "textKey": "\ub85c\ub529\ud301 \ud29c\ud1a0\ub9ac\uc5bc44"
  },
  {
    "code": 45,
    "imageName": "-",
    "loadingTipType": "Common",
    "maxLv": 999,
    "minLv": 15,
    "textKey": "\ub85c\ub529\ud301 \ud29c\ud1a0\ub9ac\uc5bc45"
  },
  {
    "code": 46,
    "imageName": "-",
    "loadingTipType": "Common",
    "maxLv": 999,
    "minLv": 15,
    "textKey": "\ub85c\ub529\ud301 \ud29c\ud1a0\ub9ac\uc5bc46"
  },
  {
    "code": 47,
    "imageName": "-",
    "loadingTipType": "Common",
    "maxLv": 999,
    "minLv": 15,
    "textKey": "\ub85c\ub529\ud301 \ud29c\ud1a0\ub9ac\uc5bc47"
  },
  {
    "code": 48,
    "imageName": "-",
    "loadingTipType": "Common",
    "maxLv": 999,
    "minLv": 15,
    "textKey": "\ub85c\ub529\ud301 \ud29c\ud1a0\ub9ac\uc5bc48"
  },
  {
    "code": 49,
    "imageName": "-",
    "loadingTipType": "Common",
    "maxLv": 999,
    "minLv": 15,
    "textKey": "\ub85c\ub529\ud301 \ud29c\ud1a0\ub9ac\uc5bc49"
  },
  {
    "code": 50,
    "imageName": "-",
    "loadingTipType": "Common",
    "maxLv": 999,
    "minLv": 15,
    "textKey": "\ub85c\ub529\ud301 \ud29c\ud1a0\ub9ac\uc5bc50"
  },
  {
    "code": 51,
    "imageName": "-",
    "loadingTipType": "Common",
    "maxLv": 999,
    "minLv": 15,
    "textKey": "\ub85c\ub529\ud301 \ud29c\ud1a0\ub9ac\uc5bc51"
  },
  {
    "code": 52,
    "imageName": "-",
    "loadingTipType": "Common",
    "maxLv": 999,
    "minLv": 15,
    "textKey": "\ub85c\ub529\ud301 \ud29c\ud1a0\ub9ac\uc5bc52"
  },
  {
    "code": 53,
    "imageName": "-",
    "loadingTipType": "Common",
    "maxLv": 999,
    "minLv": 15,
    "textKey": "\ub85c\ub529\ud301 \ud29c\ud1a0\ub9ac\uc5bc53"
  },
  {
    "code": 54,
    "imageName": "-",
    "loadingTipType": "Common",
    "maxLv": 999,
    "minLv": 15,
    "textKey": "\ub85c\ub529\ud301 \ud29c\ud1a0\ub9ac\uc5bc54"
  },
  {
    "code": 55,
    "imageName": "-",
    "loadingTipType": "Common",
    "maxLv": 999,
    "minLv": 15,
    "textKey": "\ub85c\ub529\ud301 \ud29c\ud1a0\ub9ac\uc5bc55"
  },
  {
    "code": 56,
    "imageName": "-",
    "loadingTipType": "Common",
    "maxLv": 999,
    "minLv": 15,
    "textKey": "\ub85c\ub529\ud301 \ud29c\ud1a0\ub9ac\uc5bc56"
  },
  {
    "code": 57,
    "imageName": "-",
    "loadingTipType": "Common",
    "maxLv": 999,
    "minLv": 15,
    "textKey": "\ub85c\ub529\ud301 \ud29c\ud1a0\ub9ac\uc5bc57"
  },
  {
    "code": 58,
    "imageName": "-",
    "loadingTipType": "Common",
    "maxLv": 999,
    "minLv": 15,
    "textKey": "\ub85c\ub529\ud301 \ud29c\ud1a0\ub9ac\uc5bc58"
  },
  {
    "code": 59,
    "imageName": "-",
    "loadingTipType": "Common",
    "maxLv": 999,
    "minLv": 15,
    "textKey": "\ub85c\ub529\ud301 \ud29c\ud1a0\ub9ac\uc5bc59"
  },
  {
    "code": 60,
    "imageName": "-",
    "loadingTipType": "Common",
    "maxLv": 999,
    "minLv": 15,
    "textKey": "\ub85c\ub529\ud301 \ud29c\ud1a0\ub9ac\uc5bc60"
  },
  {
    "code": 61,
    "imageName": "-",
    "loadingTipType": "Common",
    "maxLv": 999,
    "minLv": 15,
    "textKey": "\ub85c\ub529\ud301 \ud29c\ud1a0\ub9ac\uc5bc61"
  },
  {
    "code": 62,
    "imageName": "-",
    "loadingTipType": "Common",
    "maxLv": 999,
    "minLv": 15,
    "textKey": "\ub85c\ub529\ud301 \ud29c\ud1a0\ub9ac\uc5bc62"
  },
  {
    "code": 63,
    "imageName": "-",
    "loadingTipType": "Common",
    "maxLv": 999,
    "minLv": 15,
    "textKey": "\ub85c\ub529\ud301 \ud29c\ud1a0\ub9ac\uc5bc63"
  },
  {
    "code": 64,
    "imageName": "-",
    "loadingTipType": "Common",
    "maxLv": 999,
    "minLv": 15,
    "textKey": "\ub85c\ub529\ud301 \ud29c\ud1a0\ub9ac\uc5bc64"
  },
  {
    "code": 65,
    "imageName": "-",
    "loadingTipType": "Common",
    "maxLv": 999,
    "minLv": 15,
    "textKey": "\ub85c\ub529\ud301 \ud29c\ud1a0\ub9ac\uc5bc65"
  },
  {
    "code": 66,
    "imageName": "-",
    "loadingTipType": "Common",
    "maxLv": 999,
    "minLv": 15,
    "textKey": "\ub85c\ub529\ud301 \ud29c\ud1a0\ub9ac\uc5bc66"
  },
  {
    "code": 67,
    "imageName": "-",
    "loadingTipType": "Common",
    "maxLv": 999,
    "minLv": 15,
    "textKey": "\ub85c\ub529\ud301 \ud29c\ud1a0\ub9ac\uc5bc67"
  },
  {
    "code": 68,
    "imageName": "-",
    "loadingTipType": "Common",
    "maxLv": 999,
    "minLv": 15,
    "textKey": "\ub85c\ub529\ud301 \ud29c\ud1a0\ub9ac\uc5bc68"
  },
  {
    "code": 69,
    "imageName": "-",
    "loadingTipType": "Common",
    "maxLv": 999,
    "minLv": 15,
    "textKey": "\ub85c\ub529\ud301 \ud29c\ud1a0\ub9ac\uc5bc69"
  },
  {
    "code": 70,
    "imageName": "-",
    "loadingTipType": "Common",
    "maxLv": 999,
    "minLv": 15,
    "textKey": "\ub85c\ub529\ud301 \ud29c\ud1a0\ub9ac\uc5bc70"
  },
  {
    "code": 71,
    "imageName": "-",
    "loadingTipType": "Common",
    "maxLv": 999,
    "minLv": 15,
    "textKey": "\ub85c\ub529\ud301 \ud29c\ud1a0\ub9ac\uc5bc71"
  },
  {
    "code": 72,
    "imageName": "-",
    "loadingTipType": "Common",
    "maxLv": 999,
    "minLv": 15,
    "textKey": "\ub85c\ub529\ud301 \ud29c\ud1a0\ub9ac\uc5bc72"
  },
  {
    "code": 73,
    "imageName": "-",
    "loadingTipType": "Common",
    "maxLv": 999,
    "minLv": 15,
    "textKey": "\ub85c\ub529\ud301 \ud29c\ud1a0\ub9ac\uc5bc73"
  },
  {
    "code": 74,
    "imageName": "-",
    "loadingTipType": "Common",
    "maxLv": 999,
    "minLv": 15,
    "textKey": "\ub85c\ub529\ud301 \ud29c\ud1a0\ub9ac\uc5bc74"
  },
  {
    "code": 75,
    "imageName": "-",
    "loadingTipType": "Common",
    "maxLv": 999,
    "minLv": 15,
    "textKey": "\ub85c\ub529\ud301 \ud29c\ud1a0\ub9ac\uc5bc75"
  },
  {
    "code": 76,
    "imageName": "-",
    "loadingTipType": "Common",
    "maxLv": 999,
    "minLv": 15,
    "textKey": "\ub85c\ub529\ud301 \ud29c\ud1a0\ub9ac\uc5bc76"
  },
  {
    "code": 77,
    "imageName": "-",
    "loadingTipType": "Common",
    "maxLv": 999,
    "minLv": 15,
    "textKey": "\ub85c\ub529\ud301 \ud29c\ud1a0\ub9ac\uc5bc77"
  },
  {
    "code": 78,
    "imageName": "-",
    "loadingTipType": "Common",
    "maxLv": 999,
    "minLv": 15,
    "textKey": "\ub85c\ub529\ud301 \ud29c\ud1a0\ub9ac\uc5bc78"
  },
  {
    "code": 79,
    "imageName": "-",
    "loadingTipType": "Common",
    "maxLv": 999,
    "minLv": 15,
    "textKey": "\ub85c\ub529\ud301 \ud29c\ud1a0\ub9ac\uc5bc79"
  },
  {
    "code": 80,
    "imageName": "-",
    "loadingTipType": "Common",
    "maxLv": 999,
    "minLv": 15,
    "textKey": "\ub85c\ub529\ud301 \ud29c\ud1a0\ub9ac\uc5bc80"
  },
  {
    "code": 81,
    "imageName": "-",
    "loadingTipType": "Common",
    "maxLv": 999,
    "minLv": 15,
    "textKey": "\ub85c\ub529\ud301 \ud29c\ud1a0\ub9ac\uc5bc81"
  },
  {
    "code": 82,
    "imageName": "-",
    "loadingTipType": "Common",
    "maxLv": 999,
    "minLv": 15,
    "textKey": "\ub85c\ub529\ud301 \ud29c\ud1a0\ub9ac\uc5bc82"
  },
  {
    "code": 83,
    "imageName": "-",
    "loadingTipType": "Common",
    "maxLv": 999,
    "minLv": 15,
    "textKey": "\ub85c\ub529\ud301 \ud29c\ud1a0\ub9ac\uc5bc83"
  },
  {
    "code": 84,
    "imageName": "-",
    "loadingTipType": "Common",
    "maxLv": 999,
    "minLv": 15,
    "textKey": "\ub85c\ub529\ud301 \ud29c\ud1a0\ub9ac\uc5bc84"
  },
  {
    "code": 85,
    "imageName": "-",
    "loadingTipType": "Common",
    "maxLv": 999,
    "minLv": 15,
    "textKey": "\ub85c\ub529\ud301 \ud29c\ud1a0\ub9ac\uc5bc85"
  },
  {
    "code": 86,
    "imageName": "-",
    "loadingTipType": "Common",
    "maxLv": 999,
    "minLv": 15,
    "textKey": "\ub85c\ub529\ud301 \ud29c\ud1a0\ub9ac\uc5bc86"
  },
  {
    "code": 87,
    "imageName": "-",
    "loadingTipType": "Common",
    "maxLv": 999,
    "minLv": 15,
    "textKey": "\ub85c\ub529\ud301 \ud29c\ud1a0\ub9ac\uc5bc87"
  },
  {
    "code": 88,
    "imageName": "-",
    "loadingTipType": "Common",
    "maxLv": 999,
    "minLv": 15,
    "textKey": "\ub85c\ub529\ud301 \ud29c\ud1a0\ub9ac\uc5bc88"
  },
  {
    "code": 89,
    "imageName": "-",
    "loadingTipType": "Common",
    "maxLv": 999,
    "minLv": 15,
    "textKey": "\ub85c\ub529\ud301 \ud29c\ud1a0\ub9ac\uc5bc89"
  },
  {
    "code": 90,
    "imageName": "-",
    "loadingTipType": "Common",
    "maxLv": 999,
    "minLv": 15,
    "textKey": "\ub85c\ub529\ud301 \ud29c\ud1a0\ub9ac\uc5bc90"
  },
  {
    "code": 91,
    "imageName": "-",
    "loadingTipType": "Common",
    "maxLv": 999,
    "minLv": 15,
    "textKey": "\ub85c\ub529\ud301 \ud29c\ud1a0\ub9ac\uc5bc91"
  },
  {
    "code": 92,
    "imageName": "-",
    "loadingTipType": "Common",
    "maxLv": 999,
    "minLv": 15,
    "textKey": "\ub85c\ub529\ud301 \ud29c\ud1a0\ub9ac\uc5bc92"
  },
  {
    "code": 93,
    "imageName": "-",
    "loadingTipType": "Common",
    "maxLv": 999,
    "minLv": 15,
    "textKey": "\ub85c\ub529\ud301 \ud29c\ud1a0\ub9ac\uc5bc93"
  },
  {
    "code": 94,
    "imageName": "-",
    "loadingTipType": "Common",
    "maxLv": 999,
    "minLv": 15,
    "textKey": "\ub85c\ub529\ud301 \ud29c\ud1a0\ub9ac\uc5bc94"
  },
  {
    "code": 95,
    "imageName": "-",
    "loadingTipType": "Common",
    "maxLv": 999,
    "minLv": 15,
    "textKey": "\ub85c\ub529\ud301 \ud29c\ud1a0\ub9ac\uc5bc95"
  },
  {
    "code": 96,
    "imageName": "-",
    "loadingTipType": "Common",
    "maxLv": 999,
    "minLv": 15,
    "textKey": "\ub85c\ub529\ud301 \ud29c\ud1a0\ub9ac\uc5bc96"
  },
  {
    "code": 97,
    "imageName": "-",
    "loadingTipType": "Common",
    "maxLv": 999,
    "minLv": 15,
    "textKey": "\ub85c\ub529\ud301 \ud29c\ud1a0\ub9ac\uc5bc97"
  },
  {
    "code": 98,
    "imageName": "-",
    "loadingTipType": "Common",
    "maxLv": 999,
    "minLv": 15,
    "textKey": "\ub85c\ub529\ud301 \ud29c\ud1a0\ub9ac\uc5bc98"
  },
  {
    "code": 99,
    "imageName": "-",
    "loadingTipType": "Common",
    "maxLv": 999,
    "minLv": 15,
    "textKey": "\ub85c\ub529\ud301 \ud29c\ud1a0\ub9ac\uc5bc99"
  },
  {
    "code": 100,
    "imageName": "-",
    "loadingTipType": "Common",
    "maxLv": 999,
    "minLv": 15,
    "textKey": "\ub85c\ub529\ud301 \ud29c\ud1a0\ub9ac\uc5bc100"
  },
  {
    "code": 101,
    "imageName": "-",
    "loadingTipType": "Common",
    "maxLv": 999,
    "minLv": 15,
    "textKey": "\ub85c\ub529\ud301 \ud29c\ud1a0\ub9ac\uc5bc101"
  },
  {
    "code": 102,
    "imageName": "-",
    "loadingTipType": "Common",
    "maxLv": 999,
    "minLv": 15,
    "textKey": "\ub85c\ub529\ud301 \ud29c\ud1a0\ub9ac\uc5bc102"
  },
  {
    "code": 103,
    "imageName": "-",
    "loadingTipType": "Common",
    "maxLv": 999,
    "minLv": 15,
    "textKey": "\ub85c\ub529\ud301 \ud29c\ud1a0\ub9ac\uc5bc103"
  },
  {
    "code": 104,
    "imageName": "-",
    "loadingTipType": "Common",
    "maxLv": 999,
    "minLv": 15,
    "textKey": "\ub85c\ub529\ud301 \ud29c\ud1a0\ub9ac\uc5bc104"
  },
  {
    "code": 105,
    "imageName": "-",
    "loadingTipType": "Common",
    "maxLv": 999,
    "minLv": 15,
    "textKey": "\ub85c\ub529\ud301 \ud29c\ud1a0\ub9ac\uc5bc105"
  },
  {
    "code": 106,
    "imageName": "-",
    "loadingTipType": "Common",
    "maxLv": 999,
    "minLv": 15,
    "textKey": "\ub85c\ub529\ud301 \ud29c\ud1a0\ub9ac\uc5bc106"
  },
  {
    "code": 107,
    "imageName": "-",
    "loadingTipType": "Common",
    "maxLv": 999,
    "minLv": 15,
    "textKey": "\ub85c\ub529\ud301 \ud29c\ud1a0\ub9ac\uc5bc107"
  },
  {
    "code": 108,
    "imageName": "-",
    "loadingTipType": "Common",
    "maxLv": 999,
    "minLv": 15,
    "textKey": "\ub85c\ub529\ud301 \ud29c\ud1a0\ub9ac\uc5bc108"
  },
  {
    "code": 109,
    "imageName": "-",
    "loadingTipType": "Common",
    "maxLv": 999,
    "minLv": 15,
    "textKey": "\ub85c\ub529\ud301 \ud29c\ud1a0\ub9ac\uc5bc109"
  },
  {
    "code": 110,
    "imageName": "-",
    "loadingTipType": "Common",
    "maxLv": 999,
    "minLv": 15,
    "textKey": "\ub85c\ub529\ud301 \ud29c\ud1a0\ub9ac\uc5bc110"
  },
  {
    "code": 111,
    "imageName": "-",
    "loadingTipType": "Common",
    "maxLv": 999,
    "minLv": 15,
    "textKey": "\ub85c\ub529\ud301 \ud29c\ud1a0\ub9ac\uc5bc111"
  },
  {
    "code": 112,
    "imageName": "-",
    "loadingTipType": "Common",
    "maxLv": 999,
    "minLv": 15,
    "textKey": "\ub85c\ub529\ud301 \ud29c\ud1a0\ub9ac\uc5bc112"
  },
  {
    "code": 113,
    "imageName": "-",
    "loadingTipType": "Common",
    "maxLv": 999,
    "minLv": 15,
    "textKey": "\ub85c\ub529\ud301 \ud29c\ud1a0\ub9ac\uc5bc113"
  },
  {
    "code": 114,
    "imageName": "-",
    "loadingTipType": "Common",
    "maxLv": 999,
    "minLv": 15,
    "textKey": "\ub85c\ub529\ud301 \ud29c\ud1a0\ub9ac\uc5bc114"
  },
  {
    "code": 115,
    "imageName": "-",
    "loadingTipType": "Common",
    "maxLv": 999,
    "minLv": 15,
    "textKey": "\ub85c\ub529\ud301 \ud29c\ud1a0\ub9ac\uc5bc115"
  },
  {
    "code": 116,
    "imageName": "-",
    "loadingTipType": "Common",
    "maxLv": 999,
    "minLv": 15,
    "textKey": "\ub85c\ub529\ud301 \ud29c\ud1a0\ub9ac\uc5bc116"
  },
  {
    "code": 117,
    "imageName": "-",
    "loadingTipType": "Common",
    "maxLv": 999,
    "minLv": 15,
    "textKey": "\ub85c\ub529\ud301 \ud29c\ud1a0\ub9ac\uc5bc117"
  },
  {
    "code": 118,
    "imageName": "-",
    "loadingTipType": "Common",
    "maxLv": 999,
    "minLv": 15,
    "textKey": "\ub85c\ub529\ud301 \ud29c\ud1a0\ub9ac\uc5bc118"
  },
  {
    "code": 119,
    "imageName": "-",
    "loadingTipType": "Common",
    "maxLv": 999,
    "minLv": 15,
    "textKey": "\ub85c\ub529\ud301 \ud29c\ud1a0\ub9ac\uc5bc119"
  },
  {
    "code": 120,
    "imageName": "-",
    "loadingTipType": "Common",
    "maxLv": 999,
    "minLv": 15,
    "textKey": "\ub85c\ub529\ud301 \ud29c\ud1a0\ub9ac\uc5bc120"
  },
  {
    "code": 121,
    "imageName": "-",
    "loadingTipType": "Common",
    "maxLv": 999,
    "minLv": 15,
    "textKey": "\ub85c\ub529\ud301 \ud29c\ud1a0\ub9ac\uc5bc121"
  },
  {
    "code": 122,
    "imageName": "-",
    "loadingTipType": "Common",
    "maxLv": 999,
    "minLv": 15,
    "textKey": "\ub85c\ub529\ud301 \ud29c\ud1a0\ub9ac\uc5bc122"
  },
  {
    "code": 123,
    "imageName": "-",
    "loadingTipType": "Lumia",
    "maxLv": 15,
    "minLv": 0,
    "textKey": "\ub85c\ub529\ud301 \ud29c\ud1a0\ub9ac\uc5bc1"
  },
  {
    "code": 124,
    "imageName": "-",
    "loadingTipType": "Lumia",
    "maxLv": 30,
    "minLv": 0,
    "textKey": "\ub85c\ub529\ud301 \ud29c\ud1a0\ub9ac\uc5bc2"
  },
  {
    "code": 125,
    "imageName": "-",
    "loadingTipType": "Lumia",
    "maxLv": 15,
    "minLv": 0,
    "textKey": "\ub85c\ub529\ud301 \ud29c\ud1a0\ub9ac\uc5bc3"
  },
  {
    "code": 126,
    "imageName": "-",
    "loadingTipType": "Lumia",
    "maxLv": 30,
    "minLv": 0,
    "textKey": "\ub85c\ub529\ud301 \ud29c\ud1a0\ub9ac\uc5bc4"
  },
  {
    "code": 127,
    "imageName": "-",
    "loadingTipType": "Lumia",
    "maxLv": 999,
    "minLv": 0,
    "textKey": "\ub85c\ub529\ud301 \ud29c\ud1a0\ub9ac\uc5bc5"
  },
  {
    "code": 128,
    "imageName": "-",
    "loadingTipType": "Lumia",
    "maxLv": 999,
    "minLv": 15,
    "textKey": "\ub85c\ub529\ud301 \ud29c\ud1a0\ub9ac\uc5bc6"
  },
  {
    "code": 129,
    "imageName": "-",
    "loadingTipType": "Common",
    "maxLv": 30,
    "minLv": 0,
    "textKey": "\ub85c\ub529\ud301 \ud29c\ud1a0\ub9ac\uc5bc7"
  },
  {
    "code": 130,
    "imageName": "-",
    "loadingTipType": "Lumia",
    "maxLv": 999,
    "minLv": 0,
    "textKey": "\ub85c\ub529\ud301 \ud29c\ud1a0\ub9ac\uc5bc8"
  },
  {
    "code": 131,
    "imageName": "-",
    "loadingTipType": "Lumia",
    "maxLv": 30,
    "minLv": 0,
    "textKey": "\ub85c\ub529\ud301 \ud29c\ud1a0\ub9ac\uc5bc9"
  },
  {
    "code": 132,
    "imageName": "-",
    "loadingTipType": "Lumia",
    "maxLv": 999,
    "minLv": 0,
    "textKey": "\ub85c\ub529\ud301 \ud29c\ud1a0\ub9ac\uc5bc10"
  },
  {
    "code": 133,
    "imageName": "-",
    "loadingTipType": "Common",
    "maxLv": 30,
    "minLv": 0,
    "textKey": "\ub85c\ub529\ud301 \ud29c\ud1a0\ub9ac\uc5bc11"
  },
  {
    "code": 134,
    "imageName": "-",
    "loadingTipType": "Common",
    "maxLv": 30,
    "minLv": 0,
    "textKey": "\ub85c\ub529\ud301 \ud29c\ud1a0\ub9ac\uc5bc12"
  },
  {
    "code": 135,
    "imageName": "-",
    "loadingTipType": "Common",
    "maxLv": 999,
    "minLv": 0,
    "textKey": "\ub85c\ub529\ud301 \ud29c\ud1a0\ub9ac\uc5bc13"
  },
  {
    "code": 136,
    "imageName": "-",
    "loadingTipType": "Common",
    "maxLv": 999,
    "minLv": 0,
    "textKey": "\ub85c\ub529\ud301 \ud29c\ud1a0\ub9ac\uc5bc14"
  },
  {
    "code": 137,
    "imageName": "-",
    "loadingTipType": "Lumia",
    "maxLv": 999,
    "minLv": 15,
    "textKey": "\ub85c\ub529\ud301 \ud29c\ud1a0\ub9ac\uc5bc15"
  },
  {
    "code": 138,
    "imageName": "-",
    "loadingTipType": "Common",
    "maxLv": 999,
    "minLv": 15,
    "textKey": "\ub85c\ub529\ud301 \ud29c\ud1a0\ub9ac\uc5bc16"
  },
  {
    "code": 139,
    "imageName": "-",
    "loadingTipType": "Common",
    "maxLv": 999,
    "minLv": 15,
    "textKey": "\ub85c\ub529\ud301 \ud29c\ud1a0\ub9ac\uc5bc17"
  },
  {
    "code": 140,
    "imageName": "-",
    "loadingTipType": "Lumia",
    "maxLv": 999,
    "minLv": 15,
    "textKey": "\ub85c\ub529\ud301 \ud29c\ud1a0\ub9ac\uc5bc18"
  },
  {
    "code": 141,
    "imageName": "-",
    "loadingTipType": "Common",
    "maxLv": 30,
    "minLv": 0,
    "textKey": "\ub85c\ub529\ud301 \ud29c\ud1a0\ub9ac\uc5bc19"
  },
  {
    "code": 142,
    "imageName": "-",
    "loadingTipType": "Lumia",
    "maxLv": 30,
    "minLv": 0,
    "textKey": "\ub85c\ub529\ud301 \ud29c\ud1a0\ub9ac\uc5bc20"
  },
  {
    "code": 143,
    "imageName": "-",
    "loadingTipType": "Lumia",
    "maxLv": 30,
    "minLv": 0,
    "textKey": "\ub85c\ub529\ud301 \ud29c\ud1a0\ub9ac\uc5bc21"
  },
  {
    "code": 144,
    "imageName": "-",
    "loadingTipType": "Lumia",
    "maxLv": 30,
    "minLv": 0,
    "textKey": "\ub85c\ub529\ud301 \ud29c\ud1a0\ub9ac\uc5bc22"
  },
  {
    "code": 145,
    "imageName": "-",
    "loadingTipType": "Lumia",
    "maxLv": 999,
    "minLv": 0,
    "textKey": "\ub85c\ub529\ud301 \ud29c\ud1a0\ub9ac\uc5bc23"
  },
  {
    "code": 146,
    "imageName": "-",
    "loadingTipType": "Lumia",
    "maxLv": 15,
    "minLv": 0,
    "textKey": "\ub85c\ub529\ud301 \ud29c\ud1a0\ub9ac\uc5bc1"
  },
  {
    "code": 147,
    "imageName": "-",
    "loadingTipType": "Lumia",
    "maxLv": 30,
    "minLv": 0,
    "textKey": "\ub85c\ub529\ud301 \ud29c\ud1a0\ub9ac\uc5bc2"
  },
  {
    "code": 148,
    "imageName": "-",
    "loadingTipType": "Lumia",
    "maxLv": 15,
    "minLv": 0,
    "textKey": "\ub85c\ub529\ud301 \ud29c\ud1a0\ub9ac\uc5bc3"
  },
  {
    "code": 149,
    "imageName": "-",
    "loadingTipType": "Lumia",
    "maxLv": 30,
    "minLv": 0,
    "textKey": "\ub85c\ub529\ud301 \ud29c\ud1a0\ub9ac\uc5bc4"
  },
  {
    "code": 150,
    "imageName": "-",
    "loadingTipType": "Lumia",
    "maxLv": 999,
    "minLv": 0,
    "textKey": "\ub85c\ub529\ud301 \ud29c\ud1a0\ub9ac\uc5bc5"
  },
  {
    "code": 151,
    "imageName": "-",
    "loadingTipType": "Lumia",
    "maxLv": 999,
    "minLv": 15,
    "textKey": "\ub85c\ub529\ud301 \ud29c\ud1a0\ub9ac\uc5bc6"
  },
  {
    "code": 152,
    "imageName": "-",
    "loadingTipType": "Common",
    "maxLv": 30,
    "minLv": 0,
    "textKey": "\ub85c\ub529\ud301 \ud29c\ud1a0\ub9ac\uc5bc7"
  },
  {
    "code": 153,
    "imageName": "-",
    "loadingTipType": "Lumia",
    "maxLv": 999,
    "minLv": 0,
    "textKey": "\ub85c\ub529\ud301 \ud29c\ud1a0\ub9ac\uc5bc8"
  },
  {
    "code": 154,
    "imageName": "-",
    "loadingTipType": "Lumia",
    "maxLv": 30,
    "minLv": 0,
    "textKey": "\ub85c\ub529\ud301 \ud29c\ud1a0\ub9ac\uc5bc9"
  },
  {
    "code": 155,
    "imageName": "-",
    "loadingTipType": "Lumia",
    "maxLv": 999,
    "minLv": 0,
    "textKey": "\ub85c\ub529\ud301 \ud29c\ud1a0\ub9ac\uc5bc10"
  },
  {
    "code": 156,
    "imageName": "-",
    "loadingTipType": "Common",
    "maxLv": 30,
    "minLv": 0,
    "textKey": "\ub85c\ub529\ud301 \ud29c\ud1a0\ub9ac\uc5bc11"
  },
  {
    "code": 157,
    "imageName": "-",
    "loadingTipType": "Common",
    "maxLv": 30,
    "minLv": 0,
    "textKey": "\ub85c\ub529\ud301 \ud29c\ud1a0\ub9ac\uc5bc12"
  },
  {
    "code": 158,
    "imageName": "-",
    "loadingTipType": "Common",
    "maxLv": 999,
    "minLv": 0,
    "textKey": "\ub85c\ub529\ud301 \ud29c\ud1a0\ub9ac\uc5bc13"
  },
  {
    "code": 159,
    "imageName": "-",
    "loadingTipType": "Common",
    "maxLv": 999,
    "minLv": 0,
    "textKey": "\ub85c\ub529\ud301 \ud29c\ud1a0\ub9ac\uc5bc14"
  },
  {
    "code": 160,
    "imageName": "-",
    "loadingTipType": "Lumia",
    "maxLv": 999,
    "minLv": 15,
    "textKey": "\ub85c\ub529\ud301 \ud29c\ud1a0\ub9ac\uc5bc15"
  },
  {
    "code": 161,
    "imageName": "-",
    "loadingTipType": "Common",
    "maxLv": 999,
    "minLv": 15,
    "textKey": "\ub85c\ub529\ud301 \ud29c\ud1a0\ub9ac\uc5bc16"
  },
  {
    "code": 162,
    "imageName": "-",
    "loadingTipType": "Common",
    "maxLv": 999,
    "minLv": 15,
    "textKey": "\ub85c\ub529\ud301 \ud29c\ud1a0\ub9ac\uc5bc17"
  },
  {
    "code": 163,
    "imageName": "-",
    "loadingTipType": "Lumia",
    "maxLv": 999,
    "minLv": 15,
    "textKey": "\ub85c\ub529\ud301 \ud29c\ud1a0\ub9ac\uc5bc18"
  },
  {
    "code": 164,
    "imageName": "-",
    "loadingTipType": "Common",
    "maxLv": 30,
    "minLv": 0,
    "textKey": "\ub85c\ub529\ud301 \ud29c\ud1a0\ub9ac\uc5bc19"
  },
  {
    "code": 165,
    "imageName": "-",
    "loadingTipType": "Lumia",
    "maxLv": 30,
    "minLv": 0,
    "textKey": "\ub85c\ub529\ud301 \ud29c\ud1a0\ub9ac\uc5bc20"
  },
  {
    "code": 166,
    "imageName": "-",
    "loadingTipType": "Lumia",
    "maxLv": 30,
    "minLv": 0,
    "textKey": "\ub85c\ub529\ud301 \ud29c\ud1a0\ub9ac\uc5bc21"
  },
  {
    "code": 167,
    "imageName": "-",
    "loadingTipType": "Lumia",
    "maxLv": 30,
    "minLv": 0,
    "textKey": "\ub85c\ub529\ud301 \ud29c\ud1a0\ub9ac\uc5bc22"
  },
  {
    "code": 168,
    "imageName": "-",
    "loadingTipType": "Lumia",
    "maxLv": 999,
    "minLv": 0,
    "textKey": "\ub85c\ub529\ud301 \ud29c\ud1a0\ub9ac\uc5bc23"
  },
  {
    "code": 169,
    "imageName": "-",
    "loadingTipType": "Lumia",
    "maxLv": 999,
    "minLv": 15,
    "textKey": "\ub85c\ub529\ud301 \ud29c\ud1a0\ub9ac\uc5bc123"
  },
  {
    "code": 170,
    "imageName": "-",
    "loadingTipType": "Lumia",
    "maxLv": 999,
    "minLv": 15,
    "textKey": "\ub85c\ub529\ud301 \ud29c\ud1a0\ub9ac\uc5bc124"
  },
  {
    "code": 171,
    "imageName": "-",
    "loadingTipType": "Lumia",
    "maxLv": 999,
    "minLv": 15,
    "textKey": "\ub85c\ub529\ud301 \ud29c\ud1a0\ub9ac\uc5bc123"
  },
  {
    "code": 172,
    "imageName": "-",
    "loadingTipType": "Lumia",
    "maxLv": 999,
    "minLv": 15,
    "textKey": "\ub85c\ub529\ud301 \ud29c\ud1a0\ub9ac\uc5bc124"
  },
  {
    "code": 173,
    "imageName": "-",
    "loadingTipType": "Lumia",
    "maxLv": 999,
    "minLv": 15,
    "textKey": "\ub85c\ub529\ud301 \ud29c\ud1a0\ub9ac\uc5bc125"
  },
  {
    "code": 174,
    "imageName": "-",
    "loadingTipType": "Common",
    "maxLv": 999,
    "minLv": 15,
    "textKey": "\ub85c\ub529\ud301 \ud29c\ud1a0\ub9ac\uc5bc126"
  },
  {
    "code": 175,
    "imageName": "-",
    "loadingTipType": "Lumia",
    "maxLv": 999,
    "minLv": 15,
    "textKey": "\ub85c\ub529\ud301 \ud29c\ud1a0\ub9ac\uc5bc127"
  },
  {
    "code": 176,
    "imageName": "-",
    "loadingTipType": "Lumia",
    "maxLv": 999,
    "minLv": 15,
    "textKey": "\ub85c\ub529\ud301 \ud29c\ud1a0\ub9ac\uc5bc128"
  },
  {
    "code": 177,
    "imageName": "-",
    "loadingTipType": "Lumia",
    "maxLv": 999,
    "minLv": 15,
    "textKey": "\ub85c\ub529\ud301 \ud29c\ud1a0\ub9ac\uc5bc129"
  },
  {
    "code": 178,
    "imageName": "-",
    "loadingTipType": "Lumia",
    "maxLv": 999,
    "minLv": 15,
    "textKey": "\ub85c\ub529\ud301 \ud29c\ud1a0\ub9ac\uc5bc130"
  },
  {
    "code": 179,
    "imageName": "-",
    "loadingTipType": "Lumia",
    "maxLv": 999,
    "minLv": 15,
    "textKey": "\ub85c\ub529\ud301 \ud29c\ud1a0\ub9ac\uc5bc127"
  },
  {
    "code": 180,
    "imageName": "-",
    "loadingTipType": "Lumia",
    "maxLv": 999,
    "minLv": 15,
    "textKey": "\ub85c\ub529\ud301 \ud29c\ud1a0\ub9ac\uc5bc128"
  },
  {
    "code": 181,
    "imageName": "-",
    "loadingTipType": "Lumia",
    "maxLv": 999,
    "minLv": 15,
    "textKey": "\ub85c\ub529\ud301 \ud29c\ud1a0\ub9ac\uc5bc129"
  },
  {
    "code": 182,
    "imageName": "-",
    "loadingTipType": "Lumia",
    "maxLv": 999,
    "minLv": 15,
    "textKey": "\ub85c\ub529\ud301 \ud29c\ud1a0\ub9ac\uc5bc130"
  },
  {
    "code": 183,
    "imageName": "-",
    "loadingTipType": "Lumia",
    "maxLv": 999,
    "minLv": 15,
    "textKey": "\ub85c\ub529\ud301 \ud29c\ud1a0\ub9ac\uc5bc127"
  },
  {
    "code": 184,
    "imageName": "-",
    "loadingTipType": "Lumia",
    "maxLv": 999,
    "minLv": 15,
    "textKey": "\ub85c\ub529\ud301 \ud29c\ud1a0\ub9ac\uc5bc128"
  },
  {
    "code": 185,
    "imageName": "-",
    "loadingTipType": "Lumia",
    "maxLv": 999,
    "minLv": 15,
    "textKey": "\ub85c\ub529\ud301 \ud29c\ud1a0\ub9ac\uc5bc129"
  },
  {
    "code": 186,
    "imageName": "-",
    "loadingTipType": "Lumia",
    "maxLv": 999,
    "minLv": 15,
    "textKey": "\ub85c\ub529\ud301 \ud29c\ud1a0\ub9ac\uc5bc130"
  },
  {
    "code": 187,
    "imageName": "-",
    "loadingTipType": "Lumia",
    "maxLv": 999,
    "minLv": 15,
    "textKey": "\ub85c\ub529\ud301 \ud29c\ud1a0\ub9ac\uc5bc131"
  },
  {
    "code": 188,
    "imageName": "-",
    "loadingTipType": "Lumia",
    "maxLv": 15,
    "minLv": 0,
    "textKey": "\ub85c\ub529\ud301 \ud29c\ud1a0\ub9ac\uc5bc1"
  },
  {
    "code": 189,
    "imageName": "-",
    "loadingTipType": "Lumia",
    "maxLv": 30,
    "minLv": 0,
    "textKey": "\ub85c\ub529\ud301 \ud29c\ud1a0\ub9ac\uc5bc2"
  },
  {
    "code": 190,
    "imageName": "-",
    "loadingTipType": "Lumia",
    "maxLv": 15,
    "minLv": 0,
    "textKey": "\ub85c\ub529\ud301 \ud29c\ud1a0\ub9ac\uc5bc3"
  },
  {
    "code": 191,
    "imageName": "-",
    "loadingTipType": "Lumia",
    "maxLv": 30,
    "minLv": 0,
    "textKey": "\ub85c\ub529\ud301 \ud29c\ud1a0\ub9ac\uc5bc4"
  },
  {
    "code": 192,
    "imageName": "-",
    "loadingTipType": "Lumia",
    "maxLv": 999,
    "minLv": 0,
    "textKey": "\ub85c\ub529\ud301 \ud29c\ud1a0\ub9ac\uc5bc5"
  },
  {
    "code": 193,
    "imageName": "-",
    "loadingTipType": "Lumia",
    "maxLv": 999,
    "minLv": 15,
    "textKey": "\ub85c\ub529\ud301 \ud29c\ud1a0\ub9ac\uc5bc6"
  },
  {
    "code": 194,
    "imageName": "-",
    "loadingTipType": "Common",
    "maxLv": 30,
    "minLv": 0,
    "textKey": "\ub85c\ub529\ud301 \ud29c\ud1a0\ub9ac\uc5bc7"
  },
  {
    "code": 195,
    "imageName": "-",
    "loadingTipType": "Lumia",
    "maxLv": 999,
    "minLv": 0,
    "textKey": "\ub85c\ub529\ud301 \ud29c\ud1a0\ub9ac\uc5bc8"
  },
  {
    "code": 196,
    "imageName": "-",
    "loadingTipType": "Lumia",
    "maxLv": 30,
    "minLv": 0,
    "textKey": "\ub85c\ub529\ud301 \ud29c\ud1a0\ub9ac\uc5bc9"
  },
  {
    "code": 197,
    "imageName": "-",
    "loadingTipType": "Lumia",
    "maxLv": 999,
    "minLv": 0,
    "textKey": "\ub85c\ub529\ud301 \ud29c\ud1a0\ub9ac\uc5bc10"
  },
  {
    "code": 198,
    "imageName": "-",
    "loadingTipType": "Common",
    "maxLv": 30,
    "minLv": 0,
    "textKey": "\ub85c\ub529\ud301 \ud29c\ud1a0\ub9ac\uc5bc11"
  },
  {
    "code": 199,
    "imageName": "-",
    "loadingTipType": "Common",
    "maxLv": 30,
    "minLv": 0,
    "textKey": "\ub85c\ub529\ud301 \ud29c\ud1a0\ub9ac\uc5bc12"
  },
  {
    "code": 200,
    "imageName": "-",
    "loadingTipType": "Common",
    "maxLv": 999,
    "minLv": 0,
    "textKey": "\ub85c\ub529\ud301 \ud29c\ud1a0\ub9ac\uc5bc13"
  },
  {
    "code": 201,
    "imageName": "-",
    "loadingTipType": "Common",
    "maxLv": 999,
    "minLv": 0,
    "textKey": "\ub85c\ub529\ud301 \ud29c\ud1a0\ub9ac\uc5bc14"
  },
  {
    "code": 202,
    "imageName": "-",
    "loadingTipType": "Lumia",
    "maxLv": 999,
    "minLv": 15,
    "textKey": "\ub85c\ub529\ud301 \ud29c\ud1a0\ub9ac\uc5bc15"
  },
  {
    "code": 203,
    "imageName": "-",
    "loadingTipType": "Common",
    "maxLv": 999,
    "minLv": 15,
    "textKey": "\ub85c\ub529\ud301 \ud29c\ud1a0\ub9ac\uc5bc16"
  },
  {
    "code": 204,
    "imageName": "-",
    "loadingTipType": "Common",
    "maxLv": 999,
    "minLv": 15,
    "textKey": "\ub85c\ub529\ud301 \ud29c\ud1a0\ub9ac\uc5bc17"
  },
  {
    "code": 205,
    "imageName": "-",
    "loadingTipType": "Lumia",
    "maxLv": 999,
    "minLv": 15,
    "textKey": "\ub85c\ub529\ud301 \ud29c\ud1a0\ub9ac\uc5bc18"
  },
  {
    "code": 206,
    "imageName": "-",
    "loadingTipType": "Common",
    "maxLv": 30,
    "minLv": 0,
    "textKey": "\ub85c\ub529\ud301 \ud29c\ud1a0\ub9ac\uc5bc19"
  },
  {
    "code": 207,
    "imageName": "-",
    "loadingTipType": "Lumia",
    "maxLv": 30,
    "minLv": 0,
    "textKey": "\ub85c\ub529\ud301 \ud29c\ud1a0\ub9ac\uc5bc20"
  },
  {
    "code": 208,
    "imageName": "-",
    "loadingTipType": "Lumia",
    "maxLv": 30,
    "minLv": 0,
    "textKey": "\ub85c\ub529\ud301 \ud29c\ud1a0\ub9ac\uc5bc21"
  },
  {
    "code": 209,
    "imageName": "-",
    "loadingTipType": "Lumia",
    "maxLv": 30,
    "minLv": 0,
    "textKey": "\ub85c\ub529\ud301 \ud29c\ud1a0\ub9ac\uc5bc22"
  },
  {
    "code": 210,
    "imageName": "-",
    "loadingTipType": "Lumia",
    "maxLv": 999,
    "minLv": 0,
    "textKey": "\ub85c\ub529\ud301 \ud29c\ud1a0\ub9ac\uc5bc23"
  },
  {
    "code": 211,
    "imageName": "-",
    "loadingTipType": "Lumia",
    "maxLv": 15,
    "minLv": 0,
    "textKey": "\ub85c\ub529\ud301 \ud29c\ud1a0\ub9ac\uc5bc1"
  },
  {
    "code": 212,
    "imageName": "-",
    "loadingTipType": "Lumia",
    "maxLv": 30,
    "minLv": 0,
    "textKey": "\ub85c\ub529\ud301 \ud29c\ud1a0\ub9ac\uc5bc2"
  },
  {
    "code": 213,
    "imageName": "-",
    "loadingTipType": "Lumia",
    "maxLv": 15,
    "minLv": 0,
    "textKey": "\ub85c\ub529\ud301 \ud29c\ud1a0\ub9ac\uc5bc3"
  },
  {
    "code": 214,
    "imageName": "-",
    "loadingTipType": "Lumia",
    "maxLv": 30,
    "minLv": 0,
    "textKey": "\ub85c\ub529\ud301 \ud29c\ud1a0\ub9ac\uc5bc4"
  },
  {
    "code": 215,
    "imageName": "-",
    "loadingTipType": "Lumia",
    "maxLv": 999,
    "minLv": 0,
    "textKey": "\ub85c\ub529\ud301 \ud29c\ud1a0\ub9ac\uc5bc5"
  },
  {
    "code": 216,
    "imageName": "-",
    "loadingTipType": "Lumia",
    "maxLv": 999,
    "minLv": 15,
    "textKey": "\ub85c\ub529\ud301 \ud29c\ud1a0\ub9ac\uc5bc6"
  },
  {
    "code": 217,
    "imageName": "-",
    "loadingTipType": "Common",
    "maxLv": 30,
    "minLv": 0,
    "textKey": "\ub85c\ub529\ud301 \ud29c\ud1a0\ub9ac\uc5bc7"
  },
  {
    "code": 218,
    "imageName": "-",
    "loadingTipType": "Lumia",
    "maxLv": 999,
    "minLv": 0,
    "textKey": "\ub85c\ub529\ud301 \ud29c\ud1a0\ub9ac\uc5bc8"
  },
  {
    "code": 219,
    "imageName": "-",
    "loadingTipType": "Lumia",
    "maxLv": 30,
    "minLv": 0,
    "textKey": "\ub85c\ub529\ud301 \ud29c\ud1a0\ub9ac\uc5bc9"
  },
  {
    "code": 220,
    "imageName": "-",
    "loadingTipType": "Lumia",
    "maxLv": 999,
    "minLv": 0,
    "textKey": "\ub85c\ub529\ud301 \ud29c\ud1a0\ub9ac\uc5bc10"
  },
  {
    "code": 221,
    "imageName": "-",
    "loadingTipType": "Common",
    "maxLv": 30,
    "minLv": 0,
    "textKey": "\ub85c\ub529\ud301 \ud29c\ud1a0\ub9ac\uc5bc11"
  },
  {
    "code": 222,
    "imageName": "-",
    "loadingTipType": "Common",
    "maxLv": 30,
    "minLv": 0,
    "textKey": "\ub85c\ub529\ud301 \ud29c\ud1a0\ub9ac\uc5bc12"
  },
  {
    "code": 223,
    "imageName": "-",
    "loadingTipType": "Common",
    "maxLv": 999,
    "minLv": 0,
    "textKey": "\ub85c\ub529\ud301 \ud29c\ud1a0\ub9ac\uc5bc13"
  },
  {
    "code": 224,
    "imageName": "-",
    "loadingTipType": "Common",
    "maxLv": 999,
    "minLv": 0,
    "textKey": "\ub85c\ub529\ud301 \ud29c\ud1a0\ub9ac\uc5bc14"
  },
  {
    "code": 225,
    "imageName": "-",
    "loadingTipType": "Lumia",
    "maxLv": 999,
    "minLv": 15,
    "textKey": "\ub85c\ub529\ud301 \ud29c\ud1a0\ub9ac\uc5bc15"
  },
  {
    "code": 226,
    "imageName": "-",
    "loadingTipType": "Common",
    "maxLv": 999,
    "minLv": 15,
    "textKey": "\ub85c\ub529\ud301 \ud29c\ud1a0\ub9ac\uc5bc16"
  },
  {
    "code": 227,
    "imageName": "-",
    "loadingTipType": "Common",
    "maxLv": 999,
    "minLv": 15,
    "textKey": "\ub85c\ub529\ud301 \ud29c\ud1a0\ub9ac\uc5bc17"
  },
  {
    "code": 228,
    "imageName": "-",
    "loadingTipType": "Lumia",
    "maxLv": 999,
    "minLv": 15,
    "textKey": "\ub85c\ub529\ud301 \ud29c\ud1a0\ub9ac\uc5bc18"
  },
  {
    "code": 229,
    "imageName": "-",
    "loadingTipType": "Common",
    "maxLv": 30,
    "minLv": 0,
    "textKey": "\ub85c\ub529\ud301 \ud29c\ud1a0\ub9ac\uc5bc19"
  },
  {
    "code": 230,
    "imageName": "-",
    "loadingTipType": "Lumia",
    "maxLv": 30,
    "minLv": 0,
    "textKey": "\ub85c\ub529\ud301 \ud29c\ud1a0\ub9ac\uc5bc20"
  },
  {
    "code": 231,
    "imageName": "-",
    "loadingTipType": "Lumia",
    "maxLv": 30,
    "minLv": 0,
    "textKey": "\ub85c\ub529\ud301 \ud29c\ud1a0\ub9ac\uc5bc21"
  },
  {
    "code": 232,
    "imageName": "-",
    "loadingTipType": "Lumia",
    "maxLv": 30,
    "minLv": 0,
    "textKey": "\ub85c\ub529\ud301 \ud29c\ud1a0\ub9ac\uc5bc22"
  },
  {
    "code": 233,
    "imageName": "-",
    "loadingTipType": "Lumia",
    "maxLv": 999,
    "minLv": 0,
    "textKey": "\ub85c\ub529\ud301 \ud29c\ud1a0\ub9ac\uc5bc23"
  },
  {
    "code": 234,
    "imageName": "-",
    "loadingTipType": "Lumia",
    "maxLv": 999,
    "minLv": 15,
    "textKey": "\ub85c\ub529\ud301 \ud29c\ud1a0\ub9ac\uc5bc123"
  },
  {
    "code": 235,
    "imageName": "-",
    "loadingTipType": "Lumia",
    "maxLv": 999,
    "minLv": 15,
    "textKey": "\ub85c\ub529\ud301 \ud29c\ud1a0\ub9ac\uc5bc124"
  },
  {
    "code": 236,
    "imageName": "-",
    "loadingTipType": "Lumia",
    "maxLv": 999,
    "minLv": 15,
    "textKey": "\ub85c\ub529\ud301 \ud29c\ud1a0\ub9ac\uc5bc123"
  },
  {
    "code": 237,
    "imageName": "-",
    "loadingTipType": "Lumia",
    "maxLv": 999,
    "minLv": 15,
    "textKey": "\ub85c\ub529\ud301 \ud29c\ud1a0\ub9ac\uc5bc124"
  },
  {
    "code": 238,
    "imageName": "-",
    "loadingTipType": "Lumia",
    "maxLv": 999,
    "minLv": 15,
    "textKey": "\ub85c\ub529\ud301 \ud29c\ud1a0\ub9ac\uc5bc125"
  },
  {
    "code": 239,
    "imageName": "-",
    "loadingTipType": "Common",
    "maxLv": 999,
    "minLv": 15,
    "textKey": "\ub85c\ub529\ud301 \ud29c\ud1a0\ub9ac\uc5bc126"
  },
  {
    "code": 240,
    "imageName": "-",
    "loadingTipType": "Lumia",
    "maxLv": 999,
    "minLv": 15,
    "textKey": "\ub85c\ub529\ud301 \ud29c\ud1a0\ub9ac\uc5bc127"
  },
  {
    "code": 241,
    "imageName": "-",
    "loadingTipType": "Lumia",
    "maxLv": 999,
    "minLv": 15,
    "textKey": "\ub85c\ub529\ud301 \ud29c\ud1a0\ub9ac\uc5bc128"
  },
  {
    "code": 242,
    "imageName": "-",
    "loadingTipType": "Lumia",
    "maxLv": 999,
    "minLv": 15,
    "textKey": "\ub85c\ub529\ud301 \ud29c\ud1a0\ub9ac\uc5bc129"
  },
  {
    "code": 243,
    "imageName": "-",
    "loadingTipType": "Lumia",
    "maxLv": 999,
    "minLv": 15,
    "textKey": "\ub85c\ub529\ud301 \ud29c\ud1a0\ub9ac\uc5bc130"
  },
  {
    "code": 244,
    "imageName": "-",
    "loadingTipType": "Lumia",
    "maxLv": 999,
    "minLv": 15,
    "textKey": "\ub85c\ub529\ud301 \ud29c\ud1a0\ub9ac\uc5bc127"
  },
  {
    "code": 245,
    "imageName": "-",
    "loadingTipType": "Lumia",
    "maxLv": 999,
    "minLv": 15,
    "textKey": "\ub85c\ub529\ud301 \ud29c\ud1a0\ub9ac\uc5bc128"
  },
  {
    "code": 246,
    "imageName": "-",
    "loadingTipType": "Lumia",
    "maxLv": 999,
    "minLv": 15,
    "textKey": "\ub85c\ub529\ud301 \ud29c\ud1a0\ub9ac\uc5bc129"
  },
  {
    "code": 247,
    "imageName": "-",
    "loadingTipType": "Lumia",
    "maxLv": 999,
    "minLv": 15,
    "textKey": "\ub85c\ub529\ud301 \ud29c\ud1a0\ub9ac\uc5bc130"
  },
  {
    "code": 248,
    "imageName": "-",
    "loadingTipType": "Lumia",
    "maxLv": 999,
    "minLv": 15,
    "textKey": "\ub85c\ub529\ud301 \ud29c\ud1a0\ub9ac\uc5bc127"
  },
  {
    "code": 249,
    "imageName": "-",
    "loadingTipType": "Lumia",
    "maxLv": 999,
    "minLv": 15,
    "textKey": "\ub85c\ub529\ud301 \ud29c\ud1a0\ub9ac\uc5bc128"
  },
  {
    "code": 250,
    "imageName": "-",
    "loadingTipType": "Lumia",
    "maxLv": 999,
    "minLv": 15,
    "textKey": "\ub85c\ub529\ud301 \ud29c\ud1a0\ub9ac\uc5bc129"
  },
  {
    "code": 251,
    "imageName": "-",
    "loadingTipType": "Lumia",
    "maxLv": 999,
    "minLv": 15,
    "textKey": "\ub85c\ub529\ud301 \ud29c\ud1a0\ub9ac\uc5bc130"
  },
  {
    "code": 252,
    "imageName": "-",
    "loadingTipType": "Lumia",
    "maxLv": 999,
    "minLv": 15,
    "textKey": "\ub85c\ub529\ud301 \ud29c\ud1a0\ub9ac\uc5bc131"
  },
  {
    "code": 253,
    "imageName": "-",
    "loadingTipType": "Lumia",
    "maxLv": 15,
    "minLv": 0,
    "textKey": "\ub85c\ub529\ud301 \ud29c\ud1a0\ub9ac\uc5bc1"
  },
  {
    "code": 254,
    "imageName": "-",
    "loadingTipType": "Lumia",
    "maxLv": 30,
    "minLv": 0,
    "textKey": "\ub85c\ub529\ud301 \ud29c\ud1a0\ub9ac\uc5bc2"
  },
  {
    "code": 255,
    "imageName": "-",
    "loadingTipType": "Lumia",
    "maxLv": 15,
    "minLv": 0,
    "textKey": "\ub85c\ub529\ud301 \ud29c\ud1a0\ub9ac\uc5bc3"
  },
  {
    "code": 256,
    "imageName": "-",
    "loadingTipType": "Lumia",
    "maxLv": 30,
    "minLv": 0,
    "textKey": "\ub85c\ub529\ud301 \ud29c\ud1a0\ub9ac\uc5bc4"
  },
  {
    "code": 257,
    "imageName": "-",
    "loadingTipType": "Lumia",
    "maxLv": 999,
    "minLv": 0,
    "textKey": "\ub85c\ub529\ud301 \ud29c\ud1a0\ub9ac\uc5bc5"
  },
  {
    "code": 258,
    "imageName": "-",
    "loadingTipType": "Lumia",
    "maxLv": 999,
    "minLv": 15,
    "textKey": "\ub85c\ub529\ud301 \ud29c\ud1a0\ub9ac\uc5bc6"
  },
  {
    "code": 259,
    "imageName": "-",
    "loadingTipType": "Common",
    "maxLv": 30,
    "minLv": 0,
    "textKey": "\ub85c\ub529\ud301 \ud29c\ud1a0\ub9ac\uc5bc7"
  },
  {
    "code": 260,
    "imageName": "-",
    "loadingTipType": "Lumia",
    "maxLv": 999,
    "minLv": 0,
    "textKey": "\ub85c\ub529\ud301 \ud29c\ud1a0\ub9ac\uc5bc8"
  },
  {
    "code": 261,
    "imageName": "-",
    "loadingTipType": "Lumia",
    "maxLv": 30,
    "minLv": 0,
    "textKey": "\ub85c\ub529\ud301 \ud29c\ud1a0\ub9ac\uc5bc9"
  },
  {
    "code": 262,
    "imageName": "-",
    "loadingTipType": "Lumia",
    "maxLv": 999,
    "minLv": 0,
    "textKey": "\ub85c\ub529\ud301 \ud29c\ud1a0\ub9ac\uc5bc10"
  },
  {
    "code": 263,
    "imageName": "-",
    "loadingTipType": "Common",
    "maxLv": 30,
    "minLv": 0,
    "textKey": "\ub85c\ub529\ud301 \ud29c\ud1a0\ub9ac\uc5bc11"
  },
  {
    "code": 264,
    "imageName": "-",
    "loadingTipType": "Common",
    "maxLv": 30,
    "minLv": 0,
    "textKey": "\ub85c\ub529\ud301 \ud29c\ud1a0\ub9ac\uc5bc12"
  },
  {
    "code": 265,
    "imageName": "-",
    "loadingTipType": "Common",
    "maxLv": 999,
    "minLv": 0,
    "textKey": "\ub85c\ub529\ud301 \ud29c\ud1a0\ub9ac\uc5bc13"
  },
  {
    "code": 266,
    "imageName": "-",
    "loadingTipType": "Common",
    "maxLv": 999,
    "minLv": 0,
    "textKey": "\ub85c\ub529\ud301 \ud29c\ud1a0\ub9ac\uc5bc14"
  },
  {
    "code": 267,
    "imageName": "-",
    "loadingTipType": "Lumia",
    "maxLv": 999,
    "minLv": 15,
    "textKey": "\ub85c\ub529\ud301 \ud29c\ud1a0\ub9ac\uc5bc15"
  },
  {
    "code": 268,
    "imageName": "-",
    "loadingTipType": "Common",
    "maxLv": 999,
    "minLv": 15,
    "textKey": "\ub85c\ub529\ud301 \ud29c\ud1a0\ub9ac\uc5bc16"
  },
  {
    "code": 269,
    "imageName": "-",
    "loadingTipType": "Common",
    "maxLv": 999,
    "minLv": 15,
    "textKey": "\ub85c\ub529\ud301 \ud29c\ud1a0\ub9ac\uc5bc17"
  },
  {
    "code": 270,
    "imageName": "-",
    "loadingTipType": "Lumia",
    "maxLv": 999,
    "minLv": 15,
    "textKey": "\ub85c\ub529\ud301 \ud29c\ud1a0\ub9ac\uc5bc18"
  },
  {
    "code": 271,
    "imageName": "-",
    "loadingTipType": "Common",
    "maxLv": 30,
    "minLv": 0,
    "textKey": "\ub85c\ub529\ud301 \ud29c\ud1a0\ub9ac\uc5bc19"
  },
  {
    "code": 272,
    "imageName": "-",
    "loadingTipType": "Lumia",
    "maxLv": 30,
    "minLv": 0,
    "textKey": "\ub85c\ub529\ud301 \ud29c\ud1a0\ub9ac\uc5bc20"
  },
  {
    "code": 273,
    "imageName": "-",
    "loadingTipType": "Lumia",
    "maxLv": 30,
    "minLv": 0,
    "textKey": "\ub85c\ub529\ud301 \ud29c\ud1a0\ub9ac\uc5bc21"
  },
  {
    "code": 274,
    "imageName": "-",
    "loadingTipType": "Lumia",
    "maxLv": 30,
    "minLv": 0,
    "textKey": "\ub85c\ub529\ud301 \ud29c\ud1a0\ub9ac\uc5bc22"
  },
  {
    "code": 275,
    "imageName": "-",
    "loadingTipType": "Lumia",
    "maxLv": 999,
    "minLv": 0,
    "textKey": "\ub85c\ub529\ud301 \ud29c\ud1a0\ub9ac\uc5bc23"
  },
  {
    "code": 276,
    "imageName": "-",
    "loadingTipType": "Lumia",
    "maxLv": 15,
    "minLv": 0,
    "textKey": "\ub85c\ub529\ud301 \ud29c\ud1a0\ub9ac\uc5bc1"
  },
  {
    "code": 277,
    "imageName": "-",
    "loadingTipType": "Lumia",
    "maxLv": 30,
    "minLv": 0,
    "textKey": "\ub85c\ub529\ud301 \ud29c\ud1a0\ub9ac\uc5bc2"
  },
  {
    "code": 278,
    "imageName": "-",
    "loadingTipType": "Lumia",
    "maxLv": 15,
    "minLv": 0,
    "textKey": "\ub85c\ub529\ud301 \ud29c\ud1a0\ub9ac\uc5bc3"
  },
  {
    "code": 279,
    "imageName": "-",
    "loadingTipType": "Lumia",
    "maxLv": 30,
    "minLv": 0,
    "textKey": "\ub85c\ub529\ud301 \ud29c\ud1a0\ub9ac\uc5bc4"
  },
  {
    "code": 280,
    "imageName": "-",
    "loadingTipType": "Lumia",
    "maxLv": 999,
    "minLv": 0,
    "textKey": "\ub85c\ub529\ud301 \ud29c\ud1a0\ub9ac\uc5bc5"
  },
  {
    "code": 281,
    "imageName": "-",
    "loadingTipType": "Lumia",
    "maxLv": 999,
    "minLv": 15,
    "textKey": "\ub85c\ub529\ud301 \ud29c\ud1a0\ub9ac\uc5bc6"
  },
  {
    "code": 282,
    "imageName": "-",
    "loadingTipType": "Common",
    "maxLv": 30,
    "minLv": 0,
    "textKey": "\ub85c\ub529\ud301 \ud29c\ud1a0\ub9ac\uc5bc7"
  },
  {
    "code": 283,
    "imageName": "-",
    "loadingTipType": "Lumia",
    "maxLv": 999,
    "minLv": 0,
    "textKey": "\ub85c\ub529\ud301 \ud29c\ud1a0\ub9ac\uc5bc8"
  },
  {
    "code": 284,
    "imageName": "-",
    "loadingTipType": "Lumia",
    "maxLv": 30,
    "minLv": 0,
    "textKey": "\ub85c\ub529\ud301 \ud29c\ud1a0\ub9ac\uc5bc9"
  },
  {
    "code": 285,
    "imageName": "-",
    "loadingTipType": "Lumia",
    "maxLv": 999,
    "minLv": 0,
    "textKey": "\ub85c\ub529\ud301 \ud29c\ud1a0\ub9ac\uc5bc10"
  },
  {
    "code": 286,
    "imageName": "-",
    "loadingTipType": "Common",
    "maxLv": 30,
    "minLv": 0,
    "textKey": "\ub85c\ub529\ud301 \ud29c\ud1a0\ub9ac\uc5bc11"
  },
  {
    "code": 287,
    "imageName": "-",
    "loadingTipType": "Common",
    "maxLv": 30,
    "minLv": 0,
    "textKey": "\ub85c\ub529\ud301 \ud29c\ud1a0\ub9ac\uc5bc12"
  },
  {
    "code": 288,
    "imageName": "-",
    "loadingTipType": "Common",
    "maxLv": 999,
    "minLv": 0,
    "textKey": "\ub85c\ub529\ud301 \ud29c\ud1a0\ub9ac\uc5bc13"
  },
  {
    "code": 289,
    "imageName": "-",
    "loadingTipType": "Common",
    "maxLv": 999,
    "minLv": 0,
    "textKey": "\ub85c\ub529\ud301 \ud29c\ud1a0\ub9ac\uc5bc14"
  },
  {
    "code": 290,
    "imageName": "-",
    "loadingTipType": "Lumia",
    "maxLv": 999,
    "minLv": 15,
    "textKey": "\ub85c\ub529\ud301 \ud29c\ud1a0\ub9ac\uc5bc15"
  },
  {
    "code": 291,
    "imageName": "-",
    "loadingTipType": "Common",
    "maxLv": 999,
    "minLv": 15,
    "textKey": "\ub85c\ub529\ud301 \ud29c\ud1a0\ub9ac\uc5bc16"
  },
  {
    "code": 292,
    "imageName": "-",
    "loadingTipType": "Common",
    "maxLv": 999,
    "minLv": 15,
    "textKey": "\ub85c\ub529\ud301 \ud29c\ud1a0\ub9ac\uc5bc17"
  },
  {
    "code": 293,
    "imageName": "-",
    "loadingTipType": "Lumia",
    "maxLv": 999,
    "minLv": 15,
    "textKey": "\ub85c\ub529\ud301 \ud29c\ud1a0\ub9ac\uc5bc18"
  },
  {
    "code": 294,
    "imageName": "-",
    "loadingTipType": "Common",
    "maxLv": 30,
    "minLv": 0,
    "textKey": "\ub85c\ub529\ud301 \ud29c\ud1a0\ub9ac\uc5bc19"
  },
  {
    "code": 295,
    "imageName": "-",
    "loadingTipType": "Lumia",
    "maxLv": 30,
    "minLv": 0,
    "textKey": "\ub85c\ub529\ud301 \ud29c\ud1a0\ub9ac\uc5bc20"
  },
  {
    "code": 296,
    "imageName": "-",
    "loadingTipType": "Lumia",
    "maxLv": 30,
    "minLv": 0,
    "textKey": "\ub85c\ub529\ud301 \ud29c\ud1a0\ub9ac\uc5bc21"
  },
  {
    "code": 297,
    "imageName": "-",
    "loadingTipType": "Lumia",
    "maxLv": 30,
    "minLv": 0,
    "textKey": "\ub85c\ub529\ud301 \ud29c\ud1a0\ub9ac\uc5bc22"
  },
  {
    "code": 298,
    "imageName": "-",
    "loadingTipType": "Lumia",
    "maxLv": 999,
    "minLv": 0,
    "textKey": "\ub85c\ub529\ud301 \ud29c\ud1a0\ub9ac\uc5bc23"
  },
  {
    "code": 299,
    "imageName": "-",
    "loadingTipType": "Lumia",
    "maxLv": 999,
    "minLv": 15,
    "textKey": "\ub85c\ub529\ud301 \ud29c\ud1a0\ub9ac\uc5bc123"
  },
  {
    "code": 300,
    "imageName": "-",
    "loadingTipType": "Lumia",
    "maxLv": 999,
    "minLv": 15,
    "textKey": "\ub85c\ub529\ud301 \ud29c\ud1a0\ub9ac\uc5bc124"
  },
  {
    "code": 301,
    "imageName": "-",
    "loadingTipType": "Lumia",
    "maxLv": 999,
    "minLv": 15,
    "textKey": "\ub85c\ub529\ud301 \ud29c\ud1a0\ub9ac\uc5bc123"
  },
  {
    "code": 302,
    "imageName": "-",
    "loadingTipType": "Lumia",
    "maxLv": 999,
    "minLv": 15,
    "textKey": "\ub85c\ub529\ud301 \ud29c\ud1a0\ub9ac\uc5bc124"
  },
  {
    "code": 303,
    "imageName": "-",
    "loadingTipType": "Lumia",
    "maxLv": 999,
    "minLv": 15,
    "textKey": "\ub85c\ub529\ud301 \ud29c\ud1a0\ub9ac\uc5bc125"
  },
  {
    "code": 304,
    "imageName": "-",
    "loadingTipType": "Common",
    "maxLv": 999,
    "minLv": 15,
    "textKey": "\ub85c\ub529\ud301 \ud29c\ud1a0\ub9ac\uc5bc126"
  },
  {
    "code": 305,
    "imageName": "-",
    "loadingTipType": "Lumia",
    "maxLv": 999,
    "minLv": 15,
    "textKey": "\ub85c\ub529\ud301 \ud29c\ud1a0\ub9ac\uc5bc127"
  },
  {
    "code": 306,
    "imageName": "-",
    "loadingTipType": "Lumia",
    "maxLv": 999,
    "minLv": 15,
    "textKey": "\ub85c\ub529\ud301 \ud29c\ud1a0\ub9ac\uc5bc128"
  },
  {
    "code": 307,
    "imageName": "-",
    "loadingTipType": "Lumia",
    "maxLv": 999,
    "minLv": 15,
    "textKey": "\ub85c\ub529\ud301 \ud29c\ud1a0\ub9ac\uc5bc129"
  },
  {
    "code": 308,
    "imageName": "-",
    "loadingTipType": "Lumia",
    "maxLv": 999,
    "minLv": 15,
    "textKey": "\ub85c\ub529\ud301 \ud29c\ud1a0\ub9ac\uc5bc130"
  },
  {
    "code": 309,
    "imageName": "-",
    "loadingTipType": "Lumia",
    "maxLv": 999,
    "minLv": 15,
    "textKey": "\ub85c\ub529\ud301 \ud29c\ud1a0\ub9ac\uc5bc127"
  },
  {
    "code": 310,
    "imageName": "-",
    "loadingTipType": "Lumia",
    "maxLv": 999,
    "minLv": 15,
    "textKey": "\ub85c\ub529\ud301 \ud29c\ud1a0\ub9ac\uc5bc128"
  },
  {
    "code": 311,
    "imageName": "-",
    "loadingTipType": "Lumia",
    "maxLv": 999,
    "minLv": 15,
    "textKey": "\ub85c\ub529\ud301 \ud29c\ud1a0\ub9ac\uc5bc129"
  },
  {
    "code": 312,
    "imageName": "-",
    "loadingTipType": "Lumia",
    "maxLv": 999,
    "minLv": 15,
    "textKey": "\ub85c\ub529\ud301 \ud29c\ud1a0\ub9ac\uc5bc130"
  },
  {
    "code": 313,
    "imageName": "-",
    "loadingTipType": "Lumia",
    "maxLv": 999,
    "minLv": 15,
    "textKey": "\ub85c\ub529\ud301 \ud29c\ud1a0\ub9ac\uc5bc127"
  },
  {
    "code": 314,
    "imageName": "-",
    "loadingTipType": "Lumia",
    "maxLv": 999,
    "minLv": 15,
    "textKey": "\ub85c\ub529\ud301 \ud29c\ud1a0\ub9ac\uc5bc128"
  },
  {
    "code": 315,
    "imageName": "-",
    "loadingTipType": "Lumia",
    "maxLv": 999,
    "minLv": 15,
    "textKey": "\ub85c\ub529\ud301 \ud29c\ud1a0\ub9ac\uc5bc129"
  },
  {
    "code": 316,
    "imageName": "-",
    "loadingTipType": "Lumia",
    "maxLv": 999,
    "minLv": 15,
    "textKey": "\ub85c\ub529\ud301 \ud29c\ud1a0\ub9ac\uc5bc130"
  },
  {
    "code": 317,
    "imageName": "-",
    "loadingTipType": "Lumia",
    "maxLv": 999,
    "minLv": 15,
    "textKey": "\ub85c\ub529\ud301 \ud29c\ud1a0\ub9ac\uc5bc131"
  },
  {
    "code": 318,
    "imageName": "-",
    "loadingTipType": "Cobalt",
    "maxLv": 999,
    "minLv": 0,
    "textKey": "\ucf54\ubc1c\ud2b8 \ub85c\ub529\ud3011"
  },
  {
    "code": 319,
    "imageName": "-",
    "loadingTipType": "Cobalt",
    "maxLv": 999,
    "minLv": 0,
    "textKey": "\ucf54\ubc1c\ud2b8 \ub85c\ub529\ud3012"
  },
  {
    "code": 320,
    "imageName": "-",
    "loadingTipType": "Cobalt",
    "maxLv": 999,
    "minLv": 0,
    "textKey": "\ucf54\ubc1c\ud2b8 \ub85c\ub529\ud3013"
  },
  {
    "code": 321,
    "imageName": "-",
    "loadingTipType": "Cobalt",
    "maxLv": 999,
    "minLv": 0,
    "textKey": "\ucf54\ubc1c\ud2b8 \ub85c\ub529\ud3014"
  },
  {
    "code": 322,
    "imageName": "-",
    "loadingTipType": "Cobalt",
    "maxLv": 999,
    "minLv": 0,
    "textKey": "\ucf54\ubc1c\ud2b8 \ub85c\ub529\ud3015"
  },
  {
    "code": 323,
    "imageName": "-",
    "loadingTipType": "Cobalt",
    "maxLv": 999,
    "minLv": 0,
    "textKey": "\ucf54\ubc1c\ud2b8 \ub85c\ub529\ud3016"
  },
  {
    "code": 324,
    "imageName": "-",
    "loadingTipType": "Cobalt",
    "maxLv": 999,
    "minLv": 0,
    "textKey": "\ucf54\ubc1c\ud2b8 \ub85c\ub529\ud3017"
  },
  {
    "code": 325,
    "imageName": "-",
    "loadingTipType": "Cobalt",
    "maxLv": 999,
    "minLv": 0,
    "textKey": "\ucf54\ubc1c\ud2b8 \ub85c\ub529\ud3011"
  },
  {
    "code": 326,
    "imageName": "-",
    "loadingTipType": "Cobalt",
    "maxLv": 999,
    "minLv": 0,
    "textKey": "\ucf54\ubc1c\ud2b8 \ub85c\ub529\ud3012"
  },
  {
    "code": 327,
    "imageName": "-",
    "loadingTipType": "Cobalt",
    "maxLv": 999,
    "minLv": 0,
    "textKey": "\ucf54\ubc1c\ud2b8 \ub85c\ub529\ud3013"
  },
  {
    "code": 328,
    "imageName": "-",
    "loadingTipType": "Cobalt",
    "maxLv": 999,
    "minLv": 0,
    "textKey": "\ucf54\ubc1c\ud2b8 \ub85c\ub529\ud3014"
  },
  {
    "code": 329,
    "imageName": "-",
    "loadingTipType": "Cobalt",
    "maxLv": 999,
    "minLv": 0,
    "textKey": "\ucf54\ubc1c\ud2b8 \ub85c\ub529\ud3015"
  },
  {
    "code": 330,
    "imageName": "-",
    "loadingTipType": "Cobalt",
    "maxLv": 999,
    "minLv": 0,
    "textKey": "\ucf54\ubc1c\ud2b8 \ub85c\ub529\ud3016"
  },
  {
    "code": 331,
    "imageName": "-",
    "loadingTipType": "Cobalt",
    "maxLv": 999,
    "minLv": 0,
    "textKey": "\ucf54\ubc1c\ud2b8 \ub85c\ub529\ud3017"
  },
  {
    "code": 332,
    "imageName": "-",
    "loadingTipType": "Cobalt",
    "maxLv": 999,
    "minLv": 0,
    "textKey": "\ucf54\ubc1c\ud2b8 \ub85c\ub529\ud3011"
  },
  {
    "code": 333,
    "imageName": "-",
    "loadingTipType": "Cobalt",
    "maxLv": 999,
    "minLv": 0,
    "textKey": "\ucf54\ubc1c\ud2b8 \ub85c\ub529\ud3012"
  },
  {
    "code": 334,
    "imageName": "-",
    "loadingTipType": "Cobalt",
    "maxLv": 999,
    "minLv": 0,
    "textKey": "\ucf54\ubc1c\ud2b8 \ub85c\ub529\ud3013"
  },
  {
    "code": 335,
    "imageName": "-",
    "loadingTipType": "Cobalt",
    "maxLv": 999,
    "minLv": 0,
    "textKey": "\ucf54\ubc1c\ud2b8 \ub85c\ub529\ud3014"
  },
  {
    "code": 336,
    "imageName": "-",
    "loadingTipType": "Cobalt",
    "maxLv": 999,
    "minLv": 0,
    "textKey": "\ucf54\ubc1c\ud2b8 \ub85c\ub529\ud3015"
  },
  {
    "code": 337,
    "imageName": "-",
    "loadingTipType": "Cobalt",
    "maxLv": 999,
    "minLv": 0,
    "textKey": "\ucf54\ubc1c\ud2b8 \ub85c\ub529\ud3016"
  },
  {
    "code": 338,
    "imageName": "-",
    "loadingTipType": "Cobalt",
    "maxLv": 999,
    "minLv": 0,
    "textKey": "\ucf54\ubc1c\ud2b8 \ub85c\ub529\ud3017"
  },
  {
    "code": 339,
    "imageName": "-",
    "loadingTipType": "Cobalt",
    "maxLv": 999,
    "minLv": 0,
    "textKey": "\ucf54\ubc1c\ud2b8 \ub85c\ub529\ud3011"
  },
  {
    "code": 340,
    "imageName": "-",
    "loadingTipType": "Cobalt",
    "maxLv": 999,
    "minLv": 0,
    "textKey": "\ucf54\ubc1c\ud2b8 \ub85c\ub529\ud3012"
  },
  {
    "code": 341,
    "imageName": "-",
    "loadingTipType": "Cobalt",
    "maxLv": 999,
    "minLv": 0,
    "textKey": "\ucf54\ubc1c\ud2b8 \ub85c\ub529\ud3013"
  },
  {
    "code": 342,
    "imageName": "-",
    "loadingTipType": "Cobalt",
    "maxLv": 999,
    "minLv": 0,
    "textKey": "\ucf54\ubc1c\ud2b8 \ub85c\ub529\ud3014"
  },
  {
    "code": 343,
    "imageName": "-",
    "loadingTipType": "Cobalt",
    "maxLv": 999,
    "minLv": 0,
    "textKey": "\ucf54\ubc1c\ud2b8 \ub85c\ub529\ud3015"
  },
  {
    "code": 344,
    "imageName": "-",
    "loadingTipType": "Cobalt",
    "maxLv": 999,
    "minLv": 0,
    "textKey": "\ucf54\ubc1c\ud2b8 \ub85c\ub529\ud3016"
  },
  {
    "code": 345,
    "imageName": "-",
    "loadingTipType": "Cobalt",
    "maxLv": 999,
    "minLv": 0,
    "textKey": "\ucf54\ubc1c\ud2b8 \ub85c\ub529\ud3017"
  },
  {
    "code": 346,
    "imageName": "-",
    "loadingTipType": "Cobalt",
    "maxLv": 999,
    "minLv": 0,
    "textKey": "\ucf54\ubc1c\ud2b8 \ub85c\ub529\ud3011"
  },
  {
    "code": 347,
    "imageName": "-",
    "loadingTipType": "Cobalt",
    "maxLv": 999,
    "minLv": 0,
    "textKey": "\ucf54\ubc1c\ud2b8 \ub85c\ub529\ud3012"
  },
  {
    "code": 348,
    "imageName": "-",
    "loadingTipType": "Cobalt",
    "maxLv": 999,
    "minLv": 0,
    "textKey": "\ucf54\ubc1c\ud2b8 \ub85c\ub529\ud3013"
  },
  {
    "code": 349,
    "imageName": "-",
    "loadingTipType": "Cobalt",
    "maxLv": 999,
    "minLv": 0,
    "textKey": "\ucf54\ubc1c\ud2b8 \ub85c\ub529\ud3014"
  },
  {
    "code": 350,
    "imageName": "-",
    "loadingTipType": "Cobalt",
    "maxLv": 999,
    "minLv": 0,
    "textKey": "\ucf54\ubc1c\ud2b8 \ub85c\ub529\ud3015"
  },
  {
    "code": 351,
    "imageName": "-",
    "loadingTipType": "Cobalt",
    "maxLv": 999,
    "minLv": 0,
    "textKey": "\ucf54\ubc1c\ud2b8 \ub85c\ub529\ud3016"
  },
  {
    "code": 352,
    "imageName": "-",
    "loadingTipType": "Cobalt",
    "maxLv": 999,
    "minLv": 0,
    "textKey": "\ucf54\ubc1c\ud2b8 \ub85c\ub529\ud3017"
  },
  {
    "code": 353,
    "imageName": "-",
    "loadingTipType": "Cobalt",
    "maxLv": 999,
    "minLv": 0,
    "textKey": "\ucf54\ubc1c\ud2b8 \ub85c\ub529\ud3011"
  },
  {
    "code": 354,
    "imageName": "-",
    "loadingTipType": "Cobalt",
    "maxLv": 999,
    "minLv": 0,
    "textKey": "\ucf54\ubc1c\ud2b8 \ub85c\ub529\ud3012"
  },
  {
    "code": 355,
    "imageName": "-",
    "loadingTipType": "Cobalt",
    "maxLv": 999,
    "minLv": 0,
    "textKey": "\ucf54\ubc1c\ud2b8 \ub85c\ub529\ud3013"
  },
  {
    "code": 356,
    "imageName": "-",
    "loadingTipType": "Cobalt",
    "maxLv": 999,
    "minLv": 0,
    "textKey": "\ucf54\ubc1c\ud2b8 \ub85c\ub529\ud3014"
  },
  {
    "code": 357,
    "imageName": "-",
    "loadingTipType": "Cobalt",
    "maxLv": 999,
    "minLv": 0,
    "textKey": "\ucf54\ubc1c\ud2b8 \ub85c\ub529\ud3015"
  },
  {
    "code": 358,
    "imageName": "-",
    "loadingTipType": "Cobalt",
    "maxLv": 999,
    "minLv": 0,
    "textKey": "\ucf54\ubc1c\ud2b8 \ub85c\ub529\ud3016"
  },
  {
    "code": 359,
    "imageName": "-",
    "loadingTipType": "Cobalt",
    "maxLv": 999,
    "minLv": 0,
    "textKey": "\ucf54\ubc1c\ud2b8 \ub85c\ub529\ud3017"
  },
  {
    "code": 360,
    "imageName": "-",
    "loadingTipType": "Cobalt",
    "maxLv": 999,
    "minLv": 0,
    "textKey": "\ucf54\ubc1c\ud2b8 \ub85c\ub529\ud3011"
  },
  {
    "code": 361,
    "imageName": "-",
    "loadingTipType": "Cobalt",
    "maxLv": 999,
    "minLv": 0,
    "textKey": "\ucf54\ubc1c\ud2b8 \ub85c\ub529\ud3012"
  },
  {
    "code": 362,
    "imageName": "-",
    "loadingTipType": "Cobalt",
    "maxLv": 999,
    "minLv": 0,
    "textKey": "\ucf54\ubc1c\ud2b8 \ub85c\ub529\ud3013"
  },
  {
    "code": 363,
    "imageName": "-",
    "loadingTipType": "Cobalt",
    "maxLv": 999,
    "minLv": 0,
    "textKey": "\ucf54\ubc1c\ud2b8 \ub85c\ub529\ud3014"
  },
  {
    "code": 364,
    "imageName": "-",
    "loadingTipType": "Cobalt",
    "maxLv": 999,
    "minLv": 0,
    "textKey": "\ucf54\ubc1c\ud2b8 \ub85c\ub529\ud3015"
  },
  {
    "code": 365,
    "imageName": "-",
    "loadingTipType": "Cobalt",
    "maxLv": 999,
    "minLv": 0,
    "textKey": "\ucf54\ubc1c\ud2b8 \ub85c\ub529\ud3016"
  },
  {
    "code": 366,
    "imageName": "-",
    "loadingTipType": "Cobalt",
    "maxLv": 999,
    "minLv": 0,
    "textKey": "\ucf54\ubc1c\ud2b8 \ub85c\ub529\ud3017"
  },
  {
    "code": 367,
    "imageName": "-",
    "loadingTipType": "Cobalt",
    "maxLv": 999,
    "minLv": 0,
    "textKey": "\ucf54\ubc1c\ud2b8 \ub85c\ub529\ud3011"
  },
  {
    "code": 368,
    "imageName": "-",
    "loadingTipType": "Cobalt",
    "maxLv": 999,
    "minLv": 0,
    "textKey": "\ucf54\ubc1c\ud2b8 \ub85c\ub529\ud3012"
  },
  {
    "code": 369,
    "imageName": "-",
    "loadingTipType": "Cobalt",
    "maxLv": 999,
    "minLv": 0,
    "textKey": "\ucf54\ubc1c\ud2b8 \ub85c\ub529\ud3013"
  },
  {
    "code": 370,
    "imageName": "-",
    "loadingTipType": "Cobalt",
    "maxLv": 999,
    "minLv": 0,
    "textKey": "\ucf54\ubc1c\ud2b8 \ub85c\ub529\ud3014"
  },
  {
    "code": 371,
    "imageName": "-",
    "loadingTipType": "Cobalt",
    "maxLv": 999,
    "minLv": 0,
    "textKey": "\ucf54\ubc1c\ud2b8 \ub85c\ub529\ud3015"
  },
  {
    "code": 372,
    "imageName": "-",
    "loadingTipType": "Cobalt",
    "maxLv": 999,
    "minLv": 0,
    "textKey": "\ucf54\ubc1c\ud2b8 \ub85c\ub529\ud3016"
  },
  {
    "code": 373,
    "imageName": "-",
    "loadingTipType": "Cobalt",
    "maxLv": 999,
    "minLv": 0,
    "textKey": "\ucf54\ubc1c\ud2b8 \ub85c\ub529\ud3017"
  },
  {
    "code": 374,
    "imageName": "-",
    "loadingTipType": "Cobalt",
    "maxLv": 999,
    "minLv": 0,
    "textKey": "\ucf54\ubc1c\ud2b8 \ub85c\ub529\ud3011"
  },
  {
    "code": 375,
    "imageName": "-",
    "loadingTipType": "Cobalt",
    "maxLv": 999,
    "minLv": 0,
    "textKey": "\ucf54\ubc1c\ud2b8 \ub85c\ub529\ud3012"
  },
  {
    "code": 376,
    "imageName": "-",
    "loadingTipType": "Cobalt",
    "maxLv": 999,
    "minLv": 0,
    "textKey": "\ucf54\ubc1c\ud2b8 \ub85c\ub529\ud3013"
  },
  {
    "code": 377,
    "imageName": "-",
    "loadingTipType": "Cobalt",
    "maxLv": 999,
    "minLv": 0,
    "textKey": "\ucf54\ubc1c\ud2b8 \ub85c\ub529\ud3014"
  },
  {
    "code": 378,
    "imageName": "-",
    "loadingTipType": "Cobalt",
    "maxLv": 999,
    "minLv": 0,
    "textKey": "\ucf54\ubc1c\ud2b8 \ub85c\ub529\ud3015"
  },
  {
    "code": 379,
    "imageName": "-",
    "loadingTipType": "Cobalt",
    "maxLv": 999,
    "minLv": 0,
    "textKey": "\ucf54\ubc1c\ud2b8 \ub85c\ub529\ud3016"
  },
  {
    "code": 380,
    "imageName": "-",
    "loadingTipType": "Cobalt",
    "maxLv": 999,
    "minLv": 0,
    "textKey": "\ucf54\ubc1c\ud2b8 \ub85c\ub529\ud3017"
  },
  {
    "code": 381,
    "imageName": "-",
    "loadingTipType": "Cobalt",
    "maxLv": 999,
    "minLv": 0,
    "textKey": "\ucf54\ubc1c\ud2b8 \ub85c\ub529\ud3011"
  },
  {
    "code": 382,
    "imageName": "-",
    "loadingTipType": "Cobalt",
    "maxLv": 999,
    "minLv": 0,
    "textKey": "\ucf54\ubc1c\ud2b8 \ub85c\ub529\ud3012"
  },
  {
    "code": 383,
    "imageName": "-",
    "loadingTipType": "Cobalt",
    "maxLv": 999,
    "minLv": 0,
    "textKey": "\ucf54\ubc1c\ud2b8 \ub85c\ub529\ud3013"
  },
  {
    "code": 384,
    "imageName": "-",
    "loadingTipType": "Cobalt",
    "maxLv": 999,
    "minLv": 0,
    "textKey": "\ucf54\ubc1c\ud2b8 \ub85c\ub529\ud3014"
  },
  {
    "code": 385,
    "imageName": "-",
    "loadingTipType": "Cobalt",
    "maxLv": 999,
    "minLv": 0,
    "textKey": "\ucf54\ubc1c\ud2b8 \ub85c\ub529\ud3015"
  },
  {
    "code": 386,
    "imageName": "-",
    "loadingTipType": "Cobalt",
    "maxLv": 999,
    "minLv": 0,
    "textKey": "\ucf54\ubc1c\ud2b8 \ub85c\ub529\ud3016"
  },
  {
    "code": 387,
    "imageName": "-",
    "loadingTipType": "Cobalt",
    "maxLv": 999,
    "minLv": 0,
    "textKey": "\ucf54\ubc1c\ud2b8 \ub85c\ub529\ud3017"
  },
  {
    "code": 388,
    "imageName": "-",
    "loadingTipType": "Cobalt",
    "maxLv": 999,
    "minLv": 0,
    "textKey": "\ucf54\ubc1c\ud2b8 \ub85c\ub529\ud3011"
  },
  {
    "code": 389,
    "imageName": "-",
    "loadingTipType": "Cobalt",
    "maxLv": 999,
    "minLv": 0,
    "textKey": "\ucf54\ubc1c\ud2b8 \ub85c\ub529\ud3012"
  },
  {
    "code": 390,
    "imageName": "-",
    "loadingTipType": "Cobalt",
    "maxLv": 999,
    "minLv": 0,
    "textKey": "\ucf54\ubc1c\ud2b8 \ub85c\ub529\ud3013"
  },
  {
    "code": 391,
    "imageName": "-",
    "loadingTipType": "Cobalt",
    "maxLv": 999,
    "minLv": 0,
    "textKey": "\ucf54\ubc1c\ud2b8 \ub85c\ub529\ud3014"
  },
  {
    "code": 392,
    "imageName": "-",
    "loadingTipType": "Cobalt",
    "maxLv": 999,
    "minLv": 0,
    "textKey": "\ucf54\ubc1c\ud2b8 \ub85c\ub529\ud3015"
  },
  {
    "code": 393,
    "imageName": "-",
    "loadingTipType": "Cobalt",
    "maxLv": 999,
    "minLv": 0,
    "textKey": "\ucf54\ubc1c\ud2b8 \ub85c\ub529\ud3016"
  },
  {
    "code": 394,
    "imageName": "-",
    "loadingTipType": "Cobalt",
    "maxLv": 999,
    "minLv": 0,
    "textKey": "\ucf54\ubc1c\ud2b8 \ub85c\ub529\ud3017"
  },
  {
    "code": 395,
    "imageName": "-",
    "loadingTipType": "Cobalt",
    "maxLv": 999,
    "minLv": 0,
    "textKey": "\ucf54\ubc1c\ud2b8 \ub85c\ub529\ud3011"
  },
  {
    "code": 396,
    "imageName": "-",
    "loadingTipType": "Cobalt",
    "maxLv": 999,
    "minLv": 0,
    "textKey": "\ucf54\ubc1c\ud2b8 \ub85c\ub529\ud3012"
  },
  {
    "code": 397,
    "imageName": "-",
    "loadingTipType": "Cobalt",
    "maxLv": 999,
    "minLv": 0,
    "textKey": "\ucf54\ubc1c\ud2b8 \ub85c\ub529\ud3013"
  },
  {
    "code": 398,
    "imageName": "-",
    "loadingTipType": "Cobalt",
    "maxLv": 999,
    "minLv": 0,
    "textKey": "\ucf54\ubc1c\ud2b8 \ub85c\ub529\ud3014"
  },
  {
    "code": 399,
    "imageName": "-",
    "loadingTipType": "Cobalt",
    "maxLv": 999,
    "minLv": 0,
    "textKey": "\ucf54\ubc1c\ud2b8 \ub85c\ub529\ud3015"
  },
  {
    "code": 400,
    "imageName": "-",
    "loadingTipType": "Cobalt",
    "maxLv": 999,
    "minLv": 0,
    "textKey": "\ucf54\ubc1c\ud2b8 \ub85c\ub529\ud3016"
  },
  {
    "code": 401,
    "imageName": "-",
    "loadingTipType": "Cobalt",
    "maxLv": 999,
    "minLv": 0,
    "textKey": "\ucf54\ubc1c\ud2b8 \ub85c\ub529\ud3017"
  },
  {
    "code": 402,
    "imageName": "-",
    "loadingTipType": "Cobalt",
    "maxLv": 999,
    "minLv": 0,
    "textKey": "\ucf54\ubc1c\ud2b8 \ub85c\ub529\ud3011"
  },
  {
    "code": 403,
    "imageName": "-",
    "loadingTipType": "Cobalt",
    "maxLv": 999,
    "minLv": 0,
    "textKey": "\ucf54\ubc1c\ud2b8 \ub85c\ub529\ud3012"
  },
  {
    "code": 404,
    "imageName": "-",
    "loadingTipType": "Cobalt",
    "maxLv": 999,
    "minLv": 0,
    "textKey": "\ucf54\ubc1c\ud2b8 \ub85c\ub529\ud3013"
  },
  {
    "code": 405,
    "imageName": "-",
    "loadingTipType": "Cobalt",
    "maxLv": 999,
    "minLv": 0,
    "textKey": "\ucf54\ubc1c\ud2b8 \ub85c\ub529\ud3014"
  },
  {
    "code": 406,
    "imageName": "-",
    "loadingTipType": "Cobalt",
    "maxLv": 999,
    "minLv": 0,
    "textKey": "\ucf54\ubc1c\ud2b8 \ub85c\ub529\ud3015"
  },
  {
    "code": 407,
    "imageName": "-",
    "loadingTipType": "Cobalt",
    "maxLv": 999,
    "minLv": 0,
    "textKey": "\ucf54\ubc1c\ud2b8 \ub85c\ub529\ud3016"
  },
  {
    "code": 408,
    "imageName": "-",
    "loadingTipType": "Cobalt",
    "maxLv": 999,
    "minLv": 0,
    "textKey": "\ucf54\ubc1c\ud2b8 \ub85c\ub529\ud3017"
  },
  {
    "code": 409,
    "imageName": "-",
    "loadingTipType": "Cobalt",
    "maxLv": 999,
    "minLv": 0,
    "textKey": "\ucf54\ubc1c\ud2b8 \ub85c\ub529\ud3011"
  },
  {
    "code": 410,
    "imageName": "-",
    "loadingTipType": "Cobalt",
    "maxLv": 999,
    "minLv": 0,
    "textKey": "\ucf54\ubc1c\ud2b8 \ub85c\ub529\ud3012"
  },
  {
    "code": 411,
    "imageName": "-",
    "loadingTipType": "Cobalt",
    "maxLv": 999,
    "minLv": 0,
    "textKey": "\ucf54\ubc1c\ud2b8 \ub85c\ub529\ud3013"
  },
  {
    "code": 412,
    "imageName": "-",
    "loadingTipType": "Cobalt",
    "maxLv": 999,
    "minLv": 0,
    "textKey": "\ucf54\ubc1c\ud2b8 \ub85c\ub529\ud3014"
  },
  {
    "code": 413,
    "imageName": "-",
    "loadingTipType": "Cobalt",
    "maxLv": 999,
    "minLv": 0,
    "textKey": "\ucf54\ubc1c\ud2b8 \ub85c\ub529\ud3015"
  },
  {
    "code": 414,
    "imageName": "-",
    "loadingTipType": "Cobalt",
    "maxLv": 999,
    "minLv": 0,
    "textKey": "\ucf54\ubc1c\ud2b8 \ub85c\ub529\ud3016"
  },
  {
    "code": 415,
    "imageName": "-",
    "loadingTipType": "Cobalt",
    "maxLv": 999,
    "minLv": 0,
    "textKey": "\ucf54\ubc1c\ud2b8 \ub85c\ub529\ud3017"
  },
  {
    "code": 416,
    "imageName": "-",
    "loadingTipType": "Cobalt",
    "maxLv": 999,
    "minLv": 0,
    "textKey": "\ucf54\ubc1c\ud2b8 \ub85c\ub529\ud3011"
  },
  {
    "code": 417,
    "imageName": "-",
    "loadingTipType": "Cobalt",
    "maxLv": 999,
    "minLv": 0,
    "textKey": "\ucf54\ubc1c\ud2b8 \ub85c\ub529\ud3012"
  },
  {
    "code": 418,
    "imageName": "-",
    "loadingTipType": "Cobalt",
    "maxLv": 999,
    "minLv": 0,
    "textKey": "\ucf54\ubc1c\ud2b8 \ub85c\ub529\ud3013"
  },
  {
    "code": 419,
    "imageName": "-",
    "loadingTipType": "Cobalt",
    "maxLv": 999,
    "minLv": 0,
    "textKey": "\ucf54\ubc1c\ud2b8 \ub85c\ub529\ud3014"
  },
  {
    "code": 420,
    "imageName": "-",
    "loadingTipType": "Cobalt",
    "maxLv": 999,
    "minLv": 0,
    "textKey": "\ucf54\ubc1c\ud2b8 \ub85c\ub529\ud3015"
  },
  {
    "code": 421,
    "imageName": "-",
    "loadingTipType": "Cobalt",
    "maxLv": 999,
    "minLv": 0,
    "textKey": "\ucf54\ubc1c\ud2b8 \ub85c\ub529\ud3016"
  },
  {
    "code": 422,
    "imageName": "-",
    "loadingTipType": "Cobalt",
    "maxLv": 999,
    "minLv": 0,
    "textKey": "\ucf54\ubc1c\ud2b8 \ub85c\ub529\ud3017"
  },
  {
    "code": 423,
    "imageName": "-",
    "loadingTipType": "Cobalt",
    "maxLv": 999,
    "minLv": 0,
    "textKey": "\ucf54\ubc1c\ud2b8 \ub85c\ub529\ud3011"
  },
  {
    "code": 424,
    "imageName": "-",
    "loadingTipType": "Cobalt",
    "maxLv": 999,
    "minLv": 0,
    "textKey": "\ucf54\ubc1c\ud2b8 \ub85c\ub529\ud3012"
  },
  {
    "code": 425,
    "imageName": "-",
    "loadingTipType": "Cobalt",
    "maxLv": 999,
    "minLv": 0,
    "textKey": "\ucf54\ubc1c\ud2b8 \ub85c\ub529\ud3013"
  },
  {
    "code": 426,
    "imageName": "-",
    "loadingTipType": "Cobalt",
    "maxLv": 999,
    "minLv": 0,
    "textKey": "\ucf54\ubc1c\ud2b8 \ub85c\ub529\ud3014"
  },
  {
    "code": 427,
    "imageName": "-",
    "loadingTipType": "Cobalt",
    "maxLv": 999,
    "minLv": 0,
    "textKey": "\ucf54\ubc1c\ud2b8 \ub85c\ub529\ud3015"
  },
  {
    "code": 428,
    "imageName": "-",
    "loadingTipType": "Cobalt",
    "maxLv": 999,
    "minLv": 0,
    "textKey": "\ucf54\ubc1c\ud2b8 \ub85c\ub529\ud3016"
  },
  {
    "code": 429,
    "imageName": "-",
    "loadingTipType": "Cobalt",
    "maxLv": 999,
    "minLv": 0,
    "textKey": "\ucf54\ubc1c\ud2b8 \ub85c\ub529\ud3017"
  },
  {
    "code": 430,
    "imageName": "-",
    "loadingTipType": "Cobalt",
    "maxLv": 999,
    "minLv": 0,
    "textKey": "\ucf54\ubc1c\ud2b8 \ub85c\ub529\ud3011"
  },
  {
    "code": 431,
    "imageName": "-",
    "loadingTipType": "Cobalt",
    "maxLv": 999,
    "minLv": 0,
    "textKey": "\ucf54\ubc1c\ud2b8 \ub85c\ub529\ud3012"
  },
  {
    "code": 432,
    "imageName": "-",
    "loadingTipType": "Cobalt",
    "maxLv": 999,
    "minLv": 0,
    "textKey": "\ucf54\ubc1c\ud2b8 \ub85c\ub529\ud3013"
  },
  {
    "code": 433,
    "imageName": "-",
    "loadingTipType": "Cobalt",
    "maxLv": 999,
    "minLv": 0,
    "textKey": "\ucf54\ubc1c\ud2b8 \ub85c\ub529\ud3014"
  },
  {
    "code": 434,
    "imageName": "-",
    "loadingTipType": "Cobalt",
    "maxLv": 999,
    "minLv": 0,
    "textKey": "\ucf54\ubc1c\ud2b8 \ub85c\ub529\ud3015"
  },
  {
    "code": 435,
    "imageName": "-",
    "loadingTipType": "Cobalt",
    "maxLv": 999,
    "minLv": 0,
    "textKey": "\ucf54\ubc1c\ud2b8 \ub85c\ub529\ud3016"
  },
  {
    "code": 436,
    "imageName": "-",
    "loadingTipType": "Cobalt",
    "maxLv": 999,
    "minLv": 0,
    "textKey": "\ucf54\ubc1c\ud2b8 \ub85c\ub529\ud3017"
  },
  {
    "code": 437,
    "imageName": "-",
    "loadingTipType": "Cobalt",
    "maxLv": 999,
    "minLv": 0,
    "textKey": "\ucf54\ubc1c\ud2b8 \ub85c\ub529\ud3011"
  },
  {
    "code": 438,
    "imageName": "-",
    "loadingTipType": "Cobalt",
    "maxLv": 999,
    "minLv": 0,
    "textKey": "\ucf54\ubc1c\ud2b8 \ub85c\ub529\ud3012"
  },
  {
    "code": 439,
    "imageName": "-",
    "loadingTipType": "Cobalt",
    "maxLv": 999,
    "minLv": 0,
    "textKey": "\ucf54\ubc1c\ud2b8 \ub85c\ub529\ud3013"
  },
  {
    "code": 440,
    "imageName": "-",
    "loadingTipType": "Cobalt",
    "maxLv": 999,
    "minLv": 0,
    "textKey": "\ucf54\ubc1c\ud2b8 \ub85c\ub529\ud3014"
  },
  {
    "code": 441,
    "imageName": "-",
    "loadingTipType": "Cobalt",
    "maxLv": 999,
    "minLv": 0,
    "textKey": "\ucf54\ubc1c\ud2b8 \ub85c\ub529\ud3015"
  },
  {
    "code": 442,
    "imageName": "-",
    "loadingTipType": "Cobalt",
    "maxLv": 999,
    "minLv": 0,
    "textKey": "\ucf54\ubc1c\ud2b8 \ub85c\ub529\ud3016"
  },
  {
    "code": 443,
    "imageName": "-",
    "loadingTipType": "Cobalt",
    "maxLv": 999,
    "minLv": 0,
    "textKey": "\ucf54\ubc1c\ud2b8 \ub85c\ub529\ud3017"
  },
  {
    "code": 444,
    "imageName": "-",
    "loadingTipType": "Cobalt",
    "maxLv": 999,
    "minLv": 0,
    "textKey": "\ucf54\ubc1c\ud2b8 \ub85c\ub529\ud3011"
  },
  {
    "code": 445,
    "imageName": "-",
    "loadingTipType": "Cobalt",
    "maxLv": 999,
    "minLv": 0,
    "textKey": "\ucf54\ubc1c\ud2b8 \ub85c\ub529\ud3012"
  },
  {
    "code": 446,
    "imageName": "-",
    "loadingTipType": "Cobalt",
    "maxLv": 999,
    "minLv": 0,
    "textKey": "\ucf54\ubc1c\ud2b8 \ub85c\ub529\ud3013"
  },
  {
    "code": 447,
    "imageName": "-",
    "loadingTipType": "Cobalt",
    "maxLv": 999,
    "minLv": 0,
    "textKey": "\ucf54\ubc1c\ud2b8 \ub85c\ub529\ud3014"
  },
  {
    "code": 448,
    "imageName": "-",
    "loadingTipType": "Cobalt",
    "maxLv": 999,
    "minLv": 0,
    "textKey": "\ucf54\ubc1c\ud2b8 \ub85c\ub529\ud3015"
  },
  {
    "code": 449,
    "imageName": "-",
    "loadingTipType": "Cobalt",
    "maxLv": 999,
    "minLv": 0,
    "textKey": "\ucf54\ubc1c\ud2b8 \ub85c\ub529\ud3016"
  },
  {
    "code": 450,
    "imageName": "-",
    "loadingTipType": "Cobalt",
    "maxLv": 999,
    "minLv": 0,
    "textKey": "\ucf54\ubc1c\ud2b8 \ub85c\ub529\ud3017"
  },
  {
    "code": 451,
    "imageName": "-",
    "loadingTipType": "Cobalt",
    "maxLv": 999,
    "minLv": 0,
    "textKey": "\ucf54\ubc1c\ud2b8 \ub85c\ub529\ud3011"
  },
  {
    "code": 452,
    "imageName": "-",
    "loadingTipType": "Cobalt",
    "maxLv": 999,
    "minLv": 0,
    "textKey": "\ucf54\ubc1c\ud2b8 \ub85c\ub529\ud3012"
  },
  {
    "code": 453,
    "imageName": "-",
    "loadingTipType": "Cobalt",
    "maxLv": 999,
    "minLv": 0,
    "textKey": "\ucf54\ubc1c\ud2b8 \ub85c\ub529\ud3013"
  },
  {
    "code": 454,
    "imageName": "-",
    "loadingTipType": "Cobalt",
    "maxLv": 999,
    "minLv": 0,
    "textKey": "\ucf54\ubc1c\ud2b8 \ub85c\ub529\ud3014"
  },
  {
    "code": 455,
    "imageName": "-",
    "loadingTipType": "Cobalt",
    "maxLv": 999,
    "minLv": 0,
    "textKey": "\ucf54\ubc1c\ud2b8 \ub85c\ub529\ud3015"
  },
  {
    "code": 456,
    "imageName": "-",
    "loadingTipType": "Cobalt",
    "maxLv": 999,
    "minLv": 0,
    "textKey": "\ucf54\ubc1c\ud2b8 \ub85c\ub529\ud3016"
  },
  {
    "code": 457,
    "imageName": "-",
    "loadingTipType": "Cobalt",
    "maxLv": 999,
    "minLv": 0,
    "textKey": "\ucf54\ubc1c\ud2b8 \ub85c\ub529\ud3017"
  },
  {
    "code": 458,
    "imageName": "-",
    "loadingTipType": "Cobalt",
    "maxLv": 999,
    "minLv": 0,
    "textKey": "\ucf54\ubc1c\ud2b8 \ub85c\ub529\ud3011"
  },
  {
    "code": 459,
    "imageName": "-",
    "loadingTipType": "Cobalt",
    "maxLv": 999,
    "minLv": 0,
    "textKey": "\ucf54\ubc1c\ud2b8 \ub85c\ub529\ud3012"
  },
  {
    "code": 460,
    "imageName": "-",
    "loadingTipType": "Cobalt",
    "maxLv": 999,
    "minLv": 0,
    "textKey": "\ucf54\ubc1c\ud2b8 \ub85c\ub529\ud3013"
  },
  {
    "code": 461,
    "imageName": "-",
    "loadingTipType": "Cobalt",
    "maxLv": 999,
    "minLv": 0,
    "textKey": "\ucf54\ubc1c\ud2b8 \ub85c\ub529\ud3014"
  },
  {
    "code": 462,
    "imageName": "-",
    "loadingTipType": "Cobalt",
    "maxLv": 999,
    "minLv": 0,
    "textKey": "\ucf54\ubc1c\ud2b8 \ub85c\ub529\ud3015"
  },
  {
    "code": 463,
    "imageName": "-",
    "loadingTipType": "Cobalt",
    "maxLv": 999,
    "minLv": 0,
    "textKey": "\ucf54\ubc1c\ud2b8 \ub85c\ub529\ud3016"
  },
  {
    "code": 464,
    "imageName": "-",
    "loadingTipType": "Cobalt",
    "maxLv": 999,
    "minLv": 0,
    "textKey": "\ucf54\ubc1c\ud2b8 \ub85c\ub529\ud3017"
  },
  {
    "code": 465,
    "imageName": "-",
    "loadingTipType": "Cobalt",
    "maxLv": 999,
    "minLv": 0,
    "textKey": "\ucf54\ubc1c\ud2b8 \ub85c\ub529\ud3011"
  },
  {
    "code": 466,
    "imageName": "-",
    "loadingTipType": "Cobalt",
    "maxLv": 999,
    "minLv": 0,
    "textKey": "\ucf54\ubc1c\ud2b8 \ub85c\ub529\ud3012"
  },
  {
    "code": 467,
    "imageName": "-",
    "loadingTipType": "Cobalt",
    "maxLv": 999,
    "minLv": 0,
    "textKey": "\ucf54\ubc1c\ud2b8 \ub85c\ub529\ud3013"
  },
  {
    "code": 468,
    "imageName": "-",
    "loadingTipType": "Cobalt",
    "maxLv": 999,
    "minLv": 0,
    "textKey": "\ucf54\ubc1c\ud2b8 \ub85c\ub529\ud3014"
  },
  {
    "code": 469,
    "imageName": "-",
    "loadingTipType": "Cobalt",
    "maxLv": 999,
    "minLv": 0,
    "textKey": "\ucf54\ubc1c\ud2b8 \ub85c\ub529\ud3015"
  },
  {
    "code": 470,
    "imageName": "-",
    "loadingTipType": "Cobalt",
    "maxLv": 999,
    "minLv": 0,
    "textKey": "\ucf54\ubc1c\ud2b8 \ub85c\ub529\ud3016"
  },
  {
    "code": 471,
    "imageName": "-",
    "loadingTipType": "Cobalt",
    "maxLv": 999,
    "minLv": 0,
    "textKey": "\ucf54\ubc1c\ud2b8 \ub85c\ub529\ud3017"
  },
  {
    "code": 472,
    "imageName": "-",
    "loadingTipType": "Cobalt",
    "maxLv": 999,
    "minLv": 0,
    "textKey": "\ucf54\ubc1c\ud2b8 \ub85c\ub529\ud3011"
  },
  {
    "code": 473,
    "imageName": "-",
    "loadingTipType": "Cobalt",
    "maxLv": 999,
    "minLv": 0,
    "textKey": "\ucf54\ubc1c\ud2b8 \ub85c\ub529\ud3012"
  },
  {
    "code": 474,
    "imageName": "-",
    "loadingTipType": "Cobalt",
    "maxLv": 999,
    "minLv": 0,
    "textKey": "\ucf54\ubc1c\ud2b8 \ub85c\ub529\ud3013"
  },
  {
    "code": 475,
    "imageName": "-",
    "loadingTipType": "Cobalt",
    "maxLv": 999,
    "minLv": 0,
    "textKey": "\ucf54\ubc1c\ud2b8 \ub85c\ub529\ud3014"
  },
  {
    "code": 476,
    "imageName": "-",
    "loadingTipType": "Cobalt",
    "maxLv": 999,
    "minLv": 0,
    "textKey": "\ucf54\ubc1c\ud2b8 \ub85c\ub529\ud3015"
  },
  {
    "code": 477,
    "imageName": "-",
    "loadingTipType": "Cobalt",
    "maxLv": 999,
    "minLv": 0,
    "textKey": "\ucf54\ubc1c\ud2b8 \ub85c\ub529\ud3016"
  },
  {
    "code": 478,
    "imageName": "-",
    "loadingTipType": "Cobalt",
    "maxLv": 999,
    "minLv": 0,
    "textKey": "\ucf54\ubc1c\ud2b8 \ub85c\ub529\ud3017"
  },
  {
    "code": 479,
    "imageName": "-",
    "loadingTipType": "Cobalt",
    "maxLv": 999,
    "minLv": 0,
    "textKey": "\ucf54\ubc1c\ud2b8 \ub85c\ub529\ud3011"
  },
  {
    "code": 480,
    "imageName": "-",
    "loadingTipType": "Cobalt",
    "maxLv": 999,
    "minLv": 0,
    "textKey": "\ucf54\ubc1c\ud2b8 \ub85c\ub529\ud3012"
  },
  {
    "code": 481,
    "imageName": "-",
    "loadingTipType": "Cobalt",
    "maxLv": 999,
    "minLv": 0,
    "textKey": "\ucf54\ubc1c\ud2b8 \ub85c\ub529\ud3013"
  },
  {
    "code": 482,
    "imageName": "-",
    "loadingTipType": "Cobalt",
    "maxLv": 999,
    "minLv": 0,
    "textKey": "\ucf54\ubc1c\ud2b8 \ub85c\ub529\ud3014"
  },
  {
    "code": 483,
    "imageName": "-",
    "loadingTipType": "Cobalt",
    "maxLv": 999,
    "minLv": 0,
    "textKey": "\ucf54\ubc1c\ud2b8 \ub85c\ub529\ud3015"
  },
  {
    "code": 484,
    "imageName": "-",
    "loadingTipType": "Cobalt",
    "maxLv": 999,
    "minLv": 0,
    "textKey": "\ucf54\ubc1c\ud2b8 \ub85c\ub529\ud3016"
  },
  {
    "code": 485,
    "imageName": "-",
    "loadingTipType": "Cobalt",
    "maxLv": 999,
    "minLv": 0,
    "textKey": "\ucf54\ubc1c\ud2b8 \ub85c\ub529\ud3017"
  }
]