[
  {
    "adjustRank": 7,
    "code": 1,
    "geBeforeMMR": 0,
    "ltBeforeMMR": 800,
    "teamMode": "Solo"
  },
  {
    "adjustRank": 10,
    "code": 2,
    "geBeforeMMR": 800,
    "ltBeforeMMR": 1200,
    "teamMode": "Solo"
  },
  {
    "adjustRank": 14,
    "code": 3,
    "geBeforeMMR": 1200,
    "ltBeforeMMR": 1600,
    "teamMode": "Solo"
  },
  {
    "adjustRank": 16,
    "code": 4,
    "geBeforeMMR": 1600,
    "ltBeforeMMR": 9999,
    "teamMode": "Solo"
  },
  {
    "adjustRank": 4,
    "code": 5,
    "geBeforeMMR": 0,
    "ltBeforeMMR": 800,
    "teamMode": "Duo"
  },
  {
    "adjustRank": 5,
    "code": 6,
    "geBeforeMMR": 800,
    "ltBeforeMMR": 1200,
    "teamMode": "Duo"
  },
  {
    "adjustRank": 7,
    "code": 7,
    "geBeforeMMR": 1200,
    "ltBeforeMMR": 1600,
    "teamMode": "Duo"
  },
  {
    "adjustRank": 8,
    "code": 8,
    "geBeforeMMR": 1600,
    "ltBeforeMMR": 9999,
    "teamMode": "Duo"
  },
  {
    "adjustRank": 3,
    "code": 9,
    "geBeforeMMR": 0,
    "ltBeforeMMR": 800,
    "teamMode": "Squad"
  },
  {
    "adjustRank": 4,
    "code": 10,
    "geBeforeMMR": 800,
    "ltBeforeMMR": 1200,
    "teamMode": "Squad"
  },
  {
    "adjustRank": 5,
    "code": 11,
    "geBeforeMMR": 1200,
    "ltBeforeMMR": 1600,
    "teamMode": "Squad"
  },
  {
    "adjustRank": 2,
    "code": 12,
    "geBeforeMMR": 0,
    "ltBeforeMMR": 800,
    "teamMode": "Cobalt"
  },
  {
    "adjustRank": 2,
    "code": 13,
    "geBeforeMMR": 800,
    "ltBeforeMMR": 1200,
    "teamMode": "Cobalt"
  },
  {
    "adjustRank": 2,
    "code": 14,
    "geBeforeMMR": 1200,
    "ltBeforeMMR": 1600,
    "teamMode": "Cobalt"
  },
  {
    "adjustRank": 2,
    "code": 15,
    "geBeforeMMR": 1600,
    "ltBeforeMMR": 9999,
    "teamMode": "Cobalt"
  }
]