[
  {
    "code": 104,
    "conditionType": "AttackDamageToPlayer",
    "conditionValue": 100,
    "grade": "None",
    "masteryType1": "None",
    "masteryType2": "None",
    "masteryType3": "None",
    "modeType": 7,
    "value1": 63,
    "value2": 0,
    "value3": 0
  },
  {
    "code": 105,
    "conditionType": "AttackDamageToMonster",
    "conditionValue": 100,
    "grade": "None",
    "masteryType1": "None",
    "masteryType2": "Hunt",
    "masteryType3": "None",
    "modeType": 7,
    "value1": 5,
    "value2": 35,
    "value3": 0
  },
  {
    "code": 106,
    "conditionType": "TrapDamageToPlayer",
    "conditionValue": 40,
    "grade": "None",
    "masteryType1": "Trap",
    "masteryType2": "None",
    "masteryType3": "None",
    "modeType": 7,
    "value1": 75,
    "value2": 0,
    "value3": 0
  },
  {
    "code": 107,
    "conditionType": "TrapDamageToMonster",
    "conditionValue": 60,
    "grade": "None",
    "masteryType1": "Trap",
    "masteryType2": "None",
    "masteryType3": "None",
    "modeType": 7,
    "value1": 50,
    "value2": 0,
    "value3": 0
  },
  {
    "code": 202,
    "conditionType": "TrapDamaged",
    "conditionValue": 100,
    "grade": "None",
    "masteryType1": "Trap",
    "masteryType2": "Defense",
    "masteryType3": "None",
    "modeType": 7,
    "value1": 100,
    "value2": 20,
    "value3": 0
  },
  {
    "code": 203,
    "conditionType": "UndefendedDamagedFromPlayer",
    "conditionValue": 100,
    "grade": "None",
    "masteryType1": "Defense",
    "masteryType2": "None",
    "masteryType3": "None",
    "modeType": 7,
    "value1": 60,
    "value2": 0,
    "value3": 0
  },
  {
    "code": 203,
    "conditionType": "UndefendedDamagedFromMonster",
    "conditionValue": 100,
    "grade": "None",
    "masteryType1": "Defense",
    "masteryType2": "Hunt",
    "masteryType3": "None",
    "modeType": 7,
    "value1": 10,
    "value2": 10,
    "value3": 0
  },
  {
    "code": 301,
    "conditionType": "KillPlayer",
    "conditionValue": 1,
    "grade": "None",
    "masteryType1": "None",
    "masteryType2": "Defense",
    "masteryType3": "None",
    "modeType": 7,
    "value1": -250,
    "value2": -250,
    "value3": 1
  },
  {
    "code": 302,
    "conditionType": "KillMonster",
    "conditionValue": 1,
    "grade": "None",
    "masteryType1": "None",
    "masteryType2": "Defense",
    "masteryType3": "None",
    "modeType": 7,
    "value1": 0,
    "value2": 0,
    "value3": 1
  },
  {
    "code": 401,
    "conditionType": "UseTrap",
    "conditionValue": 1,
    "grade": "None",
    "masteryType1": "Trap",
    "masteryType2": "None",
    "masteryType3": "None",
    "modeType": 7,
    "value1": 60,
    "value2": 0,
    "value3": 0
  },
  {
    "code": 501,
    "conditionType": "FixedBoxOpen",
    "conditionValue": 1,
    "grade": "None",
    "masteryType1": "Search",
    "masteryType2": "None",
    "masteryType3": "None",
    "modeType": 7,
    "value1": 70,
    "value2": 0,
    "value3": 0
  },
  {
    "code": 502,
    "conditionType": "AirSupplyOpen",
    "conditionValue": 1,
    "grade": "None",
    "masteryType1": "Search",
    "masteryType2": "None",
    "masteryType3": "None",
    "modeType": 7,
    "value1": 350,
    "value2": 0,
    "value3": 0
  },
  {
    "code": 503,
    "conditionType": "CollectibleOpen",
    "conditionValue": 1,
    "grade": "None",
    "masteryType1": "Search",
    "masteryType2": "None",
    "masteryType3": "None",
    "modeType": 7,
    "value1": 100,
    "value2": 0,
    "value3": 0
  },
  {
    "code": 511,
    "conditionType": "AreaSecurityCameraSight",
    "conditionValue": 1,
    "grade": "None",
    "masteryType1": "Search",
    "masteryType2": "None",
    "masteryType3": "None",
    "modeType": 7,
    "value1": 100,
    "value2": 0,
    "value3": 0
  },
  {
    "code": 601,
    "conditionType": "MoveRange",
    "conditionValue": 50,
    "grade": "None",
    "masteryType1": "Move",
    "masteryType2": "None",
    "masteryType3": "None",
    "modeType": 7,
    "value1": 55,
    "value2": 0,
    "value3": 0
  },
  {
    "code": 602,
    "conditionType": "MoveNewArea",
    "conditionValue": 1,
    "grade": "None",
    "masteryType1": "Move",
    "masteryType2": "None",
    "masteryType3": "None",
    "modeType": 7,
    "value1": 180,
    "value2": 0,
    "value3": 0
  },
  {
    "code": 701,
    "conditionType": "ConsumeHp",
    "conditionValue": 100,
    "grade": "None",
    "masteryType1": "Health",
    "masteryType2": "None",
    "masteryType3": "None",
    "modeType": 7,
    "value1": 15,
    "value2": 0,
    "value3": 0
  },
  {
    "code": 702,
    "conditionType": "BeingDamaged",
    "conditionValue": 100,
    "grade": "None",
    "masteryType1": "Health",
    "masteryType2": "None",
    "masteryType3": "None",
    "modeType": 7,
    "value1": 15,
    "value2": 0,
    "value3": 0
  },
  {
    "code": 703,
    "conditionType": "ConsumeSp",
    "conditionValue": 100,
    "grade": "None",
    "masteryType1": "Health",
    "masteryType2": "None",
    "masteryType3": "None",
    "modeType": 7,
    "value1": 8,
    "value2": 0,
    "value3": 0
  },
  {
    "code": 901,
    "conditionType": "CraftWeapon",
    "conditionValue": 1,
    "grade": "Common",
    "masteryType1": "None",
    "masteryType2": "Craft",
    "masteryType3": "None",
    "modeType": 7,
    "value1": 100,
    "value2": 100,
    "value3": 0
  },
  {
    "code": 902,
    "conditionType": "CraftWeapon",
    "conditionValue": 1,
    "grade": "Uncommon",
    "masteryType1": "None",
    "masteryType2": "Craft",
    "masteryType3": "None",
    "modeType": 7,
    "value1": 160,
    "value2": 200,
    "value3": 0
  },
  {
    "code": 903,
    "conditionType": "CraftWeapon",
    "conditionValue": 1,
    "grade": "Rare",
    "masteryType1": "None",
    "masteryType2": "Craft",
    "masteryType3": "None",
    "modeType": 7,
    "value1": 240,
    "value2": 350,
    "value3": 0
  },
  {
    "code": 904,
    "conditionType": "CraftWeapon",
    "conditionValue": 1,
    "grade": "Epic",
    "masteryType1": "None",
    "masteryType2": "Craft",
    "masteryType3": "None",
    "modeType": 7,
    "value1": 400,
    "value2": 600,
    "value3": 0
  },
  {
    "code": 905,
    "conditionType": "CraftWeapon",
    "conditionValue": 1,
    "grade": "Legend",
    "masteryType1": "None",
    "masteryType2": "Craft",
    "masteryType3": "None",
    "modeType": 7,
    "value1": 600,
    "value2": 1000,
    "value3": 0
  },
  {
    "code": 906,
    "conditionType": "CraftHead",
    "conditionValue": 1,
    "grade": "Common",
    "masteryType1": "Defense",
    "masteryType2": "Craft",
    "masteryType3": "None",
    "modeType": 7,
    "value1": 100,
    "value2": 100,
    "value3": 0
  },
  {
    "code": 907,
    "conditionType": "CraftHead",
    "conditionValue": 1,
    "grade": "Uncommon",
    "masteryType1": "Defense",
    "masteryType2": "Craft",
    "masteryType3": "None",
    "modeType": 7,
    "value1": 200,
    "value2": 200,
    "value3": 0
  },
  {
    "code": 908,
    "conditionType": "CraftHead",
    "conditionValue": 1,
    "grade": "Rare",
    "masteryType1": "Defense",
    "masteryType2": "Craft",
    "masteryType3": "None",
    "modeType": 7,
    "value1": 350,
    "value2": 350,
    "value3": 0
  },
  {
    "code": 909,
    "conditionType": "CraftHead",
    "conditionValue": 1,
    "grade": "Epic",
    "masteryType1": "Defense",
    "masteryType2": "Craft",
    "masteryType3": "None",
    "modeType": 7,
    "value1": 600,
    "value2": 600,
    "value3": 0
  },
  {
    "code": 910,
    "conditionType": "CraftHead",
    "conditionValue": 1,
    "grade": "Legend",
    "masteryType1": "Defense",
    "masteryType2": "Craft",
    "masteryType3": "None",
    "modeType": 7,
    "value1": 1000,
    "value2": 1000,
    "value3": 0
  },
  {
    "code": 911,
    "conditionType": "CraftChest",
    "conditionValue": 1,
    "grade": "Common",
    "masteryType1": "Defense",
    "masteryType2": "Craft",
    "masteryType3": "None",
    "modeType": 7,
    "value1": 100,
    "value2": 100,
    "value3": 0
  },
  {
    "code": 912,
    "conditionType": "CraftChest",
    "conditionValue": 1,
    "grade": "Uncommon",
    "masteryType1": "Defense",
    "masteryType2": "Craft",
    "masteryType3": "None",
    "modeType": 7,
    "value1": 200,
    "value2": 200,
    "value3": 0
  },
  {
    "code": 913,
    "conditionType": "CraftChest",
    "conditionValue": 1,
    "grade": "Rare",
    "masteryType1": "Defense",
    "masteryType2": "Craft",
    "masteryType3": "None",
    "modeType": 7,
    "value1": 350,
    "value2": 350,
    "value3": 0
  },
  {
    "code": 914,
    "conditionType": "CraftChest",
    "conditionValue": 1,
    "grade": "Epic",
    "masteryType1": "Defense",
    "masteryType2": "Craft",
    "masteryType3": "None",
    "modeType": 7,
    "value1": 600,
    "value2": 600,
    "value3": 0
  },
  {
    "code": 915,
    "conditionType": "CraftChest",
    "conditionValue": 1,
    "grade": "Legend",
    "masteryType1": "Defense",
    "masteryType2": "Craft",
    "masteryType3": "None",
    "modeType": 7,
    "value1": 1000,
    "value2": 1000,
    "value3": 0
  },
  {
    "code": 916,
    "conditionType": "CraftArm",
    "conditionValue": 1,
    "grade": "Common",
    "masteryType1": "Defense",
    "masteryType2": "Craft",
    "masteryType3": "None",
    "modeType": 7,
    "value1": 100,
    "value2": 100,
    "value3": 0
  },
  {
    "code": 917,
    "conditionType": "CraftArm",
    "conditionValue": 1,
    "grade": "Uncommon",
    "masteryType1": "Defense",
    "masteryType2": "Craft",
    "masteryType3": "None",
    "modeType": 7,
    "value1": 200,
    "value2": 200,
    "value3": 0
  },
  {
    "code": 918,
    "conditionType": "CraftArm",
    "conditionValue": 1,
    "grade": "Rare",
    "masteryType1": "Defense",
    "masteryType2": "Craft",
    "masteryType3": "None",
    "modeType": 7,
    "value1": 350,
    "value2": 350,
    "value3": 0
  },
  {
    "code": 919,
    "conditionType": "CraftArm",
    "conditionValue": 1,
    "grade": "Epic",
    "masteryType1": "Defense",
    "masteryType2": "Craft",
    "masteryType3": "None",
    "modeType": 7,
    "value1": 600,
    "value2": 600,
    "value3": 0
  },
  {
    "code": 920,
    "conditionType": "CraftArm",
    "conditionValue": 1,
    "grade": "Legend",
    "masteryType1": "Defense",
    "masteryType2": "Craft",
    "masteryType3": "None",
    "modeType": 7,
    "value1": 1000,
    "value2": 1000,
    "value3": 0
  },
  {
    "code": 921,
    "conditionType": "CraftLeg",
    "conditionValue": 1,
    "grade": "Common",
    "masteryType1": "Move",
    "masteryType2": "Craft",
    "masteryType3": "None",
    "modeType": 7,
    "value1": 100,
    "value2": 100,
    "value3": 0
  },
  {
    "code": 922,
    "conditionType": "CraftLeg",
    "conditionValue": 1,
    "grade": "Uncommon",
    "masteryType1": "Move",
    "masteryType2": "Craft",
    "masteryType3": "None",
    "modeType": 7,
    "value1": 140,
    "value2": 200,
    "value3": 0
  },
  {
    "code": 923,
    "conditionType": "CraftLeg",
    "conditionValue": 1,
    "grade": "Rare",
    "masteryType1": "Move",
    "masteryType2": "Craft",
    "masteryType3": "None",
    "modeType": 7,
    "value1": 250,
    "value2": 350,
    "value3": 0
  },
  {
    "code": 924,
    "conditionType": "CraftLeg",
    "conditionValue": 1,
    "grade": "Epic",
    "masteryType1": "Move",
    "masteryType2": "Craft",
    "masteryType3": "None",
    "modeType": 7,
    "value1": 500,
    "value2": 600,
    "value3": 0
  },
  {
    "code": 925,
    "conditionType": "CraftLeg",
    "conditionValue": 1,
    "grade": "Legend",
    "masteryType1": "Move",
    "masteryType2": "Craft",
    "masteryType3": "None",
    "modeType": 7,
    "value1": 800,
    "value2": 1000,
    "value3": 0
  },
  {
    "code": 926,
    "conditionType": "CraftFood",
    "conditionValue": 1,
    "grade": "Common",
    "masteryType1": "Health",
    "masteryType2": "Craft",
    "masteryType3": "None",
    "modeType": 7,
    "value1": 87,
    "value2": 50,
    "value3": 0
  },
  {
    "code": 927,
    "conditionType": "CraftFood",
    "conditionValue": 1,
    "grade": "Uncommon",
    "masteryType1": "Health",
    "masteryType2": "Craft",
    "masteryType3": "None",
    "modeType": 7,
    "value1": 125,
    "value2": 75,
    "value3": 0
  },
  {
    "code": 928,
    "conditionType": "CraftFood",
    "conditionValue": 1,
    "grade": "Rare",
    "masteryType1": "Health",
    "masteryType2": "Craft",
    "masteryType3": "None",
    "modeType": 7,
    "value1": 175,
    "value2": 125,
    "value3": 0
  },
  {
    "code": 929,
    "conditionType": "CraftFood",
    "conditionValue": 1,
    "grade": "Epic",
    "masteryType1": "Health",
    "masteryType2": "Craft",
    "masteryType3": "None",
    "modeType": 7,
    "value1": 300,
    "value2": 225,
    "value3": 0
  },
  {
    "code": 930,
    "conditionType": "CraftFood",
    "conditionValue": 1,
    "grade": "Legend",
    "masteryType1": "Health",
    "masteryType2": "Craft",
    "masteryType3": "None",
    "modeType": 7,
    "value1": 562,
    "value2": 406,
    "value3": 0
  },
  {
    "code": 931,
    "conditionType": "CraftBeverage",
    "conditionValue": 1,
    "grade": "Common",
    "masteryType1": "Health",
    "masteryType2": "Craft",
    "masteryType3": "None",
    "modeType": 7,
    "value1": 56,
    "value2": 62,
    "value3": 0
  },
  {
    "code": 932,
    "conditionType": "CraftBeverage",
    "conditionValue": 1,
    "grade": "Uncommon",
    "masteryType1": "Health",
    "masteryType2": "Craft",
    "masteryType3": "None",
    "modeType": 7,
    "value1": 75,
    "value2": 75,
    "value3": 0
  },
  {
    "code": 933,
    "conditionType": "CraftBeverage",
    "conditionValue": 1,
    "grade": "Rare",
    "masteryType1": "Health",
    "masteryType2": "Craft",
    "masteryType3": "None",
    "modeType": 7,
    "value1": 100,
    "value2": 125,
    "value3": 0
  },
  {
    "code": 934,
    "conditionType": "CraftBeverage",
    "conditionValue": 1,
    "grade": "Epic",
    "masteryType1": "Health",
    "masteryType2": "Craft",
    "masteryType3": "None",
    "modeType": 7,
    "value1": 175,
    "value2": 225,
    "value3": 0
  },
  {
    "code": 935,
    "conditionType": "CraftBeverage",
    "conditionValue": 1,
    "grade": "Legend",
    "masteryType1": "Health",
    "masteryType2": "Craft",
    "masteryType3": "None",
    "modeType": 7,
    "value1": 337,
    "value2": 625,
    "value3": 0
  },
  {
    "code": 936,
    "conditionType": "CraftTrap",
    "conditionValue": 1,
    "grade": "Common",
    "masteryType1": "Trap",
    "masteryType2": "Craft",
    "masteryType3": "None",
    "modeType": 7,
    "value1": 62,
    "value2": 50,
    "value3": 0
  },
  {
    "code": 937,
    "conditionType": "CraftTrap",
    "conditionValue": 1,
    "grade": "Uncommon",
    "masteryType1": "Trap",
    "masteryType2": "Craft",
    "masteryType3": "None",
    "modeType": 7,
    "value1": 75,
    "value2": 75,
    "value3": 0
  },
  {
    "code": 938,
    "conditionType": "CraftTrap",
    "conditionValue": 1,
    "grade": "Rare",
    "masteryType1": "Trap",
    "masteryType2": "Craft",
    "masteryType3": "None",
    "modeType": 7,
    "value1": 150,
    "value2": 125,
    "value3": 0
  },
  {
    "code": 939,
    "conditionType": "CraftTrap",
    "conditionValue": 1,
    "grade": "Epic",
    "masteryType1": "Trap",
    "masteryType2": "Craft",
    "masteryType3": "None",
    "modeType": 7,
    "value1": 300,
    "value2": 175,
    "value3": 0
  },
  {
    "code": 940,
    "conditionType": "CraftTrap",
    "conditionValue": 1,
    "grade": "Legend",
    "masteryType1": "Trap",
    "masteryType2": "Craft",
    "masteryType3": "None",
    "modeType": 7,
    "value1": 500,
    "value2": 300,
    "value3": 0
  },
  {
    "code": 941,
    "conditionType": "CraftTrinket",
    "conditionValue": 1,
    "grade": "Common",
    "masteryType1": "Defense",
    "masteryType2": "Craft",
    "masteryType3": "None",
    "modeType": 7,
    "value1": 100,
    "value2": 100,
    "value3": 0
  },
  {
    "code": 942,
    "conditionType": "CraftTrinket",
    "conditionValue": 1,
    "grade": "Uncommon",
    "masteryType1": "Defense",
    "masteryType2": "Craft",
    "masteryType3": "None",
    "modeType": 7,
    "value1": 200,
    "value2": 200,
    "value3": 0
  },
  {
    "code": 943,
    "conditionType": "CraftTrinket",
    "conditionValue": 1,
    "grade": "Rare",
    "masteryType1": "Defense",
    "masteryType2": "Craft",
    "masteryType3": "None",
    "modeType": 7,
    "value1": 350,
    "value2": 350,
    "value3": 0
  },
  {
    "code": 944,
    "conditionType": "CraftTrinket",
    "conditionValue": 1,
    "grade": "Epic",
    "masteryType1": "Defense",
    "masteryType2": "Craft",
    "masteryType3": "None",
    "modeType": 7,
    "value1": 600,
    "value2": 600,
    "value3": 0
  },
  {
    "code": 945,
    "conditionType": "CraftTrinket",
    "conditionValue": 1,
    "grade": "Legend",
    "masteryType1": "Defense",
    "masteryType2": "Craft",
    "masteryType3": "None",
    "modeType": 7,
    "value1": 1000,
    "value2": 1000,
    "value3": 0
  },
  {
    "code": 941,
    "conditionType": "CraftMaterial",
    "conditionValue": 1,
    "grade": "Common",
    "masteryType1": "Craft",
    "masteryType2": "None",
    "masteryType3": "None",
    "modeType": 7,
    "value1": 200,
    "value2": 0,
    "value3": 0
  },
  {
    "code": 942,
    "conditionType": "CraftMaterial",
    "conditionValue": 1,
    "grade": "Uncommon",
    "masteryType1": "Craft",
    "masteryType2": "None",
    "masteryType3": "None",
    "modeType": 7,
    "value1": 250,
    "value2": 0,
    "value3": 0
  },
  {
    "code": 943,
    "conditionType": "CraftMaterial",
    "conditionValue": 1,
    "grade": "Rare",
    "masteryType1": "Craft",
    "masteryType2": "None",
    "masteryType3": "None",
    "modeType": 7,
    "value1": 500,
    "value2": 0,
    "value3": 0
  },
  {
    "code": 944,
    "conditionType": "CraftMaterial",
    "conditionValue": 1,
    "grade": "Epic",
    "masteryType1": "Craft",
    "masteryType2": "None",
    "masteryType3": "None",
    "modeType": 7,
    "value1": 750,
    "value2": 0,
    "value3": 0
  },
  {
    "code": 945,
    "conditionType": "CraftMaterial",
    "conditionValue": 1,
    "grade": "Legend",
    "masteryType1": "Craft",
    "masteryType2": "None",
    "masteryType3": "None",
    "modeType": 7,
    "value1": 1624,
    "value2": 0,
    "value3": 0
  },
  {
    "code": 941,
    "conditionType": "CraftSpecial",
    "conditionValue": 1,
    "grade": "Common",
    "masteryType1": "Craft",
    "masteryType2": "None",
    "masteryType3": "None",
    "modeType": 7,
    "value1": 100,
    "value2": 0,
    "value3": 0
  },
  {
    "code": 942,
    "conditionType": "CraftSpecial",
    "conditionValue": 1,
    "grade": "Uncommon",
    "masteryType1": "Craft",
    "masteryType2": "None",
    "masteryType3": "None",
    "modeType": 7,
    "value1": 187,
    "value2": 0,
    "value3": 0
  },
  {
    "code": 943,
    "conditionType": "CraftSpecial",
    "conditionValue": 1,
    "grade": "Rare",
    "masteryType1": "Craft",
    "masteryType2": "None",
    "masteryType3": "None",
    "modeType": 7,
    "value1": 312,
    "value2": 0,
    "value3": 0
  },
  {
    "code": 944,
    "conditionType": "CraftSpecial",
    "conditionValue": 1,
    "grade": "Epic",
    "masteryType1": "Craft",
    "masteryType2": "None",
    "masteryType3": "None",
    "modeType": 7,
    "value1": 500,
    "value2": 0,
    "value3": 0
  },
  {
    "code": 945,
    "conditionType": "CraftSpecial",
    "conditionValue": 1,
    "grade": "Legend",
    "masteryType1": "Craft",
    "masteryType2": "None",
    "masteryType3": "None",
    "modeType": 7,
    "value1": 812,
    "value2": 0,
    "value3": 0
  },
  {
    "code": 946,
    "conditionType": "CraftSight",
    "conditionValue": 1,
    "grade": "Common",
    "masteryType1": "Craft",
    "masteryType2": "Search",
    "masteryType3": "None",
    "modeType": 7,
    "value1": 62,
    "value2": 62,
    "value3": 0
  },
  {
    "code": 947,
    "conditionType": "CraftSight",
    "conditionValue": 1,
    "grade": "Uncommon",
    "masteryType1": "Craft",
    "masteryType2": "Search",
    "masteryType3": "None",
    "modeType": 7,
    "value1": 75,
    "value2": 125,
    "value3": 0
  },
  {
    "code": 948,
    "conditionType": "CraftSight",
    "conditionValue": 1,
    "grade": "Rare",
    "masteryType1": "Craft",
    "masteryType2": "Search",
    "masteryType3": "None",
    "modeType": 7,
    "value1": 150,
    "value2": 218,
    "value3": 0
  },
  {
    "code": 949,
    "conditionType": "CraftSight",
    "conditionValue": 1,
    "grade": "Epic",
    "masteryType1": "Craft",
    "masteryType2": "Search",
    "masteryType3": "None",
    "modeType": 7,
    "value1": 375,
    "value2": 375,
    "value3": 0
  },
  {
    "code": 950,
    "conditionType": "CraftSight",
    "conditionValue": 1,
    "grade": "Legend",
    "masteryType1": "Craft",
    "masteryType2": "Search",
    "masteryType3": "None",
    "modeType": 7,
    "value1": 625,
    "value2": 625,
    "value3": 0
  },
  {
    "code": 10101,
    "conditionType": "AttackDamageToPlayer",
    "conditionValue": 100,
    "grade": "None",
    "masteryType1": "None",
    "masteryType2": "None",
    "masteryType3": "None",
    "modeType": 8,
    "value1": 63,
    "value2": 0,
    "value3": 0
  },
  {
    "code": 10102,
    "conditionType": "AttackDamageToMonster",
    "conditionValue": 100,
    "grade": "None",
    "masteryType1": "None",
    "masteryType2": "None",
    "masteryType3": "None",
    "modeType": 8,
    "value1": 5,
    "value2": 0,
    "value3": 0
  },
  {
    "code": 10201,
    "conditionType": "UndefendedDamagedFromPlayer",
    "conditionValue": 100,
    "grade": "None",
    "masteryType1": "Defense",
    "masteryType2": "None",
    "masteryType3": "None",
    "modeType": 8,
    "value1": 60,
    "value2": 0,
    "value3": 0
  },
  {
    "code": 10202,
    "conditionType": "UndefendedDamagedFromMonster",
    "conditionValue": 100,
    "grade": "None",
    "masteryType1": "Defense",
    "masteryType2": "None",
    "masteryType3": "None",
    "modeType": 8,
    "value1": 10,
    "value2": 0,
    "value3": 0
  },
  {
    "code": 10301,
    "conditionType": "KillPlayer",
    "conditionValue": 1,
    "grade": "None",
    "masteryType1": "None",
    "masteryType2": "Defense",
    "masteryType3": "None",
    "modeType": 8,
    "value1": -250,
    "value2": -250,
    "value3": 0
  },
  {
    "code": 10302,
    "conditionType": "KillMonster",
    "conditionValue": 1,
    "grade": "None",
    "masteryType1": "None",
    "masteryType2": "Defense",
    "masteryType3": "None",
    "modeType": 8,
    "value1": 0,
    "value2": 0,
    "value3": 0
  }
]