[
  {
    "code": 1,
    "gainExp": 8,
    "monster": "Chicken",
    "properties": {
      "attackPower": 5,
      "defense": 5,
      "maxHp": 50,
      "moveSpeed": 0.08
    }
  },
  {
    "code": 2,
    "gainExp": 14,
    "monster": "Bat",
    "properties": {
      "attackPower": 5,
      "defense": 5,
      "maxHp": 50,
      "moveSpeed": 0
    }
  },
  {
    "code": 3,
    "gainExp": 22,
    "monster": "Boar",
    "properties": {
      "attackPower": 5,
      "defense": 5,
      "maxHp": 100,
      "moveSpeed": 0.03
    }
  },
  {
    "code": 4,
    "gainExp": 18,
    "monster": "WildDog",
    "properties": {
      "attackPower": 5,
      "defense": 5,
      "maxHp": 50,
      "moveSpeed": 0
    }
  },
  {
    "code": 5,
    "gainExp": 18,
    "monster": "Wolf",
    "properties": {
      "attackPower": 5,
      "defense": 5,
      "maxHp": 100,
      "moveSpeed": 0
    }
  },
  {
    "code": 6,
    "gainExp": 20,
    "monster": "Bear",
    "properties": {
      "attackPower": 5,
      "defense": 5,
      "maxHp": 100,
      "moveSpeed": 0.01
    }
  },
  {
    "code": 7,
    "gainExp": 50,
    "monster": "Wickline",
    "properties": {
      "attackPower": 5,
      "defense": 5,
      "maxHp": 50,
      "moveSpeed": 0.01
    }
  },
  {
    "code": 8,
    "gainExp": 50,
    "monster": "Alpha",
    "properties": {
      "attackPower": 5,
      "defense": 5,
      "maxHp": 50,
      "moveSpeed": 0
    }
  },
  {
    "code": 9,
    "gainExp": 50,
    "monster": "Omega",
    "properties": {
      "attackPower": 5,
      "defense": 5,
      "maxHp": 50,
      "moveSpeed": 0
    }
  },
  {
    "code": 10,
    "gainExp": 0,
    "monster": "Turret",
    "properties": {
      "attackPower": 10,
      "defense": 5,
      "maxHp": 200,
      "moveSpeed": 0
    }
  },
  {
    "code": 11,
    "gainExp": 0,
    "monster": "AlphaLight",
    "properties": {
      "attackPower": 0,
      "defense": 0,
      "maxHp": 0,
      "moveSpeed": 0
    }
  },
  {
    "code": 12,
    "gainExp": 0,
    "monster": "OmegaLight",
    "properties": {
      "attackPower": 0,
      "defense": 0,
      "maxHp": 0,
      "moveSpeed": 0
    }
  },
  {
    "code": 13,
    "gainExp": 8,
    "monster": "BossChicken",
    "properties": {
      "attackPower": 5,
      "defense": 5,
      "maxHp": 50,
      "moveSpeed": 0.08
    }
  },
  {
    "code": 14,
    "gainExp": 14,
    "monster": "BossBat",
    "properties": {
      "attackPower": 5,
      "defense": 5,
      "maxHp": 50,
      "moveSpeed": 0
    }
  },
  {
    "code": 15,
    "gainExp": 22,
    "monster": "BossBoar",
    "properties": {
      "attackPower": 5,
      "defense": 5,
      "maxHp": 50,
      "moveSpeed": 0.03
    }
  },
  {
    "code": 16,
    "gainExp": 18,
    "monster": "BossWildDog",
    "properties": {
      "attackPower": 5,
      "defense": 5,
      "maxHp": 50,
      "moveSpeed": 0
    }
  },
  {
    "code": 17,
    "gainExp": 18,
    "monster": "BossWolf",
    "properties": {
      "attackPower": 5,
      "defense": 5,
      "maxHp": 50,
      "moveSpeed": 0
    }
  },
  {
    "code": 18,
    "gainExp": 20,
    "monster": "BossBear",
    "properties": {
      "attackPower": 5,
      "defense": 5,
      "maxHp": 50,
      "moveSpeed": 0.01
    }
  },
  {
    "code": 19,
    "gainExp": 50,
    "monster": "BossWickline",
    "properties": {
      "attackPower": 1,
      "defense": 1,
      "maxHp": 50,
      "moveSpeed": 0.01
    }
  }
]