[
  {
    "dropGroup": 101,
    "monsterCode": 1,
    "monsterLevel": 1
  },
  {
    "dropGroup": 101,
    "monsterCode": 1,
    "monsterLevel": 2
  },
  {
    "dropGroup": 101,
    "monsterCode": 1,
    "monsterLevel": 3
  },
  {
    "dropGroup": 101,
    "monsterCode": 1,
    "monsterLevel": 4
  },
  {
    "dropGroup": 101,
    "monsterCode": 1,
    "monsterLevel": 5
  },
  {
    "dropGroup": 101,
    "monsterCode": 1,
    "monsterLevel": 6
  },
  {
    "dropGroup": 101,
    "monsterCode": 1,
    "monsterLevel": 7
  },
  {
    "dropGroup": 102,
    "monsterCode": 2,
    "monsterLevel": 1
  },
  {
    "dropGroup": 102,
    "monsterCode": 2,
    "monsterLevel": 2
  },
  {
    "dropGroup": 102,
    "monsterCode": 2,
    "monsterLevel": 3
  },
  {
    "dropGroup": 102,
    "monsterCode": 2,
    "monsterLevel": 4
  },
  {
    "dropGroup": 102,
    "monsterCode": 2,
    "monsterLevel": 5
  },
  {
    "dropGroup": 102,
    "monsterCode": 2,
    "monsterLevel": 6
  },
  {
    "dropGroup": 102,
    "monsterCode": 2,
    "monsterLevel": 7
  },
  {
    "dropGroup": 102,
    "monsterCode": 2,
    "monsterLevel": 8
  },
  {
    "dropGroup": 102,
    "monsterCode": 2,
    "monsterLevel": 9
  },
  {
    "dropGroup": 102,
    "monsterCode": 2,
    "monsterLevel": 10
  },
  {
    "dropGroup": 102,
    "monsterCode": 2,
    "monsterLevel": 11
  },
  {
    "dropGroup": 103,
    "monsterCode": 3,
    "monsterLevel": 2
  },
  {
    "dropGroup": 103,
    "monsterCode": 3,
    "monsterLevel": 3
  },
  {
    "dropGroup": 103,
    "monsterCode": 3,
    "monsterLevel": 4
  },
  {
    "dropGroup": 103,
    "monsterCode": 3,
    "monsterLevel": 5
  },
  {
    "dropGroup": 103,
    "monsterCode": 3,
    "monsterLevel": 6
  },
  {
    "dropGroup": 103,
    "monsterCode": 3,
    "monsterLevel": 7
  },
  {
    "dropGroup": 103,
    "monsterCode": 3,
    "monsterLevel": 8
  },
  {
    "dropGroup": 103,
    "monsterCode": 3,
    "monsterLevel": 9
  },
  {
    "dropGroup": 103,
    "monsterCode": 3,
    "monsterLevel": 10
  },
  {
    "dropGroup": 103,
    "monsterCode": 3,
    "monsterLevel": 11
  },
  {
    "dropGroup": 103,
    "monsterCode": 3,
    "monsterLevel": 12
  },
  {
    "dropGroup": 104,
    "monsterCode": 4,
    "monsterLevel": 2
  },
  {
    "dropGroup": 104,
    "monsterCode": 4,
    "monsterLevel": 3
  },
  {
    "dropGroup": 104,
    "monsterCode": 4,
    "monsterLevel": 4
  },
  {
    "dropGroup": 104,
    "monsterCode": 4,
    "monsterLevel": 5
  },
  {
    "dropGroup": 104,
    "monsterCode": 4,
    "monsterLevel": 6
  },
  {
    "dropGroup": 104,
    "monsterCode": 4,
    "monsterLevel": 7
  },
  {
    "dropGroup": 104,
    "monsterCode": 4,
    "monsterLevel": 8
  },
  {
    "dropGroup": 104,
    "monsterCode": 4,
    "monsterLevel": 9
  },
  {
    "dropGroup": 104,
    "monsterCode": 4,
    "monsterLevel": 10
  },
  {
    "dropGroup": 104,
    "monsterCode": 4,
    "monsterLevel": 11
  },
  {
    "dropGroup": 104,
    "monsterCode": 4,
    "monsterLevel": 12
  },
  {
    "dropGroup": 104,
    "monsterCode": 4,
    "monsterLevel": 13
  },
  {
    "dropGroup": 104,
    "monsterCode": 4,
    "monsterLevel": 14
  },
  {
    "dropGroup": 104,
    "monsterCode": 4,
    "monsterLevel": 15
  },
  {
    "dropGroup": 104,
    "monsterCode": 4,
    "monsterLevel": 16
  },
  {
    "dropGroup": 104,
    "monsterCode": 4,
    "monsterLevel": 17
  },
  {
    "dropGroup": 105,
    "monsterCode": 5,
    "monsterLevel": 3
  },
  {
    "dropGroup": 105,
    "monsterCode": 5,
    "monsterLevel": 4
  },
  {
    "dropGroup": 105,
    "monsterCode": 5,
    "monsterLevel": 5
  },
  {
    "dropGroup": 105,
    "monsterCode": 5,
    "monsterLevel": 6
  },
  {
    "dropGroup": 105,
    "monsterCode": 5,
    "monsterLevel": 7
  },
  {
    "dropGroup": 105,
    "monsterCode": 5,
    "monsterLevel": 8
  },
  {
    "dropGroup": 105,
    "monsterCode": 5,
    "monsterLevel": 9
  },
  {
    "dropGroup": 109,
    "monsterCode": 5,
    "monsterLevel": 10
  },
  {
    "dropGroup": 109,
    "monsterCode": 5,
    "monsterLevel": 11
  },
  {
    "dropGroup": 109,
    "monsterCode": 5,
    "monsterLevel": 12
  },
  {
    "dropGroup": 109,
    "monsterCode": 5,
    "monsterLevel": 13
  },
  {
    "dropGroup": 109,
    "monsterCode": 5,
    "monsterLevel": 14
  },
  {
    "dropGroup": 109,
    "monsterCode": 5,
    "monsterLevel": 15
  },
  {
    "dropGroup": 109,
    "monsterCode": 5,
    "monsterLevel": 16
  },
  {
    "dropGroup": 109,
    "monsterCode": 5,
    "monsterLevel": 17
  },
  {
    "dropGroup": 109,
    "monsterCode": 5,
    "monsterLevel": 18
  },
  {
    "dropGroup": 109,
    "monsterCode": 5,
    "monsterLevel": 19
  },
  {
    "dropGroup": 109,
    "monsterCode": 5,
    "monsterLevel": 20
  },
  {
    "dropGroup": 106,
    "monsterCode": 6,
    "monsterLevel": 6
  },
  {
    "dropGroup": 106,
    "monsterCode": 6,
    "monsterLevel": 7
  },
  {
    "dropGroup": 106,
    "monsterCode": 6,
    "monsterLevel": 8
  },
  {
    "dropGroup": 106,
    "monsterCode": 6,
    "monsterLevel": 9
  },
  {
    "dropGroup": 106,
    "monsterCode": 6,
    "monsterLevel": 10
  },
  {
    "dropGroup": 106,
    "monsterCode": 6,
    "monsterLevel": 11
  },
  {
    "dropGroup": 106,
    "monsterCode": 6,
    "monsterLevel": 12
  },
  {
    "dropGroup": 106,
    "monsterCode": 6,
    "monsterLevel": 13
  },
  {
    "dropGroup": 106,
    "monsterCode": 6,
    "monsterLevel": 14
  },
  {
    "dropGroup": 108,
    "monsterCode": 6,
    "monsterLevel": 15
  },
  {
    "dropGroup": 108,
    "monsterCode": 6,
    "monsterLevel": 16
  },
  {
    "dropGroup": 108,
    "monsterCode": 6,
    "monsterLevel": 17
  },
  {
    "dropGroup": 108,
    "monsterCode": 6,
    "monsterLevel": 18
  },
  {
    "dropGroup": 108,
    "monsterCode": 6,
    "monsterLevel": 19
  },
  {
    "dropGroup": 108,
    "monsterCode": 6,
    "monsterLevel": 20
  },
  {
    "dropGroup": 108,
    "monsterCode": 6,
    "monsterLevel": 21
  },
  {
    "dropGroup": 108,
    "monsterCode": 6,
    "monsterLevel": 22
  },
  {
    "dropGroup": 108,
    "monsterCode": 6,
    "monsterLevel": 23
  },
  {
    "dropGroup": 108,
    "monsterCode": 6,
    "monsterLevel": 24
  },
  {
    "dropGroup": 107,
    "monsterCode": 7,
    "monsterLevel": 15
  },
  {
    "dropGroup": 107,
    "monsterCode": 7,
    "monsterLevel": 16
  },
  {
    "dropGroup": 107,
    "monsterCode": 7,
    "monsterLevel": 17
  },
  {
    "dropGroup": 107,
    "monsterCode": 7,
    "monsterLevel": 18
  },
  {
    "dropGroup": 107,
    "monsterCode": 7,
    "monsterLevel": 19
  },
  {
    "dropGroup": 107,
    "monsterCode": 7,
    "monsterLevel": 20
  },
  {
    "dropGroup": 107,
    "monsterCode": 7,
    "monsterLevel": 21
  },
  {
    "dropGroup": 107,
    "monsterCode": 7,
    "monsterLevel": 22
  },
  {
    "dropGroup": 107,
    "monsterCode": 7,
    "monsterLevel": 23
  },
  {
    "dropGroup": 107,
    "monsterCode": 7,
    "monsterLevel": 24
  },
  {
    "dropGroup": 107,
    "monsterCode": 7,
    "monsterLevel": 25
  },
  {
    "dropGroup": 110,
    "monsterCode": 8,
    "monsterLevel": 7
  },
  {
    "dropGroup": 110,
    "monsterCode": 8,
    "monsterLevel": 8
  },
  {
    "dropGroup": 110,
    "monsterCode": 8,
    "monsterLevel": 9
  },
  {
    "dropGroup": 110,
    "monsterCode": 8,
    "monsterLevel": 10
  },
  {
    "dropGroup": 110,
    "monsterCode": 8,
    "monsterLevel": 11
  },
  {
    "dropGroup": 110,
    "monsterCode": 8,
    "monsterLevel": 12
  },
  {
    "dropGroup": 110,
    "monsterCode": 8,
    "monsterLevel": 13
  },
  {
    "dropGroup": 110,
    "monsterCode": 8,
    "monsterLevel": 14
  },
  {
    "dropGroup": 110,
    "monsterCode": 8,
    "monsterLevel": 15
  },
  {
    "dropGroup": 110,
    "monsterCode": 8,
    "monsterLevel": 16
  },
  {
    "dropGroup": 110,
    "monsterCode": 8,
    "monsterLevel": 17
  },
  {
    "dropGroup": 110,
    "monsterCode": 8,
    "monsterLevel": 18
  },
  {
    "dropGroup": 110,
    "monsterCode": 8,
    "monsterLevel": 19
  },
  {
    "dropGroup": 110,
    "monsterCode": 8,
    "monsterLevel": 20
  },
  {
    "dropGroup": 110,
    "monsterCode": 8,
    "monsterLevel": 21
  },
  {
    "dropGroup": 110,
    "monsterCode": 8,
    "monsterLevel": 22
  },
  {
    "dropGroup": 111,
    "monsterCode": 9,
    "monsterLevel": 15
  },
  {
    "dropGroup": 111,
    "monsterCode": 9,
    "monsterLevel": 16
  },
  {
    "dropGroup": 111,
    "monsterCode": 9,
    "monsterLevel": 17
  },
  {
    "dropGroup": 111,
    "monsterCode": 9,
    "monsterLevel": 18
  },
  {
    "dropGroup": 111,
    "monsterCode": 9,
    "monsterLevel": 19
  },
  {
    "dropGroup": 111,
    "monsterCode": 9,
    "monsterLevel": 20
  },
  {
    "dropGroup": 111,
    "monsterCode": 9,
    "monsterLevel": 21
  },
  {
    "dropGroup": 111,
    "monsterCode": 9,
    "monsterLevel": 22
  },
  {
    "dropGroup": 111,
    "monsterCode": 9,
    "monsterLevel": 23
  },
  {
    "dropGroup": 111,
    "monsterCode": 9,
    "monsterLevel": 24
  },
  {
    "dropGroup": 111,
    "monsterCode": 9,
    "monsterLevel": 25
  },
  {
    "dropGroup": 301,
    "monsterCode": 12,
    "monsterLevel": 1
  },
  {
    "dropGroup": 301,
    "monsterCode": 12,
    "monsterLevel": 2
  },
  {
    "dropGroup": 301,
    "monsterCode": 12,
    "monsterLevel": 3
  },
  {
    "dropGroup": 301,
    "monsterCode": 12,
    "monsterLevel": 4
  },
  {
    "dropGroup": 301,
    "monsterCode": 12,
    "monsterLevel": 5
  },
  {
    "dropGroup": 301,
    "monsterCode": 12,
    "monsterLevel": 6
  },
  {
    "dropGroup": 301,
    "monsterCode": 12,
    "monsterLevel": 7
  },
  {
    "dropGroup": 302,
    "monsterCode": 13,
    "monsterLevel": 1
  },
  {
    "dropGroup": 302,
    "monsterCode": 13,
    "monsterLevel": 2
  },
  {
    "dropGroup": 302,
    "monsterCode": 13,
    "monsterLevel": 3
  },
  {
    "dropGroup": 302,
    "monsterCode": 13,
    "monsterLevel": 4
  },
  {
    "dropGroup": 302,
    "monsterCode": 13,
    "monsterLevel": 5
  },
  {
    "dropGroup": 302,
    "monsterCode": 13,
    "monsterLevel": 6
  },
  {
    "dropGroup": 302,
    "monsterCode": 13,
    "monsterLevel": 7
  },
  {
    "dropGroup": 302,
    "monsterCode": 13,
    "monsterLevel": 8
  },
  {
    "dropGroup": 302,
    "monsterCode": 13,
    "monsterLevel": 9
  },
  {
    "dropGroup": 302,
    "monsterCode": 13,
    "monsterLevel": 10
  },
  {
    "dropGroup": 302,
    "monsterCode": 13,
    "monsterLevel": 11
  },
  {
    "dropGroup": 303,
    "monsterCode": 14,
    "monsterLevel": 2
  },
  {
    "dropGroup": 303,
    "monsterCode": 14,
    "monsterLevel": 3
  },
  {
    "dropGroup": 303,
    "monsterCode": 14,
    "monsterLevel": 4
  },
  {
    "dropGroup": 303,
    "monsterCode": 14,
    "monsterLevel": 5
  },
  {
    "dropGroup": 303,
    "monsterCode": 14,
    "monsterLevel": 6
  },
  {
    "dropGroup": 303,
    "monsterCode": 14,
    "monsterLevel": 7
  },
  {
    "dropGroup": 303,
    "monsterCode": 14,
    "monsterLevel": 8
  },
  {
    "dropGroup": 303,
    "monsterCode": 14,
    "monsterLevel": 9
  },
  {
    "dropGroup": 303,
    "monsterCode": 14,
    "monsterLevel": 10
  },
  {
    "dropGroup": 303,
    "monsterCode": 14,
    "monsterLevel": 11
  },
  {
    "dropGroup": 303,
    "monsterCode": 14,
    "monsterLevel": 12
  },
  {
    "dropGroup": 304,
    "monsterCode": 15,
    "monsterLevel": 2
  },
  {
    "dropGroup": 304,
    "monsterCode": 15,
    "monsterLevel": 3
  },
  {
    "dropGroup": 304,
    "monsterCode": 15,
    "monsterLevel": 4
  },
  {
    "dropGroup": 304,
    "monsterCode": 15,
    "monsterLevel": 5
  },
  {
    "dropGroup": 304,
    "monsterCode": 15,
    "monsterLevel": 6
  },
  {
    "dropGroup": 304,
    "monsterCode": 15,
    "monsterLevel": 7
  },
  {
    "dropGroup": 304,
    "monsterCode": 15,
    "monsterLevel": 8
  },
  {
    "dropGroup": 304,
    "monsterCode": 15,
    "monsterLevel": 9
  },
  {
    "dropGroup": 304,
    "monsterCode": 15,
    "monsterLevel": 10
  },
  {
    "dropGroup": 304,
    "monsterCode": 15,
    "monsterLevel": 11
  },
  {
    "dropGroup": 304,
    "monsterCode": 15,
    "monsterLevel": 12
  },
  {
    "dropGroup": 304,
    "monsterCode": 15,
    "monsterLevel": 13
  },
  {
    "dropGroup": 304,
    "monsterCode": 15,
    "monsterLevel": 14
  },
  {
    "dropGroup": 304,
    "monsterCode": 15,
    "monsterLevel": 15
  },
  {
    "dropGroup": 304,
    "monsterCode": 15,
    "monsterLevel": 16
  },
  {
    "dropGroup": 304,
    "monsterCode": 15,
    "monsterLevel": 17
  },
  {
    "dropGroup": 305,
    "monsterCode": 16,
    "monsterLevel": 3
  },
  {
    "dropGroup": 305,
    "monsterCode": 16,
    "monsterLevel": 4
  },
  {
    "dropGroup": 305,
    "monsterCode": 16,
    "monsterLevel": 5
  },
  {
    "dropGroup": 305,
    "monsterCode": 16,
    "monsterLevel": 6
  },
  {
    "dropGroup": 305,
    "monsterCode": 16,
    "monsterLevel": 7
  },
  {
    "dropGroup": 305,
    "monsterCode": 16,
    "monsterLevel": 8
  },
  {
    "dropGroup": 305,
    "monsterCode": 16,
    "monsterLevel": 9
  },
  {
    "dropGroup": 309,
    "monsterCode": 16,
    "monsterLevel": 10
  },
  {
    "dropGroup": 309,
    "monsterCode": 16,
    "monsterLevel": 11
  },
  {
    "dropGroup": 309,
    "monsterCode": 16,
    "monsterLevel": 12
  },
  {
    "dropGroup": 309,
    "monsterCode": 16,
    "monsterLevel": 13
  },
  {
    "dropGroup": 309,
    "monsterCode": 16,
    "monsterLevel": 14
  },
  {
    "dropGroup": 309,
    "monsterCode": 16,
    "monsterLevel": 15
  },
  {
    "dropGroup": 309,
    "monsterCode": 16,
    "monsterLevel": 16
  },
  {
    "dropGroup": 309,
    "monsterCode": 16,
    "monsterLevel": 17
  },
  {
    "dropGroup": 309,
    "monsterCode": 16,
    "monsterLevel": 18
  },
  {
    "dropGroup": 309,
    "monsterCode": 16,
    "monsterLevel": 19
  },
  {
    "dropGroup": 309,
    "monsterCode": 16,
    "monsterLevel": 20
  },
  {
    "dropGroup": 306,
    "monsterCode": 17,
    "monsterLevel": 6
  },
  {
    "dropGroup": 306,
    "monsterCode": 17,
    "monsterLevel": 7
  },
  {
    "dropGroup": 306,
    "monsterCode": 17,
    "monsterLevel": 8
  },
  {
    "dropGroup": 306,
    "monsterCode": 17,
    "monsterLevel": 9
  },
  {
    "dropGroup": 306,
    "monsterCode": 17,
    "monsterLevel": 10
  },
  {
    "dropGroup": 306,
    "monsterCode": 17,
    "monsterLevel": 11
  },
  {
    "dropGroup": 306,
    "monsterCode": 17,
    "monsterLevel": 12
  },
  {
    "dropGroup": 306,
    "monsterCode": 17,
    "monsterLevel": 13
  },
  {
    "dropGroup": 306,
    "monsterCode": 17,
    "monsterLevel": 14
  },
  {
    "dropGroup": 308,
    "monsterCode": 17,
    "monsterLevel": 15
  },
  {
    "dropGroup": 308,
    "monsterCode": 17,
    "monsterLevel": 16
  },
  {
    "dropGroup": 308,
    "monsterCode": 17,
    "monsterLevel": 17
  },
  {
    "dropGroup": 308,
    "monsterCode": 17,
    "monsterLevel": 18
  },
  {
    "dropGroup": 308,
    "monsterCode": 17,
    "monsterLevel": 19
  },
  {
    "dropGroup": 308,
    "monsterCode": 17,
    "monsterLevel": 20
  },
  {
    "dropGroup": 308,
    "monsterCode": 17,
    "monsterLevel": 21
  },
  {
    "dropGroup": 308,
    "monsterCode": 17,
    "monsterLevel": 22
  },
  {
    "dropGroup": 308,
    "monsterCode": 17,
    "monsterLevel": 23
  },
  {
    "dropGroup": 308,
    "monsterCode": 17,
    "monsterLevel": 24
  },
  {
    "dropGroup": 308,
    "monsterCode": 17,
    "monsterLevel": 25
  }
]