[
  {
    "affectedCooldown": true,
    "code": 1,
    "noiseType": "BasicHit",
    "pingChanceRate": 0,
    "pingRange": 20,
    "sfxRange": 30
  },
  {
    "affectedCooldown": true,
    "code": 2,
    "noiseType": "Gunshot",
    "pingChanceRate": 0,
    "pingRange": 35,
    "sfxRange": 100
  },
  {
    "affectedCooldown": true,
    "code": 3,
    "noiseType": "FixedBoxOpen",
    "pingChanceRate": 0.1,
    "pingRange": 50,
    "sfxRange": 5
  },
  {
    "affectedCooldown": true,
    "code": 4,
    "noiseType": "AirSupplyOpen",
    "pingChanceRate": 1,
    "pingRange": 80,
    "sfxRange": 20
  },
  {
    "affectedCooldown": true,
    "code": 5,
    "noiseType": "CollectibleOpen",
    "pingChanceRate": 0.2,
    "pingRange": 50,
    "sfxRange": 20
  },
  {
    "affectedCooldown": true,
    "code": 6,
    "noiseType": "TrapHit",
    "pingChanceRate": 0,
    "pingRange": 80,
    "sfxRange": 20
  },
  {
    "affectedCooldown": true,
    "code": 7,
    "noiseType": "MonsterKilled",
    "pingChanceRate": 1,
    "pingRange": 80,
    "sfxRange": 20
  },
  {
    "affectedCooldown": false,
    "code": 8,
    "noiseType": "PlayerKilled",
    "pingChanceRate": 0,
    "pingRange": 40,
    "sfxRange": 20
  },
  {
    "affectedCooldown": true,
    "code": 9,
    "noiseType": "Crafting",
    "pingChanceRate": 1,
    "pingRange": 80,
    "sfxRange": 20
  },
  {
    "affectedCooldown": true,
    "code": 10,
    "noiseType": "FootstepSoil",
    "pingChanceRate": 0,
    "pingRange": 0,
    "sfxRange": 20
  },
  {
    "affectedCooldown": true,
    "code": 11,
    "noiseType": "FootstepWater",
    "pingChanceRate": 0,
    "pingRange": 0,
    "sfxRange": 30
  },
  {
    "affectedCooldown": true,
    "code": 12,
    "noiseType": "FootstepWood",
    "pingChanceRate": 0,
    "pingRange": 0,
    "sfxRange": 25
  },
  {
    "affectedCooldown": true,
    "code": 13,
    "noiseType": "FootstepConcrete",
    "pingChanceRate": 0,
    "pingRange": 0,
    "sfxRange": 25
  },
  {
    "affectedCooldown": true,
    "code": 14,
    "noiseType": "FootstepMetal",
    "pingChanceRate": 0,
    "pingRange": 0,
    "sfxRange": 30
  },
  {
    "affectedCooldown": true,
    "code": 15,
    "noiseType": "FootstepAsphalt",
    "pingChanceRate": 0,
    "pingRange": 0,
    "sfxRange": 15
  },
  {
    "affectedCooldown": true,
    "code": 16,
    "noiseType": "FootstepGrass",
    "pingChanceRate": 0,
    "pingRange": 0,
    "sfxRange": 15
  },
  {
    "affectedCooldown": false,
    "code": 17,
    "noiseType": "HyperLoopExit",
    "pingChanceRate": 1,
    "pingRange": 80,
    "sfxRange": 100
  },
  {
    "affectedCooldown": false,
    "code": 18,
    "noiseType": "CompleteWeaponCraft",
    "pingChanceRate": 1,
    "pingRange": 30,
    "sfxRange": 20
  },
  {
    "affectedCooldown": false,
    "code": 19,
    "noiseType": "Tutorial_EnemyNoise",
    "pingChanceRate": 1,
    "pingRange": 100,
    "sfxRange": 1
  },
  {
    "affectedCooldown": false,
    "code": 20,
    "noiseType": "NoiseGenerator",
    "pingChanceRate": 1,
    "pingRange": 25,
    "sfxRange": 0
  },
  {
    "affectedCooldown": false,
    "code": 21,
    "noiseType": "AmplificationTurbineTakeoverStart",
    "pingChanceRate": 1,
    "pingRange": 50,
    "sfxRange": 0
  },
  {
    "affectedCooldown": false,
    "code": 22,
    "noiseType": "TransferConsoleStartRestrict",
    "pingChanceRate": 1,
    "pingRange": 30,
    "sfxRange": 0
  },
  {
    "affectedCooldown": false,
    "code": 23,
    "noiseType": "TransferConsoleItemMakingRestrict",
    "pingChanceRate": 1,
    "pingRange": 30,
    "sfxRange": 0
  },
  {
    "affectedCooldown": false,
    "code": 24,
    "noiseType": "TransferConsoleCompleteRestrict",
    "pingChanceRate": 1,
    "pingRange": 30,
    "sfxRange": 0
  },
  {
    "affectedCooldown": true,
    "code": 25,
    "noiseType": "TransferSupplyBoxOpenRestrict",
    "pingChanceRate": 1,
    "pingRange": 30,
    "sfxRange": 0
  },
  {
    "affectedCooldown": false,
    "code": 26,
    "noiseType": "TransferConsoleStartSafe",
    "pingChanceRate": 1,
    "pingRange": 50,
    "sfxRange": 0
  },
  {
    "affectedCooldown": false,
    "code": 27,
    "noiseType": "TransferConsoleItemMakingSafe",
    "pingChanceRate": 1,
    "pingRange": 50,
    "sfxRange": 0
  },
  {
    "affectedCooldown": false,
    "code": 28,
    "noiseType": "TransferConsoleCompleteSafe",
    "pingChanceRate": 1,
    "pingRange": 50,
    "sfxRange": 0
  },
  {
    "affectedCooldown": true,
    "code": 29,
    "noiseType": "TransferSupplyBoxOpenSafe",
    "pingChanceRate": 1,
    "pingRange": 50,
    "sfxRange": 0
  },
  {
    "affectedCooldown": false,
    "code": 30,
    "noiseType": "CarePackageMaking",
    "pingChanceRate": 1,
    "pingRange": 200,
    "sfxRange": 0
  },
  {
    "affectedCooldown": false,
    "code": 31,
    "noiseType": "CarePackageComplete",
    "pingChanceRate": 1,
    "pingRange": 200,
    "sfxRange": 0
  }
]