[
  {
    "character": "Jackie",
    "characterCode": 1,
    "cobaltCanChooseWeapon": false,
    "cobaltDraft": 63,
    "cobaltExtraDraft": "None",
    "cobaltMainTag": "Main_Attack",
    "cobaltStartWeapon": 0,
    "code": 11,
    "mastery": "Axe",
    "startItemGroupCode": 1,
    "startWeapon": 105103
  },
  {
    "character": "Jackie",
    "characterCode": 1,
    "cobaltCanChooseWeapon": false,
    "cobaltDraft": 63,
    "cobaltExtraDraft": "None",
    "cobaltMainTag": "Main_Attack",
    "cobaltStartWeapon": 0,
    "code": 12,
    "mastery": "OneHandSword",
    "startItemGroupCode": 1,
    "startWeapon": 101104
  },
  {
    "character": "Jackie",
    "characterCode": 1,
    "cobaltCanChooseWeapon": false,
    "cobaltDraft": 63,
    "cobaltExtraDraft": "None",
    "cobaltMainTag": "Main_Attack",
    "cobaltStartWeapon": 0,
    "code": 13,
    "mastery": "TwoHandSword",
    "startItemGroupCode": 1,
    "startWeapon": 102101
  },
  {
    "character": "Jackie",
    "characterCode": 1,
    "cobaltCanChooseWeapon": false,
    "cobaltDraft": 63,
    "cobaltExtraDraft": "None",
    "cobaltMainTag": "Main_Attack",
    "cobaltStartWeapon": 0,
    "code": 14,
    "mastery": "DualSword",
    "startItemGroupCode": 1,
    "startWeapon": 103201
  },
  {
    "character": "Aya",
    "characterCode": 2,
    "cobaltCanChooseWeapon": false,
    "cobaltDraft": 63,
    "cobaltExtraDraft": "None",
    "cobaltMainTag": "Main_Skill",
    "cobaltStartWeapon": 0,
    "code": 21,
    "mastery": "Pistol",
    "startItemGroupCode": 1,
    "startWeapon": 116101
  },
  {
    "character": "Aya",
    "characterCode": 2,
    "cobaltCanChooseWeapon": false,
    "cobaltDraft": 63,
    "cobaltExtraDraft": "None",
    "cobaltMainTag": "Main_Attack",
    "cobaltStartWeapon": 0,
    "code": 22,
    "mastery": "AssaultRifle",
    "startItemGroupCode": 1,
    "startWeapon": 117101
  },
  {
    "character": "Aya",
    "characterCode": 2,
    "cobaltCanChooseWeapon": false,
    "cobaltDraft": 63,
    "cobaltExtraDraft": "None",
    "cobaltMainTag": "Main_Skill",
    "cobaltStartWeapon": 0,
    "code": 23,
    "mastery": "SniperRifle",
    "startItemGroupCode": 1,
    "startWeapon": 118101
  },
  {
    "character": "Fiora",
    "characterCode": 3,
    "cobaltCanChooseWeapon": false,
    "cobaltDraft": 63,
    "cobaltExtraDraft": "None",
    "cobaltMainTag": "Main_Attack",
    "cobaltStartWeapon": 0,
    "code": 31,
    "mastery": "Spear",
    "startItemGroupCode": 1,
    "startWeapon": 107101
  },
  {
    "character": "Fiora",
    "characterCode": 3,
    "cobaltCanChooseWeapon": false,
    "cobaltDraft": 63,
    "cobaltExtraDraft": "None",
    "cobaltMainTag": "Main_Skill",
    "cobaltStartWeapon": 0,
    "code": 32,
    "mastery": "Rapier",
    "startItemGroupCode": 1,
    "startWeapon": 120101
  },
  {
    "character": "Fiora",
    "characterCode": 3,
    "cobaltCanChooseWeapon": false,
    "cobaltDraft": 63,
    "cobaltExtraDraft": "None",
    "cobaltMainTag": "Main_Attack",
    "cobaltStartWeapon": 0,
    "code": 33,
    "mastery": "TwoHandSword",
    "startItemGroupCode": 1,
    "startWeapon": 102101
  },
  {
    "character": "Magnus",
    "characterCode": 4,
    "cobaltCanChooseWeapon": false,
    "cobaltDraft": 63,
    "cobaltExtraDraft": "None",
    "cobaltMainTag": "Main_Skill",
    "cobaltStartWeapon": 0,
    "code": 41,
    "mastery": "Hammer",
    "startItemGroupCode": 1,
    "startWeapon": 104101
  },
  {
    "character": "Magnus",
    "characterCode": 4,
    "cobaltCanChooseWeapon": false,
    "cobaltDraft": 63,
    "cobaltExtraDraft": "None",
    "cobaltMainTag": "Main_Attack",
    "cobaltStartWeapon": 0,
    "code": 42,
    "mastery": "Bat",
    "startItemGroupCode": 1,
    "startWeapon": 108102
  },
  {
    "character": "Zahir",
    "characterCode": 5,
    "cobaltCanChooseWeapon": false,
    "cobaltDraft": 63,
    "cobaltExtraDraft": "None",
    "cobaltMainTag": "Main_Skill",
    "cobaltStartWeapon": 0,
    "code": 51,
    "mastery": "HighAngleFire",
    "startItemGroupCode": 1,
    "startWeapon": 112105
  },
  {
    "character": "Zahir",
    "characterCode": 5,
    "cobaltCanChooseWeapon": false,
    "cobaltDraft": 63,
    "cobaltExtraDraft": "None",
    "cobaltMainTag": "Main_Skill",
    "cobaltStartWeapon": 0,
    "code": 52,
    "mastery": "DirectFire",
    "startItemGroupCode": 1,
    "startWeapon": 113101
  },
  {
    "character": "Nadine",
    "characterCode": 6,
    "cobaltCanChooseWeapon": false,
    "cobaltDraft": 63,
    "cobaltExtraDraft": "None",
    "cobaltMainTag": "Main_Attack",
    "cobaltStartWeapon": 0,
    "code": 61,
    "mastery": "Bow",
    "startItemGroupCode": 1,
    "startWeapon": 114101
  },
  {
    "character": "Nadine",
    "characterCode": 6,
    "cobaltCanChooseWeapon": false,
    "cobaltDraft": 63,
    "cobaltExtraDraft": "None",
    "cobaltMainTag": "Main_Attack",
    "cobaltStartWeapon": 0,
    "code": 62,
    "mastery": "CrossBow",
    "startItemGroupCode": 1,
    "startWeapon": 115101
  },
  {
    "character": "Hyunwoo",
    "characterCode": 7,
    "cobaltCanChooseWeapon": false,
    "cobaltDraft": 63,
    "cobaltExtraDraft": "None",
    "cobaltMainTag": "Main_Attack",
    "cobaltStartWeapon": 0,
    "code": 71,
    "mastery": "Glove",
    "startItemGroupCode": 1,
    "startWeapon": 110102
  },
  {
    "character": "Hyunwoo",
    "characterCode": 7,
    "cobaltCanChooseWeapon": false,
    "cobaltDraft": 63,
    "cobaltExtraDraft": "None",
    "cobaltMainTag": "Main_Skill",
    "cobaltStartWeapon": 0,
    "code": 72,
    "mastery": "Tonfa",
    "startItemGroupCode": 1,
    "startWeapon": 108103
  },
  {
    "character": "Hart",
    "characterCode": 8,
    "cobaltCanChooseWeapon": false,
    "cobaltDraft": 63,
    "cobaltExtraDraft": "None",
    "cobaltMainTag": "Main_Attack",
    "cobaltStartWeapon": 0,
    "code": 81,
    "mastery": "Guitar",
    "startItemGroupCode": 1,
    "startWeapon": 121101
  },
  {
    "character": "Isol",
    "characterCode": 9,
    "cobaltCanChooseWeapon": false,
    "cobaltDraft": 63,
    "cobaltExtraDraft": "None",
    "cobaltMainTag": "Main_Attack",
    "cobaltStartWeapon": 0,
    "code": 91,
    "mastery": "AssaultRifle",
    "startItemGroupCode": 1,
    "startWeapon": 117101
  },
  {
    "character": "Isol",
    "characterCode": 9,
    "cobaltCanChooseWeapon": false,
    "cobaltDraft": 63,
    "cobaltExtraDraft": "None",
    "cobaltMainTag": "Main_Skill",
    "cobaltStartWeapon": 0,
    "code": 92,
    "mastery": "Pistol",
    "startItemGroupCode": 1,
    "startWeapon": 116101
  },
  {
    "character": "LIDailin",
    "characterCode": 10,
    "cobaltCanChooseWeapon": false,
    "cobaltDraft": 63,
    "cobaltExtraDraft": "None",
    "cobaltMainTag": "Main_Attack",
    "cobaltStartWeapon": 0,
    "code": 101,
    "mastery": "Glove",
    "startItemGroupCode": 1,
    "startWeapon": 110102
  },
  {
    "character": "LIDailin",
    "characterCode": 10,
    "cobaltCanChooseWeapon": false,
    "cobaltDraft": 63,
    "cobaltExtraDraft": "None",
    "cobaltMainTag": "Main_Skill",
    "cobaltStartWeapon": 0,
    "code": 102,
    "mastery": "Nunchaku",
    "startItemGroupCode": 1,
    "startWeapon": 119101
  },
  {
    "character": "Yuki",
    "characterCode": 11,
    "cobaltCanChooseWeapon": false,
    "cobaltDraft": 63,
    "cobaltExtraDraft": "None",
    "cobaltMainTag": "Main_Attack",
    "cobaltStartWeapon": 0,
    "code": 111,
    "mastery": "TwoHandSword",
    "startItemGroupCode": 1,
    "startWeapon": 102101
  },
  {
    "character": "Yuki",
    "characterCode": 11,
    "cobaltCanChooseWeapon": false,
    "cobaltDraft": 63,
    "cobaltExtraDraft": "None",
    "cobaltMainTag": "Main_Attack",
    "cobaltStartWeapon": 0,
    "code": 112,
    "mastery": "DualSword",
    "startItemGroupCode": 1,
    "startWeapon": 103201
  },
  {
    "character": "Hyejin",
    "characterCode": 12,
    "cobaltCanChooseWeapon": false,
    "cobaltDraft": 63,
    "cobaltExtraDraft": "None",
    "cobaltMainTag": "Main_Skill",
    "cobaltStartWeapon": 0,
    "code": 121,
    "mastery": "Bow",
    "startItemGroupCode": 1,
    "startWeapon": 114101
  },
  {
    "character": "Hyejin",
    "characterCode": 12,
    "cobaltCanChooseWeapon": false,
    "cobaltDraft": 63,
    "cobaltExtraDraft": "None",
    "cobaltMainTag": "Main_Skill",
    "cobaltStartWeapon": 0,
    "code": 122,
    "mastery": "DirectFire",
    "startItemGroupCode": 1,
    "startWeapon": 113101
  },
  {
    "character": "Xiukai",
    "characterCode": 13,
    "cobaltCanChooseWeapon": false,
    "cobaltDraft": 63,
    "cobaltExtraDraft": "None",
    "cobaltMainTag": "Main_Skill",
    "cobaltStartWeapon": 0,
    "code": 131,
    "mastery": "Spear",
    "startItemGroupCode": 1,
    "startWeapon": 107101
  },
  {
    "character": "Xiukai",
    "characterCode": 13,
    "cobaltCanChooseWeapon": false,
    "cobaltDraft": 63,
    "cobaltExtraDraft": "None",
    "cobaltMainTag": "Main_Skill",
    "cobaltStartWeapon": 0,
    "code": 132,
    "mastery": "OneHandSword",
    "startItemGroupCode": 1,
    "startWeapon": 101104
  },
  {
    "character": "Chiara",
    "characterCode": 14,
    "cobaltCanChooseWeapon": false,
    "cobaltDraft": 63,
    "cobaltExtraDraft": "None",
    "cobaltMainTag": "Main_Attack",
    "cobaltStartWeapon": 0,
    "code": 141,
    "mastery": "Rapier",
    "startItemGroupCode": 1,
    "startWeapon": 120101
  },
  {
    "character": "Sissela",
    "characterCode": 15,
    "cobaltCanChooseWeapon": false,
    "cobaltDraft": 63,
    "cobaltExtraDraft": "None",
    "cobaltMainTag": "Main_Skill",
    "cobaltStartWeapon": 0,
    "code": 151,
    "mastery": "DirectFire",
    "startItemGroupCode": 1,
    "startWeapon": 113101
  },
  {
    "character": "Sissela",
    "characterCode": 15,
    "cobaltCanChooseWeapon": false,
    "cobaltDraft": 63,
    "cobaltExtraDraft": "None",
    "cobaltMainTag": "Main_Skill",
    "cobaltStartWeapon": 0,
    "code": 152,
    "mastery": "HighAngleFire",
    "startItemGroupCode": 1,
    "startWeapon": 112105
  },
  {
    "character": "Silvia",
    "characterCode": 16,
    "cobaltCanChooseWeapon": false,
    "cobaltDraft": 63,
    "cobaltExtraDraft": "None",
    "cobaltMainTag": "Main_Skill",
    "cobaltStartWeapon": 0,
    "code": 161,
    "mastery": "Pistol",
    "startItemGroupCode": 1,
    "startWeapon": 116101
  },
  {
    "character": "Adriana",
    "characterCode": 17,
    "cobaltCanChooseWeapon": false,
    "cobaltDraft": 63,
    "cobaltExtraDraft": "None",
    "cobaltMainTag": "Main_Skill",
    "cobaltStartWeapon": 0,
    "code": 171,
    "mastery": "HighAngleFire",
    "startItemGroupCode": 1,
    "startWeapon": 112105
  },
  {
    "character": "Shoichi",
    "characterCode": 18,
    "cobaltCanChooseWeapon": false,
    "cobaltDraft": 63,
    "cobaltExtraDraft": "None",
    "cobaltMainTag": "Main_Skill",
    "cobaltStartWeapon": 0,
    "code": 181,
    "mastery": "OneHandSword",
    "startItemGroupCode": 1,
    "startWeapon": 101104
  },
  {
    "character": "Emma",
    "characterCode": 19,
    "cobaltCanChooseWeapon": false,
    "cobaltDraft": 63,
    "cobaltExtraDraft": "None",
    "cobaltMainTag": "Main_Skill",
    "cobaltStartWeapon": 0,
    "code": 191,
    "mastery": "DirectFire",
    "startItemGroupCode": 1,
    "startWeapon": 113101
  },
  {
    "character": "Emma",
    "characterCode": 19,
    "cobaltCanChooseWeapon": false,
    "cobaltDraft": 63,
    "cobaltExtraDraft": "None",
    "cobaltMainTag": "Main_Skill",
    "cobaltStartWeapon": 0,
    "code": 192,
    "mastery": "Arcana",
    "startItemGroupCode": 1,
    "startWeapon": 130101
  },
  {
    "character": "Lenox",
    "characterCode": 20,
    "cobaltCanChooseWeapon": false,
    "cobaltDraft": 63,
    "cobaltExtraDraft": "None",
    "cobaltMainTag": "Main_Skill",
    "cobaltStartWeapon": 0,
    "code": 201,
    "mastery": "Whip",
    "startItemGroupCode": 1,
    "startWeapon": 109101
  },
  {
    "character": "Rozzi",
    "characterCode": 21,
    "cobaltCanChooseWeapon": false,
    "cobaltDraft": 63,
    "cobaltExtraDraft": "None",
    "cobaltMainTag": "Main_Attack",
    "cobaltStartWeapon": 0,
    "code": 211,
    "mastery": "Pistol",
    "startItemGroupCode": 1,
    "startWeapon": 116101
  },
  {
    "character": "Luke",
    "characterCode": 22,
    "cobaltCanChooseWeapon": false,
    "cobaltDraft": 63,
    "cobaltExtraDraft": "None",
    "cobaltMainTag": "Main_Attack",
    "cobaltStartWeapon": 0,
    "code": 221,
    "mastery": "Bat",
    "startItemGroupCode": 1,
    "startWeapon": 108102
  },
  {
    "character": "Cathy",
    "characterCode": 23,
    "cobaltCanChooseWeapon": false,
    "cobaltDraft": 63,
    "cobaltExtraDraft": "None",
    "cobaltMainTag": "Main_Skill",
    "cobaltStartWeapon": 0,
    "code": 231,
    "mastery": "OneHandSword",
    "startItemGroupCode": 1,
    "startWeapon": 101104
  },
  {
    "character": "Cathy",
    "characterCode": 23,
    "cobaltCanChooseWeapon": false,
    "cobaltDraft": 63,
    "cobaltExtraDraft": "None",
    "cobaltMainTag": "Main_Skill",
    "cobaltStartWeapon": 0,
    "code": 232,
    "mastery": "DualSword",
    "startItemGroupCode": 1,
    "startWeapon": 103201
  },
  {
    "character": "Adela",
    "characterCode": 24,
    "cobaltCanChooseWeapon": false,
    "cobaltDraft": 63,
    "cobaltExtraDraft": "None",
    "cobaltMainTag": "Main_Skill",
    "cobaltStartWeapon": 0,
    "code": 241,
    "mastery": "Rapier",
    "startItemGroupCode": 1,
    "startWeapon": 120101
  },
  {
    "character": "Adela",
    "characterCode": 24,
    "cobaltCanChooseWeapon": false,
    "cobaltDraft": 63,
    "cobaltExtraDraft": "None",
    "cobaltMainTag": "Main_Skill",
    "cobaltStartWeapon": 0,
    "code": 242,
    "mastery": "Bat",
    "startItemGroupCode": 1,
    "startWeapon": 108102
  },
  {
    "character": "Bernice",
    "characterCode": 25,
    "cobaltCanChooseWeapon": false,
    "cobaltDraft": 63,
    "cobaltExtraDraft": "None",
    "cobaltMainTag": "Main_Attack",
    "cobaltStartWeapon": 0,
    "code": 251,
    "mastery": "SniperRifle",
    "startItemGroupCode": 1,
    "startWeapon": 118101
  },
  {
    "character": "Barbara",
    "characterCode": 26,
    "cobaltCanChooseWeapon": false,
    "cobaltDraft": 63,
    "cobaltExtraDraft": "None",
    "cobaltMainTag": "Main_Skill",
    "cobaltStartWeapon": 0,
    "code": 261,
    "mastery": "Bat",
    "startItemGroupCode": 1,
    "startWeapon": 108102
  },
  {
    "character": "Alex",
    "characterCode": 27,
    "cobaltCanChooseWeapon": true,
    "cobaltDraft": 63,
    "cobaltExtraDraft": "TwoHandSword",
    "cobaltMainTag": "Main_Attack",
    "cobaltStartWeapon": 0,
    "code": 271,
    "mastery": "Pistol",
    "startItemGroupCode": 1,
    "startWeapon": 116101
  },
  {
    "character": "Alex",
    "characterCode": 27,
    "cobaltCanChooseWeapon": true,
    "cobaltDraft": 63,
    "cobaltExtraDraft": "Tonfa",
    "cobaltMainTag": "Main_Attack",
    "cobaltStartWeapon": 0,
    "code": 272,
    "mastery": "DirectFire",
    "startItemGroupCode": 1,
    "startWeapon": 113101
  },
  {
    "character": "Alex",
    "characterCode": 27,
    "cobaltCanChooseWeapon": true,
    "cobaltDraft": 63,
    "cobaltExtraDraft": "Pistol",
    "cobaltMainTag": "Main_Attack",
    "cobaltStartWeapon": 0,
    "code": 273,
    "mastery": "TwoHandSword",
    "startItemGroupCode": 1,
    "startWeapon": 102101
  },
  {
    "character": "Alex",
    "characterCode": 27,
    "cobaltCanChooseWeapon": true,
    "cobaltDraft": 63,
    "cobaltExtraDraft": "DirectFire",
    "cobaltMainTag": "Main_Attack",
    "cobaltStartWeapon": 0,
    "code": 274,
    "mastery": "Tonfa",
    "startItemGroupCode": 1,
    "startWeapon": 108103
  },
  {
    "character": "Sua",
    "characterCode": 28,
    "cobaltCanChooseWeapon": false,
    "cobaltDraft": 63,
    "cobaltExtraDraft": "None",
    "cobaltMainTag": "Main_Skill",
    "cobaltStartWeapon": 0,
    "code": 281,
    "mastery": "Hammer",
    "startItemGroupCode": 1,
    "startWeapon": 104101
  },
  {
    "character": "Leon",
    "characterCode": 29,
    "cobaltCanChooseWeapon": false,
    "cobaltDraft": 63,
    "cobaltExtraDraft": "None",
    "cobaltMainTag": "Main_Attack",
    "cobaltStartWeapon": 0,
    "code": 291,
    "mastery": "Glove",
    "startItemGroupCode": 1,
    "startWeapon": 110102
  },
  {
    "character": "Leon",
    "characterCode": 29,
    "cobaltCanChooseWeapon": false,
    "cobaltDraft": 63,
    "cobaltExtraDraft": "None",
    "cobaltMainTag": "Main_Skill",
    "cobaltStartWeapon": 0,
    "code": 292,
    "mastery": "Tonfa",
    "startItemGroupCode": 1,
    "startWeapon": 108103
  },
  {
    "character": "Eleven",
    "characterCode": 30,
    "cobaltCanChooseWeapon": false,
    "cobaltDraft": 63,
    "cobaltExtraDraft": "None",
    "cobaltMainTag": "Main_Attack",
    "cobaltStartWeapon": 0,
    "code": 301,
    "mastery": "Hammer",
    "startItemGroupCode": 1,
    "startWeapon": 104101
  },
  {
    "character": "Rio",
    "characterCode": 31,
    "cobaltCanChooseWeapon": false,
    "cobaltDraft": 63,
    "cobaltExtraDraft": "None",
    "cobaltMainTag": "Main_Attack",
    "cobaltStartWeapon": 0,
    "code": 311,
    "mastery": "Bow",
    "startItemGroupCode": 1,
    "startWeapon": 114101
  },
  {
    "character": "William",
    "characterCode": 32,
    "cobaltCanChooseWeapon": false,
    "cobaltDraft": 63,
    "cobaltExtraDraft": "None",
    "cobaltMainTag": "Main_Attack",
    "cobaltStartWeapon": 0,
    "code": 321,
    "mastery": "HighAngleFire",
    "startItemGroupCode": 1,
    "startWeapon": 112105
  },
  {
    "character": "Nicky",
    "characterCode": 33,
    "cobaltCanChooseWeapon": false,
    "cobaltDraft": 63,
    "cobaltExtraDraft": "None",
    "cobaltMainTag": "Main_Skill",
    "cobaltStartWeapon": 0,
    "code": 331,
    "mastery": "Glove",
    "startItemGroupCode": 1,
    "startWeapon": 110102
  },
  {
    "character": "Nathapon",
    "characterCode": 34,
    "cobaltCanChooseWeapon": false,
    "cobaltDraft": 63,
    "cobaltExtraDraft": "None",
    "cobaltMainTag": "Main_Skill",
    "cobaltStartWeapon": 0,
    "code": 341,
    "mastery": "Camera",
    "startItemGroupCode": 1,
    "startWeapon": 122101
  },
  {
    "character": "Jan",
    "characterCode": 35,
    "cobaltCanChooseWeapon": false,
    "cobaltDraft": 63,
    "cobaltExtraDraft": "None",
    "cobaltMainTag": "Main_Attack",
    "cobaltStartWeapon": 0,
    "code": 351,
    "mastery": "Glove",
    "startItemGroupCode": 1,
    "startWeapon": 110102
  },
  {
    "character": "Jan",
    "characterCode": 35,
    "cobaltCanChooseWeapon": false,
    "cobaltDraft": 63,
    "cobaltExtraDraft": "None",
    "cobaltMainTag": "Main_Skill",
    "cobaltStartWeapon": 0,
    "code": 352,
    "mastery": "Tonfa",
    "startItemGroupCode": 1,
    "startWeapon": 108103
  },
  {
    "character": "Eva",
    "characterCode": 36,
    "cobaltCanChooseWeapon": false,
    "cobaltDraft": 63,
    "cobaltExtraDraft": "None",
    "cobaltMainTag": "Main_Skill",
    "cobaltStartWeapon": 0,
    "code": 361,
    "mastery": "HighAngleFire",
    "startItemGroupCode": 1,
    "startWeapon": 112105
  },
  {
    "character": "Daniel",
    "characterCode": 37,
    "cobaltCanChooseWeapon": false,
    "cobaltDraft": 63,
    "cobaltExtraDraft": "None",
    "cobaltMainTag": "Main_Attack",
    "cobaltStartWeapon": 0,
    "code": 371,
    "mastery": "OneHandSword",
    "startItemGroupCode": 1,
    "startWeapon": 101104
  },
  {
    "character": "Jenny",
    "characterCode": 38,
    "cobaltCanChooseWeapon": false,
    "cobaltDraft": 63,
    "cobaltExtraDraft": "None",
    "cobaltMainTag": "Main_Skill",
    "cobaltStartWeapon": 0,
    "code": 381,
    "mastery": "Pistol",
    "startItemGroupCode": 1,
    "startWeapon": 116101
  },
  {
    "character": "Camilo",
    "characterCode": 39,
    "cobaltCanChooseWeapon": false,
    "cobaltDraft": 63,
    "cobaltExtraDraft": "None",
    "cobaltMainTag": "Main_Attack",
    "cobaltStartWeapon": 0,
    "code": 391,
    "mastery": "DualSword",
    "startItemGroupCode": 1,
    "startWeapon": 103201
  },
  {
    "character": "Camilo",
    "characterCode": 39,
    "cobaltCanChooseWeapon": false,
    "cobaltDraft": 63,
    "cobaltExtraDraft": "None",
    "cobaltMainTag": "Main_Attack",
    "cobaltStartWeapon": 0,
    "code": 392,
    "mastery": "Rapier",
    "startItemGroupCode": 1,
    "startWeapon": 120101
  },
  {
    "character": "Chloe",
    "characterCode": 40,
    "cobaltCanChooseWeapon": false,
    "cobaltDraft": 63,
    "cobaltExtraDraft": "None",
    "cobaltMainTag": "Main_Attack",
    "cobaltStartWeapon": 0,
    "code": 401,
    "mastery": "DirectFire",
    "startItemGroupCode": 1,
    "startWeapon": 113101
  },
  {
    "character": "Johann",
    "characterCode": 41,
    "cobaltCanChooseWeapon": false,
    "cobaltDraft": 63,
    "cobaltExtraDraft": "None",
    "cobaltMainTag": "Main_Skill",
    "cobaltStartWeapon": 0,
    "code": 411,
    "mastery": "Arcana",
    "startItemGroupCode": 1,
    "startWeapon": 130101
  },
  {
    "character": "Bianca",
    "characterCode": 42,
    "cobaltCanChooseWeapon": false,
    "cobaltDraft": 63,
    "cobaltExtraDraft": "None",
    "cobaltMainTag": "Main_Skill",
    "cobaltStartWeapon": 0,
    "code": 421,
    "mastery": "Arcana",
    "startItemGroupCode": 1,
    "startWeapon": 130101
  },
  {
    "character": "Celine",
    "characterCode": 43,
    "cobaltCanChooseWeapon": false,
    "cobaltDraft": 63,
    "cobaltExtraDraft": "None",
    "cobaltMainTag": "Main_Skill",
    "cobaltStartWeapon": 0,
    "code": 431,
    "mastery": "HighAngleFire",
    "startItemGroupCode": 1,
    "startWeapon": 112105
  },
  {
    "character": "Echion",
    "characterCode": 44,
    "cobaltCanChooseWeapon": false,
    "cobaltDraft": 62,
    "cobaltExtraDraft": "None",
    "cobaltMainTag": "Main_Attack",
    "cobaltStartWeapon": 131201,
    "code": 441,
    "mastery": "VFArm",
    "startItemGroupCode": 1,
    "startWeapon": 131201
  },
  {
    "character": "Mai",
    "characterCode": 45,
    "cobaltCanChooseWeapon": false,
    "cobaltDraft": 63,
    "cobaltExtraDraft": "None",
    "cobaltMainTag": "Main_Attack",
    "cobaltStartWeapon": 0,
    "code": 451,
    "mastery": "Whip",
    "startItemGroupCode": 1,
    "startWeapon": 109101
  },
  {
    "character": "Aiden",
    "characterCode": 46,
    "cobaltCanChooseWeapon": false,
    "cobaltDraft": 63,
    "cobaltExtraDraft": "None",
    "cobaltMainTag": "Main_Attack",
    "cobaltStartWeapon": 0,
    "code": 461,
    "mastery": "TwoHandSword",
    "startItemGroupCode": 1,
    "startWeapon": 102101
  },
  {
    "character": "Laura",
    "characterCode": 47,
    "cobaltCanChooseWeapon": false,
    "cobaltDraft": 63,
    "cobaltExtraDraft": "None",
    "cobaltMainTag": "Main_Skill",
    "cobaltStartWeapon": 0,
    "code": 471,
    "mastery": "Whip",
    "startItemGroupCode": 1,
    "startWeapon": 109101
  },
  {
    "character": "Tia",
    "characterCode": 48,
    "cobaltCanChooseWeapon": false,
    "cobaltDraft": 63,
    "cobaltExtraDraft": "None",
    "cobaltMainTag": "Main_Skill",
    "cobaltStartWeapon": 0,
    "code": 481,
    "mastery": "Bat",
    "startItemGroupCode": 1,
    "startWeapon": 108102
  },
  {
    "character": "Felix",
    "characterCode": 49,
    "cobaltCanChooseWeapon": false,
    "cobaltDraft": 63,
    "cobaltExtraDraft": "None",
    "cobaltMainTag": "Main_Attack",
    "cobaltStartWeapon": 0,
    "code": 491,
    "mastery": "Spear",
    "startItemGroupCode": 1,
    "startWeapon": 107101
  },
  {
    "character": "Elena",
    "characterCode": 50,
    "cobaltCanChooseWeapon": false,
    "cobaltDraft": 63,
    "cobaltExtraDraft": "None",
    "cobaltMainTag": "Main_Skill",
    "cobaltStartWeapon": 0,
    "code": 501,
    "mastery": "Rapier",
    "startItemGroupCode": 1,
    "startWeapon": 120101
  },
  {
    "character": "Priya",
    "characterCode": 51,
    "cobaltCanChooseWeapon": false,
    "cobaltDraft": 59,
    "cobaltExtraDraft": "None",
    "cobaltMainTag": "Main_Skill",
    "cobaltStartWeapon": 0,
    "code": 511,
    "mastery": "Guitar",
    "startItemGroupCode": 1,
    "startWeapon": 121101
  },
  {
    "character": "Adina",
    "characterCode": 52,
    "cobaltCanChooseWeapon": false,
    "cobaltDraft": 63,
    "cobaltExtraDraft": "None",
    "cobaltMainTag": "Main_Skill",
    "cobaltStartWeapon": 0,
    "code": 521,
    "mastery": "Arcana",
    "startItemGroupCode": 1,
    "startWeapon": 130101
  },
  {
    "character": "Markus",
    "characterCode": 53,
    "cobaltCanChooseWeapon": false,
    "cobaltDraft": 63,
    "cobaltExtraDraft": "None",
    "cobaltMainTag": "Main_Attack",
    "cobaltStartWeapon": 0,
    "code": 531,
    "mastery": "Axe",
    "startItemGroupCode": 1,
    "startWeapon": 105103
  },
  {
    "character": "Karla",
    "characterCode": 54,
    "cobaltCanChooseWeapon": false,
    "cobaltDraft": 63,
    "cobaltExtraDraft": "None",
    "cobaltMainTag": "Main_Skill",
    "cobaltStartWeapon": 0,
    "code": 542,
    "mastery": "CrossBow",
    "startItemGroupCode": 1,
    "startWeapon": 115101
  },
  {
    "character": "Estelle",
    "characterCode": 55,
    "cobaltCanChooseWeapon": false,
    "cobaltDraft": 63,
    "cobaltExtraDraft": "None",
    "cobaltMainTag": "Main_Attack",
    "cobaltStartWeapon": 0,
    "code": 551,
    "mastery": "Axe",
    "startItemGroupCode": 1,
    "startWeapon": 105103
  },
  {
    "character": "Piolo",
    "characterCode": 56,
    "cobaltCanChooseWeapon": false,
    "cobaltDraft": 63,
    "cobaltExtraDraft": "None",
    "cobaltMainTag": "Main_Skill",
    "cobaltStartWeapon": 0,
    "code": 561,
    "mastery": "Nunchaku",
    "startItemGroupCode": 1,
    "startWeapon": 119101
  },
  {
    "character": "Martina",
    "characterCode": 57,
    "cobaltCanChooseWeapon": false,
    "cobaltDraft": 63,
    "cobaltExtraDraft": "None",
    "cobaltMainTag": "Main_Attack",
    "cobaltStartWeapon": 0,
    "code": 571,
    "mastery": "Camera",
    "startItemGroupCode": 1,
    "startWeapon": 122101
  },
  {
    "character": "Haze",
    "characterCode": 58,
    "cobaltCanChooseWeapon": false,
    "cobaltDraft": 63,
    "cobaltExtraDraft": "None",
    "cobaltMainTag": "Main_Skill",
    "cobaltStartWeapon": 0,
    "code": 581,
    "mastery": "AssaultRifle",
    "startItemGroupCode": 1,
    "startWeapon": 117101
  },
  {
    "character": "Isaac",
    "characterCode": 59,
    "cobaltCanChooseWeapon": false,
    "cobaltDraft": 63,
    "cobaltExtraDraft": "None",
    "cobaltMainTag": "Main_Attack",
    "cobaltStartWeapon": 0,
    "code": 591,
    "mastery": "Tonfa",
    "startItemGroupCode": 1,
    "startWeapon": 108103
  },
  {
    "character": "Tazia",
    "characterCode": 60,
    "cobaltCanChooseWeapon": false,
    "cobaltDraft": 63,
    "cobaltExtraDraft": "None",
    "cobaltMainTag": "Main_Skill",
    "cobaltStartWeapon": 0,
    "code": 601,
    "mastery": "DirectFire",
    "startItemGroupCode": 1,
    "startWeapon": 113101
  },
  {
    "character": "Irem",
    "characterCode": 61,
    "cobaltCanChooseWeapon": false,
    "cobaltDraft": 63,
    "cobaltExtraDraft": "None",
    "cobaltMainTag": "Main_Skill",
    "cobaltStartWeapon": 0,
    "code": 611,
    "mastery": "HighAngleFire",
    "startItemGroupCode": 1,
    "startWeapon": 112105
  },
  {
    "character": "Theodore",
    "characterCode": 62,
    "cobaltCanChooseWeapon": false,
    "cobaltDraft": 63,
    "cobaltExtraDraft": "None",
    "cobaltMainTag": "Main_Skill",
    "cobaltStartWeapon": 0,
    "code": 621,
    "mastery": "SniperRifle",
    "startItemGroupCode": 1,
    "startWeapon": 118101
  },
  {
    "character": "Lyanh",
    "characterCode": 63,
    "cobaltCanChooseWeapon": false,
    "cobaltDraft": 63,
    "cobaltExtraDraft": "None",
    "cobaltMainTag": "Main_Attack",
    "cobaltStartWeapon": 0,
    "code": 631,
    "mastery": "OneHandSword",
    "startItemGroupCode": 1,
    "startWeapon": 101104
  },
  {
    "character": "Vanya",
    "characterCode": 64,
    "cobaltCanChooseWeapon": false,
    "cobaltDraft": 63,
    "cobaltExtraDraft": "None",
    "cobaltMainTag": "Main_Skill",
    "cobaltStartWeapon": 0,
    "code": 641,
    "mastery": "Arcana",
    "startItemGroupCode": 1,
    "startWeapon": 130101
  }
]