[
  {
    "code": 103231,
    "distanceAfterRewind": 8,
    "rewindDuration": 0.65,
    "rotateType": "PhysicsBased",
    "type": "Owner"
  },
  {
    "code": 104021,
    "distanceAfterRewind": 8,
    "rewindDuration": 1,
    "rotateType": "ResourceBased",
    "type": "Owner"
  }
]