[
  {
    "code": 1,
    "detectionRate": 0,
    "objectAnimation": "tEventOut",
    "securityConsoleEvent": "ShutdownSecurityConsole",
    "successRate": 1
  },
  {
    "code": 2,
    "detectionRate": 0,
    "objectAnimation": "tSecurityCameraAction",
    "securityConsoleEvent": "AreaSecurityCameraSight",
    "successRate": 1
  },
  {
    "code": 3,
    "detectionRate": 0,
    "objectAnimation": "tRemoteCameraAction",
    "securityConsoleEvent": "RemoteSecurityCameraSight",
    "successRate": 1
  },
  {
    "code": 4,
    "detectionRate": 0.2,
    "objectAnimation": "tBackdoorAction",
    "securityConsoleEvent": "HackingBackdoor",
    "successRate": 0.3
  },
  {
    "code": 5,
    "detectionRate": 0.2,
    "objectAnimation": "tExclusiveAction",
    "securityConsoleEvent": "HackingExclusiveControl",
    "successRate": 0.15
  },
  {
    "code": 6,
    "detectionRate": 0.2,
    "objectAnimation": "tShutdownAction",
    "securityConsoleEvent": "HackingShutdown",
    "successRate": 0.1
  }
]