[
  {
    "code": 1,
    "count": 2,
    "groupCode": 1,
    "itemCode": 301110,
    "modeType": 7
  },
  {
    "code": 2,
    "count": 2,
    "groupCode": 1,
    "itemCode": 302102,
    "modeType": 7
  },
  {
    "code": 3,
    "count": 2,
    "groupCode": 1,
    "itemCode": 502211,
    "modeType": 8
  }
]