[
  {
    "active": true,
    "code": 7000201,
    "openAccountLv": 1,
    "traitGameMode": "LumiaBase",
    "traitGroup": "Havoc",
    "traitType": "Core"
  },
  {
    "active": true,
    "code": 7000301,
    "openAccountLv": 1,
    "traitGameMode": "LumiaBase",
    "traitGroup": "Havoc",
    "traitType": "Core"
  },
  {
    "active": true,
    "code": 7000401,
    "openAccountLv": 1,
    "traitGameMode": "LumiaBase",
    "traitGroup": "Havoc",
    "traitType": "Core"
  },
  {
    "active": true,
    "code": 7000501,
    "openAccountLv": 1,
    "traitGameMode": "LumiaBase",
    "traitGroup": "Havoc",
    "traitType": "Core"
  },
  {
    "active": true,
    "code": 7000601,
    "openAccountLv": 1,
    "traitGameMode": "LumiaBase",
    "traitGroup": "Havoc",
    "traitType": "Core"
  },
  {
    "active": true,
    "code": 7010101,
    "openAccountLv": 1,
    "traitGameMode": "LumiaBase",
    "traitGroup": "Havoc",
    "traitType": "Sub"
  },
  {
    "active": true,
    "code": 7010201,
    "openAccountLv": 1,
    "traitGameMode": "LumiaBase",
    "traitGroup": "Havoc",
    "traitType": "Sub"
  },
  {
    "active": true,
    "code": 7010301,
    "openAccountLv": 1,
    "traitGameMode": "LumiaBase",
    "traitGroup": "Havoc",
    "traitType": "Sub"
  },
  {
    "active": true,
    "code": 7010401,
    "openAccountLv": 1,
    "traitGameMode": "LumiaBase",
    "traitGroup": "Havoc",
    "traitType": "Sub"
  },
  {
    "active": true,
    "code": 7010501,
    "openAccountLv": 1,
    "traitGameMode": "LumiaBase",
    "traitGroup": "Havoc",
    "traitType": "Sub"
  },
  {
    "active": true,
    "code": 7010601,
    "openAccountLv": 1,
    "traitGameMode": "LumiaBase",
    "traitGroup": "Havoc",
    "traitType": "Sub"
  },
  {
    "active": true,
    "code": 7100101,
    "openAccountLv": 1,
    "traitGameMode": "LumiaBase",
    "traitGroup": "Fortification",
    "traitType": "Core"
  },
  {
    "active": true,
    "code": 7100201,
    "openAccountLv": 1,
    "traitGameMode": "LumiaBase",
    "traitGroup": "Fortification",
    "traitType": "Core"
  },
  {
    "active": true,
    "code": 7100301,
    "openAccountLv": 1,
    "traitGameMode": "LumiaBase",
    "traitGroup": "Fortification",
    "traitType": "Core"
  },
  {
    "active": true,
    "code": 7100401,
    "openAccountLv": 1,
    "traitGameMode": "LumiaBase",
    "traitGroup": "Fortification",
    "traitType": "Core"
  },
  {
    "active": true,
    "code": 7100501,
    "openAccountLv": 1,
    "traitGameMode": "LumiaBase",
    "traitGroup": "Fortification",
    "traitType": "Core"
  },
  {
    "active": true,
    "code": 7110101,
    "openAccountLv": 1,
    "traitGameMode": "LumiaBase",
    "traitGroup": "Fortification",
    "traitType": "Sub"
  },
  {
    "active": true,
    "code": 7110201,
    "openAccountLv": 1,
    "traitGameMode": "LumiaBase",
    "traitGroup": "Fortification",
    "traitType": "Sub"
  },
  {
    "active": true,
    "code": 7110301,
    "openAccountLv": 1,
    "traitGameMode": "LumiaBase",
    "traitGroup": "Fortification",
    "traitType": "Sub"
  },
  {
    "active": true,
    "code": 7110401,
    "openAccountLv": 1,
    "traitGameMode": "LumiaBase",
    "traitGroup": "Fortification",
    "traitType": "Sub"
  },
  {
    "active": true,
    "code": 7110501,
    "openAccountLv": 1,
    "traitGameMode": "LumiaBase",
    "traitGroup": "Fortification",
    "traitType": "Sub"
  },
  {
    "active": true,
    "code": 7110601,
    "openAccountLv": 1,
    "traitGameMode": "LumiaBase",
    "traitGroup": "Fortification",
    "traitType": "Sub"
  },
  {
    "active": true,
    "code": 7200101,
    "openAccountLv": 1,
    "traitGameMode": "LumiaBase",
    "traitGroup": "Support",
    "traitType": "Core"
  },
  {
    "active": true,
    "code": 7200201,
    "openAccountLv": 1,
    "traitGameMode": "LumiaBase",
    "traitGroup": "Support",
    "traitType": "Core"
  },
  {
    "active": true,
    "code": 7200301,
    "openAccountLv": 1,
    "traitGameMode": "LumiaBase",
    "traitGroup": "Support",
    "traitType": "Core"
  },
  {
    "active": true,
    "code": 7200401,
    "openAccountLv": 1,
    "traitGameMode": "LumiaBase",
    "traitGroup": "Support",
    "traitType": "Core"
  },
  {
    "active": true,
    "code": 7200501,
    "openAccountLv": 1,
    "traitGameMode": "LumiaBase",
    "traitGroup": "Support",
    "traitType": "Core"
  },
  {
    "active": true,
    "code": 7210101,
    "openAccountLv": 1,
    "traitGameMode": "LumiaBase",
    "traitGroup": "Support",
    "traitType": "Sub"
  },
  {
    "active": true,
    "code": 7210201,
    "openAccountLv": 1,
    "traitGameMode": "LumiaBase",
    "traitGroup": "Support",
    "traitType": "Sub"
  },
  {
    "active": true,
    "code": 7210301,
    "openAccountLv": 1,
    "traitGameMode": "LumiaBase",
    "traitGroup": "Support",
    "traitType": "Sub"
  },
  {
    "active": true,
    "code": 7210401,
    "openAccountLv": 1,
    "traitGameMode": "LumiaBase",
    "traitGroup": "Support",
    "traitType": "Sub"
  },
  {
    "active": true,
    "code": 7210501,
    "openAccountLv": 1,
    "traitGameMode": "LumiaBase",
    "traitGroup": "Support",
    "traitType": "Sub"
  },
  {
    "active": true,
    "code": 7210601,
    "openAccountLv": 1,
    "traitGameMode": "LumiaBase",
    "traitGroup": "Support",
    "traitType": "Sub"
  },
  {
    "active": true,
    "code": 7210801,
    "openAccountLv": 1,
    "traitGameMode": "LumiaBase",
    "traitGroup": "Support",
    "traitType": "Sub"
  },
  {
    "active": true,
    "code": 7900101,
    "openAccountLv": 9999,
    "traitGameMode": "Cobalt",
    "traitGroup": "Cobalt",
    "traitType": "Cobalt"
  },
  {
    "active": true,
    "code": 7900102,
    "openAccountLv": 9999,
    "traitGameMode": "Cobalt",
    "traitGroup": "Cobalt",
    "traitType": "Cobalt"
  },
  {
    "active": true,
    "code": 7900103,
    "openAccountLv": 9999,
    "traitGameMode": "Cobalt",
    "traitGroup": "Cobalt",
    "traitType": "Cobalt"
  },
  {
    "active": true,
    "code": 7900201,
    "openAccountLv": 9999,
    "traitGameMode": "Cobalt",
    "traitGroup": "Cobalt",
    "traitType": "Cobalt"
  },
  {
    "active": true,
    "code": 7900202,
    "openAccountLv": 9999,
    "traitGameMode": "Cobalt",
    "traitGroup": "Cobalt",
    "traitType": "Cobalt"
  },
  {
    "active": true,
    "code": 7900203,
    "openAccountLv": 9999,
    "traitGameMode": "Cobalt",
    "traitGroup": "Cobalt",
    "traitType": "Cobalt"
  },
  {
    "active": true,
    "code": 7900301,
    "openAccountLv": 9999,
    "traitGameMode": "Cobalt",
    "traitGroup": "Cobalt",
    "traitType": "Cobalt"
  },
  {
    "active": true,
    "code": 7900302,
    "openAccountLv": 9999,
    "traitGameMode": "Cobalt",
    "traitGroup": "Cobalt",
    "traitType": "Cobalt"
  },
  {
    "active": true,
    "code": 7900303,
    "openAccountLv": 9999,
    "traitGameMode": "Cobalt",
    "traitGroup": "Cobalt",
    "traitType": "Cobalt"
  },
  {
    "active": true,
    "code": 7900401,
    "openAccountLv": 9999,
    "traitGameMode": "Cobalt",
    "traitGroup": "Cobalt",
    "traitType": "Cobalt"
  },
  {
    "active": true,
    "code": 7900402,
    "openAccountLv": 9999,
    "traitGameMode": "Cobalt",
    "traitGroup": "Cobalt",
    "traitType": "Cobalt"
  },
  {
    "active": true,
    "code": 7900403,
    "openAccountLv": 9999,
    "traitGameMode": "Cobalt",
    "traitGroup": "Cobalt",
    "traitType": "Cobalt"
  },
  {
    "active": true,
    "code": 7900501,
    "openAccountLv": 9999,
    "traitGameMode": "Cobalt",
    "traitGroup": "Cobalt",
    "traitType": "Cobalt"
  },
  {
    "active": true,
    "code": 7900502,
    "openAccountLv": 9999,
    "traitGameMode": "Cobalt",
    "traitGroup": "Cobalt",
    "traitType": "Cobalt"
  },
  {
    "active": true,
    "code": 7900503,
    "openAccountLv": 9999,
    "traitGameMode": "Cobalt",
    "traitGroup": "Cobalt",
    "traitType": "Cobalt"
  },
  {
    "active": true,
    "code": 7900601,
    "openAccountLv": 9999,
    "traitGameMode": "Cobalt",
    "traitGroup": "Cobalt",
    "traitType": "Cobalt"
  },
  {
    "active": true,
    "code": 7900602,
    "openAccountLv": 9999,
    "traitGameMode": "Cobalt",
    "traitGroup": "Cobalt",
    "traitType": "Cobalt"
  },
  {
    "active": true,
    "code": 7900603,
    "openAccountLv": 9999,
    "traitGameMode": "Cobalt",
    "traitGroup": "Cobalt",
    "traitType": "Cobalt"
  },
  {
    "active": true,
    "code": 7900701,
    "openAccountLv": 9999,
    "traitGameMode": "Cobalt",
    "traitGroup": "Cobalt",
    "traitType": "Cobalt"
  },
  {
    "active": true,
    "code": 7900702,
    "openAccountLv": 9999,
    "traitGameMode": "Cobalt",
    "traitGroup": "Cobalt",
    "traitType": "Cobalt"
  },
  {
    "active": true,
    "code": 7900703,
    "openAccountLv": 9999,
    "traitGameMode": "Cobalt",
    "traitGroup": "Cobalt",
    "traitType": "Cobalt"
  },
  {
    "active": true,
    "code": 7900801,
    "openAccountLv": 9999,
    "traitGameMode": "Cobalt",
    "traitGroup": "Cobalt",
    "traitType": "Cobalt"
  },
  {
    "active": true,
    "code": 7900802,
    "openAccountLv": 9999,
    "traitGameMode": "Cobalt",
    "traitGroup": "Cobalt",
    "traitType": "Cobalt"
  },
  {
    "active": true,
    "code": 7900803,
    "openAccountLv": 9999,
    "traitGameMode": "Cobalt",
    "traitGroup": "Cobalt",
    "traitType": "Cobalt"
  },
  {
    "active": true,
    "code": 7900901,
    "openAccountLv": 9999,
    "traitGameMode": "Cobalt",
    "traitGroup": "Cobalt",
    "traitType": "Cobalt"
  },
  {
    "active": true,
    "code": 7900902,
    "openAccountLv": 9999,
    "traitGameMode": "Cobalt",
    "traitGroup": "Cobalt",
    "traitType": "Cobalt"
  },
  {
    "active": true,
    "code": 7900903,
    "openAccountLv": 9999,
    "traitGameMode": "Cobalt",
    "traitGroup": "Cobalt",
    "traitType": "Cobalt"
  },
  {
    "active": true,
    "code": 7920101,
    "openAccountLv": 9999,
    "traitGameMode": "Cobalt",
    "traitGroup": "Cobalt",
    "traitType": "Cobalt"
  },
  {
    "active": true,
    "code": 7920102,
    "openAccountLv": 9999,
    "traitGameMode": "Cobalt",
    "traitGroup": "Cobalt",
    "traitType": "Cobalt"
  },
  {
    "active": true,
    "code": 7920103,
    "openAccountLv": 9999,
    "traitGameMode": "Cobalt",
    "traitGroup": "Cobalt",
    "traitType": "Cobalt"
  },
  {
    "active": true,
    "code": 7920201,
    "openAccountLv": 9999,
    "traitGameMode": "Cobalt",
    "traitGroup": "Cobalt",
    "traitType": "Cobalt"
  },
  {
    "active": true,
    "code": 7920202,
    "openAccountLv": 9999,
    "traitGameMode": "Cobalt",
    "traitGroup": "Cobalt",
    "traitType": "Cobalt"
  },
  {
    "active": true,
    "code": 7920203,
    "openAccountLv": 9999,
    "traitGameMode": "Cobalt",
    "traitGroup": "Cobalt",
    "traitType": "Cobalt"
  },
  {
    "active": true,
    "code": 7920301,
    "openAccountLv": 9999,
    "traitGameMode": "Cobalt",
    "traitGroup": "Cobalt",
    "traitType": "Cobalt"
  },
  {
    "active": true,
    "code": 7920302,
    "openAccountLv": 9999,
    "traitGameMode": "Cobalt",
    "traitGroup": "Cobalt",
    "traitType": "Cobalt"
  },
  {
    "active": true,
    "code": 7920303,
    "openAccountLv": 9999,
    "traitGameMode": "Cobalt",
    "traitGroup": "Cobalt",
    "traitType": "Cobalt"
  },
  {
    "active": true,
    "code": 7920401,
    "openAccountLv": 9999,
    "traitGameMode": "Cobalt",
    "traitGroup": "Cobalt",
    "traitType": "Cobalt"
  },
  {
    "active": true,
    "code": 7920402,
    "openAccountLv": 9999,
    "traitGameMode": "Cobalt",
    "traitGroup": "Cobalt",
    "traitType": "Cobalt"
  },
  {
    "active": true,
    "code": 7920403,
    "openAccountLv": 9999,
    "traitGameMode": "Cobalt",
    "traitGroup": "Cobalt",
    "traitType": "Cobalt"
  },
  {
    "active": true,
    "code": 7920501,
    "openAccountLv": 9999,
    "traitGameMode": "Cobalt",
    "traitGroup": "Cobalt",
    "traitType": "Cobalt"
  },
  {
    "active": true,
    "code": 7920502,
    "openAccountLv": 9999,
    "traitGameMode": "Cobalt",
    "traitGroup": "Cobalt",
    "traitType": "Cobalt"
  },
  {
    "active": true,
    "code": 7920503,
    "openAccountLv": 9999,
    "traitGameMode": "Cobalt",
    "traitGroup": "Cobalt",
    "traitType": "Cobalt"
  },
  {
    "active": true,
    "code": 7920603,
    "openAccountLv": 9999,
    "traitGameMode": "Cobalt",
    "traitGroup": "Cobalt",
    "traitType": "Cobalt"
  },
  {
    "active": true,
    "code": 7920701,
    "openAccountLv": 9999,
    "traitGameMode": "Cobalt",
    "traitGroup": "Cobalt",
    "traitType": "Cobalt"
  },
  {
    "active": true,
    "code": 7920702,
    "openAccountLv": 9999,
    "traitGameMode": "Cobalt",
    "traitGroup": "Cobalt",
    "traitType": "Cobalt"
  },
  {
    "active": true,
    "code": 7920703,
    "openAccountLv": 9999,
    "traitGameMode": "Cobalt",
    "traitGroup": "Cobalt",
    "traitType": "Cobalt"
  },
  {
    "active": true,
    "code": 7920801,
    "openAccountLv": 9999,
    "traitGameMode": "Cobalt",
    "traitGroup": "Cobalt",
    "traitType": "Cobalt"
  },
  {
    "active": true,
    "code": 7920802,
    "openAccountLv": 9999,
    "traitGameMode": "Cobalt",
    "traitGroup": "Cobalt",
    "traitType": "Cobalt"
  },
  {
    "active": true,
    "code": 7920803,
    "openAccountLv": 9999,
    "traitGameMode": "Cobalt",
    "traitGroup": "Cobalt",
    "traitType": "Cobalt"
  },
  {
    "active": true,
    "code": 7920903,
    "openAccountLv": 9999,
    "traitGameMode": "Cobalt",
    "traitGroup": "Cobalt",
    "traitType": "Cobalt"
  },
  {
    "active": true,
    "code": 7921003,
    "openAccountLv": 9999,
    "traitGameMode": "Cobalt",
    "traitGroup": "Cobalt",
    "traitType": "Cobalt"
  },
  {
    "active": true,
    "code": 7921101,
    "openAccountLv": 9999,
    "traitGameMode": "Cobalt",
    "traitGroup": "Cobalt",
    "traitType": "Cobalt"
  },
  {
    "active": true,
    "code": 7921102,
    "openAccountLv": 9999,
    "traitGameMode": "Cobalt",
    "traitGroup": "Cobalt",
    "traitType": "Cobalt"
  },
  {
    "active": true,
    "code": 7921103,
    "openAccountLv": 9999,
    "traitGameMode": "Cobalt",
    "traitGroup": "Cobalt",
    "traitType": "Cobalt"
  },
  {
    "active": true,
    "code": 7921203,
    "openAccountLv": 9999,
    "traitGameMode": "Cobalt",
    "traitGroup": "Cobalt",
    "traitType": "Cobalt"
  },
  {
    "active": true,
    "code": 7921301,
    "openAccountLv": 9999,
    "traitGameMode": "Cobalt",
    "traitGroup": "Cobalt",
    "traitType": "Cobalt"
  },
  {
    "active": true,
    "code": 7921302,
    "openAccountLv": 9999,
    "traitGameMode": "Cobalt",
    "traitGroup": "Cobalt",
    "traitType": "Cobalt"
  },
  {
    "active": true,
    "code": 7921303,
    "openAccountLv": 9999,
    "traitGameMode": "Cobalt",
    "traitGroup": "Cobalt",
    "traitType": "Cobalt"
  },
  {
    "active": true,
    "code": 7921401,
    "openAccountLv": 9999,
    "traitGameMode": "Cobalt",
    "traitGroup": "Cobalt",
    "traitType": "Cobalt"
  },
  {
    "active": true,
    "code": 7921402,
    "openAccountLv": 9999,
    "traitGameMode": "Cobalt",
    "traitGroup": "Cobalt",
    "traitType": "Cobalt"
  },
  {
    "active": true,
    "code": 7921403,
    "openAccountLv": 9999,
    "traitGameMode": "Cobalt",
    "traitGroup": "Cobalt",
    "traitType": "Cobalt"
  },
  {
    "active": true,
    "code": 7921501,
    "openAccountLv": 9999,
    "traitGameMode": "Cobalt",
    "traitGroup": "Cobalt",
    "traitType": "Cobalt"
  },
  {
    "active": true,
    "code": 7921502,
    "openAccountLv": 9999,
    "traitGameMode": "Cobalt",
    "traitGroup": "Cobalt",
    "traitType": "Cobalt"
  },
  {
    "active": true,
    "code": 7921503,
    "openAccountLv": 9999,
    "traitGameMode": "Cobalt",
    "traitGroup": "Cobalt",
    "traitType": "Cobalt"
  },
  {
    "active": true,
    "code": 7921602,
    "openAccountLv": 9999,
    "traitGameMode": "Cobalt",
    "traitGroup": "Cobalt",
    "traitType": "Cobalt"
  },
  {
    "active": true,
    "code": 7921701,
    "openAccountLv": 9999,
    "traitGameMode": "Cobalt",
    "traitGroup": "Cobalt",
    "traitType": "Cobalt"
  },
  {
    "active": true,
    "code": 7921702,
    "openAccountLv": 9999,
    "traitGameMode": "Cobalt",
    "traitGroup": "Cobalt",
    "traitType": "Cobalt"
  },
  {
    "active": true,
    "code": 7921703,
    "openAccountLv": 9999,
    "traitGameMode": "Cobalt",
    "traitGroup": "Cobalt",
    "traitType": "Cobalt"
  },
  {
    "active": true,
    "code": 7921802,
    "openAccountLv": 9999,
    "traitGameMode": "Cobalt",
    "traitGroup": "Cobalt",
    "traitType": "Cobalt"
  },
  {
    "active": true,
    "code": 7921903,
    "openAccountLv": 9999,
    "traitGameMode": "Cobalt",
    "traitGroup": "Cobalt",
    "traitType": "Cobalt"
  },
  {
    "active": true,
    "code": 7922003,
    "openAccountLv": 9999,
    "traitGameMode": "Cobalt",
    "traitGroup": "Cobalt",
    "traitType": "Cobalt"
  },
  {
    "active": true,
    "code": 7922102,
    "openAccountLv": 9999,
    "traitGameMode": "Cobalt",
    "traitGroup": "Cobalt",
    "traitType": "Cobalt"
  },
  {
    "active": true,
    "code": 7922201,
    "openAccountLv": 9999,
    "traitGameMode": "Cobalt",
    "traitGroup": "Cobalt",
    "traitType": "Cobalt"
  },
  {
    "active": true,
    "code": 7922202,
    "openAccountLv": 9999,
    "traitGameMode": "Cobalt",
    "traitGroup": "Cobalt",
    "traitType": "Cobalt"
  },
  {
    "active": true,
    "code": 7922203,
    "openAccountLv": 9999,
    "traitGameMode": "Cobalt",
    "traitGroup": "Cobalt",
    "traitType": "Cobalt"
  },
  {
    "active": true,
    "code": 7922302,
    "openAccountLv": 9999,
    "traitGameMode": "Cobalt",
    "traitGroup": "Cobalt",
    "traitType": "Cobalt"
  },
  {
    "active": true,
    "code": 7922402,
    "openAccountLv": 9999,
    "traitGameMode": "Cobalt",
    "traitGroup": "Cobalt",
    "traitType": "Cobalt"
  },
  {
    "active": true,
    "code": 7922502,
    "openAccountLv": 9999,
    "traitGameMode": "Cobalt",
    "traitGroup": "Cobalt",
    "traitType": "Cobalt"
  },
  {
    "active": true,
    "code": 7922602,
    "openAccountLv": 9999,
    "traitGameMode": "Cobalt",
    "traitGroup": "Cobalt",
    "traitType": "Cobalt"
  },
  {
    "active": true,
    "code": 7922702,
    "openAccountLv": 9999,
    "traitGameMode": "Cobalt",
    "traitGroup": "Cobalt",
    "traitType": "Cobalt"
  },
  {
    "active": true,
    "code": 7922803,
    "openAccountLv": 9999,
    "traitGameMode": "Cobalt",
    "traitGroup": "Cobalt",
    "traitType": "Cobalt"
  },
  {
    "active": true,
    "code": 7922903,
    "openAccountLv": 9999,
    "traitGameMode": "Cobalt",
    "traitGroup": "Cobalt",
    "traitType": "Cobalt"
  },
  {
    "active": true,
    "code": 7923002,
    "openAccountLv": 9999,
    "traitGameMode": "Cobalt",
    "traitGroup": "Cobalt",
    "traitType": "Cobalt"
  },
  {
    "active": true,
    "code": 7923101,
    "openAccountLv": 9999,
    "traitGameMode": "Cobalt",
    "traitGroup": "Cobalt",
    "traitType": "Cobalt"
  },
  {
    "active": true,
    "code": 7923102,
    "openAccountLv": 9999,
    "traitGameMode": "Cobalt",
    "traitGroup": "Cobalt",
    "traitType": "Cobalt"
  },
  {
    "active": true,
    "code": 7923103,
    "openAccountLv": 9999,
    "traitGameMode": "Cobalt",
    "traitGroup": "Cobalt",
    "traitType": "Cobalt"
  },
  {
    "active": true,
    "code": 7923201,
    "openAccountLv": 9999,
    "traitGameMode": "Cobalt",
    "traitGroup": "Cobalt",
    "traitType": "Cobalt"
  },
  {
    "active": true,
    "code": 7923202,
    "openAccountLv": 9999,
    "traitGameMode": "Cobalt",
    "traitGroup": "Cobalt",
    "traitType": "Cobalt"
  },
  {
    "active": true,
    "code": 7923203,
    "openAccountLv": 9999,
    "traitGameMode": "Cobalt",
    "traitGroup": "Cobalt",
    "traitType": "Cobalt"
  }
]