[
  {
    "amount": 1,
    "collectionCode": 1,
    "goodsType": "CHARACTER",
    "tutorialKey": 1
  },
  {
    "amount": 3000,
    "collectionCode": 0,
    "goodsType": "ASSET",
    "tutorialKey": 2
  },
  {
    "amount": 1,
    "collectionCode": 2,
    "goodsType": "CHARACTER",
    "tutorialKey": 3
  },
  {
    "amount": 3000,
    "collectionCode": 0,
    "goodsType": "ASSET",
    "tutorialKey": 4
  },
  {
    "amount": 3000,
    "collectionCode": 0,
    "goodsType": "ASSET",
    "tutorialKey": 5
  },
  {
    "amount": 1,
    "collectionCode": 11,
    "goodsType": "CHARACTER",
    "tutorialKey": 6
  },
  {
    "amount": 9000,
    "collectionCode": 0,
    "goodsType": "ASSET",
    "tutorialKey": 7
  },
  {
    "amount": 1,
    "collectionCode": 12,
    "goodsType": "CHARACTER",
    "tutorialKey": 8
  },
  {
    "amount": 1,
    "collectionCode": 11,
    "goodsType": "CHARACTER",
    "tutorialKey": 11
  },
  {
    "amount": 1,
    "collectionCode": 12,
    "goodsType": "CHARACTER",
    "tutorialKey": 12
  },
  {
    "amount": 1,
    "collectionCode": 36,
    "goodsType": "CHARACTER",
    "tutorialKey": 13
  }
]