[
  {
    "activeLastSafeZone": false,
    "addStateEffectToCapturedPlayers": 0,
    "areaAttributesGroup": 1,
    "areaAttributesPhase": "Reserved",
    "areaAttributesPhaseDuration": 0,
    "areaAttributesType": "BattleZone",
    "areaIsolationByBarriers": "None",
    "areaRestriction": false,
    "canRest": true,
    "canTeleportToTeamMember": false,
    "captureCheckedInPlayers": false,
    "code": 1,
    "minimumTeams": 0,
    "modeType": 7,
    "penaltyToEscape": "None",
    "penaltyToStay": "None",
    "penaltyValueToEscape": 0,
    "penaltyValueToStay": 0,
    "safeZoneCode": 0,
    "stateEffectDuringPhase": 0
  },
  {
    "activeLastSafeZone": false,
    "addStateEffectToCapturedPlayers": 0,
    "areaAttributesGroup": 1,
    "areaAttributesPhase": "Ready1",
    "areaAttributesPhaseDuration": 15,
    "areaAttributesType": "BattleZone",
    "areaIsolationByBarriers": "None",
    "areaRestriction": false,
    "canRest": true,
    "canTeleportToTeamMember": false,
    "captureCheckedInPlayers": false,
    "code": 2,
    "minimumTeams": 0,
    "modeType": 7,
    "penaltyToEscape": "None",
    "penaltyToStay": "None",
    "penaltyValueToEscape": 0,
    "penaltyValueToStay": 0,
    "safeZoneCode": 0,
    "stateEffectDuringPhase": 0
  },
  {
    "activeLastSafeZone": false,
    "addStateEffectToCapturedPlayers": 0,
    "areaAttributesGroup": 1,
    "areaAttributesPhase": "Ready2",
    "areaAttributesPhaseDuration": 5,
    "areaAttributesType": "BattleZone",
    "areaIsolationByBarriers": "None",
    "areaRestriction": false,
    "canRest": true,
    "canTeleportToTeamMember": false,
    "captureCheckedInPlayers": false,
    "code": 3,
    "minimumTeams": 0,
    "modeType": 7,
    "penaltyToEscape": "None",
    "penaltyToStay": "None",
    "penaltyValueToEscape": 0,
    "penaltyValueToStay": 0,
    "safeZoneCode": 0,
    "stateEffectDuringPhase": 0
  },
  {
    "activeLastSafeZone": false,
    "addStateEffectToCapturedPlayers": 2100101,
    "areaAttributesGroup": 1,
    "areaAttributesPhase": "Play",
    "areaAttributesPhaseDuration": 160,
    "areaAttributesType": "BattleZone",
    "areaIsolationByBarriers": "Close",
    "areaRestriction": false,
    "canRest": true,
    "canTeleportToTeamMember": false,
    "captureCheckedInPlayers": true,
    "code": 4,
    "minimumTeams": 0,
    "modeType": 7,
    "penaltyToEscape": "None",
    "penaltyToStay": "None",
    "penaltyValueToEscape": 0,
    "penaltyValueToStay": 0,
    "safeZoneCode": 0,
    "stateEffectDuringPhase": 0
  },
  {
    "activeLastSafeZone": false,
    "addStateEffectToCapturedPlayers": 0,
    "areaAttributesGroup": 1,
    "areaAttributesPhase": "End",
    "areaAttributesPhaseDuration": 0,
    "areaAttributesType": "BattleZone",
    "areaIsolationByBarriers": "Open",
    "areaRestriction": false,
    "canRest": true,
    "canTeleportToTeamMember": false,
    "captureCheckedInPlayers": false,
    "code": 5,
    "minimumTeams": 0,
    "modeType": 7,
    "penaltyToEscape": "None",
    "penaltyToStay": "SurvivalTime",
    "penaltyValueToEscape": 0,
    "penaltyValueToStay": 1,
    "safeZoneCode": 0,
    "stateEffectDuringPhase": 0
  },
  {
    "activeLastSafeZone": false,
    "addStateEffectToCapturedPlayers": 0,
    "areaAttributesGroup": 2,
    "areaAttributesPhase": "Reserved",
    "areaAttributesPhaseDuration": 0,
    "areaAttributesType": "BattleZone",
    "areaIsolationByBarriers": "None",
    "areaRestriction": false,
    "canRest": true,
    "canTeleportToTeamMember": false,
    "captureCheckedInPlayers": false,
    "code": 6,
    "minimumTeams": 0,
    "modeType": 7,
    "penaltyToEscape": "None",
    "penaltyToStay": "None",
    "penaltyValueToEscape": 0,
    "penaltyValueToStay": 0,
    "safeZoneCode": 0,
    "stateEffectDuringPhase": 0
  },
  {
    "activeLastSafeZone": false,
    "addStateEffectToCapturedPlayers": 0,
    "areaAttributesGroup": 2,
    "areaAttributesPhase": "Ready1",
    "areaAttributesPhaseDuration": 15,
    "areaAttributesType": "BattleZone",
    "areaIsolationByBarriers": "None",
    "areaRestriction": false,
    "canRest": true,
    "canTeleportToTeamMember": false,
    "captureCheckedInPlayers": false,
    "code": 7,
    "minimumTeams": 0,
    "modeType": 7,
    "penaltyToEscape": "None",
    "penaltyToStay": "None",
    "penaltyValueToEscape": 0,
    "penaltyValueToStay": 0,
    "safeZoneCode": 0,
    "stateEffectDuringPhase": 0
  },
  {
    "activeLastSafeZone": false,
    "addStateEffectToCapturedPlayers": 0,
    "areaAttributesGroup": 2,
    "areaAttributesPhase": "Ready2",
    "areaAttributesPhaseDuration": 5,
    "areaAttributesType": "BattleZone",
    "areaIsolationByBarriers": "None",
    "areaRestriction": false,
    "canRest": true,
    "canTeleportToTeamMember": false,
    "captureCheckedInPlayers": false,
    "code": 8,
    "minimumTeams": 0,
    "modeType": 7,
    "penaltyToEscape": "None",
    "penaltyToStay": "None",
    "penaltyValueToEscape": 0,
    "penaltyValueToStay": 0,
    "safeZoneCode": 0,
    "stateEffectDuringPhase": 0
  },
  {
    "activeLastSafeZone": false,
    "addStateEffectToCapturedPlayers": 2100102,
    "areaAttributesGroup": 2,
    "areaAttributesPhase": "Play",
    "areaAttributesPhaseDuration": 160,
    "areaAttributesType": "BattleZone",
    "areaIsolationByBarriers": "Close",
    "areaRestriction": false,
    "canRest": true,
    "canTeleportToTeamMember": false,
    "captureCheckedInPlayers": true,
    "code": 9,
    "minimumTeams": 0,
    "modeType": 7,
    "penaltyToEscape": "None",
    "penaltyToStay": "None",
    "penaltyValueToEscape": 0,
    "penaltyValueToStay": 0,
    "safeZoneCode": 0,
    "stateEffectDuringPhase": 0
  },
  {
    "activeLastSafeZone": false,
    "addStateEffectToCapturedPlayers": 0,
    "areaAttributesGroup": 2,
    "areaAttributesPhase": "End",
    "areaAttributesPhaseDuration": 0,
    "areaAttributesType": "BattleZone",
    "areaIsolationByBarriers": "Open",
    "areaRestriction": false,
    "canRest": true,
    "canTeleportToTeamMember": false,
    "captureCheckedInPlayers": false,
    "code": 10,
    "minimumTeams": 0,
    "modeType": 7,
    "penaltyToEscape": "None",
    "penaltyToStay": "SurvivalTime",
    "penaltyValueToEscape": 0,
    "penaltyValueToStay": 1,
    "safeZoneCode": 0,
    "stateEffectDuringPhase": 0
  },
  {
    "activeLastSafeZone": false,
    "addStateEffectToCapturedPlayers": 0,
    "areaAttributesGroup": 3,
    "areaAttributesPhase": "Reserved",
    "areaAttributesPhaseDuration": 0,
    "areaAttributesType": "BattleZone",
    "areaIsolationByBarriers": "None",
    "areaRestriction": false,
    "canRest": true,
    "canTeleportToTeamMember": false,
    "captureCheckedInPlayers": false,
    "code": 11,
    "minimumTeams": 0,
    "modeType": 7,
    "penaltyToEscape": "None",
    "penaltyToStay": "None",
    "penaltyValueToEscape": 0,
    "penaltyValueToStay": 0,
    "safeZoneCode": 0,
    "stateEffectDuringPhase": 0
  },
  {
    "activeLastSafeZone": false,
    "addStateEffectToCapturedPlayers": 0,
    "areaAttributesGroup": 3,
    "areaAttributesPhase": "Ready1",
    "areaAttributesPhaseDuration": 15,
    "areaAttributesType": "BattleZone",
    "areaIsolationByBarriers": "None",
    "areaRestriction": false,
    "canRest": true,
    "canTeleportToTeamMember": false,
    "captureCheckedInPlayers": false,
    "code": 12,
    "minimumTeams": 0,
    "modeType": 7,
    "penaltyToEscape": "None",
    "penaltyToStay": "None",
    "penaltyValueToEscape": 0,
    "penaltyValueToStay": 0,
    "safeZoneCode": 0,
    "stateEffectDuringPhase": 0
  },
  {
    "activeLastSafeZone": false,
    "addStateEffectToCapturedPlayers": 0,
    "areaAttributesGroup": 3,
    "areaAttributesPhase": "Ready2",
    "areaAttributesPhaseDuration": 5,
    "areaAttributesType": "BattleZone",
    "areaIsolationByBarriers": "None",
    "areaRestriction": false,
    "canRest": true,
    "canTeleportToTeamMember": false,
    "captureCheckedInPlayers": false,
    "code": 13,
    "minimumTeams": 0,
    "modeType": 7,
    "penaltyToEscape": "None",
    "penaltyToStay": "None",
    "penaltyValueToEscape": 0,
    "penaltyValueToStay": 0,
    "safeZoneCode": 0,
    "stateEffectDuringPhase": 0
  },
  {
    "activeLastSafeZone": false,
    "addStateEffectToCapturedPlayers": 2100103,
    "areaAttributesGroup": 3,
    "areaAttributesPhase": "Play",
    "areaAttributesPhaseDuration": 160,
    "areaAttributesType": "BattleZone",
    "areaIsolationByBarriers": "Close",
    "areaRestriction": false,
    "canRest": true,
    "canTeleportToTeamMember": false,
    "captureCheckedInPlayers": true,
    "code": 14,
    "minimumTeams": 0,
    "modeType": 7,
    "penaltyToEscape": "None",
    "penaltyToStay": "None",
    "penaltyValueToEscape": 0,
    "penaltyValueToStay": 0,
    "safeZoneCode": 0,
    "stateEffectDuringPhase": 0
  },
  {
    "activeLastSafeZone": false,
    "addStateEffectToCapturedPlayers": 0,
    "areaAttributesGroup": 3,
    "areaAttributesPhase": "End",
    "areaAttributesPhaseDuration": 0,
    "areaAttributesType": "BattleZone",
    "areaIsolationByBarriers": "Open",
    "areaRestriction": false,
    "canRest": true,
    "canTeleportToTeamMember": false,
    "captureCheckedInPlayers": false,
    "code": 15,
    "minimumTeams": 0,
    "modeType": 7,
    "penaltyToEscape": "None",
    "penaltyToStay": "SurvivalTime",
    "penaltyValueToEscape": 0,
    "penaltyValueToStay": 1,
    "safeZoneCode": 0,
    "stateEffectDuringPhase": 0
  }
]