[
  {
    "amount": 1,
    "battlePassID": 1,
    "id": 1,
    "itemId": 4005,
    "itemType": "EMOTION",
    "passLevel": 2,
    "rewardId": 11002
  },
  {
    "amount": 1000,
    "battlePassID": 1,
    "id": 2,
    "itemId": 1,
    "itemType": "ASSET",
    "passLevel": 4,
    "rewardId": 11004
  },
  {
    "amount": 30,
    "battlePassID": 1,
    "id": 3,
    "itemId": 1304001,
    "itemType": "BATTLE_PASS_POINT",
    "passLevel": 6,
    "rewardId": 11006
  },
  {
    "amount": 1,
    "battlePassID": 1,
    "id": 4,
    "itemId": 1504001,
    "itemType": "SPRAY",
    "passLevel": 9,
    "rewardId": 11009
  },
  {
    "amount": 100,
    "battlePassID": 1,
    "id": 5,
    "itemId": 2,
    "itemType": "ASSET",
    "passLevel": 12,
    "rewardId": 11012
  },
  {
    "amount": 1,
    "battlePassID": 1,
    "id": 6,
    "itemId": 104001,
    "itemType": "EMBLEM_MARK",
    "passLevel": 16,
    "rewardId": 11016
  },
  {
    "amount": 1,
    "battlePassID": 1,
    "id": 7,
    "itemId": 304001,
    "itemType": "EMBLEM_OUTLINE",
    "passLevel": 19,
    "rewardId": 11019
  },
  {
    "amount": 1000,
    "battlePassID": 1,
    "id": 8,
    "itemId": 1,
    "itemType": "ASSET",
    "passLevel": 23,
    "rewardId": 11023
  },
  {
    "amount": 100,
    "battlePassID": 1,
    "id": 9,
    "itemId": 1,
    "itemType": "EXP",
    "passLevel": 27,
    "rewardId": 11027
  },
  {
    "amount": 100,
    "battlePassID": 1,
    "id": 10,
    "itemId": 2,
    "itemType": "ASSET",
    "passLevel": 31,
    "rewardId": 11031
  },
  {
    "amount": 1,
    "battlePassID": 1,
    "id": 11,
    "itemId": 204001,
    "itemType": "EMBLEM_BG",
    "passLevel": 35,
    "rewardId": 11035
  },
  {
    "amount": 1000,
    "battlePassID": 1,
    "id": 12,
    "itemId": 1,
    "itemType": "ASSET",
    "passLevel": 39,
    "rewardId": 11039
  },
  {
    "amount": 1,
    "battlePassID": 1,
    "id": 13,
    "itemId": 104002,
    "itemType": "EMBLEM_MARK",
    "passLevel": 44,
    "rewardId": 11044
  },
  {
    "amount": 1,
    "battlePassID": 1,
    "id": 14,
    "itemId": 1504002,
    "itemType": "SPRAY",
    "passLevel": 49,
    "rewardId": 11049
  },
  {
    "amount": 1000,
    "battlePassID": 1,
    "id": 15,
    "itemId": 1,
    "itemType": "ASSET",
    "passLevel": 54,
    "rewardId": 11054
  },
  {
    "amount": 1,
    "battlePassID": 1,
    "id": 16,
    "itemId": 4009,
    "itemType": "EMOTION",
    "passLevel": 60,
    "rewardId": 11060
  },
  {
    "amount": 1,
    "battlePassID": 1,
    "id": 17,
    "itemId": 1018002,
    "itemType": "SKIN",
    "passLevel": 1,
    "rewardId": 12001
  },
  {
    "amount": 1,
    "battlePassID": 1,
    "id": 18,
    "itemId": 1102,
    "itemType": "BOOSTER_ACOIN_2X",
    "passLevel": 2,
    "rewardId": 12002
  },
  {
    "amount": 1000,
    "battlePassID": 1,
    "id": 19,
    "itemId": 1,
    "itemType": "ASSET",
    "passLevel": 3,
    "rewardId": 12003
  },
  {
    "amount": 1,
    "battlePassID": 1,
    "id": 20,
    "itemId": 1404011,
    "itemType": "ANNOUNCE",
    "passLevel": 4,
    "rewardId": 12004
  },
  {
    "amount": 1,
    "battlePassID": 1,
    "id": 21,
    "itemId": 4001,
    "itemType": "EMOTION",
    "passLevel": 5,
    "rewardId": 12005
  },
  {
    "amount": 1,
    "battlePassID": 1,
    "id": 22,
    "itemId": 1604001,
    "itemType": "GRAVE",
    "passLevel": 6,
    "rewardId": 12006
  },
  {
    "amount": 1,
    "battlePassID": 1,
    "id": 23,
    "itemId": 2102,
    "itemType": "BOOSTER_XP_2X",
    "passLevel": 7,
    "rewardId": 12007
  },
  {
    "amount": 100,
    "battlePassID": 1,
    "id": 24,
    "itemId": 2,
    "itemType": "ASSET",
    "passLevel": 8,
    "rewardId": 12008
  },
  {
    "amount": 1,
    "battlePassID": 1,
    "id": 25,
    "itemId": 1604002,
    "itemType": "GRAVE",
    "passLevel": 9,
    "rewardId": 12009
  },
  {
    "amount": 1,
    "battlePassID": 1,
    "id": 26,
    "itemId": 204002,
    "itemType": "EMBLEM_BG",
    "passLevel": 10,
    "rewardId": 12010
  },
  {
    "amount": 1000,
    "battlePassID": 1,
    "id": 27,
    "itemId": 1,
    "itemType": "ASSET",
    "passLevel": 11,
    "rewardId": 12011
  },
  {
    "amount": 30,
    "battlePassID": 1,
    "id": 28,
    "itemId": 1304001,
    "itemType": "BATTLE_PASS_POINT",
    "passLevel": 12,
    "rewardId": 12012
  },
  {
    "amount": 1,
    "battlePassID": 1,
    "id": 29,
    "itemId": 104003,
    "itemType": "EMBLEM_MARK",
    "passLevel": 13,
    "rewardId": 12013
  },
  {
    "amount": 1,
    "battlePassID": 1,
    "id": 30,
    "itemId": 1102,
    "itemType": "BOOSTER_ACOIN_2X",
    "passLevel": 14,
    "rewardId": 12014
  },
  {
    "amount": 100,
    "battlePassID": 1,
    "id": 31,
    "itemId": 1,
    "itemType": "EXP",
    "passLevel": 15,
    "rewardId": 12015
  },
  {
    "amount": 100,
    "battlePassID": 1,
    "id": 32,
    "itemId": 2,
    "itemType": "ASSET",
    "passLevel": 16,
    "rewardId": 12016
  },
  {
    "amount": 1000,
    "battlePassID": 1,
    "id": 33,
    "itemId": 1,
    "itemType": "ASSET",
    "passLevel": 17,
    "rewardId": 12017
  },
  {
    "amount": 30,
    "battlePassID": 1,
    "id": 34,
    "itemId": 1304001,
    "itemType": "BATTLE_PASS_POINT",
    "passLevel": 18,
    "rewardId": 12018
  },
  {
    "amount": 1,
    "battlePassID": 1,
    "id": 35,
    "itemId": 4007,
    "itemType": "EMOTION",
    "passLevel": 19,
    "rewardId": 12019
  },
  {
    "amount": 100,
    "battlePassID": 1,
    "id": 36,
    "itemId": 1,
    "itemType": "EXP",
    "passLevel": 20,
    "rewardId": 12020
  },
  {
    "amount": 1,
    "battlePassID": 1,
    "id": 37,
    "itemId": 1504003,
    "itemType": "SPRAY",
    "passLevel": 21,
    "rewardId": 12021
  },
  {
    "amount": 1000,
    "battlePassID": 1,
    "id": 38,
    "itemId": 1,
    "itemType": "ASSET",
    "passLevel": 22,
    "rewardId": 12022
  },
  {
    "amount": 1,
    "battlePassID": 1,
    "id": 39,
    "itemId": 304002,
    "itemType": "EMBLEM_OUTLINE",
    "passLevel": 23,
    "rewardId": 12023
  },
  {
    "amount": 100,
    "battlePassID": 1,
    "id": 40,
    "itemId": 2,
    "itemType": "ASSET",
    "passLevel": 24,
    "rewardId": 12024
  },
  {
    "amount": 1,
    "battlePassID": 1,
    "id": 41,
    "itemId": 1102,
    "itemType": "BOOSTER_ACOIN_2X",
    "passLevel": 25,
    "rewardId": 12025
  },
  {
    "amount": 1,
    "battlePassID": 1,
    "id": 42,
    "itemId": 1015003,
    "itemType": "SKIN",
    "passLevel": 26,
    "rewardId": 12026
  },
  {
    "amount": 1,
    "battlePassID": 1,
    "id": 43,
    "itemId": 1504004,
    "itemType": "SPRAY",
    "passLevel": 27,
    "rewardId": 12027
  },
  {
    "amount": 30,
    "battlePassID": 1,
    "id": 44,
    "itemId": 1304001,
    "itemType": "BATTLE_PASS_POINT",
    "passLevel": 28,
    "rewardId": 12028
  },
  {
    "amount": 1,
    "battlePassID": 1,
    "id": 45,
    "itemId": 104004,
    "itemType": "EMBLEM_MARK",
    "passLevel": 29,
    "rewardId": 12029
  },
  {
    "amount": 1,
    "battlePassID": 1,
    "id": 46,
    "itemId": 1404012,
    "itemType": "ANNOUNCE",
    "passLevel": 30,
    "rewardId": 12030
  },
  {
    "amount": 100,
    "battlePassID": 1,
    "id": 47,
    "itemId": 1,
    "itemType": "EXP",
    "passLevel": 31,
    "rewardId": 12031
  },
  {
    "amount": 100,
    "battlePassID": 1,
    "id": 48,
    "itemId": 2,
    "itemType": "ASSET",
    "passLevel": 32,
    "rewardId": 12032
  },
  {
    "amount": 30,
    "battlePassID": 1,
    "id": 49,
    "itemId": 1304001,
    "itemType": "BATTLE_PASS_POINT",
    "passLevel": 33,
    "rewardId": 12033
  },
  {
    "amount": 1000,
    "battlePassID": 1,
    "id": 50,
    "itemId": 1,
    "itemType": "ASSET",
    "passLevel": 34,
    "rewardId": 12034
  },
  {
    "amount": 30,
    "battlePassID": 1,
    "id": 51,
    "itemId": 1304001,
    "itemType": "BATTLE_PASS_POINT",
    "passLevel": 35,
    "rewardId": 12035
  },
  {
    "amount": 1,
    "battlePassID": 1,
    "id": 52,
    "itemId": 4008,
    "itemType": "EMOTION",
    "passLevel": 36,
    "rewardId": 12036
  },
  {
    "amount": 100,
    "battlePassID": 1,
    "id": 53,
    "itemId": 1,
    "itemType": "EXP",
    "passLevel": 37,
    "rewardId": 12037
  },
  {
    "amount": 1,
    "battlePassID": 1,
    "id": 54,
    "itemId": 104005,
    "itemType": "EMBLEM_MARK",
    "passLevel": 38,
    "rewardId": 12038
  },
  {
    "amount": 1,
    "battlePassID": 1,
    "id": 55,
    "itemId": 1102,
    "itemType": "BOOSTER_ACOIN_2X",
    "passLevel": 39,
    "rewardId": 12039
  },
  {
    "amount": 1,
    "battlePassID": 1,
    "id": 56,
    "itemId": 1404013,
    "itemType": "ANNOUNCE",
    "passLevel": 40,
    "rewardId": 12040
  },
  {
    "amount": 1,
    "battlePassID": 1,
    "id": 57,
    "itemId": 204003,
    "itemType": "EMBLEM_BG",
    "passLevel": 41,
    "rewardId": 12041
  },
  {
    "amount": 1,
    "battlePassID": 1,
    "id": 58,
    "itemId": 1604003,
    "itemType": "GRAVE",
    "passLevel": 42,
    "rewardId": 12042
  },
  {
    "amount": 100,
    "battlePassID": 1,
    "id": 59,
    "itemId": 1,
    "itemType": "EXP",
    "passLevel": 43,
    "rewardId": 12043
  },
  {
    "amount": 1000,
    "battlePassID": 1,
    "id": 60,
    "itemId": 1,
    "itemType": "ASSET",
    "passLevel": 44,
    "rewardId": 12044
  },
  {
    "amount": 1,
    "battlePassID": 1,
    "id": 61,
    "itemId": 4004,
    "itemType": "EMOTION",
    "passLevel": 45,
    "rewardId": 12045
  },
  {
    "amount": 1,
    "battlePassID": 1,
    "id": 62,
    "itemId": 104006,
    "itemType": "EMBLEM_MARK",
    "passLevel": 46,
    "rewardId": 12046
  },
  {
    "amount": 30,
    "battlePassID": 1,
    "id": 63,
    "itemId": 1304001,
    "itemType": "BATTLE_PASS_POINT",
    "passLevel": 47,
    "rewardId": 12047
  },
  {
    "amount": 100,
    "battlePassID": 1,
    "id": 64,
    "itemId": 2,
    "itemType": "ASSET",
    "passLevel": 48,
    "rewardId": 12048
  },
  {
    "amount": 1,
    "battlePassID": 1,
    "id": 65,
    "itemId": 2102,
    "itemType": "BOOSTER_XP_2X",
    "passLevel": 49,
    "rewardId": 12049
  },
  {
    "amount": 100,
    "battlePassID": 1,
    "id": 66,
    "itemId": 1,
    "itemType": "EXP",
    "passLevel": 50,
    "rewardId": 12050
  },
  {
    "amount": 30,
    "battlePassID": 1,
    "id": 67,
    "itemId": 1304001,
    "itemType": "BATTLE_PASS_POINT",
    "passLevel": 51,
    "rewardId": 12051
  },
  {
    "amount": 1,
    "battlePassID": 1,
    "id": 68,
    "itemId": 4010,
    "itemType": "EMOTION",
    "passLevel": 52,
    "rewardId": 12052
  },
  {
    "amount": 1,
    "battlePassID": 1,
    "id": 69,
    "itemId": 1604004,
    "itemType": "GRAVE",
    "passLevel": 53,
    "rewardId": 12053
  },
  {
    "amount": 1,
    "battlePassID": 1,
    "id": 70,
    "itemId": 1604005,
    "itemType": "GRAVE",
    "passLevel": 54,
    "rewardId": 12054
  },
  {
    "amount": 1,
    "battlePassID": 1,
    "id": 71,
    "itemId": 304003,
    "itemType": "EMBLEM_OUTLINE",
    "passLevel": 55,
    "rewardId": 12055
  },
  {
    "amount": 100,
    "battlePassID": 1,
    "id": 72,
    "itemId": 2,
    "itemType": "ASSET",
    "passLevel": 56,
    "rewardId": 12056
  },
  {
    "amount": 30,
    "battlePassID": 1,
    "id": 73,
    "itemId": 1304001,
    "itemType": "BATTLE_PASS_POINT",
    "passLevel": 57,
    "rewardId": 12057
  },
  {
    "amount": 1,
    "battlePassID": 1,
    "id": 74,
    "itemId": 104007,
    "itemType": "EMBLEM_MARK",
    "passLevel": 58,
    "rewardId": 12058
  },
  {
    "amount": 1000,
    "battlePassID": 1,
    "id": 75,
    "itemId": 1,
    "itemType": "ASSET",
    "passLevel": 59,
    "rewardId": 12059
  },
  {
    "amount": 1,
    "battlePassID": 1,
    "id": 76,
    "itemId": 1604006,
    "itemType": "GRAVE",
    "passLevel": 60,
    "rewardId": 12060
  },
  {
    "amount": 100,
    "battlePassID": 1,
    "id": 77,
    "itemId": 1,
    "itemType": "EXP",
    "passLevel": 61,
    "rewardId": 12061
  },
  {
    "amount": 1000,
    "battlePassID": 1,
    "id": 78,
    "itemId": 1,
    "itemType": "ASSET",
    "passLevel": 62,
    "rewardId": 12062
  },
  {
    "amount": 1,
    "battlePassID": 1,
    "id": 79,
    "itemId": 1504005,
    "itemType": "SPRAY",
    "passLevel": 63,
    "rewardId": 12063
  },
  {
    "amount": 100,
    "battlePassID": 1,
    "id": 80,
    "itemId": 2,
    "itemType": "ASSET",
    "passLevel": 64,
    "rewardId": 12064
  },
  {
    "amount": 30,
    "battlePassID": 1,
    "id": 81,
    "itemId": 1304001,
    "itemType": "BATTLE_PASS_POINT",
    "passLevel": 65,
    "rewardId": 12065
  },
  {
    "amount": 1000,
    "battlePassID": 1,
    "id": 82,
    "itemId": 1,
    "itemType": "ASSET",
    "passLevel": 66,
    "rewardId": 12066
  },
  {
    "amount": 1,
    "battlePassID": 1,
    "id": 83,
    "itemId": 1102,
    "itemType": "BOOSTER_ACOIN_2X",
    "passLevel": 67,
    "rewardId": 12067
  },
  {
    "amount": 1,
    "battlePassID": 1,
    "id": 84,
    "itemId": 4011,
    "itemType": "EMOTION",
    "passLevel": 68,
    "rewardId": 12068
  },
  {
    "amount": 1,
    "battlePassID": 1,
    "id": 85,
    "itemId": 304004,
    "itemType": "EMBLEM_OUTLINE",
    "passLevel": 69,
    "rewardId": 12069
  },
  {
    "amount": 1000,
    "battlePassID": 1,
    "id": 86,
    "itemId": 1,
    "itemType": "ASSET",
    "passLevel": 70,
    "rewardId": 12070
  },
  {
    "amount": 1,
    "battlePassID": 1,
    "id": 87,
    "itemId": 4006,
    "itemType": "EMOTION",
    "passLevel": 71,
    "rewardId": 12071
  },
  {
    "amount": 100,
    "battlePassID": 1,
    "id": 88,
    "itemId": 2,
    "itemType": "ASSET",
    "passLevel": 72,
    "rewardId": 12072
  },
  {
    "amount": 30,
    "battlePassID": 1,
    "id": 89,
    "itemId": 1304001,
    "itemType": "BATTLE_PASS_POINT",
    "passLevel": 73,
    "rewardId": 12073
  },
  {
    "amount": 1,
    "battlePassID": 1,
    "id": 90,
    "itemId": 1604007,
    "itemType": "GRAVE",
    "passLevel": 74,
    "rewardId": 12074
  },
  {
    "amount": 100,
    "battlePassID": 1,
    "id": 91,
    "itemId": 1,
    "itemType": "EXP",
    "passLevel": 75,
    "rewardId": 12075
  },
  {
    "amount": 1,
    "battlePassID": 1,
    "id": 92,
    "itemId": 1604008,
    "itemType": "GRAVE",
    "passLevel": 76,
    "rewardId": 12076
  },
  {
    "amount": 1,
    "battlePassID": 1,
    "id": 93,
    "itemId": 1504006,
    "itemType": "SPRAY",
    "passLevel": 77,
    "rewardId": 12077
  },
  {
    "amount": 30,
    "battlePassID": 1,
    "id": 94,
    "itemId": 1304001,
    "itemType": "BATTLE_PASS_POINT",
    "passLevel": 78,
    "rewardId": 12078
  },
  {
    "amount": 1,
    "battlePassID": 1,
    "id": 95,
    "itemId": 1102,
    "itemType": "BOOSTER_ACOIN_2X",
    "passLevel": 79,
    "rewardId": 12079
  },
  {
    "amount": 100,
    "battlePassID": 1,
    "id": 96,
    "itemId": 2,
    "itemType": "ASSET",
    "passLevel": 80,
    "rewardId": 12080
  },
  {
    "amount": 1000,
    "battlePassID": 1,
    "id": 97,
    "itemId": 1,
    "itemType": "ASSET",
    "passLevel": 81,
    "rewardId": 12081
  },
  {
    "amount": 30,
    "battlePassID": 1,
    "id": 98,
    "itemId": 1304001,
    "itemType": "BATTLE_PASS_POINT",
    "passLevel": 82,
    "rewardId": 12082
  },
  {
    "amount": 1,
    "battlePassID": 1,
    "id": 99,
    "itemId": 4002,
    "itemType": "EMOTION",
    "passLevel": 83,
    "rewardId": 12083
  },
  {
    "amount": 1,
    "battlePassID": 1,
    "id": 100,
    "itemId": 204004,
    "itemType": "EMBLEM_BG",
    "passLevel": 84,
    "rewardId": 12084
  },
  {
    "amount": 1,
    "battlePassID": 1,
    "id": 101,
    "itemId": 104008,
    "itemType": "EMBLEM_MARK",
    "passLevel": 85,
    "rewardId": 12085
  },
  {
    "amount": 100,
    "battlePassID": 1,
    "id": 102,
    "itemId": 1,
    "itemType": "EXP",
    "passLevel": 86,
    "rewardId": 12086
  },
  {
    "amount": 1000,
    "battlePassID": 1,
    "id": 103,
    "itemId": 1,
    "itemType": "ASSET",
    "passLevel": 87,
    "rewardId": 12087
  },
  {
    "amount": 100,
    "battlePassID": 1,
    "id": 104,
    "itemId": 2,
    "itemType": "ASSET",
    "passLevel": 88,
    "rewardId": 12088
  },
  {
    "amount": 1,
    "battlePassID": 1,
    "id": 105,
    "itemId": 204005,
    "itemType": "EMBLEM_BG",
    "passLevel": 89,
    "rewardId": 12089
  },
  {
    "amount": 30,
    "battlePassID": 1,
    "id": 106,
    "itemId": 1304001,
    "itemType": "BATTLE_PASS_POINT",
    "passLevel": 90,
    "rewardId": 12090
  },
  {
    "amount": 1,
    "battlePassID": 1,
    "id": 107,
    "itemId": 4003,
    "itemType": "EMOTION",
    "passLevel": 91,
    "rewardId": 12091
  },
  {
    "amount": 1,
    "battlePassID": 1,
    "id": 108,
    "itemId": 1504007,
    "itemType": "SPRAY",
    "passLevel": 92,
    "rewardId": 12092
  },
  {
    "amount": 1000,
    "battlePassID": 1,
    "id": 109,
    "itemId": 1,
    "itemType": "ASSET",
    "passLevel": 93,
    "rewardId": 12093
  },
  {
    "amount": 100,
    "battlePassID": 1,
    "id": 110,
    "itemId": 2,
    "itemType": "ASSET",
    "passLevel": 94,
    "rewardId": 12094
  },
  {
    "amount": 30,
    "battlePassID": 1,
    "id": 111,
    "itemId": 1304001,
    "itemType": "BATTLE_PASS_POINT",
    "passLevel": 95,
    "rewardId": 12095
  },
  {
    "amount": 100,
    "battlePassID": 1,
    "id": 112,
    "itemId": 2,
    "itemType": "ASSET",
    "passLevel": 96,
    "rewardId": 12096
  },
  {
    "amount": 100,
    "battlePassID": 1,
    "id": 113,
    "itemId": 1,
    "itemType": "EXP",
    "passLevel": 97,
    "rewardId": 12097
  },
  {
    "amount": 1,
    "battlePassID": 1,
    "id": 114,
    "itemId": 104009,
    "itemType": "EMBLEM_MARK",
    "passLevel": 98,
    "rewardId": 12098
  },
  {
    "amount": 1,
    "battlePassID": 1,
    "id": 115,
    "itemId": 1504008,
    "itemType": "SPRAY",
    "passLevel": 99,
    "rewardId": 12099
  },
  {
    "amount": 1,
    "battlePassID": 1,
    "id": 116,
    "itemId": 1008002,
    "itemType": "SKIN",
    "passLevel": 100,
    "rewardId": 12100
  },
  {
    "amount": 1,
    "battlePassID": 5,
    "id": 117,
    "itemId": 104017,
    "itemType": "EMBLEM_MARK",
    "passLevel": 1,
    "rewardId": 51001
  },
  {
    "amount": 1,
    "battlePassID": 5,
    "id": 118,
    "itemId": 2102,
    "itemType": "BOOSTER_XP_2X",
    "passLevel": 5,
    "rewardId": 51005
  },
  {
    "amount": 1000,
    "battlePassID": 5,
    "id": 119,
    "itemId": 1,
    "itemType": "ASSET",
    "passLevel": 9,
    "rewardId": 51009
  },
  {
    "amount": 100,
    "battlePassID": 5,
    "id": 120,
    "itemId": 2,
    "itemType": "ASSET",
    "passLevel": 13,
    "rewardId": 51013
  },
  {
    "amount": 1,
    "battlePassID": 5,
    "id": 121,
    "itemId": 1504009,
    "itemType": "SPRAY",
    "passLevel": 17,
    "rewardId": 51017
  },
  {
    "amount": 1,
    "battlePassID": 5,
    "id": 122,
    "itemId": 1102,
    "itemType": "BOOSTER_ACOIN_2X",
    "passLevel": 21,
    "rewardId": 51021
  },
  {
    "amount": 1,
    "battlePassID": 5,
    "id": 123,
    "itemId": 2704005,
    "itemType": "LOBBY_SCREEN",
    "passLevel": 25,
    "rewardId": 51025
  },
  {
    "amount": 1,
    "battlePassID": 5,
    "id": 124,
    "itemId": 1704002,
    "itemType": "BGM",
    "passLevel": 29,
    "rewardId": 51029
  },
  {
    "amount": 1,
    "battlePassID": 5,
    "id": 125,
    "itemId": 1604009,
    "itemType": "GRAVE",
    "passLevel": 33,
    "rewardId": 51033
  },
  {
    "amount": 1,
    "battlePassID": 5,
    "id": 126,
    "itemId": 2804001,
    "itemType": "KILLANNOUNCE_ICONPACK",
    "passLevel": 37,
    "rewardId": 51037
  },
  {
    "amount": 100,
    "battlePassID": 5,
    "id": 127,
    "itemId": 2,
    "itemType": "ASSET",
    "passLevel": 40,
    "rewardId": 51040
  },
  {
    "amount": 1,
    "battlePassID": 5,
    "id": 128,
    "itemId": 204006,
    "itemType": "EMBLEM_BG",
    "passLevel": 41,
    "rewardId": 51041
  },
  {
    "amount": 1,
    "battlePassID": 5,
    "id": 129,
    "itemId": 4017,
    "itemType": "EMOTION",
    "passLevel": 49,
    "rewardId": 51049
  },
  {
    "amount": 1,
    "battlePassID": 5,
    "id": 130,
    "itemId": 304005,
    "itemType": "EMBLEM_OUTLINE",
    "passLevel": 53,
    "rewardId": 51053
  },
  {
    "amount": 1,
    "battlePassID": 5,
    "id": 131,
    "itemId": 3102,
    "itemType": "BOOSTER_ERPoint_2X",
    "passLevel": 57,
    "rewardId": 51057
  },
  {
    "amount": 1,
    "battlePassID": 5,
    "id": 132,
    "itemId": 1009002,
    "itemType": "SKIN",
    "passLevel": 1,
    "rewardId": 52001
  },
  {
    "amount": 1000,
    "battlePassID": 5,
    "id": 133,
    "itemId": 1,
    "itemType": "ASSET",
    "passLevel": 2,
    "rewardId": 52002
  },
  {
    "amount": 1,
    "battlePassID": 5,
    "id": 134,
    "itemId": 2102,
    "itemType": "BOOSTER_XP_2X",
    "passLevel": 3,
    "rewardId": 52003
  },
  {
    "amount": 100,
    "battlePassID": 5,
    "id": 135,
    "itemId": 2,
    "itemType": "ASSET",
    "passLevel": 4,
    "rewardId": 52004
  },
  {
    "amount": 1,
    "battlePassID": 5,
    "id": 136,
    "itemId": 4018,
    "itemType": "EMOTION",
    "passLevel": 5,
    "rewardId": 52005
  },
  {
    "amount": 1,
    "battlePassID": 5,
    "id": 137,
    "itemId": 304006,
    "itemType": "EMBLEM_OUTLINE",
    "passLevel": 6,
    "rewardId": 52006
  },
  {
    "amount": 1,
    "battlePassID": 5,
    "id": 138,
    "itemId": 204007,
    "itemType": "EMBLEM_BG",
    "passLevel": 7,
    "rewardId": 52007
  },
  {
    "amount": 1,
    "battlePassID": 5,
    "id": 139,
    "itemId": 1404022,
    "itemType": "ANNOUNCE",
    "passLevel": 8,
    "rewardId": 52008
  },
  {
    "amount": 1,
    "battlePassID": 5,
    "id": 140,
    "itemId": 1404032,
    "itemType": "ANNOUNCE",
    "passLevel": 9,
    "rewardId": 52009
  },
  {
    "amount": 1,
    "battlePassID": 5,
    "id": 141,
    "itemId": 2604002,
    "itemType": "CAMERA",
    "passLevel": 10,
    "rewardId": 52010
  },
  {
    "amount": 1,
    "battlePassID": 5,
    "id": 142,
    "itemId": 2102,
    "itemType": "BOOSTER_XP_2X",
    "passLevel": 11,
    "rewardId": 52011
  },
  {
    "amount": 1000,
    "battlePassID": 5,
    "id": 143,
    "itemId": 1,
    "itemType": "ASSET",
    "passLevel": 12,
    "rewardId": 52012
  },
  {
    "amount": 1,
    "battlePassID": 5,
    "id": 144,
    "itemId": 1102,
    "itemType": "BOOSTER_ACOIN_2X",
    "passLevel": 13,
    "rewardId": 52013
  },
  {
    "amount": 100,
    "battlePassID": 5,
    "id": 145,
    "itemId": 2,
    "itemType": "ASSET",
    "passLevel": 14,
    "rewardId": 52014
  },
  {
    "amount": 1,
    "battlePassID": 5,
    "id": 146,
    "itemId": 204008,
    "itemType": "EMBLEM_BG",
    "passLevel": 15,
    "rewardId": 52015
  },
  {
    "amount": 1,
    "battlePassID": 5,
    "id": 147,
    "itemId": 1504011,
    "itemType": "SPRAY",
    "passLevel": 16,
    "rewardId": 52016
  },
  {
    "amount": 1,
    "battlePassID": 5,
    "id": 148,
    "itemId": 1604010,
    "itemType": "GRAVE",
    "passLevel": 17,
    "rewardId": 52017
  },
  {
    "amount": 1,
    "battlePassID": 5,
    "id": 149,
    "itemId": 1404023,
    "itemType": "ANNOUNCE",
    "passLevel": 18,
    "rewardId": 52018
  },
  {
    "amount": 1,
    "battlePassID": 5,
    "id": 150,
    "itemId": 1404033,
    "itemType": "ANNOUNCE",
    "passLevel": 19,
    "rewardId": 52019
  },
  {
    "amount": 1,
    "battlePassID": 5,
    "id": 151,
    "itemId": 2504002,
    "itemType": "DRONE",
    "passLevel": 20,
    "rewardId": 52020
  },
  {
    "amount": 1,
    "battlePassID": 5,
    "id": 152,
    "itemId": 104011,
    "itemType": "EMBLEM_MARK",
    "passLevel": 21,
    "rewardId": 52021
  },
  {
    "amount": 1000,
    "battlePassID": 5,
    "id": 153,
    "itemId": 1,
    "itemType": "ASSET",
    "passLevel": 22,
    "rewardId": 52022
  },
  {
    "amount": 1,
    "battlePassID": 5,
    "id": 154,
    "itemId": 2102,
    "itemType": "BOOSTER_XP_2X",
    "passLevel": 23,
    "rewardId": 52023
  },
  {
    "amount": 1,
    "battlePassID": 5,
    "id": 155,
    "itemId": 1404021,
    "itemType": "ANNOUNCE",
    "passLevel": 24,
    "rewardId": 52024
  },
  {
    "amount": 1,
    "battlePassID": 5,
    "id": 156,
    "itemId": 1404031,
    "itemType": "ANNOUNCE",
    "passLevel": 25,
    "rewardId": 52025
  },
  {
    "amount": 1,
    "battlePassID": 5,
    "id": 157,
    "itemId": 1102,
    "itemType": "BOOSTER_ACOIN_2X",
    "passLevel": 26,
    "rewardId": 52026
  },
  {
    "amount": 1,
    "battlePassID": 5,
    "id": 158,
    "itemId": 304007,
    "itemType": "EMBLEM_OUTLINE",
    "passLevel": 27,
    "rewardId": 52027
  },
  {
    "amount": 1,
    "battlePassID": 5,
    "id": 159,
    "itemId": 104010,
    "itemType": "EMBLEM_MARK",
    "passLevel": 28,
    "rewardId": 52028
  },
  {
    "amount": 1,
    "battlePassID": 5,
    "id": 160,
    "itemId": 1102,
    "itemType": "BOOSTER_ACOIN_2X",
    "passLevel": 29,
    "rewardId": 52029
  },
  {
    "amount": 1,
    "battlePassID": 5,
    "id": 161,
    "itemId": 2804002,
    "itemType": "KILLANNOUNCE_ICONPACK",
    "passLevel": 30,
    "rewardId": 52030
  },
  {
    "amount": 1,
    "battlePassID": 5,
    "id": 162,
    "itemId": 104013,
    "itemType": "EMBLEM_MARK",
    "passLevel": 31,
    "rewardId": 52031
  },
  {
    "amount": 1000,
    "battlePassID": 5,
    "id": 163,
    "itemId": 1,
    "itemType": "ASSET",
    "passLevel": 32,
    "rewardId": 52032
  },
  {
    "amount": 1,
    "battlePassID": 5,
    "id": 164,
    "itemId": 1012003,
    "itemType": "SKIN",
    "passLevel": 33,
    "rewardId": 52033
  },
  {
    "amount": 1,
    "battlePassID": 5,
    "id": 165,
    "itemId": 2102,
    "itemType": "BOOSTER_XP_2X",
    "passLevel": 34,
    "rewardId": 52034
  },
  {
    "amount": 1,
    "battlePassID": 5,
    "id": 166,
    "itemId": 4014,
    "itemType": "EMOTION",
    "passLevel": 35,
    "rewardId": 52035
  },
  {
    "amount": 1,
    "battlePassID": 5,
    "id": 167,
    "itemId": 1504012,
    "itemType": "SPRAY",
    "passLevel": 36,
    "rewardId": 52036
  },
  {
    "amount": 1,
    "battlePassID": 5,
    "id": 168,
    "itemId": 1604011,
    "itemType": "GRAVE",
    "passLevel": 37,
    "rewardId": 52037
  },
  {
    "amount": 100,
    "battlePassID": 5,
    "id": 169,
    "itemId": 2,
    "itemType": "ASSET",
    "passLevel": 38,
    "rewardId": 52038
  },
  {
    "amount": 1,
    "battlePassID": 5,
    "id": 170,
    "itemId": 2804003,
    "itemType": "KILLANNOUNCE_ICONPACK",
    "passLevel": 39,
    "rewardId": 52039
  },
  {
    "amount": 1,
    "battlePassID": 5,
    "id": 171,
    "itemId": 3102,
    "itemType": "BOOSTER_ERPoint_2X",
    "passLevel": 40,
    "rewardId": 52040
  },
  {
    "amount": 1,
    "battlePassID": 5,
    "id": 172,
    "itemId": 1102,
    "itemType": "BOOSTER_ACOIN_2X",
    "passLevel": 41,
    "rewardId": 52041
  },
  {
    "amount": 1000,
    "battlePassID": 5,
    "id": 173,
    "itemId": 1,
    "itemType": "ASSET",
    "passLevel": 42,
    "rewardId": 52042
  },
  {
    "amount": 100,
    "battlePassID": 5,
    "id": 174,
    "itemId": 2,
    "itemType": "ASSET",
    "passLevel": 43,
    "rewardId": 52043
  },
  {
    "amount": 1,
    "battlePassID": 5,
    "id": 175,
    "itemId": 2102,
    "itemType": "BOOSTER_XP_2X",
    "passLevel": 44,
    "rewardId": 52044
  },
  {
    "amount": 1,
    "battlePassID": 5,
    "id": 176,
    "itemId": 2604001,
    "itemType": "CAMERA",
    "passLevel": 45,
    "rewardId": 52045
  },
  {
    "amount": 1,
    "battlePassID": 5,
    "id": 177,
    "itemId": 104018,
    "itemType": "EMBLEM_MARK",
    "passLevel": 46,
    "rewardId": 52046
  },
  {
    "amount": 1,
    "battlePassID": 5,
    "id": 178,
    "itemId": 3102,
    "itemType": "BOOSTER_ERPoint_2X",
    "passLevel": 47,
    "rewardId": 52047
  },
  {
    "amount": 100,
    "battlePassID": 5,
    "id": 179,
    "itemId": 2,
    "itemType": "ASSET",
    "passLevel": 48,
    "rewardId": 52048
  },
  {
    "amount": 1,
    "battlePassID": 5,
    "id": 180,
    "itemId": 4020,
    "itemType": "EMOTION",
    "passLevel": 49,
    "rewardId": 52049
  },
  {
    "amount": 1,
    "battlePassID": 5,
    "id": 181,
    "itemId": 3102,
    "itemType": "BOOSTER_ERPoint_2X",
    "passLevel": 50,
    "rewardId": 52050
  },
  {
    "amount": 1,
    "battlePassID": 5,
    "id": 182,
    "itemId": 4019,
    "itemType": "EMOTION",
    "passLevel": 51,
    "rewardId": 52051
  },
  {
    "amount": 1000,
    "battlePassID": 5,
    "id": 183,
    "itemId": 1,
    "itemType": "ASSET",
    "passLevel": 52,
    "rewardId": 52052
  },
  {
    "amount": 100,
    "battlePassID": 5,
    "id": 184,
    "itemId": 2,
    "itemType": "ASSET",
    "passLevel": 53,
    "rewardId": 52053
  },
  {
    "amount": 1000,
    "battlePassID": 5,
    "id": 185,
    "itemId": 1,
    "itemType": "ASSET",
    "passLevel": 54,
    "rewardId": 52054
  },
  {
    "amount": 1,
    "battlePassID": 5,
    "id": 186,
    "itemId": 4015,
    "itemType": "EMOTION",
    "passLevel": 55,
    "rewardId": 52055
  },
  {
    "amount": 1,
    "battlePassID": 5,
    "id": 187,
    "itemId": 1504013,
    "itemType": "SPRAY",
    "passLevel": 56,
    "rewardId": 52056
  },
  {
    "amount": 1,
    "battlePassID": 5,
    "id": 188,
    "itemId": 1604013,
    "itemType": "GRAVE",
    "passLevel": 57,
    "rewardId": 52057
  },
  {
    "amount": 100,
    "battlePassID": 5,
    "id": 189,
    "itemId": 2,
    "itemType": "ASSET",
    "passLevel": 58,
    "rewardId": 52058
  },
  {
    "amount": 1,
    "battlePassID": 5,
    "id": 190,
    "itemId": 1504010,
    "itemType": "SPRAY",
    "passLevel": 59,
    "rewardId": 52059
  },
  {
    "amount": 1,
    "battlePassID": 5,
    "id": 191,
    "itemId": 3102,
    "itemType": "BOOSTER_ERPoint_2X",
    "passLevel": 60,
    "rewardId": 52060
  },
  {
    "amount": 1,
    "battlePassID": 5,
    "id": 192,
    "itemId": 1102,
    "itemType": "BOOSTER_ACOIN_2X",
    "passLevel": 61,
    "rewardId": 52061
  },
  {
    "amount": 1000,
    "battlePassID": 5,
    "id": 193,
    "itemId": 1,
    "itemType": "ASSET",
    "passLevel": 62,
    "rewardId": 52062
  },
  {
    "amount": 100,
    "battlePassID": 5,
    "id": 194,
    "itemId": 2,
    "itemType": "ASSET",
    "passLevel": 63,
    "rewardId": 52063
  },
  {
    "amount": 1,
    "battlePassID": 5,
    "id": 195,
    "itemId": 1604012,
    "itemType": "GRAVE",
    "passLevel": 64,
    "rewardId": 52064
  },
  {
    "amount": 1,
    "battlePassID": 5,
    "id": 196,
    "itemId": 4021,
    "itemType": "EMOTION",
    "passLevel": 65,
    "rewardId": 52065
  },
  {
    "amount": 1,
    "battlePassID": 5,
    "id": 197,
    "itemId": 1102,
    "itemType": "BOOSTER_ACOIN_2X",
    "passLevel": 66,
    "rewardId": 52066
  },
  {
    "amount": 1000,
    "battlePassID": 5,
    "id": 198,
    "itemId": 1,
    "itemType": "ASSET",
    "passLevel": 67,
    "rewardId": 52067
  },
  {
    "amount": 100,
    "battlePassID": 5,
    "id": 199,
    "itemId": 2,
    "itemType": "ASSET",
    "passLevel": 68,
    "rewardId": 52068
  },
  {
    "amount": 1,
    "battlePassID": 5,
    "id": 200,
    "itemId": 3102,
    "itemType": "BOOSTER_ERPoint_2X",
    "passLevel": 69,
    "rewardId": 52069
  },
  {
    "amount": 1,
    "battlePassID": 5,
    "id": 201,
    "itemId": 2504001,
    "itemType": "DRONE",
    "passLevel": 70,
    "rewardId": 52070
  },
  {
    "amount": 1,
    "battlePassID": 5,
    "id": 202,
    "itemId": 2102,
    "itemType": "BOOSTER_XP_2X",
    "passLevel": 71,
    "rewardId": 52071
  },
  {
    "amount": 1000,
    "battlePassID": 5,
    "id": 203,
    "itemId": 1,
    "itemType": "ASSET",
    "passLevel": 72,
    "rewardId": 52072
  },
  {
    "amount": 100,
    "battlePassID": 5,
    "id": 204,
    "itemId": 2,
    "itemType": "ASSET",
    "passLevel": 73,
    "rewardId": 52073
  },
  {
    "amount": 1,
    "battlePassID": 5,
    "id": 205,
    "itemId": 4022,
    "itemType": "EMOTION",
    "passLevel": 74,
    "rewardId": 52074
  },
  {
    "amount": 1,
    "battlePassID": 5,
    "id": 206,
    "itemId": 4016,
    "itemType": "EMOTION",
    "passLevel": 75,
    "rewardId": 52075
  },
  {
    "amount": 1,
    "battlePassID": 5,
    "id": 207,
    "itemId": 1504014,
    "itemType": "SPRAY",
    "passLevel": 76,
    "rewardId": 52076
  },
  {
    "amount": 1,
    "battlePassID": 5,
    "id": 208,
    "itemId": 1604014,
    "itemType": "GRAVE",
    "passLevel": 77,
    "rewardId": 52077
  },
  {
    "amount": 100,
    "battlePassID": 5,
    "id": 209,
    "itemId": 2,
    "itemType": "ASSET",
    "passLevel": 78,
    "rewardId": 52078
  },
  {
    "amount": 1,
    "battlePassID": 5,
    "id": 210,
    "itemId": 3102,
    "itemType": "BOOSTER_ERPoint_2X",
    "passLevel": 79,
    "rewardId": 52079
  },
  {
    "amount": 1,
    "battlePassID": 5,
    "id": 211,
    "itemId": 2804004,
    "itemType": "KILLANNOUNCE_ICONPACK",
    "passLevel": 80,
    "rewardId": 52080
  },
  {
    "amount": 1,
    "battlePassID": 5,
    "id": 212,
    "itemId": 2102,
    "itemType": "BOOSTER_XP_2X",
    "passLevel": 81,
    "rewardId": 52081
  },
  {
    "amount": 1000,
    "battlePassID": 5,
    "id": 213,
    "itemId": 1,
    "itemType": "ASSET",
    "passLevel": 82,
    "rewardId": 52082
  },
  {
    "amount": 1,
    "battlePassID": 5,
    "id": 214,
    "itemId": 104016,
    "itemType": "EMBLEM_MARK",
    "passLevel": 83,
    "rewardId": 52083
  },
  {
    "amount": 1,
    "battlePassID": 5,
    "id": 215,
    "itemId": 1102,
    "itemType": "BOOSTER_ACOIN_2X",
    "passLevel": 84,
    "rewardId": 52084
  },
  {
    "amount": 1,
    "battlePassID": 5,
    "id": 216,
    "itemId": 4012,
    "itemType": "EMOTION",
    "passLevel": 85,
    "rewardId": 52085
  },
  {
    "amount": 1,
    "battlePassID": 5,
    "id": 217,
    "itemId": 104015,
    "itemType": "EMBLEM_MARK",
    "passLevel": 86,
    "rewardId": 52086
  },
  {
    "amount": 1000,
    "battlePassID": 5,
    "id": 218,
    "itemId": 1,
    "itemType": "ASSET",
    "passLevel": 87,
    "rewardId": 52087
  },
  {
    "amount": 100,
    "battlePassID": 5,
    "id": 219,
    "itemId": 2,
    "itemType": "ASSET",
    "passLevel": 88,
    "rewardId": 52088
  },
  {
    "amount": 1,
    "battlePassID": 5,
    "id": 220,
    "itemId": 3102,
    "itemType": "BOOSTER_ERPoint_2X",
    "passLevel": 89,
    "rewardId": 52089
  },
  {
    "amount": 1,
    "battlePassID": 5,
    "id": 221,
    "itemId": 204009,
    "itemType": "EMBLEM_BG",
    "passLevel": 90,
    "rewardId": 52090
  },
  {
    "amount": 1,
    "battlePassID": 5,
    "id": 222,
    "itemId": 304008,
    "itemType": "EMBLEM_OUTLINE",
    "passLevel": 91,
    "rewardId": 52091
  },
  {
    "amount": 1,
    "battlePassID": 5,
    "id": 223,
    "itemId": 104012,
    "itemType": "EMBLEM_MARK",
    "passLevel": 92,
    "rewardId": 52092
  },
  {
    "amount": 1000,
    "battlePassID": 5,
    "id": 224,
    "itemId": 1,
    "itemType": "ASSET",
    "passLevel": 93,
    "rewardId": 52093
  },
  {
    "amount": 1,
    "battlePassID": 5,
    "id": 225,
    "itemId": 104014,
    "itemType": "EMBLEM_MARK",
    "passLevel": 94,
    "rewardId": 52094
  },
  {
    "amount": 1,
    "battlePassID": 5,
    "id": 226,
    "itemId": 4013,
    "itemType": "EMOTION",
    "passLevel": 95,
    "rewardId": 52095
  },
  {
    "amount": 1,
    "battlePassID": 5,
    "id": 227,
    "itemId": 204010,
    "itemType": "EMBLEM_BG",
    "passLevel": 96,
    "rewardId": 52096
  },
  {
    "amount": 1,
    "battlePassID": 5,
    "id": 228,
    "itemId": 304009,
    "itemType": "EMBLEM_OUTLINE",
    "passLevel": 97,
    "rewardId": 52097
  },
  {
    "amount": 100,
    "battlePassID": 5,
    "id": 229,
    "itemId": 2,
    "itemType": "ASSET",
    "passLevel": 98,
    "rewardId": 52098
  },
  {
    "amount": 1,
    "battlePassID": 5,
    "id": 230,
    "itemId": 104019,
    "itemType": "EMBLEM_MARK",
    "passLevel": 99,
    "rewardId": 52099
  },
  {
    "amount": 1,
    "battlePassID": 5,
    "id": 231,
    "itemId": 1014002,
    "itemType": "SKIN",
    "passLevel": 100,
    "rewardId": 52100
  },
  {
    "amount": 1,
    "battlePassID": 6,
    "id": 232,
    "itemId": 4028,
    "itemType": "EMOTION",
    "passLevel": 2,
    "rewardId": 61002
  },
  {
    "amount": 1000,
    "battlePassID": 6,
    "id": 233,
    "itemId": 1,
    "itemType": "ASSET",
    "passLevel": 6,
    "rewardId": 61006
  },
  {
    "amount": 1,
    "battlePassID": 6,
    "id": 234,
    "itemId": 1504015,
    "itemType": "SPRAY",
    "passLevel": 10,
    "rewardId": 61010
  },
  {
    "amount": 1,
    "battlePassID": 6,
    "id": 235,
    "itemId": 2102,
    "itemType": "BOOSTER_XP_2X",
    "passLevel": 13,
    "rewardId": 61013
  },
  {
    "amount": 1000,
    "battlePassID": 6,
    "id": 236,
    "itemId": 1,
    "itemType": "ASSET",
    "passLevel": 16,
    "rewardId": 61016
  },
  {
    "amount": 1,
    "battlePassID": 6,
    "id": 237,
    "itemId": 104023,
    "itemType": "EMBLEM_MARK",
    "passLevel": 20,
    "rewardId": 61020
  },
  {
    "amount": 1,
    "battlePassID": 6,
    "id": 238,
    "itemId": 304011,
    "itemType": "EMBLEM_OUTLINE",
    "passLevel": 24,
    "rewardId": 61024
  },
  {
    "amount": 1,
    "battlePassID": 6,
    "id": 239,
    "itemId": 1604016,
    "itemType": "GRAVE",
    "passLevel": 28,
    "rewardId": 61028
  },
  {
    "amount": 1000,
    "battlePassID": 6,
    "id": 240,
    "itemId": 1,
    "itemType": "ASSET",
    "passLevel": 31,
    "rewardId": 61031
  },
  {
    "amount": 1,
    "battlePassID": 6,
    "id": 241,
    "itemId": 3102,
    "itemType": "BOOSTER_ERPoint_2X",
    "passLevel": 35,
    "rewardId": 61035
  },
  {
    "amount": 1,
    "battlePassID": 6,
    "id": 242,
    "itemId": 2704006,
    "itemType": "LOBBY_SCREEN",
    "passLevel": 40,
    "rewardId": 61040
  },
  {
    "amount": 100,
    "battlePassID": 6,
    "id": 243,
    "itemId": 2,
    "itemType": "ASSET",
    "passLevel": 45,
    "rewardId": 61045
  },
  {
    "amount": 1,
    "battlePassID": 6,
    "id": 244,
    "itemId": 204013,
    "itemType": "EMBLEM_BG",
    "passLevel": 50,
    "rewardId": 61050
  },
  {
    "amount": 1,
    "battlePassID": 6,
    "id": 245,
    "itemId": 2102,
    "itemType": "BOOSTER_XP_2X",
    "passLevel": 54,
    "rewardId": 61054
  },
  {
    "amount": 1,
    "battlePassID": 6,
    "id": 246,
    "itemId": 4027,
    "itemType": "EMOTION",
    "passLevel": 58,
    "rewardId": 61058
  },
  {
    "amount": 1,
    "battlePassID": 6,
    "id": 247,
    "itemId": 1031004,
    "itemType": "SKIN",
    "passLevel": 1,
    "rewardId": 62001
  },
  {
    "amount": 1,
    "battlePassID": 6,
    "id": 248,
    "itemId": 3102,
    "itemType": "BOOSTER_ERPoint_2X",
    "passLevel": 2,
    "rewardId": 62002
  },
  {
    "amount": 1,
    "battlePassID": 6,
    "id": 249,
    "itemId": 4025,
    "itemType": "EMOTION",
    "passLevel": 3,
    "rewardId": 62003
  },
  {
    "amount": 1,
    "battlePassID": 6,
    "id": 250,
    "itemId": 1604015,
    "itemType": "GRAVE",
    "passLevel": 4,
    "rewardId": 62004
  },
  {
    "amount": 100,
    "battlePassID": 6,
    "id": 251,
    "itemId": 2,
    "itemType": "ASSET",
    "passLevel": 5,
    "rewardId": 62005
  },
  {
    "amount": 1,
    "battlePassID": 6,
    "id": 252,
    "itemId": 2102,
    "itemType": "BOOSTER_XP_2X",
    "passLevel": 6,
    "rewardId": 62006
  },
  {
    "amount": 1,
    "battlePassID": 6,
    "id": 253,
    "itemId": 3102,
    "itemType": "BOOSTER_ERPoint_2X",
    "passLevel": 7,
    "rewardId": 62007
  },
  {
    "amount": 100,
    "battlePassID": 6,
    "id": 254,
    "itemId": 2,
    "itemType": "ASSET",
    "passLevel": 8,
    "rewardId": 62008
  },
  {
    "amount": 1,
    "battlePassID": 6,
    "id": 255,
    "itemId": 104020,
    "itemType": "EMBLEM_MARK",
    "passLevel": 9,
    "rewardId": 62009
  },
  {
    "amount": 1,
    "battlePassID": 6,
    "id": 256,
    "itemId": 304010,
    "itemType": "EMBLEM_OUTLINE",
    "passLevel": 10,
    "rewardId": 62010
  },
  {
    "amount": 1,
    "battlePassID": 6,
    "id": 257,
    "itemId": 2604003,
    "itemType": "CAMERA",
    "passLevel": 11,
    "rewardId": 62011
  },
  {
    "amount": 1,
    "battlePassID": 6,
    "id": 258,
    "itemId": 4029,
    "itemType": "EMOTION",
    "passLevel": 12,
    "rewardId": 62012
  },
  {
    "amount": 1,
    "battlePassID": 6,
    "id": 259,
    "itemId": 204011,
    "itemType": "EMBLEM_BG",
    "passLevel": 13,
    "rewardId": 62013
  },
  {
    "amount": 100,
    "battlePassID": 6,
    "id": 260,
    "itemId": 2,
    "itemType": "ASSET",
    "passLevel": 14,
    "rewardId": 62014
  },
  {
    "amount": 1,
    "battlePassID": 6,
    "id": 261,
    "itemId": 104022,
    "itemType": "EMBLEM_MARK",
    "passLevel": 15,
    "rewardId": 62015
  },
  {
    "amount": 1,
    "battlePassID": 6,
    "id": 262,
    "itemId": 1102,
    "itemType": "BOOSTER_ACOIN_2X",
    "passLevel": 16,
    "rewardId": 62016
  },
  {
    "amount": 1,
    "battlePassID": 6,
    "id": 263,
    "itemId": 1404042,
    "itemType": "ANNOUNCE",
    "passLevel": 17,
    "rewardId": 62017
  },
  {
    "amount": 1,
    "battlePassID": 6,
    "id": 264,
    "itemId": 1404041,
    "itemType": "ANNOUNCE",
    "passLevel": 18,
    "rewardId": 62018
  },
  {
    "amount": 1,
    "battlePassID": 6,
    "id": 265,
    "itemId": 1404043,
    "itemType": "ANNOUNCE",
    "passLevel": 19,
    "rewardId": 62019
  },
  {
    "amount": 1,
    "battlePassID": 6,
    "id": 266,
    "itemId": 2804006,
    "itemType": "KILLANNOUNCE_ICONPACK",
    "passLevel": 20,
    "rewardId": 62020
  },
  {
    "amount": 1,
    "battlePassID": 6,
    "id": 267,
    "itemId": 2504003,
    "itemType": "DRONE",
    "passLevel": 21,
    "rewardId": 62021
  },
  {
    "amount": 100,
    "battlePassID": 6,
    "id": 268,
    "itemId": 2,
    "itemType": "ASSET",
    "passLevel": 22,
    "rewardId": 62022
  },
  {
    "amount": 1,
    "battlePassID": 6,
    "id": 269,
    "itemId": 1504016,
    "itemType": "SPRAY",
    "passLevel": 23,
    "rewardId": 62023
  },
  {
    "amount": 1000,
    "battlePassID": 6,
    "id": 270,
    "itemId": 1,
    "itemType": "ASSET",
    "passLevel": 24,
    "rewardId": 62024
  },
  {
    "amount": 1,
    "battlePassID": 6,
    "id": 271,
    "itemId": 3102,
    "itemType": "BOOSTER_ERPoint_2X",
    "passLevel": 25,
    "rewardId": 62025
  },
  {
    "amount": 1,
    "battlePassID": 6,
    "id": 272,
    "itemId": 1102,
    "itemType": "BOOSTER_ACOIN_2X",
    "passLevel": 26,
    "rewardId": 62026
  },
  {
    "amount": 1,
    "battlePassID": 6,
    "id": 273,
    "itemId": 4026,
    "itemType": "EMOTION",
    "passLevel": 27,
    "rewardId": 62027
  },
  {
    "amount": 1,
    "battlePassID": 6,
    "id": 274,
    "itemId": 1404052,
    "itemType": "ANNOUNCE",
    "passLevel": 28,
    "rewardId": 62028
  },
  {
    "amount": 1,
    "battlePassID": 6,
    "id": 275,
    "itemId": 1404051,
    "itemType": "ANNOUNCE",
    "passLevel": 29,
    "rewardId": 62029
  },
  {
    "amount": 1,
    "battlePassID": 6,
    "id": 276,
    "itemId": 1404053,
    "itemType": "ANNOUNCE",
    "passLevel": 30,
    "rewardId": 62030
  },
  {
    "amount": 1,
    "battlePassID": 6,
    "id": 277,
    "itemId": 4030,
    "itemType": "EMOTION",
    "passLevel": 31,
    "rewardId": 62031
  },
  {
    "amount": 1,
    "battlePassID": 6,
    "id": 278,
    "itemId": 3102,
    "itemType": "BOOSTER_ERPoint_2X",
    "passLevel": 32,
    "rewardId": 62032
  },
  {
    "amount": 100,
    "battlePassID": 6,
    "id": 279,
    "itemId": 2,
    "itemType": "ASSET",
    "passLevel": 33,
    "rewardId": 62033
  },
  {
    "amount": 1,
    "battlePassID": 6,
    "id": 280,
    "itemId": 1029002,
    "itemType": "SKIN",
    "passLevel": 34,
    "rewardId": 62034
  },
  {
    "amount": 1,
    "battlePassID": 6,
    "id": 281,
    "itemId": 1504017,
    "itemType": "SPRAY",
    "passLevel": 35,
    "rewardId": 62035
  },
  {
    "amount": 1,
    "battlePassID": 6,
    "id": 282,
    "itemId": 2804007,
    "itemType": "KILLANNOUNCE_ICONPACK",
    "passLevel": 36,
    "rewardId": 62036
  },
  {
    "amount": 1,
    "battlePassID": 6,
    "id": 283,
    "itemId": 1102,
    "itemType": "BOOSTER_ACOIN_2X",
    "passLevel": 37,
    "rewardId": 62037
  },
  {
    "amount": 1,
    "battlePassID": 6,
    "id": 284,
    "itemId": 2102,
    "itemType": "BOOSTER_XP_2X",
    "passLevel": 38,
    "rewardId": 62038
  },
  {
    "amount": 1,
    "battlePassID": 6,
    "id": 285,
    "itemId": 304012,
    "itemType": "EMBLEM_OUTLINE",
    "passLevel": 39,
    "rewardId": 62039
  },
  {
    "amount": 1,
    "battlePassID": 6,
    "id": 286,
    "itemId": 3102,
    "itemType": "BOOSTER_ERPoint_2X",
    "passLevel": 40,
    "rewardId": 62040
  },
  {
    "amount": 100,
    "battlePassID": 6,
    "id": 287,
    "itemId": 2,
    "itemType": "ASSET",
    "passLevel": 41,
    "rewardId": 62041
  },
  {
    "amount": 1,
    "battlePassID": 6,
    "id": 288,
    "itemId": 204012,
    "itemType": "EMBLEM_BG",
    "passLevel": 42,
    "rewardId": 62042
  },
  {
    "amount": 1000,
    "battlePassID": 6,
    "id": 289,
    "itemId": 1,
    "itemType": "ASSET",
    "passLevel": 43,
    "rewardId": 62043
  },
  {
    "amount": 1,
    "battlePassID": 6,
    "id": 290,
    "itemId": 4031,
    "itemType": "EMOTION",
    "passLevel": 44,
    "rewardId": 62044
  },
  {
    "amount": 1000,
    "battlePassID": 6,
    "id": 291,
    "itemId": 1,
    "itemType": "ASSET",
    "passLevel": 45,
    "rewardId": 62045
  },
  {
    "amount": 1,
    "battlePassID": 6,
    "id": 292,
    "itemId": 1102,
    "itemType": "BOOSTER_ACOIN_2X",
    "passLevel": 46,
    "rewardId": 62046
  },
  {
    "amount": 100,
    "battlePassID": 6,
    "id": 293,
    "itemId": 2,
    "itemType": "ASSET",
    "passLevel": 47,
    "rewardId": 62047
  },
  {
    "amount": 1,
    "battlePassID": 6,
    "id": 294,
    "itemId": 104021,
    "itemType": "EMBLEM_MARK",
    "passLevel": 48,
    "rewardId": 62048
  },
  {
    "amount": 1,
    "battlePassID": 6,
    "id": 295,
    "itemId": 1504018,
    "itemType": "SPRAY",
    "passLevel": 49,
    "rewardId": 62049
  },
  {
    "amount": 1,
    "battlePassID": 6,
    "id": 296,
    "itemId": 3102,
    "itemType": "BOOSTER_ERPoint_2X",
    "passLevel": 50,
    "rewardId": 62050
  },
  {
    "amount": 1,
    "battlePassID": 6,
    "id": 297,
    "itemId": 4032,
    "itemType": "EMOTION",
    "passLevel": 51,
    "rewardId": 62051
  },
  {
    "amount": 1000,
    "battlePassID": 6,
    "id": 298,
    "itemId": 1,
    "itemType": "ASSET",
    "passLevel": 52,
    "rewardId": 62052
  },
  {
    "amount": 1,
    "battlePassID": 6,
    "id": 299,
    "itemId": 2102,
    "itemType": "BOOSTER_XP_2X",
    "passLevel": 53,
    "rewardId": 62053
  },
  {
    "amount": 1,
    "battlePassID": 6,
    "id": 300,
    "itemId": 1102,
    "itemType": "BOOSTER_ACOIN_2X",
    "passLevel": 54,
    "rewardId": 62054
  },
  {
    "amount": 1,
    "battlePassID": 6,
    "id": 301,
    "itemId": 1604017,
    "itemType": "GRAVE",
    "passLevel": 55,
    "rewardId": 62055
  },
  {
    "amount": 1000,
    "battlePassID": 6,
    "id": 302,
    "itemId": 1,
    "itemType": "ASSET",
    "passLevel": 56,
    "rewardId": 62056
  },
  {
    "amount": 100,
    "battlePassID": 6,
    "id": 303,
    "itemId": 2,
    "itemType": "ASSET",
    "passLevel": 57,
    "rewardId": 62057
  },
  {
    "amount": 1,
    "battlePassID": 6,
    "id": 304,
    "itemId": 1604018,
    "itemType": "GRAVE",
    "passLevel": 58,
    "rewardId": 62058
  },
  {
    "amount": 1,
    "battlePassID": 6,
    "id": 305,
    "itemId": 2504004,
    "itemType": "DRONE",
    "passLevel": 59,
    "rewardId": 62059
  },
  {
    "amount": 1000,
    "battlePassID": 6,
    "id": 306,
    "itemId": 1,
    "itemType": "ASSET",
    "passLevel": 60,
    "rewardId": 62060
  },
  {
    "amount": 1,
    "battlePassID": 6,
    "id": 307,
    "itemId": 4023,
    "itemType": "EMOTION",
    "passLevel": 61,
    "rewardId": 62061
  },
  {
    "amount": 1,
    "battlePassID": 6,
    "id": 308,
    "itemId": 2804005,
    "itemType": "KILLANNOUNCE_ICONPACK",
    "passLevel": 62,
    "rewardId": 62062
  },
  {
    "amount": 1,
    "battlePassID": 6,
    "id": 309,
    "itemId": 304013,
    "itemType": "EMBLEM_OUTLINE",
    "passLevel": 63,
    "rewardId": 62063
  },
  {
    "amount": 1,
    "battlePassID": 6,
    "id": 310,
    "itemId": 2102,
    "itemType": "BOOSTER_XP_2X",
    "passLevel": 64,
    "rewardId": 62064
  },
  {
    "amount": 1,
    "battlePassID": 6,
    "id": 311,
    "itemId": 104024,
    "itemType": "EMBLEM_MARK",
    "passLevel": 65,
    "rewardId": 62065
  },
  {
    "amount": 100,
    "battlePassID": 6,
    "id": 312,
    "itemId": 2,
    "itemType": "ASSET",
    "passLevel": 66,
    "rewardId": 62066
  },
  {
    "amount": 1,
    "battlePassID": 6,
    "id": 313,
    "itemId": 3102,
    "itemType": "BOOSTER_ERPoint_2X",
    "passLevel": 67,
    "rewardId": 62067
  },
  {
    "amount": 1000,
    "battlePassID": 6,
    "id": 314,
    "itemId": 1,
    "itemType": "ASSET",
    "passLevel": 68,
    "rewardId": 62068
  },
  {
    "amount": 1,
    "battlePassID": 6,
    "id": 315,
    "itemId": 104025,
    "itemType": "EMBLEM_MARK",
    "passLevel": 69,
    "rewardId": 62069
  },
  {
    "amount": 1,
    "battlePassID": 6,
    "id": 316,
    "itemId": 1102,
    "itemType": "BOOSTER_ACOIN_2X",
    "passLevel": 70,
    "rewardId": 62070
  },
  {
    "amount": 100,
    "battlePassID": 6,
    "id": 317,
    "itemId": 2,
    "itemType": "ASSET",
    "passLevel": 71,
    "rewardId": 62071
  },
  {
    "amount": 1,
    "battlePassID": 6,
    "id": 318,
    "itemId": 2102,
    "itemType": "BOOSTER_XP_2X",
    "passLevel": 72,
    "rewardId": 62072
  },
  {
    "amount": 1,
    "battlePassID": 6,
    "id": 319,
    "itemId": 104026,
    "itemType": "EMBLEM_MARK",
    "passLevel": 73,
    "rewardId": 62073
  },
  {
    "amount": 1,
    "battlePassID": 6,
    "id": 320,
    "itemId": 1604019,
    "itemType": "GRAVE",
    "passLevel": 74,
    "rewardId": 62074
  },
  {
    "amount": 100,
    "battlePassID": 6,
    "id": 321,
    "itemId": 2,
    "itemType": "ASSET",
    "passLevel": 75,
    "rewardId": 62075
  },
  {
    "amount": 1000,
    "battlePassID": 6,
    "id": 322,
    "itemId": 1,
    "itemType": "ASSET",
    "passLevel": 76,
    "rewardId": 62076
  },
  {
    "amount": 1,
    "battlePassID": 6,
    "id": 323,
    "itemId": 4033,
    "itemType": "EMOTION",
    "passLevel": 77,
    "rewardId": 62077
  },
  {
    "amount": 1000,
    "battlePassID": 6,
    "id": 324,
    "itemId": 1,
    "itemType": "ASSET",
    "passLevel": 78,
    "rewardId": 62078
  },
  {
    "amount": 1,
    "battlePassID": 6,
    "id": 325,
    "itemId": 204014,
    "itemType": "EMBLEM_BG",
    "passLevel": 79,
    "rewardId": 62079
  },
  {
    "amount": 1,
    "battlePassID": 6,
    "id": 326,
    "itemId": 1504019,
    "itemType": "SPRAY",
    "passLevel": 80,
    "rewardId": 62080
  },
  {
    "amount": 1,
    "battlePassID": 6,
    "id": 327,
    "itemId": 3102,
    "itemType": "BOOSTER_ERPoint_2X",
    "passLevel": 81,
    "rewardId": 62081
  },
  {
    "amount": 100,
    "battlePassID": 6,
    "id": 328,
    "itemId": 2,
    "itemType": "ASSET",
    "passLevel": 82,
    "rewardId": 62082
  },
  {
    "amount": 1,
    "battlePassID": 6,
    "id": 329,
    "itemId": 1102,
    "itemType": "BOOSTER_ACOIN_2X",
    "passLevel": 83,
    "rewardId": 62083
  },
  {
    "amount": 1,
    "battlePassID": 6,
    "id": 330,
    "itemId": 104027,
    "itemType": "EMBLEM_MARK",
    "passLevel": 84,
    "rewardId": 62084
  },
  {
    "amount": 1000,
    "battlePassID": 6,
    "id": 331,
    "itemId": 1,
    "itemType": "ASSET",
    "passLevel": 85,
    "rewardId": 62085
  },
  {
    "amount": 1,
    "battlePassID": 6,
    "id": 332,
    "itemId": 4034,
    "itemType": "EMOTION",
    "passLevel": 86,
    "rewardId": 62086
  },
  {
    "amount": 1,
    "battlePassID": 6,
    "id": 333,
    "itemId": 2604004,
    "itemType": "CAMERA",
    "passLevel": 87,
    "rewardId": 62087
  },
  {
    "amount": 1000,
    "battlePassID": 6,
    "id": 334,
    "itemId": 1,
    "itemType": "ASSET",
    "passLevel": 88,
    "rewardId": 62088
  },
  {
    "amount": 1,
    "battlePassID": 6,
    "id": 335,
    "itemId": 2102,
    "itemType": "BOOSTER_XP_2X",
    "passLevel": 89,
    "rewardId": 62089
  },
  {
    "amount": 1,
    "battlePassID": 6,
    "id": 336,
    "itemId": 2804008,
    "itemType": "KILLANNOUNCE_ICONPACK",
    "passLevel": 90,
    "rewardId": 62090
  },
  {
    "amount": 1,
    "battlePassID": 6,
    "id": 337,
    "itemId": 204015,
    "itemType": "EMBLEM_BG",
    "passLevel": 91,
    "rewardId": 62091
  },
  {
    "amount": 100,
    "battlePassID": 6,
    "id": 338,
    "itemId": 2,
    "itemType": "ASSET",
    "passLevel": 92,
    "rewardId": 62092
  },
  {
    "amount": 1,
    "battlePassID": 6,
    "id": 339,
    "itemId": 1504020,
    "itemType": "SPRAY",
    "passLevel": 93,
    "rewardId": 62093
  },
  {
    "amount": 1,
    "battlePassID": 6,
    "id": 340,
    "itemId": 304014,
    "itemType": "EMBLEM_OUTLINE",
    "passLevel": 94,
    "rewardId": 62094
  },
  {
    "amount": 1,
    "battlePassID": 6,
    "id": 341,
    "itemId": 1102,
    "itemType": "BOOSTER_ACOIN_2X",
    "passLevel": 95,
    "rewardId": 62095
  },
  {
    "amount": 1,
    "battlePassID": 6,
    "id": 342,
    "itemId": 104028,
    "itemType": "EMBLEM_MARK",
    "passLevel": 96,
    "rewardId": 62096
  },
  {
    "amount": 1000,
    "battlePassID": 6,
    "id": 343,
    "itemId": 1,
    "itemType": "ASSET",
    "passLevel": 97,
    "rewardId": 62097
  },
  {
    "amount": 1,
    "battlePassID": 6,
    "id": 344,
    "itemId": 1604020,
    "itemType": "GRAVE",
    "passLevel": 98,
    "rewardId": 62098
  },
  {
    "amount": 1,
    "battlePassID": 6,
    "id": 345,
    "itemId": 4024,
    "itemType": "EMOTION",
    "passLevel": 99,
    "rewardId": 62099
  },
  {
    "amount": 1,
    "battlePassID": 6,
    "id": 346,
    "itemId": 1028003,
    "itemType": "SKIN",
    "passLevel": 100,
    "rewardId": 62100
  },
  {
    "amount": 1,
    "battlePassID": 7,
    "id": 347,
    "itemId": 3102,
    "itemType": "BOOSTER_ERPoint_2X",
    "passLevel": 2,
    "rewardId": 71002
  },
  {
    "amount": 1000,
    "battlePassID": 7,
    "id": 348,
    "itemId": 1,
    "itemType": "ASSET",
    "passLevel": 4,
    "rewardId": 71004
  },
  {
    "amount": 1,
    "battlePassID": 7,
    "id": 349,
    "itemId": 1504021,
    "itemType": "SPRAY",
    "passLevel": 6,
    "rewardId": 71006
  },
  {
    "amount": 100,
    "battlePassID": 7,
    "id": 350,
    "itemId": 2,
    "itemType": "ASSET",
    "passLevel": 9,
    "rewardId": 71009
  },
  {
    "amount": 1,
    "battlePassID": 7,
    "id": 351,
    "itemId": 3102,
    "itemType": "BOOSTER_ERPoint_2X",
    "passLevel": 12,
    "rewardId": 71012
  },
  {
    "amount": 1,
    "battlePassID": 7,
    "id": 352,
    "itemId": 104029,
    "itemType": "EMBLEM_MARK",
    "passLevel": 16,
    "rewardId": 71016
  },
  {
    "amount": 1,
    "battlePassID": 7,
    "id": 353,
    "itemId": 1102,
    "itemType": "BOOSTER_ACOIN_2X",
    "passLevel": 20,
    "rewardId": 71020
  },
  {
    "amount": 1,
    "battlePassID": 7,
    "id": 354,
    "itemId": 204016,
    "itemType": "EMBLEM_BG",
    "passLevel": 23,
    "rewardId": 71023
  },
  {
    "amount": 1000,
    "battlePassID": 7,
    "id": 355,
    "itemId": 1,
    "itemType": "ASSET",
    "passLevel": 26,
    "rewardId": 71026
  },
  {
    "amount": 1,
    "battlePassID": 7,
    "id": 356,
    "itemId": 1604021,
    "itemType": "GRAVE",
    "passLevel": 29,
    "rewardId": 71029
  },
  {
    "amount": 1,
    "battlePassID": 7,
    "id": 357,
    "itemId": 2102,
    "itemType": "BOOSTER_XP_2X",
    "passLevel": 33,
    "rewardId": 71033
  },
  {
    "amount": 1,
    "battlePassID": 7,
    "id": 358,
    "itemId": 4040,
    "itemType": "EMOTION",
    "passLevel": 37,
    "rewardId": 71037
  },
  {
    "amount": 1000,
    "battlePassID": 7,
    "id": 359,
    "itemId": 1,
    "itemType": "ASSET",
    "passLevel": 41,
    "rewardId": 71041
  },
  {
    "amount": 1,
    "battlePassID": 7,
    "id": 360,
    "itemId": 304015,
    "itemType": "EMBLEM_OUTLINE",
    "passLevel": 45,
    "rewardId": 71045
  },
  {
    "amount": 1,
    "battlePassID": 7,
    "id": 361,
    "itemId": 2704007,
    "itemType": "LOBBY_SCREEN",
    "passLevel": 50,
    "rewardId": 71050
  },
  {
    "amount": 1,
    "battlePassID": 7,
    "id": 362,
    "itemId": 1020004,
    "itemType": "SKIN",
    "passLevel": 1,
    "rewardId": 72001
  },
  {
    "amount": 1,
    "battlePassID": 7,
    "id": 363,
    "itemId": 2102,
    "itemType": "BOOSTER_XP_2X",
    "passLevel": 2,
    "rewardId": 72002
  },
  {
    "amount": 100,
    "battlePassID": 7,
    "id": 364,
    "itemId": 2,
    "itemType": "ASSET",
    "passLevel": 3,
    "rewardId": 72003
  },
  {
    "amount": 1,
    "battlePassID": 7,
    "id": 365,
    "itemId": 2102,
    "itemType": "BOOSTER_XP_2X",
    "passLevel": 4,
    "rewardId": 72004
  },
  {
    "amount": 1,
    "battlePassID": 7,
    "id": 366,
    "itemId": 104030,
    "itemType": "EMBLEM_MARK",
    "passLevel": 5,
    "rewardId": 72005
  },
  {
    "amount": 1,
    "battlePassID": 7,
    "id": 367,
    "itemId": 4041,
    "itemType": "EMOTION",
    "passLevel": 6,
    "rewardId": 72006
  },
  {
    "amount": 1,
    "battlePassID": 7,
    "id": 368,
    "itemId": 3102,
    "itemType": "BOOSTER_ERPoint_2X",
    "passLevel": 7,
    "rewardId": 72007
  },
  {
    "amount": 1000,
    "battlePassID": 7,
    "id": 369,
    "itemId": 1,
    "itemType": "ASSET",
    "passLevel": 8,
    "rewardId": 72008
  },
  {
    "amount": 1,
    "battlePassID": 7,
    "id": 370,
    "itemId": 2804009,
    "itemType": "KILLANNOUNCE_ICONPACK",
    "passLevel": 9,
    "rewardId": 72009
  },
  {
    "amount": 1,
    "battlePassID": 7,
    "id": 371,
    "itemId": 1604022,
    "itemType": "GRAVE",
    "passLevel": 10,
    "rewardId": 72010
  },
  {
    "amount": 100,
    "battlePassID": 7,
    "id": 372,
    "itemId": 2,
    "itemType": "ASSET",
    "passLevel": 11,
    "rewardId": 72011
  },
  {
    "amount": 1,
    "battlePassID": 7,
    "id": 373,
    "itemId": 2102,
    "itemType": "BOOSTER_XP_2X",
    "passLevel": 12,
    "rewardId": 72012
  },
  {
    "amount": 1,
    "battlePassID": 7,
    "id": 374,
    "itemId": 4042,
    "itemType": "EMOTION",
    "passLevel": 13,
    "rewardId": 72013
  },
  {
    "amount": 1000,
    "battlePassID": 7,
    "id": 375,
    "itemId": 1,
    "itemType": "ASSET",
    "passLevel": 14,
    "rewardId": 72014
  },
  {
    "amount": 1,
    "battlePassID": 7,
    "id": 376,
    "itemId": 1504022,
    "itemType": "SPRAY",
    "passLevel": 15,
    "rewardId": 72015
  },
  {
    "amount": 1,
    "battlePassID": 7,
    "id": 377,
    "itemId": 1102,
    "itemType": "BOOSTER_ACOIN_2X",
    "passLevel": 16,
    "rewardId": 72016
  },
  {
    "amount": 100,
    "battlePassID": 7,
    "id": 378,
    "itemId": 2,
    "itemType": "ASSET",
    "passLevel": 17,
    "rewardId": 72017
  },
  {
    "amount": 1,
    "battlePassID": 7,
    "id": 379,
    "itemId": 3102,
    "itemType": "BOOSTER_ERPoint_2X",
    "passLevel": 18,
    "rewardId": 72018
  },
  {
    "amount": 1000,
    "battlePassID": 7,
    "id": 380,
    "itemId": 1,
    "itemType": "ASSET",
    "passLevel": 19,
    "rewardId": 72019
  },
  {
    "amount": 1,
    "battlePassID": 7,
    "id": 381,
    "itemId": 104031,
    "itemType": "EMBLEM_MARK",
    "passLevel": 20,
    "rewardId": 72020
  },
  {
    "amount": 1,
    "battlePassID": 7,
    "id": 382,
    "itemId": 4043,
    "itemType": "EMOTION",
    "passLevel": 21,
    "rewardId": 72021
  },
  {
    "amount": 1,
    "battlePassID": 7,
    "id": 383,
    "itemId": 2804010,
    "itemType": "KILLANNOUNCE_ICONPACK",
    "passLevel": 22,
    "rewardId": 72022
  },
  {
    "amount": 1,
    "battlePassID": 7,
    "id": 384,
    "itemId": 2102,
    "itemType": "BOOSTER_XP_2X",
    "passLevel": 23,
    "rewardId": 72023
  },
  {
    "amount": 100,
    "battlePassID": 7,
    "id": 385,
    "itemId": 2,
    "itemType": "ASSET",
    "passLevel": 24,
    "rewardId": 72024
  },
  {
    "amount": 1,
    "battlePassID": 7,
    "id": 386,
    "itemId": 1604023,
    "itemType": "GRAVE",
    "passLevel": 25,
    "rewardId": 72025
  },
  {
    "amount": 1,
    "battlePassID": 7,
    "id": 387,
    "itemId": 4044,
    "itemType": "EMOTION",
    "passLevel": 26,
    "rewardId": 72026
  },
  {
    "amount": 1,
    "battlePassID": 7,
    "id": 388,
    "itemId": 3102,
    "itemType": "BOOSTER_ERPoint_2X",
    "passLevel": 27,
    "rewardId": 72027
  },
  {
    "amount": 1,
    "battlePassID": 7,
    "id": 389,
    "itemId": 1404061,
    "itemType": "ANNOUNCE",
    "passLevel": 28,
    "rewardId": 72028
  },
  {
    "amount": 1,
    "battlePassID": 7,
    "id": 390,
    "itemId": 1404062,
    "itemType": "ANNOUNCE",
    "passLevel": 29,
    "rewardId": 72029
  },
  {
    "amount": 1,
    "battlePassID": 7,
    "id": 391,
    "itemId": 1404063,
    "itemType": "ANNOUNCE",
    "passLevel": 30,
    "rewardId": 72030
  },
  {
    "amount": 1000,
    "battlePassID": 7,
    "id": 392,
    "itemId": 1,
    "itemType": "ASSET",
    "passLevel": 31,
    "rewardId": 72031
  },
  {
    "amount": 1,
    "battlePassID": 7,
    "id": 393,
    "itemId": 1102,
    "itemType": "BOOSTER_ACOIN_2X",
    "passLevel": 32,
    "rewardId": 72032
  },
  {
    "amount": 1,
    "battlePassID": 7,
    "id": 394,
    "itemId": 2102,
    "itemType": "BOOSTER_XP_2X",
    "passLevel": 33,
    "rewardId": 72033
  },
  {
    "amount": 1,
    "battlePassID": 7,
    "id": 395,
    "itemId": 2604005,
    "itemType": "CAMERA",
    "passLevel": 34,
    "rewardId": 72034
  },
  {
    "amount": 1,
    "battlePassID": 7,
    "id": 396,
    "itemId": 104032,
    "itemType": "EMBLEM_MARK",
    "passLevel": 35,
    "rewardId": 72035
  },
  {
    "amount": 1,
    "battlePassID": 7,
    "id": 397,
    "itemId": 3102,
    "itemType": "BOOSTER_ERPoint_2X",
    "passLevel": 36,
    "rewardId": 72036
  },
  {
    "amount": 1,
    "battlePassID": 7,
    "id": 398,
    "itemId": 204017,
    "itemType": "EMBLEM_BG",
    "passLevel": 37,
    "rewardId": 72037
  },
  {
    "amount": 1,
    "battlePassID": 7,
    "id": 399,
    "itemId": 304016,
    "itemType": "EMBLEM_OUTLINE",
    "passLevel": 38,
    "rewardId": 72038
  },
  {
    "amount": 100,
    "battlePassID": 7,
    "id": 400,
    "itemId": 2,
    "itemType": "ASSET",
    "passLevel": 39,
    "rewardId": 72039
  },
  {
    "amount": 1,
    "battlePassID": 7,
    "id": 401,
    "itemId": 2504005,
    "itemType": "DRONE",
    "passLevel": 40,
    "rewardId": 72040
  },
  {
    "amount": 1000,
    "battlePassID": 7,
    "id": 402,
    "itemId": 1,
    "itemType": "ASSET",
    "passLevel": 41,
    "rewardId": 72041
  },
  {
    "amount": 1,
    "battlePassID": 7,
    "id": 403,
    "itemId": 4045,
    "itemType": "EMOTION",
    "passLevel": 42,
    "rewardId": 72042
  },
  {
    "amount": 1,
    "battlePassID": 7,
    "id": 404,
    "itemId": 1102,
    "itemType": "BOOSTER_ACOIN_2X",
    "passLevel": 43,
    "rewardId": 72043
  },
  {
    "amount": 1,
    "battlePassID": 7,
    "id": 405,
    "itemId": 1504023,
    "itemType": "SPRAY",
    "passLevel": 44,
    "rewardId": 72044
  },
  {
    "amount": 100,
    "battlePassID": 7,
    "id": 406,
    "itemId": 2,
    "itemType": "ASSET",
    "passLevel": 45,
    "rewardId": 72045
  },
  {
    "amount": 1000,
    "battlePassID": 7,
    "id": 407,
    "itemId": 1,
    "itemType": "ASSET",
    "passLevel": 46,
    "rewardId": 72046
  },
  {
    "amount": 1,
    "battlePassID": 7,
    "id": 408,
    "itemId": 2102,
    "itemType": "BOOSTER_XP_2X",
    "passLevel": 47,
    "rewardId": 72047
  },
  {
    "amount": 1,
    "battlePassID": 7,
    "id": 409,
    "itemId": 4046,
    "itemType": "EMOTION",
    "passLevel": 48,
    "rewardId": 72048
  },
  {
    "amount": 1,
    "battlePassID": 7,
    "id": 410,
    "itemId": 104033,
    "itemType": "EMBLEM_MARK",
    "passLevel": 49,
    "rewardId": 72049
  },
  {
    "amount": 1,
    "battlePassID": 7,
    "id": 411,
    "itemId": 1005002,
    "itemType": "SKIN",
    "passLevel": 50,
    "rewardId": 72050
  },
  {
    "amount": 1,
    "battlePassID": 7,
    "id": 412,
    "itemId": 3102,
    "itemType": "BOOSTER_ERPoint_2X",
    "passLevel": 51,
    "rewardId": 72051
  },
  {
    "amount": 1,
    "battlePassID": 7,
    "id": 413,
    "itemId": 2804011,
    "itemType": "KILLANNOUNCE_ICONPACK",
    "passLevel": 52,
    "rewardId": 72052
  },
  {
    "amount": 1,
    "battlePassID": 7,
    "id": 414,
    "itemId": 4037,
    "itemType": "EMOTION",
    "passLevel": 53,
    "rewardId": 72053
  },
  {
    "amount": 1000,
    "battlePassID": 7,
    "id": 415,
    "itemId": 1,
    "itemType": "ASSET",
    "passLevel": 54,
    "rewardId": 72054
  },
  {
    "amount": 1,
    "battlePassID": 7,
    "id": 416,
    "itemId": 1604024,
    "itemType": "GRAVE",
    "passLevel": 55,
    "rewardId": 72055
  },
  {
    "amount": 1,
    "battlePassID": 7,
    "id": 417,
    "itemId": 1102,
    "itemType": "BOOSTER_ACOIN_2X",
    "passLevel": 56,
    "rewardId": 72056
  },
  {
    "amount": 100,
    "battlePassID": 7,
    "id": 418,
    "itemId": 2,
    "itemType": "ASSET",
    "passLevel": 57,
    "rewardId": 72057
  },
  {
    "amount": 1,
    "battlePassID": 7,
    "id": 419,
    "itemId": 3102,
    "itemType": "BOOSTER_ERPoint_2X",
    "passLevel": 58,
    "rewardId": 72058
  },
  {
    "amount": 1,
    "battlePassID": 7,
    "id": 420,
    "itemId": 4038,
    "itemType": "EMOTION",
    "passLevel": 59,
    "rewardId": 72059
  },
  {
    "amount": 1,
    "battlePassID": 7,
    "id": 421,
    "itemId": 204018,
    "itemType": "EMBLEM_BG",
    "passLevel": 60,
    "rewardId": 72060
  },
  {
    "amount": 1,
    "battlePassID": 7,
    "id": 422,
    "itemId": 304017,
    "itemType": "EMBLEM_OUTLINE",
    "passLevel": 61,
    "rewardId": 72061
  },
  {
    "amount": 1000,
    "battlePassID": 7,
    "id": 423,
    "itemId": 1,
    "itemType": "ASSET",
    "passLevel": 62,
    "rewardId": 72062
  },
  {
    "amount": 1,
    "battlePassID": 7,
    "id": 424,
    "itemId": 1504024,
    "itemType": "SPRAY",
    "passLevel": 63,
    "rewardId": 72063
  },
  {
    "amount": 100,
    "battlePassID": 7,
    "id": 425,
    "itemId": 2,
    "itemType": "ASSET",
    "passLevel": 64,
    "rewardId": 72064
  },
  {
    "amount": 1,
    "battlePassID": 7,
    "id": 426,
    "itemId": 104034,
    "itemType": "EMBLEM_MARK",
    "passLevel": 65,
    "rewardId": 72065
  },
  {
    "amount": 1,
    "battlePassID": 7,
    "id": 427,
    "itemId": 4039,
    "itemType": "EMOTION",
    "passLevel": 66,
    "rewardId": 72066
  },
  {
    "amount": 1,
    "battlePassID": 7,
    "id": 428,
    "itemId": 1604025,
    "itemType": "GRAVE",
    "passLevel": 67,
    "rewardId": 72067
  },
  {
    "amount": 1,
    "battlePassID": 7,
    "id": 429,
    "itemId": 1404071,
    "itemType": "ANNOUNCE",
    "passLevel": 68,
    "rewardId": 72068
  },
  {
    "amount": 1,
    "battlePassID": 7,
    "id": 430,
    "itemId": 1404072,
    "itemType": "ANNOUNCE",
    "passLevel": 69,
    "rewardId": 72069
  },
  {
    "amount": 1,
    "battlePassID": 7,
    "id": 431,
    "itemId": 1404073,
    "itemType": "ANNOUNCE",
    "passLevel": 70,
    "rewardId": 72070
  },
  {
    "amount": 1,
    "battlePassID": 7,
    "id": 432,
    "itemId": 1102,
    "itemType": "BOOSTER_ACOIN_2X",
    "passLevel": 71,
    "rewardId": 72071
  },
  {
    "amount": 100,
    "battlePassID": 7,
    "id": 433,
    "itemId": 2,
    "itemType": "ASSET",
    "passLevel": 72,
    "rewardId": 72072
  },
  {
    "amount": 1,
    "battlePassID": 7,
    "id": 434,
    "itemId": 2804012,
    "itemType": "KILLANNOUNCE_ICONPACK",
    "passLevel": 73,
    "rewardId": 72073
  },
  {
    "amount": 1,
    "battlePassID": 7,
    "id": 435,
    "itemId": 4036,
    "itemType": "EMOTION",
    "passLevel": 74,
    "rewardId": 72074
  },
  {
    "amount": 1000,
    "battlePassID": 7,
    "id": 436,
    "itemId": 1,
    "itemType": "ASSET",
    "passLevel": 75,
    "rewardId": 72075
  },
  {
    "amount": 1,
    "battlePassID": 7,
    "id": 437,
    "itemId": 104035,
    "itemType": "EMBLEM_MARK",
    "passLevel": 76,
    "rewardId": 72076
  },
  {
    "amount": 1,
    "battlePassID": 7,
    "id": 438,
    "itemId": 3102,
    "itemType": "BOOSTER_ERPoint_2X",
    "passLevel": 77,
    "rewardId": 72077
  },
  {
    "amount": 1,
    "battlePassID": 7,
    "id": 439,
    "itemId": 1504025,
    "itemType": "SPRAY",
    "passLevel": 78,
    "rewardId": 72078
  },
  {
    "amount": 100,
    "battlePassID": 7,
    "id": 440,
    "itemId": 2,
    "itemType": "ASSET",
    "passLevel": 79,
    "rewardId": 72079
  },
  {
    "amount": 1,
    "battlePassID": 7,
    "id": 441,
    "itemId": 1604026,
    "itemType": "GRAVE",
    "passLevel": 80,
    "rewardId": 72080
  },
  {
    "amount": 1,
    "battlePassID": 7,
    "id": 442,
    "itemId": 2102,
    "itemType": "BOOSTER_XP_2X",
    "passLevel": 81,
    "rewardId": 72081
  },
  {
    "amount": 1000,
    "battlePassID": 7,
    "id": 443,
    "itemId": 1,
    "itemType": "ASSET",
    "passLevel": 82,
    "rewardId": 72082
  },
  {
    "amount": 1,
    "battlePassID": 7,
    "id": 444,
    "itemId": 204019,
    "itemType": "EMBLEM_BG",
    "passLevel": 83,
    "rewardId": 72083
  },
  {
    "amount": 1,
    "battlePassID": 7,
    "id": 445,
    "itemId": 304018,
    "itemType": "EMBLEM_OUTLINE",
    "passLevel": 84,
    "rewardId": 72084
  },
  {
    "amount": 1,
    "battlePassID": 7,
    "id": 446,
    "itemId": 1102,
    "itemType": "BOOSTER_ACOIN_2X",
    "passLevel": 85,
    "rewardId": 72085
  },
  {
    "amount": 100,
    "battlePassID": 7,
    "id": 447,
    "itemId": 2,
    "itemType": "ASSET",
    "passLevel": 86,
    "rewardId": 72086
  },
  {
    "amount": 1,
    "battlePassID": 7,
    "id": 448,
    "itemId": 2604006,
    "itemType": "CAMERA",
    "passLevel": 87,
    "rewardId": 72087
  },
  {
    "amount": 1000,
    "battlePassID": 7,
    "id": 449,
    "itemId": 1,
    "itemType": "ASSET",
    "passLevel": 88,
    "rewardId": 72088
  },
  {
    "amount": 1,
    "battlePassID": 7,
    "id": 450,
    "itemId": 4035,
    "itemType": "EMOTION",
    "passLevel": 89,
    "rewardId": 72089
  },
  {
    "amount": 1,
    "battlePassID": 7,
    "id": 451,
    "itemId": 104036,
    "itemType": "EMBLEM_MARK",
    "passLevel": 90,
    "rewardId": 72090
  },
  {
    "amount": 1,
    "battlePassID": 7,
    "id": 452,
    "itemId": 2504006,
    "itemType": "DRONE",
    "passLevel": 91,
    "rewardId": 72091
  },
  {
    "amount": 1,
    "battlePassID": 7,
    "id": 453,
    "itemId": 1504026,
    "itemType": "SPRAY",
    "passLevel": 92,
    "rewardId": 72092
  },
  {
    "amount": 100,
    "battlePassID": 7,
    "id": 454,
    "itemId": 2,
    "itemType": "ASSET",
    "passLevel": 93,
    "rewardId": 72093
  },
  {
    "amount": 1,
    "battlePassID": 7,
    "id": 455,
    "itemId": 3102,
    "itemType": "BOOSTER_ERPoint_2X",
    "passLevel": 94,
    "rewardId": 72094
  },
  {
    "amount": 1,
    "battlePassID": 7,
    "id": 456,
    "itemId": 204020,
    "itemType": "EMBLEM_BG",
    "passLevel": 95,
    "rewardId": 72095
  },
  {
    "amount": 1,
    "battlePassID": 7,
    "id": 457,
    "itemId": 304019,
    "itemType": "EMBLEM_OUTLINE",
    "passLevel": 96,
    "rewardId": 72096
  },
  {
    "amount": 1,
    "battlePassID": 7,
    "id": 458,
    "itemId": 104037,
    "itemType": "EMBLEM_MARK",
    "passLevel": 97,
    "rewardId": 72097
  },
  {
    "amount": 100,
    "battlePassID": 7,
    "id": 459,
    "itemId": 2,
    "itemType": "ASSET",
    "passLevel": 98,
    "rewardId": 72098
  },
  {
    "amount": 1,
    "battlePassID": 7,
    "id": 460,
    "itemId": 1102,
    "itemType": "BOOSTER_ACOIN_2X",
    "passLevel": 99,
    "rewardId": 72099
  },
  {
    "amount": 1,
    "battlePassID": 7,
    "id": 461,
    "itemId": 1023002,
    "itemType": "SKIN",
    "passLevel": 100,
    "rewardId": 72100
  },
  {
    "amount": 1,
    "battlePassID": 8,
    "id": 462,
    "itemId": 3102,
    "itemType": "BOOSTER_ERPoint_2X",
    "passLevel": 2,
    "rewardId": 81002
  },
  {
    "amount": 100,
    "battlePassID": 8,
    "id": 463,
    "itemId": 2,
    "itemType": "ASSET",
    "passLevel": 4,
    "rewardId": 81004
  },
  {
    "amount": 1,
    "battlePassID": 8,
    "id": 464,
    "itemId": 1504027,
    "itemType": "SPRAY",
    "passLevel": 6,
    "rewardId": 81006
  },
  {
    "amount": 1000,
    "battlePassID": 8,
    "id": 465,
    "itemId": 1,
    "itemType": "ASSET",
    "passLevel": 9,
    "rewardId": 81009
  },
  {
    "amount": 1,
    "battlePassID": 8,
    "id": 466,
    "itemId": 104040,
    "itemType": "EMBLEM_MARK",
    "passLevel": 12,
    "rewardId": 81012
  },
  {
    "amount": 1,
    "battlePassID": 8,
    "id": 467,
    "itemId": 3102,
    "itemType": "BOOSTER_ERPoint_2X",
    "passLevel": 16,
    "rewardId": 81016
  },
  {
    "amount": 1000,
    "battlePassID": 8,
    "id": 468,
    "itemId": 1,
    "itemType": "ASSET",
    "passLevel": 19,
    "rewardId": 81019
  },
  {
    "amount": 1,
    "battlePassID": 8,
    "id": 469,
    "itemId": 4058,
    "itemType": "EMOTION",
    "passLevel": 22,
    "rewardId": 81022
  },
  {
    "amount": 1,
    "battlePassID": 8,
    "id": 470,
    "itemId": 1102,
    "itemType": "BOOSTER_ACOIN_2X",
    "passLevel": 25,
    "rewardId": 81025
  },
  {
    "amount": 1,
    "battlePassID": 8,
    "id": 471,
    "itemId": 204021,
    "itemType": "EMBLEM_BG",
    "passLevel": 28,
    "rewardId": 81028
  },
  {
    "amount": 1,
    "battlePassID": 8,
    "id": 472,
    "itemId": 2102,
    "itemType": "BOOSTER_XP_2X",
    "passLevel": 32,
    "rewardId": 81032
  },
  {
    "amount": 1,
    "battlePassID": 8,
    "id": 473,
    "itemId": 1604029,
    "itemType": "GRAVE",
    "passLevel": 36,
    "rewardId": 81036
  },
  {
    "amount": 1000,
    "battlePassID": 8,
    "id": 474,
    "itemId": 1,
    "itemType": "ASSET",
    "passLevel": 41,
    "rewardId": 81041
  },
  {
    "amount": 1,
    "battlePassID": 8,
    "id": 475,
    "itemId": 304021,
    "itemType": "EMBLEM_OUTLINE",
    "passLevel": 45,
    "rewardId": 81045
  },
  {
    "amount": 1,
    "battlePassID": 8,
    "id": 476,
    "itemId": 2704008,
    "itemType": "LOBBY_SCREEN",
    "passLevel": 50,
    "rewardId": 81050
  },
  {
    "amount": 1,
    "battlePassID": 8,
    "id": 477,
    "itemId": 1010004,
    "itemType": "SKIN",
    "passLevel": 1,
    "rewardId": 82001
  },
  {
    "amount": 1,
    "battlePassID": 8,
    "id": 478,
    "itemId": 2102,
    "itemType": "BOOSTER_XP_2X",
    "passLevel": 2,
    "rewardId": 82002
  },
  {
    "amount": 1000,
    "battlePassID": 8,
    "id": 479,
    "itemId": 1,
    "itemType": "ASSET",
    "passLevel": 3,
    "rewardId": 82003
  },
  {
    "amount": 1,
    "battlePassID": 8,
    "id": 480,
    "itemId": 104038,
    "itemType": "EMBLEM_MARK",
    "passLevel": 4,
    "rewardId": 82004
  },
  {
    "amount": 100,
    "battlePassID": 8,
    "id": 481,
    "itemId": 2,
    "itemType": "ASSET",
    "passLevel": 5,
    "rewardId": 82005
  },
  {
    "amount": 1,
    "battlePassID": 8,
    "id": 482,
    "itemId": 2102,
    "itemType": "BOOSTER_XP_2X",
    "passLevel": 6,
    "rewardId": 82006
  },
  {
    "amount": 1,
    "battlePassID": 8,
    "id": 483,
    "itemId": 4057,
    "itemType": "EMOTION",
    "passLevel": 7,
    "rewardId": 82007
  },
  {
    "amount": 1,
    "battlePassID": 8,
    "id": 484,
    "itemId": 1604028,
    "itemType": "GRAVE",
    "passLevel": 8,
    "rewardId": 82008
  },
  {
    "amount": 1,
    "battlePassID": 8,
    "id": 485,
    "itemId": 3102,
    "itemType": "BOOSTER_ERPoint_2X",
    "passLevel": 9,
    "rewardId": 82009
  },
  {
    "amount": 1,
    "battlePassID": 8,
    "id": 486,
    "itemId": 2804016,
    "itemType": "KILLANNOUNCE_ICONPACK",
    "passLevel": 10,
    "rewardId": 82010
  },
  {
    "amount": 100,
    "battlePassID": 8,
    "id": 487,
    "itemId": 2,
    "itemType": "ASSET",
    "passLevel": 11,
    "rewardId": 82011
  },
  {
    "amount": 1,
    "battlePassID": 8,
    "id": 488,
    "itemId": 4056,
    "itemType": "EMOTION",
    "passLevel": 12,
    "rewardId": 82012
  },
  {
    "amount": 1,
    "battlePassID": 8,
    "id": 489,
    "itemId": 1504028,
    "itemType": "SPRAY",
    "passLevel": 13,
    "rewardId": 82013
  },
  {
    "amount": 1,
    "battlePassID": 8,
    "id": 490,
    "itemId": 1102,
    "itemType": "BOOSTER_ACOIN_2X",
    "passLevel": 14,
    "rewardId": 82014
  },
  {
    "amount": 1,
    "battlePassID": 8,
    "id": 491,
    "itemId": 4055,
    "itemType": "EMOTION",
    "passLevel": 15,
    "rewardId": 82015
  },
  {
    "amount": 100,
    "battlePassID": 8,
    "id": 492,
    "itemId": 2,
    "itemType": "ASSET",
    "passLevel": 16,
    "rewardId": 82016
  },
  {
    "amount": 1000,
    "battlePassID": 8,
    "id": 493,
    "itemId": 1,
    "itemType": "ASSET",
    "passLevel": 17,
    "rewardId": 82017
  },
  {
    "amount": 1,
    "battlePassID": 8,
    "id": 494,
    "itemId": 3102,
    "itemType": "BOOSTER_ERPoint_2X",
    "passLevel": 18,
    "rewardId": 82018
  },
  {
    "amount": 1,
    "battlePassID": 8,
    "id": 495,
    "itemId": 104039,
    "itemType": "EMBLEM_MARK",
    "passLevel": 19,
    "rewardId": 82019
  },
  {
    "amount": 1000,
    "battlePassID": 8,
    "id": 496,
    "itemId": 1,
    "itemType": "ASSET",
    "passLevel": 20,
    "rewardId": 82020
  },
  {
    "amount": 1,
    "battlePassID": 8,
    "id": 497,
    "itemId": 2102,
    "itemType": "BOOSTER_XP_2X",
    "passLevel": 21,
    "rewardId": 82021
  },
  {
    "amount": 1,
    "battlePassID": 8,
    "id": 498,
    "itemId": 2804013,
    "itemType": "KILLANNOUNCE_ICONPACK",
    "passLevel": 22,
    "rewardId": 82022
  },
  {
    "amount": 1,
    "battlePassID": 8,
    "id": 499,
    "itemId": 104043,
    "itemType": "EMBLEM_MARK",
    "passLevel": 23,
    "rewardId": 82023
  },
  {
    "amount": 100,
    "battlePassID": 8,
    "id": 500,
    "itemId": 2,
    "itemType": "ASSET",
    "passLevel": 24,
    "rewardId": 82024
  },
  {
    "amount": 1,
    "battlePassID": 8,
    "id": 501,
    "itemId": 1404081,
    "itemType": "ANNOUNCE",
    "passLevel": 25,
    "rewardId": 82025
  },
  {
    "amount": 1,
    "battlePassID": 8,
    "id": 502,
    "itemId": 1404082,
    "itemType": "ANNOUNCE",
    "passLevel": 26,
    "rewardId": 82026
  },
  {
    "amount": 1,
    "battlePassID": 8,
    "id": 503,
    "itemId": 1404083,
    "itemType": "ANNOUNCE",
    "passLevel": 27,
    "rewardId": 82027
  },
  {
    "amount": 1,
    "battlePassID": 8,
    "id": 504,
    "itemId": 1102,
    "itemType": "BOOSTER_ACOIN_2X",
    "passLevel": 28,
    "rewardId": 82028
  },
  {
    "amount": 1,
    "battlePassID": 8,
    "id": 505,
    "itemId": 1604027,
    "itemType": "GRAVE",
    "passLevel": 29,
    "rewardId": 82029
  },
  {
    "amount": 1,
    "battlePassID": 8,
    "id": 506,
    "itemId": 2102,
    "itemType": "BOOSTER_XP_2X",
    "passLevel": 30,
    "rewardId": 82030
  },
  {
    "amount": 1,
    "battlePassID": 8,
    "id": 507,
    "itemId": 2604007,
    "itemType": "CAMERA",
    "passLevel": 31,
    "rewardId": 82031
  },
  {
    "amount": 1,
    "battlePassID": 8,
    "id": 508,
    "itemId": 3102,
    "itemType": "BOOSTER_ERPoint_2X",
    "passLevel": 32,
    "rewardId": 82032
  },
  {
    "amount": 1,
    "battlePassID": 8,
    "id": 509,
    "itemId": 4054,
    "itemType": "EMOTION",
    "passLevel": 33,
    "rewardId": 82033
  },
  {
    "amount": 1,
    "battlePassID": 8,
    "id": 510,
    "itemId": 1102,
    "itemType": "BOOSTER_ACOIN_2X",
    "passLevel": 34,
    "rewardId": 82034
  },
  {
    "amount": 1,
    "battlePassID": 8,
    "id": 511,
    "itemId": 304020,
    "itemType": "EMBLEM_OUTLINE",
    "passLevel": 35,
    "rewardId": 82035
  },
  {
    "amount": 100,
    "battlePassID": 8,
    "id": 512,
    "itemId": 2,
    "itemType": "ASSET",
    "passLevel": 36,
    "rewardId": 82036
  },
  {
    "amount": 1,
    "battlePassID": 8,
    "id": 513,
    "itemId": 3102,
    "itemType": "BOOSTER_ERPoint_2X",
    "passLevel": 37,
    "rewardId": 82037
  },
  {
    "amount": 1,
    "battlePassID": 8,
    "id": 514,
    "itemId": 204022,
    "itemType": "EMBLEM_BG",
    "passLevel": 38,
    "rewardId": 82038
  },
  {
    "amount": 1000,
    "battlePassID": 8,
    "id": 515,
    "itemId": 1,
    "itemType": "ASSET",
    "passLevel": 39,
    "rewardId": 82039
  },
  {
    "amount": 1,
    "battlePassID": 8,
    "id": 516,
    "itemId": 104045,
    "itemType": "EMBLEM_MARK",
    "passLevel": 40,
    "rewardId": 82040
  },
  {
    "amount": 1,
    "battlePassID": 8,
    "id": 517,
    "itemId": 2102,
    "itemType": "BOOSTER_XP_2X",
    "passLevel": 41,
    "rewardId": 82041
  },
  {
    "amount": 1,
    "battlePassID": 8,
    "id": 518,
    "itemId": 4053,
    "itemType": "EMOTION",
    "passLevel": 42,
    "rewardId": 82042
  },
  {
    "amount": 100,
    "battlePassID": 8,
    "id": 519,
    "itemId": 2,
    "itemType": "ASSET",
    "passLevel": 43,
    "rewardId": 82043
  },
  {
    "amount": 1,
    "battlePassID": 8,
    "id": 520,
    "itemId": 1504031,
    "itemType": "SPRAY",
    "passLevel": 44,
    "rewardId": 82044
  },
  {
    "amount": 1000,
    "battlePassID": 8,
    "id": 521,
    "itemId": 1,
    "itemType": "ASSET",
    "passLevel": 45,
    "rewardId": 82045
  },
  {
    "amount": 1,
    "battlePassID": 8,
    "id": 522,
    "itemId": 4052,
    "itemType": "EMOTION",
    "passLevel": 46,
    "rewardId": 82046
  },
  {
    "amount": 1,
    "battlePassID": 8,
    "id": 523,
    "itemId": 3102,
    "itemType": "BOOSTER_ERPoint_2X",
    "passLevel": 47,
    "rewardId": 82047
  },
  {
    "amount": 1,
    "battlePassID": 8,
    "id": 524,
    "itemId": 2504007,
    "itemType": "DRONE",
    "passLevel": 48,
    "rewardId": 82048
  },
  {
    "amount": 100,
    "battlePassID": 8,
    "id": 525,
    "itemId": 2,
    "itemType": "ASSET",
    "passLevel": 49,
    "rewardId": 82049
  },
  {
    "amount": 1,
    "battlePassID": 8,
    "id": 526,
    "itemId": 1011004,
    "itemType": "SKIN",
    "passLevel": 50,
    "rewardId": 82050
  },
  {
    "amount": 1000,
    "battlePassID": 8,
    "id": 527,
    "itemId": 1,
    "itemType": "ASSET",
    "passLevel": 51,
    "rewardId": 82051
  },
  {
    "amount": 1,
    "battlePassID": 8,
    "id": 528,
    "itemId": 3102,
    "itemType": "BOOSTER_ERPoint_2X",
    "passLevel": 52,
    "rewardId": 82052
  },
  {
    "amount": 1,
    "battlePassID": 8,
    "id": 529,
    "itemId": 2804014,
    "itemType": "KILLANNOUNCE_ICONPACK",
    "passLevel": 53,
    "rewardId": 82053
  },
  {
    "amount": 1,
    "battlePassID": 8,
    "id": 530,
    "itemId": 1102,
    "itemType": "BOOSTER_ACOIN_2X",
    "passLevel": 54,
    "rewardId": 82054
  },
  {
    "amount": 1,
    "battlePassID": 8,
    "id": 531,
    "itemId": 4051,
    "itemType": "EMOTION",
    "passLevel": 55,
    "rewardId": 82055
  },
  {
    "amount": 100,
    "battlePassID": 8,
    "id": 532,
    "itemId": 2,
    "itemType": "ASSET",
    "passLevel": 56,
    "rewardId": 82056
  },
  {
    "amount": 1,
    "battlePassID": 8,
    "id": 533,
    "itemId": 1604030,
    "itemType": "GRAVE",
    "passLevel": 57,
    "rewardId": 82057
  },
  {
    "amount": 1000,
    "battlePassID": 8,
    "id": 534,
    "itemId": 1,
    "itemType": "ASSET",
    "passLevel": 58,
    "rewardId": 82058
  },
  {
    "amount": 1,
    "battlePassID": 8,
    "id": 535,
    "itemId": 3102,
    "itemType": "BOOSTER_ERPoint_2X",
    "passLevel": 59,
    "rewardId": 82059
  },
  {
    "amount": 1,
    "battlePassID": 8,
    "id": 536,
    "itemId": 204023,
    "itemType": "EMBLEM_BG",
    "passLevel": 60,
    "rewardId": 82060
  },
  {
    "amount": 1,
    "battlePassID": 8,
    "id": 537,
    "itemId": 304022,
    "itemType": "EMBLEM_OUTLINE",
    "passLevel": 61,
    "rewardId": 82061
  },
  {
    "amount": 1,
    "battlePassID": 8,
    "id": 538,
    "itemId": 1102,
    "itemType": "BOOSTER_ACOIN_2X",
    "passLevel": 62,
    "rewardId": 82062
  },
  {
    "amount": 1,
    "battlePassID": 8,
    "id": 539,
    "itemId": 4050,
    "itemType": "EMOTION",
    "passLevel": 63,
    "rewardId": 82063
  },
  {
    "amount": 100,
    "battlePassID": 8,
    "id": 540,
    "itemId": 2,
    "itemType": "ASSET",
    "passLevel": 64,
    "rewardId": 82064
  },
  {
    "amount": 1,
    "battlePassID": 8,
    "id": 541,
    "itemId": 104042,
    "itemType": "EMBLEM_MARK",
    "passLevel": 65,
    "rewardId": 82065
  },
  {
    "amount": 1000,
    "battlePassID": 8,
    "id": 542,
    "itemId": 1,
    "itemType": "ASSET",
    "passLevel": 66,
    "rewardId": 82066
  },
  {
    "amount": 1,
    "battlePassID": 8,
    "id": 543,
    "itemId": 4049,
    "itemType": "EMOTION",
    "passLevel": 67,
    "rewardId": 82067
  },
  {
    "amount": 1,
    "battlePassID": 8,
    "id": 544,
    "itemId": 1604031,
    "itemType": "GRAVE",
    "passLevel": 68,
    "rewardId": 82068
  },
  {
    "amount": 1,
    "battlePassID": 8,
    "id": 545,
    "itemId": 1102,
    "itemType": "BOOSTER_ACOIN_2X",
    "passLevel": 69,
    "rewardId": 82069
  },
  {
    "amount": 1,
    "battlePassID": 8,
    "id": 546,
    "itemId": 1504032,
    "itemType": "SPRAY",
    "passLevel": 70,
    "rewardId": 82070
  },
  {
    "amount": 1000,
    "battlePassID": 8,
    "id": 547,
    "itemId": 1,
    "itemType": "ASSET",
    "passLevel": 71,
    "rewardId": 82071
  },
  {
    "amount": 1,
    "battlePassID": 8,
    "id": 548,
    "itemId": 1404091,
    "itemType": "ANNOUNCE",
    "passLevel": 72,
    "rewardId": 82072
  },
  {
    "amount": 1,
    "battlePassID": 8,
    "id": 549,
    "itemId": 1404092,
    "itemType": "ANNOUNCE",
    "passLevel": 73,
    "rewardId": 82073
  },
  {
    "amount": 1,
    "battlePassID": 8,
    "id": 550,
    "itemId": 1404093,
    "itemType": "ANNOUNCE",
    "passLevel": 74,
    "rewardId": 82074
  },
  {
    "amount": 1,
    "battlePassID": 8,
    "id": 551,
    "itemId": 3102,
    "itemType": "BOOSTER_ERPoint_2X",
    "passLevel": 75,
    "rewardId": 82075
  },
  {
    "amount": 1,
    "battlePassID": 8,
    "id": 552,
    "itemId": 2804015,
    "itemType": "KILLANNOUNCE_ICONPACK",
    "passLevel": 76,
    "rewardId": 82076
  },
  {
    "amount": 1,
    "battlePassID": 8,
    "id": 553,
    "itemId": 4048,
    "itemType": "EMOTION",
    "passLevel": 77,
    "rewardId": 82077
  },
  {
    "amount": 100,
    "battlePassID": 8,
    "id": 554,
    "itemId": 2,
    "itemType": "ASSET",
    "passLevel": 78,
    "rewardId": 82078
  },
  {
    "amount": 1,
    "battlePassID": 8,
    "id": 555,
    "itemId": 104046,
    "itemType": "EMBLEM_MARK",
    "passLevel": 79,
    "rewardId": 82079
  },
  {
    "amount": 1000,
    "battlePassID": 8,
    "id": 556,
    "itemId": 1,
    "itemType": "ASSET",
    "passLevel": 80,
    "rewardId": 82080
  },
  {
    "amount": 1,
    "battlePassID": 8,
    "id": 557,
    "itemId": 1504029,
    "itemType": "SPRAY",
    "passLevel": 81,
    "rewardId": 82081
  },
  {
    "amount": 1,
    "battlePassID": 8,
    "id": 558,
    "itemId": 3102,
    "itemType": "BOOSTER_ERPoint_2X",
    "passLevel": 82,
    "rewardId": 82082
  },
  {
    "amount": 1,
    "battlePassID": 8,
    "id": 559,
    "itemId": 1604032,
    "itemType": "GRAVE",
    "passLevel": 83,
    "rewardId": 82083
  },
  {
    "amount": 1,
    "battlePassID": 8,
    "id": 560,
    "itemId": 1102,
    "itemType": "BOOSTER_ACOIN_2X",
    "passLevel": 84,
    "rewardId": 82084
  },
  {
    "amount": 1,
    "battlePassID": 8,
    "id": 561,
    "itemId": 204024,
    "itemType": "EMBLEM_BG",
    "passLevel": 85,
    "rewardId": 82085
  },
  {
    "amount": 1,
    "battlePassID": 8,
    "id": 562,
    "itemId": 304023,
    "itemType": "EMBLEM_OUTLINE",
    "passLevel": 86,
    "rewardId": 82086
  },
  {
    "amount": 1,
    "battlePassID": 8,
    "id": 563,
    "itemId": 104041,
    "itemType": "EMBLEM_MARK",
    "passLevel": 87,
    "rewardId": 82087
  },
  {
    "amount": 1,
    "battlePassID": 8,
    "id": 564,
    "itemId": 2604008,
    "itemType": "CAMERA",
    "passLevel": 88,
    "rewardId": 82088
  },
  {
    "amount": 100,
    "battlePassID": 8,
    "id": 565,
    "itemId": 2,
    "itemType": "ASSET",
    "passLevel": 89,
    "rewardId": 82089
  },
  {
    "amount": 1,
    "battlePassID": 8,
    "id": 566,
    "itemId": 1504030,
    "itemType": "SPRAY",
    "passLevel": 90,
    "rewardId": 82090
  },
  {
    "amount": 1,
    "battlePassID": 8,
    "id": 567,
    "itemId": 204025,
    "itemType": "EMBLEM_BG",
    "passLevel": 91,
    "rewardId": 82091
  },
  {
    "amount": 1,
    "battlePassID": 8,
    "id": 568,
    "itemId": 304024,
    "itemType": "EMBLEM_OUTLINE",
    "passLevel": 92,
    "rewardId": 82092
  },
  {
    "amount": 100,
    "battlePassID": 8,
    "id": 569,
    "itemId": 2,
    "itemType": "ASSET",
    "passLevel": 93,
    "rewardId": 82093
  },
  {
    "amount": 1,
    "battlePassID": 8,
    "id": 570,
    "itemId": 4047,
    "itemType": "EMOTION",
    "passLevel": 94,
    "rewardId": 82094
  },
  {
    "amount": 1,
    "battlePassID": 8,
    "id": 571,
    "itemId": 1102,
    "itemType": "BOOSTER_ACOIN_2X",
    "passLevel": 95,
    "rewardId": 82095
  },
  {
    "amount": 1,
    "battlePassID": 8,
    "id": 572,
    "itemId": 104044,
    "itemType": "EMBLEM_MARK",
    "passLevel": 96,
    "rewardId": 82096
  },
  {
    "amount": 1,
    "battlePassID": 8,
    "id": 573,
    "itemId": 3102,
    "itemType": "BOOSTER_ERPoint_2X",
    "passLevel": 97,
    "rewardId": 82097
  },
  {
    "amount": 1,
    "battlePassID": 8,
    "id": 574,
    "itemId": 2504008,
    "itemType": "DRONE",
    "passLevel": 98,
    "rewardId": 82098
  },
  {
    "amount": 100,
    "battlePassID": 8,
    "id": 575,
    "itemId": 2,
    "itemType": "ASSET",
    "passLevel": 99,
    "rewardId": 82099
  },
  {
    "amount": 1,
    "battlePassID": 8,
    "id": 576,
    "itemId": 1007005,
    "itemType": "SKIN",
    "passLevel": 100,
    "rewardId": 82100
  }
]