[
  {
    "code": 1,
    "day": 1,
    "dayNight": "Day",
    "mode": 1,
    "reservedCount": 3
  },
  {
    "code": 2,
    "day": 2,
    "dayNight": "Day",
    "mode": 1,
    "reservedCount": 2
  },
  {
    "code": 3,
    "day": 3,
    "dayNight": "Day",
    "mode": 1,
    "reservedCount": 1
  },
  {
    "code": 4,
    "day": 1,
    "dayNight": "Day",
    "mode": 2,
    "reservedCount": 3
  },
  {
    "code": 5,
    "day": 2,
    "dayNight": "Day",
    "mode": 2,
    "reservedCount": 2
  },
  {
    "code": 6,
    "day": 3,
    "dayNight": "Day",
    "mode": 2,
    "reservedCount": 1
  },
  {
    "code": 7,
    "day": 1,
    "dayNight": "Day",
    "mode": 4,
    "reservedCount": 3
  },
  {
    "code": 8,
    "day": 2,
    "dayNight": "Day",
    "mode": 4,
    "reservedCount": 2
  },
  {
    "code": 9,
    "day": 3,
    "dayNight": "Day",
    "mode": 4,
    "reservedCount": 1
  }
]