[
  {
    "characterCode": 0,
    "easy": "Active1",
    "hard": "Active1",
    "normal": "Active1",
    "pvp": "Active1"
  },
  {
    "characterCode": 0,
    "easy": "Active2",
    "hard": "Active2",
    "normal": "Active2",
    "pvp": "Active2"
  },
  {
    "characterCode": 0,
    "easy": "Active3",
    "hard": "Active3",
    "normal": "Active3",
    "pvp": "Active3"
  },
  {
    "characterCode": 0,
    "easy": "Active1",
    "hard": "Active1",
    "normal": "Active1",
    "pvp": "Active1"
  },
  {
    "characterCode": 0,
    "easy": "Active2",
    "hard": "Active2",
    "normal": "Active2",
    "pvp": "Active2"
  },
  {
    "characterCode": 0,
    "easy": "Active4",
    "hard": "Active4",
    "normal": "Active4",
    "pvp": "Active4"
  },
  {
    "characterCode": 0,
    "easy": "Active3",
    "hard": "Active3",
    "normal": "Active3",
    "pvp": "Active3"
  },
  {
    "characterCode": 0,
    "easy": "Active1",
    "hard": "Active1",
    "normal": "Active1",
    "pvp": "Active1"
  },
  {
    "characterCode": 0,
    "easy": "Active2",
    "hard": "Active2",
    "normal": "Active2",
    "pvp": "Active2"
  },
  {
    "characterCode": 0,
    "easy": "Active3",
    "hard": "Active3",
    "normal": "Active3",
    "pvp": "Active3"
  },
  {
    "characterCode": 0,
    "easy": "Active1",
    "hard": "Active1",
    "normal": "Active1",
    "pvp": "Active1"
  },
  {
    "characterCode": 0,
    "easy": "Active4",
    "hard": "Active4",
    "normal": "Active4",
    "pvp": "Active4"
  },
  {
    "characterCode": 0,
    "easy": "Active2",
    "hard": "Active2",
    "normal": "Active2",
    "pvp": "Active2"
  },
  {
    "characterCode": 0,
    "easy": "Active3",
    "hard": "Active3",
    "normal": "Active3",
    "pvp": "Active3"
  },
  {
    "characterCode": 0,
    "easy": "Active1",
    "hard": "Active1",
    "normal": "Active1",
    "pvp": "Active1"
  },
  {
    "characterCode": 0,
    "easy": "Active2",
    "hard": "Active2",
    "normal": "Active2",
    "pvp": "Active2"
  },
  {
    "characterCode": 0,
    "easy": "Active3",
    "hard": "Active3",
    "normal": "Active3",
    "pvp": "Active3"
  },
  {
    "characterCode": 0,
    "easy": "Active4",
    "hard": "Active4",
    "normal": "Active4",
    "pvp": "Active4"
  },
  {
    "characterCode": 0,
    "easy": "Passive",
    "hard": "Passive",
    "normal": "Passive",
    "pvp": "Passive"
  },
  {
    "characterCode": 0,
    "easy": "Passive",
    "hard": "Passive",
    "normal": "Passive",
    "pvp": "Passive"
  }
]