[
  {
    "capacity": 6,
    "count": 6,
    "initCount": 0,
    "itemCode": 116101,
    "loadType": "Reload",
    "time": 2
  },
  {
    "capacity": 6,
    "count": 6,
    "initCount": 0,
    "itemCode": 116201,
    "loadType": "Reload",
    "time": 2
  },
  {
    "capacity": 6,
    "count": 6,
    "initCount": 0,
    "itemCode": 116202,
    "loadType": "Reload",
    "time": 2
  },
  {
    "capacity": 6,
    "count": 6,
    "initCount": 0,
    "itemCode": 116301,
    "loadType": "Reload",
    "time": 2
  },
  {
    "capacity": 6,
    "count": 6,
    "initCount": 0,
    "itemCode": 116401,
    "loadType": "Reload",
    "time": 2
  },
  {
    "capacity": 6,
    "count": 6,
    "initCount": 0,
    "itemCode": 116402,
    "loadType": "Reload",
    "time": 2
  },
  {
    "capacity": 2,
    "count": 2,
    "initCount": 0,
    "itemCode": 116408,
    "loadType": "Reload",
    "time": 2
  },
  {
    "capacity": 3,
    "count": 3,
    "initCount": 0,
    "itemCode": 116403,
    "loadType": "Reload",
    "time": 2
  },
  {
    "capacity": 14,
    "count": 14,
    "initCount": 0,
    "itemCode": 116404,
    "loadType": "Reload",
    "time": 2
  },
  {
    "capacity": 15,
    "count": 15,
    "initCount": 0,
    "itemCode": 116405,
    "loadType": "Reload",
    "time": 2
  },
  {
    "capacity": 14,
    "count": 14,
    "initCount": 0,
    "itemCode": 116406,
    "loadType": "Reload",
    "time": 2
  },
  {
    "capacity": 14,
    "count": 14,
    "initCount": 0,
    "itemCode": 116407,
    "loadType": "Reload",
    "time": 2
  },
  {
    "capacity": 2,
    "count": 2,
    "initCount": 0,
    "itemCode": 116409,
    "loadType": "Reload",
    "time": 2
  },
  {
    "capacity": 35,
    "count": 35,
    "initCount": 0,
    "itemCode": 116410,
    "loadType": "Reload",
    "time": 2
  },
  {
    "capacity": 15,
    "count": 15,
    "initCount": 0,
    "itemCode": 116501,
    "loadType": "Reload",
    "time": 2
  },
  {
    "capacity": 15,
    "count": 15,
    "initCount": 0,
    "itemCode": 116502,
    "loadType": "Reload",
    "time": 2
  },
  {
    "capacity": 30,
    "count": 30,
    "initCount": 0,
    "itemCode": 117403,
    "loadType": "Reload",
    "time": 2
  },
  {
    "capacity": 30,
    "count": 30,
    "initCount": 0,
    "itemCode": 117101,
    "loadType": "Reload",
    "time": 2
  },
  {
    "capacity": 30,
    "count": 30,
    "initCount": 0,
    "itemCode": 117201,
    "loadType": "Reload",
    "time": 2
  },
  {
    "capacity": 30,
    "count": 30,
    "initCount": 0,
    "itemCode": 117301,
    "loadType": "Reload",
    "time": 2
  },
  {
    "capacity": 30,
    "count": 30,
    "initCount": 0,
    "itemCode": 117401,
    "loadType": "Reload",
    "time": 2
  },
  {
    "capacity": 30,
    "count": 30,
    "initCount": 0,
    "itemCode": 117402,
    "loadType": "Reload",
    "time": 2
  },
  {
    "capacity": 30,
    "count": 30,
    "initCount": 0,
    "itemCode": 117501,
    "loadType": "Reload",
    "time": 2
  },
  {
    "capacity": 30,
    "count": 30,
    "initCount": 0,
    "itemCode": 117404,
    "loadType": "Reload",
    "time": 2
  },
  {
    "capacity": 30,
    "count": 30,
    "initCount": 0,
    "itemCode": 117405,
    "loadType": "Reload",
    "time": 2
  },
  {
    "capacity": 120,
    "count": 120,
    "initCount": 0,
    "itemCode": 117406,
    "loadType": "Reload",
    "time": 2
  },
  {
    "capacity": 30,
    "count": 30,
    "initCount": 0,
    "itemCode": 117407,
    "loadType": "Reload",
    "time": 2
  },
  {
    "capacity": 30,
    "count": 30,
    "initCount": 0,
    "itemCode": 117501,
    "loadType": "Reload",
    "time": 2
  },
  {
    "capacity": 30,
    "count": 30,
    "initCount": 0,
    "itemCode": 117502,
    "loadType": "Reload",
    "time": 2
  },
  {
    "capacity": 1,
    "count": 1,
    "initCount": 0,
    "itemCode": 118101,
    "loadType": "Reload",
    "time": 2
  },
  {
    "capacity": 1,
    "count": 1,
    "initCount": 0,
    "itemCode": 118201,
    "loadType": "Reload",
    "time": 2
  },
  {
    "capacity": 2,
    "count": 2,
    "initCount": 0,
    "itemCode": 118301,
    "loadType": "Reload",
    "time": 2
  },
  {
    "capacity": 1,
    "count": 1,
    "initCount": 0,
    "itemCode": 118401,
    "loadType": "Reload",
    "time": 2
  },
  {
    "capacity": 3,
    "count": 3,
    "initCount": 0,
    "itemCode": 118402,
    "loadType": "Reload",
    "time": 2
  },
  {
    "capacity": 2,
    "count": 2,
    "initCount": 0,
    "itemCode": 118403,
    "loadType": "Reload",
    "time": 2
  },
  {
    "capacity": 2,
    "count": 2,
    "initCount": 0,
    "itemCode": 118404,
    "loadType": "Reload",
    "time": 2
  },
  {
    "capacity": 4,
    "count": 4,
    "initCount": 0,
    "itemCode": 118405,
    "loadType": "Reload",
    "time": 2
  },
  {
    "capacity": 4,
    "count": 4,
    "initCount": 0,
    "itemCode": 118406,
    "loadType": "Reload",
    "time": 2
  },
  {
    "capacity": 7,
    "count": 7,
    "initCount": 0,
    "itemCode": 118407,
    "loadType": "Reload",
    "time": 2
  },
  {
    "capacity": 7,
    "count": 7,
    "initCount": 0,
    "itemCode": 118501,
    "loadType": "Reload",
    "time": 2
  },
  {
    "capacity": 1,
    "count": 1,
    "initCount": 0,
    "itemCode": 118502,
    "loadType": "Reload",
    "time": 2
  },
  {
    "capacity": 4,
    "count": 4,
    "initCount": 0,
    "itemCode": 118503,
    "loadType": "Reload",
    "time": 2
  }
]