[
  {
    "code": 1,
    "exploration1": "Hunt",
    "exploration2": "Craft",
    "exploration3": "Search",
    "exploration4": "Move",
    "survival1": "Health",
    "survival2": "Defense",
    "survival3": "Trap",
    "survival4": "None",
    "weapon1": "OneHandSword",
    "weapon2": "TwoHandSword",
    "weapon3": "Axe",
    "weapon4": "DualSword"
  },
  {
    "code": 2,
    "exploration1": "Hunt",
    "exploration2": "Craft",
    "exploration3": "Search",
    "exploration4": "Move",
    "survival1": "Health",
    "survival2": "Defense",
    "survival3": "Trap",
    "survival4": "None",
    "weapon1": "Pistol",
    "weapon2": "AssaultRifle",
    "weapon3": "SniperRifle",
    "weapon4": "None"
  },
  {
    "code": 3,
    "exploration1": "Hunt",
    "exploration2": "Craft",
    "exploration3": "Search",
    "exploration4": "Move",
    "survival1": "Health",
    "survival2": "Defense",
    "survival3": "Trap",
    "survival4": "None",
    "weapon1": "Rapier",
    "weapon2": "TwoHandSword",
    "weapon3": "Spear",
    "weapon4": "None"
  },
  {
    "code": 4,
    "exploration1": "Hunt",
    "exploration2": "Craft",
    "exploration3": "Search",
    "exploration4": "Move",
    "survival1": "Health",
    "survival2": "Defense",
    "survival3": "Trap",
    "survival4": "None",
    "weapon1": "Hammer",
    "weapon2": "Bat",
    "weapon3": "None",
    "weapon4": "None"
  },
  {
    "code": 5,
    "exploration1": "Hunt",
    "exploration2": "Craft",
    "exploration3": "Search",
    "exploration4": "Move",
    "survival1": "Health",
    "survival2": "Defense",
    "survival3": "Trap",
    "survival4": "None",
    "weapon1": "HighAngleFire",
    "weapon2": "DirectFire",
    "weapon3": "None",
    "weapon4": "None"
  },
  {
    "code": 6,
    "exploration1": "Hunt",
    "exploration2": "Craft",
    "exploration3": "Search",
    "exploration4": "Move",
    "survival1": "Health",
    "survival2": "Defense",
    "survival3": "Trap",
    "survival4": "None",
    "weapon1": "Bow",
    "weapon2": "CrossBow",
    "weapon3": "None",
    "weapon4": "None"
  },
  {
    "code": 7,
    "exploration1": "Hunt",
    "exploration2": "Craft",
    "exploration3": "Search",
    "exploration4": "Move",
    "survival1": "Health",
    "survival2": "Defense",
    "survival3": "Trap",
    "survival4": "None",
    "weapon1": "Glove",
    "weapon2": "Tonfa",
    "weapon3": "None",
    "weapon4": "None"
  },
  {
    "code": 8,
    "exploration1": "Hunt",
    "exploration2": "Craft",
    "exploration3": "Search",
    "exploration4": "Move",
    "survival1": "Health",
    "survival2": "Defense",
    "survival3": "Trap",
    "survival4": "None",
    "weapon1": "Guitar",
    "weapon2": "None",
    "weapon3": "None",
    "weapon4": "None"
  },
  {
    "code": 9,
    "exploration1": "Hunt",
    "exploration2": "Craft",
    "exploration3": "Search",
    "exploration4": "Move",
    "survival1": "Health",
    "survival2": "Defense",
    "survival3": "Trap",
    "survival4": "None",
    "weapon1": "AssaultRifle",
    "weapon2": "Pistol",
    "weapon3": "None",
    "weapon4": "None"
  },
  {
    "code": 10,
    "exploration1": "Hunt",
    "exploration2": "Craft",
    "exploration3": "Search",
    "exploration4": "Move",
    "survival1": "Health",
    "survival2": "Defense",
    "survival3": "Trap",
    "survival4": "None",
    "weapon1": "Glove",
    "weapon2": "Nunchaku",
    "weapon3": "None",
    "weapon4": "None"
  },
  {
    "code": 11,
    "exploration1": "Hunt",
    "exploration2": "Craft",
    "exploration3": "Search",
    "exploration4": "Move",
    "survival1": "Health",
    "survival2": "Defense",
    "survival3": "Trap",
    "survival4": "None",
    "weapon1": "TwoHandSword",
    "weapon2": "DualSword",
    "weapon3": "None",
    "weapon4": "None"
  },
  {
    "code": 12,
    "exploration1": "Hunt",
    "exploration2": "Craft",
    "exploration3": "Search",
    "exploration4": "Move",
    "survival1": "Health",
    "survival2": "Defense",
    "survival3": "Trap",
    "survival4": "None",
    "weapon1": "Bow",
    "weapon2": "DirectFire",
    "weapon3": "None",
    "weapon4": "None"
  },
  {
    "code": 13,
    "exploration1": "Hunt",
    "exploration2": "Craft",
    "exploration3": "Search",
    "exploration4": "Move",
    "survival1": "Health",
    "survival2": "Defense",
    "survival3": "Trap",
    "survival4": "None",
    "weapon1": "Spear",
    "weapon2": "OneHandSword",
    "weapon3": "None",
    "weapon4": "None"
  },
  {
    "code": 14,
    "exploration1": "Hunt",
    "exploration2": "Craft",
    "exploration3": "Search",
    "exploration4": "Move",
    "survival1": "Health",
    "survival2": "Defense",
    "survival3": "Trap",
    "survival4": "None",
    "weapon1": "Rapier",
    "weapon2": "None",
    "weapon3": "None",
    "weapon4": "None"
  },
  {
    "code": 15,
    "exploration1": "Hunt",
    "exploration2": "Craft",
    "exploration3": "Search",
    "exploration4": "Move",
    "survival1": "Health",
    "survival2": "Defense",
    "survival3": "Trap",
    "survival4": "None",
    "weapon1": "DirectFire",
    "weapon2": "HighAngleFire",
    "weapon3": "None",
    "weapon4": "None"
  },
  {
    "code": 16,
    "exploration1": "Hunt",
    "exploration2": "Craft",
    "exploration3": "Search",
    "exploration4": "Move",
    "survival1": "Health",
    "survival2": "Defense",
    "survival3": "Trap",
    "survival4": "None",
    "weapon1": "Pistol",
    "weapon2": "None",
    "weapon3": "None",
    "weapon4": "None"
  },
  {
    "code": 17,
    "exploration1": "Hunt",
    "exploration2": "Craft",
    "exploration3": "Search",
    "exploration4": "Move",
    "survival1": "Health",
    "survival2": "Defense",
    "survival3": "Trap",
    "survival4": "None",
    "weapon1": "HighAngleFire",
    "weapon2": "None",
    "weapon3": "None",
    "weapon4": "None"
  },
  {
    "code": 18,
    "exploration1": "Hunt",
    "exploration2": "Craft",
    "exploration3": "Search",
    "exploration4": "Move",
    "survival1": "Health",
    "survival2": "Defense",
    "survival3": "Trap",
    "survival4": "None",
    "weapon1": "OneHandSword",
    "weapon2": "None",
    "weapon3": "None",
    "weapon4": "None"
  },
  {
    "code": 19,
    "exploration1": "Hunt",
    "exploration2": "Craft",
    "exploration3": "Search",
    "exploration4": "Move",
    "survival1": "Health",
    "survival2": "Defense",
    "survival3": "Trap",
    "survival4": "None",
    "weapon1": "DirectFire",
    "weapon2": "Arcana",
    "weapon3": "None",
    "weapon4": "None"
  },
  {
    "code": 20,
    "exploration1": "Hunt",
    "exploration2": "Craft",
    "exploration3": "Search",
    "exploration4": "Move",
    "survival1": "Health",
    "survival2": "Defense",
    "survival3": "Trap",
    "survival4": "None",
    "weapon1": "Whip",
    "weapon2": "None",
    "weapon3": "None",
    "weapon4": "None"
  },
  {
    "code": 21,
    "exploration1": "Hunt",
    "exploration2": "Craft",
    "exploration3": "Search",
    "exploration4": "Move",
    "survival1": "Health",
    "survival2": "Defense",
    "survival3": "Trap",
    "survival4": "None",
    "weapon1": "Pistol",
    "weapon2": "None",
    "weapon3": "None",
    "weapon4": "None"
  },
  {
    "code": 22,
    "exploration1": "Hunt",
    "exploration2": "Craft",
    "exploration3": "Search",
    "exploration4": "Move",
    "survival1": "Health",
    "survival2": "Defense",
    "survival3": "Trap",
    "survival4": "None",
    "weapon1": "Bat",
    "weapon2": "None",
    "weapon3": "None",
    "weapon4": "None"
  },
  {
    "code": 23,
    "exploration1": "Hunt",
    "exploration2": "Craft",
    "exploration3": "Search",
    "exploration4": "Move",
    "survival1": "Health",
    "survival2": "Defense",
    "survival3": "Trap",
    "survival4": "None",
    "weapon1": "OneHandSword",
    "weapon2": "DualSword",
    "weapon3": "None",
    "weapon4": "None"
  },
  {
    "code": 24,
    "exploration1": "Hunt",
    "exploration2": "Craft",
    "exploration3": "Search",
    "exploration4": "Move",
    "survival1": "Health",
    "survival2": "Defense",
    "survival3": "Trap",
    "survival4": "None",
    "weapon1": "Rapier",
    "weapon2": "Bat",
    "weapon3": "None",
    "weapon4": "None"
  },
  {
    "code": 25,
    "exploration1": "Hunt",
    "exploration2": "Craft",
    "exploration3": "Search",
    "exploration4": "Move",
    "survival1": "Health",
    "survival2": "Defense",
    "survival3": "Trap",
    "survival4": "None",
    "weapon1": "SniperRifle",
    "weapon2": "None",
    "weapon3": "None",
    "weapon4": "None"
  },
  {
    "code": 26,
    "exploration1": "Hunt",
    "exploration2": "Craft",
    "exploration3": "Search",
    "exploration4": "Move",
    "survival1": "Health",
    "survival2": "Defense",
    "survival3": "Trap",
    "survival4": "None",
    "weapon1": "Bat",
    "weapon2": "None",
    "weapon3": "None",
    "weapon4": "None"
  },
  {
    "code": 27,
    "exploration1": "Hunt",
    "exploration2": "Craft",
    "exploration3": "Search",
    "exploration4": "Move",
    "survival1": "Health",
    "survival2": "Defense",
    "survival3": "Trap",
    "survival4": "None",
    "weapon1": "Tonfa",
    "weapon2": "TwoHandSword",
    "weapon3": "DirectFire",
    "weapon4": "Pistol"
  },
  {
    "code": 28,
    "exploration1": "Hunt",
    "exploration2": "Craft",
    "exploration3": "Search",
    "exploration4": "Move",
    "survival1": "Health",
    "survival2": "Defense",
    "survival3": "Trap",
    "survival4": "None",
    "weapon1": "Hammer",
    "weapon2": "None",
    "weapon3": "None",
    "weapon4": "None"
  },
  {
    "code": 29,
    "exploration1": "Hunt",
    "exploration2": "Craft",
    "exploration3": "Search",
    "exploration4": "Move",
    "survival1": "Health",
    "survival2": "Defense",
    "survival3": "Trap",
    "survival4": "None",
    "weapon1": "Glove",
    "weapon2": "Tonfa",
    "weapon3": "None",
    "weapon4": "None"
  },
  {
    "code": 30,
    "exploration1": "Hunt",
    "exploration2": "Craft",
    "exploration3": "Search",
    "exploration4": "Move",
    "survival1": "Health",
    "survival2": "Defense",
    "survival3": "Trap",
    "survival4": "None",
    "weapon1": "Hammer",
    "weapon2": "None",
    "weapon3": "None",
    "weapon4": "None"
  },
  {
    "code": 31,
    "exploration1": "Hunt",
    "exploration2": "Craft",
    "exploration3": "Search",
    "exploration4": "Move",
    "survival1": "Health",
    "survival2": "Defense",
    "survival3": "Trap",
    "survival4": "None",
    "weapon1": "Bow",
    "weapon2": "None",
    "weapon3": "None",
    "weapon4": "None"
  },
  {
    "code": 32,
    "exploration1": "Hunt",
    "exploration2": "Craft",
    "exploration3": "Search",
    "exploration4": "Move",
    "survival1": "Health",
    "survival2": "Defense",
    "survival3": "Trap",
    "survival4": "None",
    "weapon1": "HighAngleFire",
    "weapon2": "None",
    "weapon3": "None",
    "weapon4": "None"
  },
  {
    "code": 33,
    "exploration1": "Hunt",
    "exploration2": "Craft",
    "exploration3": "Search",
    "exploration4": "Move",
    "survival1": "Health",
    "survival2": "Defense",
    "survival3": "Trap",
    "survival4": "None",
    "weapon1": "Glove",
    "weapon2": "None",
    "weapon3": "None",
    "weapon4": "None"
  },
  {
    "code": 34,
    "exploration1": "Hunt",
    "exploration2": "Craft",
    "exploration3": "Search",
    "exploration4": "Move",
    "survival1": "Health",
    "survival2": "Defense",
    "survival3": "Trap",
    "survival4": "None",
    "weapon1": "Camera",
    "weapon2": "None",
    "weapon3": "None",
    "weapon4": "None"
  },
  {
    "code": 35,
    "exploration1": "Hunt",
    "exploration2": "Craft",
    "exploration3": "Search",
    "exploration4": "Move",
    "survival1": "Health",
    "survival2": "Defense",
    "survival3": "Trap",
    "survival4": "None",
    "weapon1": "Glove",
    "weapon2": "Tonfa",
    "weapon3": "None",
    "weapon4": "None"
  },
  {
    "code": 36,
    "exploration1": "Hunt",
    "exploration2": "Craft",
    "exploration3": "Search",
    "exploration4": "Move",
    "survival1": "Health",
    "survival2": "Defense",
    "survival3": "Trap",
    "survival4": "None",
    "weapon1": "HighAngleFire",
    "weapon2": "None",
    "weapon3": "None",
    "weapon4": "None"
  },
  {
    "code": 37,
    "exploration1": "Hunt",
    "exploration2": "Craft",
    "exploration3": "Search",
    "exploration4": "Move",
    "survival1": "Health",
    "survival2": "Defense",
    "survival3": "Trap",
    "survival4": "None",
    "weapon1": "OneHandSword",
    "weapon2": "None",
    "weapon3": "None",
    "weapon4": "None"
  },
  {
    "code": 38,
    "exploration1": "Hunt",
    "exploration2": "Craft",
    "exploration3": "Search",
    "exploration4": "Move",
    "survival1": "Health",
    "survival2": "Defense",
    "survival3": "Trap",
    "survival4": "None",
    "weapon1": "Pistol",
    "weapon2": "None",
    "weapon3": "None",
    "weapon4": "None"
  },
  {
    "code": 39,
    "exploration1": "Hunt",
    "exploration2": "Craft",
    "exploration3": "Search",
    "exploration4": "Move",
    "survival1": "Health",
    "survival2": "Defense",
    "survival3": "Trap",
    "survival4": "None",
    "weapon1": "DualSword",
    "weapon2": "Rapier",
    "weapon3": "None",
    "weapon4": "None"
  },
  {
    "code": 40,
    "exploration1": "Hunt",
    "exploration2": "Craft",
    "exploration3": "Search",
    "exploration4": "Move",
    "survival1": "Health",
    "survival2": "Defense",
    "survival3": "Trap",
    "survival4": "None",
    "weapon1": "DirectFire",
    "weapon2": "None",
    "weapon3": "None",
    "weapon4": "None"
  },
  {
    "code": 41,
    "exploration1": "Hunt",
    "exploration2": "Craft",
    "exploration3": "Search",
    "exploration4": "Move",
    "survival1": "Health",
    "survival2": "Defense",
    "survival3": "Trap",
    "survival4": "None",
    "weapon1": "Arcana",
    "weapon2": "None",
    "weapon3": "None",
    "weapon4": "None"
  },
  {
    "code": 42,
    "exploration1": "Hunt",
    "exploration2": "Craft",
    "exploration3": "Search",
    "exploration4": "Move",
    "survival1": "Health",
    "survival2": "Defense",
    "survival3": "Trap",
    "survival4": "None",
    "weapon1": "Arcana",
    "weapon2": "None",
    "weapon3": "None",
    "weapon4": "None"
  },
  {
    "code": 43,
    "exploration1": "Hunt",
    "exploration2": "Craft",
    "exploration3": "Search",
    "exploration4": "Move",
    "survival1": "Health",
    "survival2": "Defense",
    "survival3": "Trap",
    "survival4": "None",
    "weapon1": "HighAngleFire",
    "weapon2": "None",
    "weapon3": "None",
    "weapon4": "None"
  },
  {
    "code": 44,
    "exploration1": "Hunt",
    "exploration2": "Craft",
    "exploration3": "Search",
    "exploration4": "Move",
    "survival1": "Health",
    "survival2": "Defense",
    "survival3": "Trap",
    "survival4": "None",
    "weapon1": "VFArm",
    "weapon2": "None",
    "weapon3": "None",
    "weapon4": "None"
  },
  {
    "code": 45,
    "exploration1": "Hunt",
    "exploration2": "Craft",
    "exploration3": "Search",
    "exploration4": "Move",
    "survival1": "Health",
    "survival2": "Defense",
    "survival3": "Trap",
    "survival4": "None",
    "weapon1": "Whip",
    "weapon2": "None",
    "weapon3": "None",
    "weapon4": "None"
  },
  {
    "code": 46,
    "exploration1": "Hunt",
    "exploration2": "Craft",
    "exploration3": "Search",
    "exploration4": "Move",
    "survival1": "Health",
    "survival2": "Defense",
    "survival3": "Trap",
    "survival4": "None",
    "weapon1": "TwoHandSword",
    "weapon2": "None",
    "weapon3": "None",
    "weapon4": "None"
  },
  {
    "code": 47,
    "exploration1": "Hunt",
    "exploration2": "Craft",
    "exploration3": "Search",
    "exploration4": "Move",
    "survival1": "Health",
    "survival2": "Defense",
    "survival3": "Trap",
    "survival4": "None",
    "weapon1": "Whip",
    "weapon2": "None",
    "weapon3": "None",
    "weapon4": "None"
  },
  {
    "code": 48,
    "exploration1": "Hunt",
    "exploration2": "Craft",
    "exploration3": "Search",
    "exploration4": "Move",
    "survival1": "Health",
    "survival2": "Defense",
    "survival3": "Trap",
    "survival4": "None",
    "weapon1": "Bat",
    "weapon2": "None",
    "weapon3": "None",
    "weapon4": "None"
  },
  {
    "code": 49,
    "exploration1": "Hunt",
    "exploration2": "Craft",
    "exploration3": "Search",
    "exploration4": "Move",
    "survival1": "Health",
    "survival2": "Defense",
    "survival3": "Trap",
    "survival4": "None",
    "weapon1": "Spear",
    "weapon2": "None",
    "weapon3": "None",
    "weapon4": "None"
  },
  {
    "code": 50,
    "exploration1": "Hunt",
    "exploration2": "Craft",
    "exploration3": "Search",
    "exploration4": "Move",
    "survival1": "Health",
    "survival2": "Defense",
    "survival3": "Trap",
    "survival4": "None",
    "weapon1": "Rapier",
    "weapon2": "None",
    "weapon3": "None",
    "weapon4": "None"
  },
  {
    "code": 51,
    "exploration1": "Hunt",
    "exploration2": "Craft",
    "exploration3": "Search",
    "exploration4": "Move",
    "survival1": "Health",
    "survival2": "Defense",
    "survival3": "Trap",
    "survival4": "None",
    "weapon1": "Guitar",
    "weapon2": "None",
    "weapon3": "None",
    "weapon4": "None"
  },
  {
    "code": 52,
    "exploration1": "Hunt",
    "exploration2": "Craft",
    "exploration3": "Search",
    "exploration4": "Move",
    "survival1": "Health",
    "survival2": "Defense",
    "survival3": "Trap",
    "survival4": "None",
    "weapon1": "Arcana",
    "weapon2": "None",
    "weapon3": "None",
    "weapon4": "None"
  },
  {
    "code": 53,
    "exploration1": "Hunt",
    "exploration2": "Craft",
    "exploration3": "Search",
    "exploration4": "Move",
    "survival1": "Health",
    "survival2": "Defense",
    "survival3": "Trap",
    "survival4": "None",
    "weapon1": "Axe",
    "weapon2": "None",
    "weapon3": "None",
    "weapon4": "None"
  },
  {
    "code": 54,
    "exploration1": "Hunt",
    "exploration2": "Craft",
    "exploration3": "Search",
    "exploration4": "Move",
    "survival1": "Health",
    "survival2": "Defense",
    "survival3": "Trap",
    "survival4": "None",
    "weapon1": "CrossBow",
    "weapon2": "None",
    "weapon3": "None",
    "weapon4": "None"
  },
  {
    "code": 55,
    "exploration1": "Hunt",
    "exploration2": "Craft",
    "exploration3": "Search",
    "exploration4": "Move",
    "survival1": "Health",
    "survival2": "Defense",
    "survival3": "Trap",
    "survival4": "None",
    "weapon1": "Axe",
    "weapon2": "None",
    "weapon3": "None",
    "weapon4": "None"
  },
  {
    "code": 56,
    "exploration1": "Hunt",
    "exploration2": "Craft",
    "exploration3": "Search",
    "exploration4": "Move",
    "survival1": "Health",
    "survival2": "Defense",
    "survival3": "Trap",
    "survival4": "None",
    "weapon1": "Nunchaku",
    "weapon2": "None",
    "weapon3": "None",
    "weapon4": "None"
  },
  {
    "code": 57,
    "exploration1": "Hunt",
    "exploration2": "Craft",
    "exploration3": "Search",
    "exploration4": "Move",
    "survival1": "Health",
    "survival2": "Defense",
    "survival3": "Trap",
    "survival4": "None",
    "weapon1": "Camera",
    "weapon2": "None",
    "weapon3": "None",
    "weapon4": "None"
  },
  {
    "code": 58,
    "exploration1": "Hunt",
    "exploration2": "Craft",
    "exploration3": "Search",
    "exploration4": "Move",
    "survival1": "Health",
    "survival2": "Defense",
    "survival3": "Trap",
    "survival4": "None",
    "weapon1": "AssaultRifle",
    "weapon2": "None",
    "weapon3": "None",
    "weapon4": "None"
  },
  {
    "code": 59,
    "exploration1": "Hunt",
    "exploration2": "Craft",
    "exploration3": "Search",
    "exploration4": "Move",
    "survival1": "Health",
    "survival2": "Defense",
    "survival3": "Trap",
    "survival4": "None",
    "weapon1": "Tonfa",
    "weapon2": "None",
    "weapon3": "None",
    "weapon4": "None"
  },
  {
    "code": 60,
    "exploration1": "Hunt",
    "exploration2": "Craft",
    "exploration3": "Search",
    "exploration4": "Move",
    "survival1": "Health",
    "survival2": "Defense",
    "survival3": "Trap",
    "survival4": "None",
    "weapon1": "DirectFire",
    "weapon2": "None",
    "weapon3": "None",
    "weapon4": "None"
  },
  {
    "code": 61,
    "exploration1": "Hunt",
    "exploration2": "Craft",
    "exploration3": "Search",
    "exploration4": "Move",
    "survival1": "Health",
    "survival2": "Defense",
    "survival3": "Trap",
    "survival4": "None",
    "weapon1": "HighAngleFire",
    "weapon2": "None",
    "weapon3": "None",
    "weapon4": "None"
  },
  {
    "code": 62,
    "exploration1": "Hunt",
    "exploration2": "Craft",
    "exploration3": "Search",
    "exploration4": "Move",
    "survival1": "Health",
    "survival2": "Defense",
    "survival3": "Trap",
    "survival4": "None",
    "weapon1": "SniperRifle",
    "weapon2": "None",
    "weapon3": "None",
    "weapon4": "None"
  },
  {
    "code": 63,
    "exploration1": "Hunt",
    "exploration2": "Craft",
    "exploration3": "Search",
    "exploration4": "Move",
    "survival1": "Health",
    "survival2": "Defense",
    "survival3": "Trap",
    "survival4": "None",
    "weapon1": "OneHandSword",
    "weapon2": "None",
    "weapon3": "None",
    "weapon4": "None"
  },
  {
    "code": 64,
    "exploration1": "Hunt",
    "exploration2": "Craft",
    "exploration3": "Search",
    "exploration4": "Move",
    "survival1": "Health",
    "survival2": "Defense",
    "survival3": "Trap",
    "survival4": "None",
    "weapon1": "Arcana",
    "weapon2": "None",
    "weapon3": "None",
    "weapon4": "None"
  }
]