[
  {
    "castingActionType": "CollectibleOpenWater",
    "code": 1,
    "cooldown": 120,
    "dropCount": 3,
    "itemCode": "302102"
  },
  {
    "castingActionType": "CollectibleOpenWood",
    "code": 2,
    "cooldown": 0,
    "dropCount": 1,
    "itemCode": "108101"
  },
  {
    "castingActionType": "CollectibleOpenStone",
    "code": 3,
    "cooldown": 0,
    "dropCount": 2,
    "itemCode": "112101"
  },
  {
    "castingActionType": "CollectibleOpenSeaFish",
    "code": 4,
    "cooldown": 180,
    "dropCount": 2,
    "itemCode": "301104"
  },
  {
    "castingActionType": "CollectibleOpenFreshWaterFish",
    "code": 5,
    "cooldown": 180,
    "dropCount": 2,
    "itemCode": "301109"
  },
  {
    "castingActionType": "CollectibleOpenPotato",
    "code": 6,
    "cooldown": 0,
    "dropCount": 2,
    "itemCode": "301102"
  },
  {
    "castingActionType": "CollectibleOpenTreeOfLife",
    "code": 7,
    "cooldown": 0,
    "dropCount": 1,
    "itemCode": "401208"
  },
  {
    "castingActionType": "CollectibleOpenMeteorite",
    "code": 8,
    "cooldown": -1,
    "dropCount": 1,
    "itemCode": "401209"
  },
  {
    "castingActionType": "CollectibleOpenFlower",
    "code": 9,
    "cooldown": 15,
    "dropCount": 2,
    "itemCode": "205102"
  }
]