[
  {
    "deployingPoint": 1,
    "openGroupsA": 3,
    "openGroupsB": 3,
    "phase": 0
  },
  {
    "deployingPoint": 2,
    "openGroupsA": 3,
    "openGroupsB": 3,
    "phase": 0
  },
  {
    "deployingPoint": 3,
    "openGroupsA": 12,
    "openGroupsB": 12,
    "phase": 0
  },
  {
    "deployingPoint": 4,
    "openGroupsA": 12,
    "openGroupsB": 12,
    "phase": 0
  },
  {
    "deployingPoint": 5,
    "openGroupsA": 0,
    "openGroupsB": 0,
    "phase": 0
  },
  {
    "deployingPoint": 6,
    "openGroupsA": 0,
    "openGroupsB": 0,
    "phase": 0
  },
  {
    "deployingPoint": 7,
    "openGroupsA": 0,
    "openGroupsB": 0,
    "phase": 0
  },
  {
    "deployingPoint": 8,
    "openGroupsA": 0,
    "openGroupsB": 0,
    "phase": 0
  },
  {
    "deployingPoint": 9,
    "openGroupsA": 0,
    "openGroupsB": 0,
    "phase": 0
  },
  {
    "deployingPoint": 10,
    "openGroupsA": 0,
    "openGroupsB": 0,
    "phase": 0
  },
  {
    "deployingPoint": 11,
    "openGroupsA": 0,
    "openGroupsB": 0,
    "phase": 0
  },
  {
    "deployingPoint": 12,
    "openGroupsA": 0,
    "openGroupsB": 0,
    "phase": 0
  },
  {
    "deployingPoint": 1,
    "openGroupsA": 3,
    "openGroupsB": 3,
    "phase": 1
  },
  {
    "deployingPoint": 2,
    "openGroupsA": 3,
    "openGroupsB": 3,
    "phase": 1
  },
  {
    "deployingPoint": 3,
    "openGroupsA": 12,
    "openGroupsB": 12,
    "phase": 1
  },
  {
    "deployingPoint": 4,
    "openGroupsA": 12,
    "openGroupsB": 12,
    "phase": 1
  },
  {
    "deployingPoint": 5,
    "openGroupsA": 0,
    "openGroupsB": 0,
    "phase": 1
  },
  {
    "deployingPoint": 6,
    "openGroupsA": 0,
    "openGroupsB": 0,
    "phase": 1
  },
  {
    "deployingPoint": 7,
    "openGroupsA": 0,
    "openGroupsB": 0,
    "phase": 1
  },
  {
    "deployingPoint": 8,
    "openGroupsA": 0,
    "openGroupsB": 0,
    "phase": 1
  },
  {
    "deployingPoint": 9,
    "openGroupsA": 0,
    "openGroupsB": 0,
    "phase": 1
  },
  {
    "deployingPoint": 10,
    "openGroupsA": 0,
    "openGroupsB": 0,
    "phase": 1
  },
  {
    "deployingPoint": 11,
    "openGroupsA": 0,
    "openGroupsB": 0,
    "phase": 1
  },
  {
    "deployingPoint": 12,
    "openGroupsA": 0,
    "openGroupsB": 0,
    "phase": 1
  },
  {
    "deployingPoint": 1,
    "openGroupsA": 3,
    "openGroupsB": 3,
    "phase": 2
  },
  {
    "deployingPoint": 2,
    "openGroupsA": 3,
    "openGroupsB": 3,
    "phase": 2
  },
  {
    "deployingPoint": 3,
    "openGroupsA": 12,
    "openGroupsB": 12,
    "phase": 2
  },
  {
    "deployingPoint": 4,
    "openGroupsA": 12,
    "openGroupsB": 12,
    "phase": 2
  },
  {
    "deployingPoint": 5,
    "openGroupsA": 0,
    "openGroupsB": 0,
    "phase": 2
  },
  {
    "deployingPoint": 6,
    "openGroupsA": 0,
    "openGroupsB": 0,
    "phase": 2
  },
  {
    "deployingPoint": 7,
    "openGroupsA": 0,
    "openGroupsB": 0,
    "phase": 2
  },
  {
    "deployingPoint": 8,
    "openGroupsA": 0,
    "openGroupsB": 0,
    "phase": 2
  },
  {
    "deployingPoint": 9,
    "openGroupsA": 0,
    "openGroupsB": 15,
    "phase": 2
  },
  {
    "deployingPoint": 10,
    "openGroupsA": 0,
    "openGroupsB": 15,
    "phase": 2
  },
  {
    "deployingPoint": 11,
    "openGroupsA": 0,
    "openGroupsB": 15,
    "phase": 2
  },
  {
    "deployingPoint": 12,
    "openGroupsA": 0,
    "openGroupsB": 15,
    "phase": 2
  },
  {
    "deployingPoint": 1,
    "openGroupsA": 3,
    "openGroupsB": 3,
    "phase": 3
  },
  {
    "deployingPoint": 2,
    "openGroupsA": 3,
    "openGroupsB": 3,
    "phase": 3
  },
  {
    "deployingPoint": 3,
    "openGroupsA": 12,
    "openGroupsB": 12,
    "phase": 3
  },
  {
    "deployingPoint": 4,
    "openGroupsA": 12,
    "openGroupsB": 12,
    "phase": 3
  },
  {
    "deployingPoint": 5,
    "openGroupsA": 0,
    "openGroupsB": 0,
    "phase": 3
  },
  {
    "deployingPoint": 6,
    "openGroupsA": 0,
    "openGroupsB": 0,
    "phase": 3
  },
  {
    "deployingPoint": 7,
    "openGroupsA": 0,
    "openGroupsB": 0,
    "phase": 3
  },
  {
    "deployingPoint": 8,
    "openGroupsA": 0,
    "openGroupsB": 0,
    "phase": 3
  },
  {
    "deployingPoint": 9,
    "openGroupsA": 0,
    "openGroupsB": 15,
    "phase": 3
  },
  {
    "deployingPoint": 10,
    "openGroupsA": 0,
    "openGroupsB": 15,
    "phase": 3
  },
  {
    "deployingPoint": 11,
    "openGroupsA": 0,
    "openGroupsB": 15,
    "phase": 3
  },
  {
    "deployingPoint": 12,
    "openGroupsA": 0,
    "openGroupsB": 15,
    "phase": 3
  },
  {
    "deployingPoint": 1,
    "openGroupsA": 0,
    "openGroupsB": 0,
    "phase": 4
  },
  {
    "deployingPoint": 2,
    "openGroupsA": 0,
    "openGroupsB": 0,
    "phase": 4
  },
  {
    "deployingPoint": 3,
    "openGroupsA": 0,
    "openGroupsB": 0,
    "phase": 4
  },
  {
    "deployingPoint": 4,
    "openGroupsA": 0,
    "openGroupsB": 0,
    "phase": 4
  },
  {
    "deployingPoint": 5,
    "openGroupsA": 0,
    "openGroupsB": 0,
    "phase": 4
  },
  {
    "deployingPoint": 6,
    "openGroupsA": 0,
    "openGroupsB": 0,
    "phase": 4
  },
  {
    "deployingPoint": 7,
    "openGroupsA": 0,
    "openGroupsB": 0,
    "phase": 4
  },
  {
    "deployingPoint": 8,
    "openGroupsA": 0,
    "openGroupsB": 0,
    "phase": 4
  },
  {
    "deployingPoint": 9,
    "openGroupsA": 0,
    "openGroupsB": 0,
    "phase": 4
  },
  {
    "deployingPoint": 10,
    "openGroupsA": 0,
    "openGroupsB": 0,
    "phase": 4
  },
  {
    "deployingPoint": 11,
    "openGroupsA": 0,
    "openGroupsB": 0,
    "phase": 4
  },
  {
    "deployingPoint": 12,
    "openGroupsA": 0,
    "openGroupsB": 0,
    "phase": 4
  }
]