[
  {
    "code": 1,
    "eliteCreateCountValue": 5,
    "eliteCreatePercentage": 0.3,
    "monster": "Chicken",
    "monsterCode": 12
  },
  {
    "code": 2,
    "eliteCreateCountValue": 1,
    "eliteCreatePercentage": 0.15,
    "monster": "Bat",
    "monsterCode": 13
  },
  {
    "code": 3,
    "eliteCreateCountValue": 1,
    "eliteCreatePercentage": 0.15,
    "monster": "Boar",
    "monsterCode": 14
  },
  {
    "code": 4,
    "eliteCreateCountValue": 1,
    "eliteCreatePercentage": 0.15,
    "monster": "WildDog",
    "monsterCode": 15
  },
  {
    "code": 5,
    "eliteCreateCountValue": 4,
    "eliteCreatePercentage": 0.25,
    "monster": "Wolf",
    "monsterCode": 16
  },
  {
    "code": 6,
    "eliteCreateCountValue": 3,
    "eliteCreatePercentage": 0.25,
    "monster": "Bear",
    "monsterCode": 17
  }
]