[
  {
    "accumulateExp": 112,
    "level": 1,
    "needExp": 112,
    "rewardAcoin": 4900
  },
  {
    "accumulateExp": 224,
    "level": 2,
    "needExp": 112,
    "rewardAcoin": 200
  },
  {
    "accumulateExp": 374,
    "level": 3,
    "needExp": 150,
    "rewardAcoin": 250
  },
  {
    "accumulateExp": 561,
    "level": 4,
    "needExp": 187,
    "rewardAcoin": 700
  },
  {
    "accumulateExp": 844,
    "level": 5,
    "needExp": 283,
    "rewardAcoin": 300
  },
  {
    "accumulateExp": 1181,
    "level": 6,
    "needExp": 337,
    "rewardAcoin": 400
  },
  {
    "accumulateExp": 1593,
    "level": 7,
    "needExp": 412,
    "rewardAcoin": 500
  },
  {
    "accumulateExp": 2080,
    "level": 8,
    "needExp": 487,
    "rewardAcoin": 600
  },
  {
    "accumulateExp": 2642,
    "level": 9,
    "needExp": 562,
    "rewardAcoin": 2500
  },
  {
    "accumulateExp": 3278,
    "level": 10,
    "needExp": 636,
    "rewardAcoin": 200
  },
  {
    "accumulateExp": 3989,
    "level": 11,
    "needExp": 711,
    "rewardAcoin": 250
  },
  {
    "accumulateExp": 4757,
    "level": 12,
    "needExp": 768,
    "rewardAcoin": 300
  },
  {
    "accumulateExp": 5581,
    "level": 13,
    "needExp": 824,
    "rewardAcoin": 350
  },
  {
    "accumulateExp": 6461,
    "level": 14,
    "needExp": 880,
    "rewardAcoin": 700
  },
  {
    "accumulateExp": 7509,
    "level": 15,
    "needExp": 1048,
    "rewardAcoin": 400
  },
  {
    "accumulateExp": 8632,
    "level": 16,
    "needExp": 1123,
    "rewardAcoin": 450
  },
  {
    "accumulateExp": 9755,
    "level": 17,
    "needExp": 1123,
    "rewardAcoin": 500
  },
  {
    "accumulateExp": 11065,
    "level": 18,
    "needExp": 1310,
    "rewardAcoin": 550
  },
  {
    "accumulateExp": 12488,
    "level": 19,
    "needExp": 1423,
    "rewardAcoin": 2500
  },
  {
    "accumulateExp": 14023,
    "level": 20,
    "needExp": 1535,
    "rewardAcoin": 200
  },
  {
    "accumulateExp": 15670,
    "level": 21,
    "needExp": 1647,
    "rewardAcoin": 250
  },
  {
    "accumulateExp": 17392,
    "level": 22,
    "needExp": 1722,
    "rewardAcoin": 300
  },
  {
    "accumulateExp": 19189,
    "level": 23,
    "needExp": 1797,
    "rewardAcoin": 350
  },
  {
    "accumulateExp": 20986,
    "level": 24,
    "needExp": 1797,
    "rewardAcoin": 700
  },
  {
    "accumulateExp": 22933,
    "level": 25,
    "needExp": 1947,
    "rewardAcoin": 400
  },
  {
    "accumulateExp": 24880,
    "level": 26,
    "needExp": 1947,
    "rewardAcoin": 450
  },
  {
    "accumulateExp": 26902,
    "level": 27,
    "needExp": 2022,
    "rewardAcoin": 500
  },
  {
    "accumulateExp": 28999,
    "level": 28,
    "needExp": 2097,
    "rewardAcoin": 550
  },
  {
    "accumulateExp": 31096,
    "level": 29,
    "needExp": 2097,
    "rewardAcoin": 2500
  },
  {
    "accumulateExp": 33193,
    "level": 30,
    "needExp": 2097,
    "rewardAcoin": 200
  },
  {
    "accumulateExp": 35290,
    "level": 31,
    "needExp": 2097,
    "rewardAcoin": 250
  },
  {
    "accumulateExp": 37439,
    "level": 32,
    "needExp": 2149,
    "rewardAcoin": 300
  },
  {
    "accumulateExp": 39627,
    "level": 33,
    "needExp": 2188,
    "rewardAcoin": 350
  },
  {
    "accumulateExp": 41854,
    "level": 34,
    "needExp": 2227,
    "rewardAcoin": 700
  },
  {
    "accumulateExp": 44120,
    "level": 35,
    "needExp": 2266,
    "rewardAcoin": 400
  },
  {
    "accumulateExp": 46504,
    "level": 36,
    "needExp": 2384,
    "rewardAcoin": 450
  },
  {
    "accumulateExp": 48940,
    "level": 37,
    "needExp": 2436,
    "rewardAcoin": 500
  },
  {
    "accumulateExp": 51376,
    "level": 38,
    "needExp": 2436,
    "rewardAcoin": 550
  },
  {
    "accumulateExp": 53943,
    "level": 39,
    "needExp": 2567,
    "rewardAcoin": 1500
  },
  {
    "accumulateExp": 56562,
    "level": 40,
    "needExp": 2619,
    "rewardAcoin": 200
  },
  {
    "accumulateExp": 59234,
    "level": 41,
    "needExp": 2672,
    "rewardAcoin": 250
  },
  {
    "accumulateExp": 61958,
    "level": 42,
    "needExp": 2724,
    "rewardAcoin": 300
  },
  {
    "accumulateExp": 64721,
    "level": 43,
    "needExp": 2763,
    "rewardAcoin": 350
  },
  {
    "accumulateExp": 67523,
    "level": 44,
    "needExp": 2802,
    "rewardAcoin": 700
  },
  {
    "accumulateExp": 70364,
    "level": 45,
    "needExp": 2841,
    "rewardAcoin": 400
  },
  {
    "accumulateExp": 73323,
    "level": 46,
    "needExp": 2959,
    "rewardAcoin": 450
  },
  {
    "accumulateExp": 76334,
    "level": 47,
    "needExp": 3011,
    "rewardAcoin": 500
  },
  {
    "accumulateExp": 79345,
    "level": 48,
    "needExp": 3011,
    "rewardAcoin": 550
  },
  {
    "accumulateExp": 82406,
    "level": 49,
    "needExp": 3061,
    "rewardAcoin": 600
  },
  {
    "accumulateExp": 85548,
    "level": 50,
    "needExp": 3142,
    "rewardAcoin": 1500
  },
  {
    "accumulateExp": 87704,
    "level": 51,
    "needExp": 2156,
    "rewardAcoin": 200
  },
  {
    "accumulateExp": 90040,
    "level": 52,
    "needExp": 2336,
    "rewardAcoin": 250
  },
  {
    "accumulateExp": 92376,
    "level": 53,
    "needExp": 2336,
    "rewardAcoin": 300
  },
  {
    "accumulateExp": 94802,
    "level": 54,
    "needExp": 2426,
    "rewardAcoin": 350
  },
  {
    "accumulateExp": 97318,
    "level": 55,
    "needExp": 2516,
    "rewardAcoin": 700
  },
  {
    "accumulateExp": 99834,
    "level": 56,
    "needExp": 2516,
    "rewardAcoin": 400
  },
  {
    "accumulateExp": 102350,
    "level": 57,
    "needExp": 2516,
    "rewardAcoin": 450
  },
  {
    "accumulateExp": 104866,
    "level": 58,
    "needExp": 2516,
    "rewardAcoin": 500
  },
  {
    "accumulateExp": 107445,
    "level": 59,
    "needExp": 2579,
    "rewardAcoin": 550
  },
  {
    "accumulateExp": 110071,
    "level": 60,
    "needExp": 2626,
    "rewardAcoin": 1500
  },
  {
    "accumulateExp": 112743,
    "level": 61,
    "needExp": 2672,
    "rewardAcoin": 200
  },
  {
    "accumulateExp": 115462,
    "level": 62,
    "needExp": 2719,
    "rewardAcoin": 250
  },
  {
    "accumulateExp": 118323,
    "level": 63,
    "needExp": 2861,
    "rewardAcoin": 300
  },
  {
    "accumulateExp": 121246,
    "level": 64,
    "needExp": 2923,
    "rewardAcoin": 350
  },
  {
    "accumulateExp": 124169,
    "level": 65,
    "needExp": 2923,
    "rewardAcoin": 700
  },
  {
    "accumulateExp": 127249,
    "level": 66,
    "needExp": 3080,
    "rewardAcoin": 400
  },
  {
    "accumulateExp": 130392,
    "level": 67,
    "needExp": 3143,
    "rewardAcoin": 450
  },
  {
    "accumulateExp": 133598,
    "level": 68,
    "needExp": 3206,
    "rewardAcoin": 500
  },
  {
    "accumulateExp": 136867,
    "level": 69,
    "needExp": 3269,
    "rewardAcoin": 550
  },
  {
    "accumulateExp": 140183,
    "level": 70,
    "needExp": 3316,
    "rewardAcoin": 1500
  },
  {
    "accumulateExp": 143545,
    "level": 71,
    "needExp": 3362,
    "rewardAcoin": 200
  },
  {
    "accumulateExp": 146954,
    "level": 72,
    "needExp": 3409,
    "rewardAcoin": 250
  },
  {
    "accumulateExp": 150505,
    "level": 73,
    "needExp": 3551,
    "rewardAcoin": 300
  },
  {
    "accumulateExp": 154118,
    "level": 74,
    "needExp": 3613,
    "rewardAcoin": 350
  },
  {
    "accumulateExp": 157731,
    "level": 75,
    "needExp": 3613,
    "rewardAcoin": 700
  },
  {
    "accumulateExp": 159887,
    "level": 76,
    "needExp": 2156,
    "rewardAcoin": 400
  },
  {
    "accumulateExp": 162223,
    "level": 77,
    "needExp": 2336,
    "rewardAcoin": 450
  },
  {
    "accumulateExp": 164559,
    "level": 78,
    "needExp": 2336,
    "rewardAcoin": 500
  },
  {
    "accumulateExp": 166985,
    "level": 79,
    "needExp": 2426,
    "rewardAcoin": 550
  },
  {
    "accumulateExp": 169501,
    "level": 80,
    "needExp": 2516,
    "rewardAcoin": 1500
  },
  {
    "accumulateExp": 172017,
    "level": 81,
    "needExp": 2516,
    "rewardAcoin": 200
  },
  {
    "accumulateExp": 174533,
    "level": 82,
    "needExp": 2516,
    "rewardAcoin": 250
  },
  {
    "accumulateExp": 177049,
    "level": 83,
    "needExp": 2516,
    "rewardAcoin": 300
  },
  {
    "accumulateExp": 179628,
    "level": 84,
    "needExp": 2579,
    "rewardAcoin": 350
  },
  {
    "accumulateExp": 182254,
    "level": 85,
    "needExp": 2626,
    "rewardAcoin": 700
  },
  {
    "accumulateExp": 184926,
    "level": 86,
    "needExp": 2672,
    "rewardAcoin": 400
  },
  {
    "accumulateExp": 187645,
    "level": 87,
    "needExp": 2719,
    "rewardAcoin": 450
  },
  {
    "accumulateExp": 190506,
    "level": 88,
    "needExp": 2861,
    "rewardAcoin": 500
  },
  {
    "accumulateExp": 193429,
    "level": 89,
    "needExp": 2923,
    "rewardAcoin": 550
  },
  {
    "accumulateExp": 196352,
    "level": 90,
    "needExp": 2923,
    "rewardAcoin": 1500
  },
  {
    "accumulateExp": 199432,
    "level": 91,
    "needExp": 3080,
    "rewardAcoin": 200
  },
  {
    "accumulateExp": 202575,
    "level": 92,
    "needExp": 3143,
    "rewardAcoin": 250
  },
  {
    "accumulateExp": 205781,
    "level": 93,
    "needExp": 3206,
    "rewardAcoin": 300
  },
  {
    "accumulateExp": 209050,
    "level": 94,
    "needExp": 3269,
    "rewardAcoin": 350
  },
  {
    "accumulateExp": 212366,
    "level": 95,
    "needExp": 3316,
    "rewardAcoin": 700
  },
  {
    "accumulateExp": 215728,
    "level": 96,
    "needExp": 3362,
    "rewardAcoin": 400
  },
  {
    "accumulateExp": 219137,
    "level": 97,
    "needExp": 3409,
    "rewardAcoin": 450
  },
  {
    "accumulateExp": 222688,
    "level": 98,
    "needExp": 3551,
    "rewardAcoin": 500
  },
  {
    "accumulateExp": 226301,
    "level": 99,
    "needExp": 3613,
    "rewardAcoin": 550
  },
  {
    "accumulateExp": 229914,
    "level": 100,
    "needExp": 3613,
    "rewardAcoin": 1500
  },
  {
    "accumulateExp": 234226,
    "level": 101,
    "needExp": 4312,
    "rewardAcoin": 200
  },
  {
    "accumulateExp": 238898,
    "level": 102,
    "needExp": 4672,
    "rewardAcoin": 250
  },
  {
    "accumulateExp": 243570,
    "level": 103,
    "needExp": 4672,
    "rewardAcoin": 300
  },
  {
    "accumulateExp": 248422,
    "level": 104,
    "needExp": 4852,
    "rewardAcoin": 350
  },
  {
    "accumulateExp": 253454,
    "level": 105,
    "needExp": 5032,
    "rewardAcoin": 700
  },
  {
    "accumulateExp": 258486,
    "level": 106,
    "needExp": 5032,
    "rewardAcoin": 400
  },
  {
    "accumulateExp": 263518,
    "level": 107,
    "needExp": 5032,
    "rewardAcoin": 450
  },
  {
    "accumulateExp": 268550,
    "level": 108,
    "needExp": 5032,
    "rewardAcoin": 500
  },
  {
    "accumulateExp": 273708,
    "level": 109,
    "needExp": 5158,
    "rewardAcoin": 550
  },
  {
    "accumulateExp": 278960,
    "level": 110,
    "needExp": 5252,
    "rewardAcoin": 1500
  },
  {
    "accumulateExp": 284304,
    "level": 111,
    "needExp": 5344,
    "rewardAcoin": 200
  },
  {
    "accumulateExp": 289742,
    "level": 112,
    "needExp": 5438,
    "rewardAcoin": 250
  },
  {
    "accumulateExp": 295464,
    "level": 113,
    "needExp": 5722,
    "rewardAcoin": 300
  },
  {
    "accumulateExp": 301410,
    "level": 114,
    "needExp": 5946,
    "rewardAcoin": 350
  },
  {
    "accumulateExp": 307524,
    "level": 115,
    "needExp": 6114,
    "rewardAcoin": 700
  },
  {
    "accumulateExp": 313784,
    "level": 116,
    "needExp": 6260,
    "rewardAcoin": 400
  },
  {
    "accumulateExp": 320170,
    "level": 117,
    "needExp": 6386,
    "rewardAcoin": 450
  },
  {
    "accumulateExp": 326682,
    "level": 118,
    "needExp": 6512,
    "rewardAcoin": 500
  },
  {
    "accumulateExp": 333320,
    "level": 119,
    "needExp": 6638,
    "rewardAcoin": 550
  },
  {
    "accumulateExp": 340121,
    "level": 120,
    "needExp": 6801,
    "rewardAcoin": 1500
  },
  {
    "accumulateExp": 347031,
    "level": 121,
    "needExp": 6910,
    "rewardAcoin": 200
  },
  {
    "accumulateExp": 354063,
    "level": 122,
    "needExp": 7032,
    "rewardAcoin": 250
  },
  {
    "accumulateExp": 361265,
    "level": 123,
    "needExp": 7202,
    "rewardAcoin": 300
  },
  {
    "accumulateExp": 368651,
    "level": 124,
    "needExp": 7386,
    "rewardAcoin": 350
  },
  {
    "accumulateExp": 376237,
    "level": 125,
    "needExp": 7586,
    "rewardAcoin": 700
  },
  {
    "accumulateExp": 381269,
    "level": 126,
    "needExp": 5032,
    "rewardAcoin": 400
  },
  {
    "accumulateExp": 386427,
    "level": 127,
    "needExp": 5158,
    "rewardAcoin": 450
  },
  {
    "accumulateExp": 391679,
    "level": 128,
    "needExp": 5252,
    "rewardAcoin": 500
  },
  {
    "accumulateExp": 397023,
    "level": 129,
    "needExp": 5344,
    "rewardAcoin": 550
  },
  {
    "accumulateExp": 402461,
    "level": 130,
    "needExp": 5438,
    "rewardAcoin": 1500
  },
  {
    "accumulateExp": 408183,
    "level": 131,
    "needExp": 5722,
    "rewardAcoin": 200
  },
  {
    "accumulateExp": 414129,
    "level": 132,
    "needExp": 5946,
    "rewardAcoin": 250
  },
  {
    "accumulateExp": 420243,
    "level": 133,
    "needExp": 6114,
    "rewardAcoin": 300
  },
  {
    "accumulateExp": 426503,
    "level": 134,
    "needExp": 6260,
    "rewardAcoin": 350
  },
  {
    "accumulateExp": 432889,
    "level": 135,
    "needExp": 6386,
    "rewardAcoin": 700
  },
  {
    "accumulateExp": 439401,
    "level": 136,
    "needExp": 6512,
    "rewardAcoin": 400
  },
  {
    "accumulateExp": 446039,
    "level": 137,
    "needExp": 6638,
    "rewardAcoin": 450
  },
  {
    "accumulateExp": 452840,
    "level": 138,
    "needExp": 6801,
    "rewardAcoin": 500
  },
  {
    "accumulateExp": 459750,
    "level": 139,
    "needExp": 6910,
    "rewardAcoin": 550
  },
  {
    "accumulateExp": 466782,
    "level": 140,
    "needExp": 7032,
    "rewardAcoin": 1500
  },
  {
    "accumulateExp": 473984,
    "level": 141,
    "needExp": 7202,
    "rewardAcoin": 200
  },
  {
    "accumulateExp": 481370,
    "level": 142,
    "needExp": 7386,
    "rewardAcoin": 250
  },
  {
    "accumulateExp": 488956,
    "level": 143,
    "needExp": 7586,
    "rewardAcoin": 300
  },
  {
    "accumulateExp": 496722,
    "level": 144,
    "needExp": 7766,
    "rewardAcoin": 350
  },
  {
    "accumulateExp": 504688,
    "level": 145,
    "needExp": 7966,
    "rewardAcoin": 700
  },
  {
    "accumulateExp": 512832,
    "level": 146,
    "needExp": 8144,
    "rewardAcoin": 400
  },
  {
    "accumulateExp": 521146,
    "level": 147,
    "needExp": 8314,
    "rewardAcoin": 450
  },
  {
    "accumulateExp": 529658,
    "level": 148,
    "needExp": 8512,
    "rewardAcoin": 500
  },
  {
    "accumulateExp": 538403,
    "level": 149,
    "needExp": 8745,
    "rewardAcoin": 550
  },
  {
    "accumulateExp": 547387,
    "level": 150,
    "needExp": 8984,
    "rewardAcoin": 1500
  },
  {
    "accumulateExp": 552419,
    "level": 151,
    "needExp": 5032,
    "rewardAcoin": 200
  },
  {
    "accumulateExp": 557577,
    "level": 152,
    "needExp": 5158,
    "rewardAcoin": 250
  },
  {
    "accumulateExp": 562829,
    "level": 153,
    "needExp": 5252,
    "rewardAcoin": 300
  },
  {
    "accumulateExp": 568173,
    "level": 154,
    "needExp": 5344,
    "rewardAcoin": 350
  },
  {
    "accumulateExp": 573611,
    "level": 155,
    "needExp": 5438,
    "rewardAcoin": 700
  },
  {
    "accumulateExp": 579333,
    "level": 156,
    "needExp": 5722,
    "rewardAcoin": 400
  },
  {
    "accumulateExp": 585279,
    "level": 157,
    "needExp": 5946,
    "rewardAcoin": 450
  },
  {
    "accumulateExp": 591393,
    "level": 158,
    "needExp": 6114,
    "rewardAcoin": 500
  },
  {
    "accumulateExp": 597653,
    "level": 159,
    "needExp": 6260,
    "rewardAcoin": 550
  },
  {
    "accumulateExp": 604039,
    "level": 160,
    "needExp": 6386,
    "rewardAcoin": 1500
  },
  {
    "accumulateExp": 610551,
    "level": 161,
    "needExp": 6512,
    "rewardAcoin": 200
  },
  {
    "accumulateExp": 617189,
    "level": 162,
    "needExp": 6638,
    "rewardAcoin": 250
  },
  {
    "accumulateExp": 623990,
    "level": 163,
    "needExp": 6801,
    "rewardAcoin": 300
  },
  {
    "accumulateExp": 630900,
    "level": 164,
    "needExp": 6910,
    "rewardAcoin": 350
  },
  {
    "accumulateExp": 637932,
    "level": 165,
    "needExp": 7032,
    "rewardAcoin": 700
  },
  {
    "accumulateExp": 645134,
    "level": 166,
    "needExp": 7202,
    "rewardAcoin": 400
  },
  {
    "accumulateExp": 652520,
    "level": 167,
    "needExp": 7386,
    "rewardAcoin": 450
  },
  {
    "accumulateExp": 660106,
    "level": 168,
    "needExp": 7586,
    "rewardAcoin": 500
  },
  {
    "accumulateExp": 667872,
    "level": 169,
    "needExp": 7766,
    "rewardAcoin": 550
  },
  {
    "accumulateExp": 675838,
    "level": 170,
    "needExp": 7966,
    "rewardAcoin": 1500
  },
  {
    "accumulateExp": 683982,
    "level": 171,
    "needExp": 8144,
    "rewardAcoin": 200
  },
  {
    "accumulateExp": 692296,
    "level": 172,
    "needExp": 8314,
    "rewardAcoin": 250
  },
  {
    "accumulateExp": 700808,
    "level": 173,
    "needExp": 8512,
    "rewardAcoin": 300
  },
  {
    "accumulateExp": 709553,
    "level": 174,
    "needExp": 8745,
    "rewardAcoin": 350
  },
  {
    "accumulateExp": 718537,
    "level": 175,
    "needExp": 8984,
    "rewardAcoin": 700
  },
  {
    "accumulateExp": 723569,
    "level": 176,
    "needExp": 5032,
    "rewardAcoin": 400
  },
  {
    "accumulateExp": 728727,
    "level": 177,
    "needExp": 5158,
    "rewardAcoin": 450
  },
  {
    "accumulateExp": 733979,
    "level": 178,
    "needExp": 5252,
    "rewardAcoin": 500
  },
  {
    "accumulateExp": 739323,
    "level": 179,
    "needExp": 5344,
    "rewardAcoin": 550
  },
  {
    "accumulateExp": 744761,
    "level": 180,
    "needExp": 5438,
    "rewardAcoin": 1500
  },
  {
    "accumulateExp": 750483,
    "level": 181,
    "needExp": 5722,
    "rewardAcoin": 200
  },
  {
    "accumulateExp": 756429,
    "level": 182,
    "needExp": 5946,
    "rewardAcoin": 250
  },
  {
    "accumulateExp": 762543,
    "level": 183,
    "needExp": 6114,
    "rewardAcoin": 300
  },
  {
    "accumulateExp": 768803,
    "level": 184,
    "needExp": 6260,
    "rewardAcoin": 350
  },
  {
    "accumulateExp": 775189,
    "level": 185,
    "needExp": 6386,
    "rewardAcoin": 700
  },
  {
    "accumulateExp": 781701,
    "level": 186,
    "needExp": 6512,
    "rewardAcoin": 400
  },
  {
    "accumulateExp": 788339,
    "level": 187,
    "needExp": 6638,
    "rewardAcoin": 450
  },
  {
    "accumulateExp": 795140,
    "level": 188,
    "needExp": 6801,
    "rewardAcoin": 500
  },
  {
    "accumulateExp": 802050,
    "level": 189,
    "needExp": 6910,
    "rewardAcoin": 550
  },
  {
    "accumulateExp": 809082,
    "level": 190,
    "needExp": 7032,
    "rewardAcoin": 1500
  },
  {
    "accumulateExp": 816284,
    "level": 191,
    "needExp": 7202,
    "rewardAcoin": 200
  },
  {
    "accumulateExp": 823670,
    "level": 192,
    "needExp": 7386,
    "rewardAcoin": 250
  },
  {
    "accumulateExp": 831256,
    "level": 193,
    "needExp": 7586,
    "rewardAcoin": 300
  },
  {
    "accumulateExp": 839022,
    "level": 194,
    "needExp": 7766,
    "rewardAcoin": 350
  },
  {
    "accumulateExp": 846988,
    "level": 195,
    "needExp": 7966,
    "rewardAcoin": 700
  },
  {
    "accumulateExp": 855132,
    "level": 196,
    "needExp": 8144,
    "rewardAcoin": 400
  },
  {
    "accumulateExp": 863446,
    "level": 197,
    "needExp": 8314,
    "rewardAcoin": 450
  },
  {
    "accumulateExp": 871958,
    "level": 198,
    "needExp": 8512,
    "rewardAcoin": 500
  },
  {
    "accumulateExp": 880703,
    "level": 199,
    "needExp": 8745,
    "rewardAcoin": 550
  },
  {
    "accumulateExp": 889687,
    "level": 200,
    "needExp": 8984,
    "rewardAcoin": 1500
  },
  {
    "accumulateExp": 894719,
    "level": 201,
    "needExp": 5032,
    "rewardAcoin": 200
  },
  {
    "accumulateExp": 899877,
    "level": 202,
    "needExp": 5158,
    "rewardAcoin": 250
  },
  {
    "accumulateExp": 905129,
    "level": 203,
    "needExp": 5252,
    "rewardAcoin": 300
  },
  {
    "accumulateExp": 910473,
    "level": 204,
    "needExp": 5344,
    "rewardAcoin": 350
  },
  {
    "accumulateExp": 915911,
    "level": 205,
    "needExp": 5438,
    "rewardAcoin": 700
  },
  {
    "accumulateExp": 921633,
    "level": 206,
    "needExp": 5722,
    "rewardAcoin": 400
  },
  {
    "accumulateExp": 927579,
    "level": 207,
    "needExp": 5946,
    "rewardAcoin": 450
  },
  {
    "accumulateExp": 933693,
    "level": 208,
    "needExp": 6114,
    "rewardAcoin": 500
  },
  {
    "accumulateExp": 939953,
    "level": 209,
    "needExp": 6260,
    "rewardAcoin": 550
  },
  {
    "accumulateExp": 946339,
    "level": 210,
    "needExp": 6386,
    "rewardAcoin": 1500
  },
  {
    "accumulateExp": 952851,
    "level": 211,
    "needExp": 6512,
    "rewardAcoin": 200
  },
  {
    "accumulateExp": 959489,
    "level": 212,
    "needExp": 6638,
    "rewardAcoin": 250
  },
  {
    "accumulateExp": 966290,
    "level": 213,
    "needExp": 6801,
    "rewardAcoin": 300
  },
  {
    "accumulateExp": 973200,
    "level": 214,
    "needExp": 6910,
    "rewardAcoin": 350
  },
  {
    "accumulateExp": 980232,
    "level": 215,
    "needExp": 7032,
    "rewardAcoin": 700
  },
  {
    "accumulateExp": 987434,
    "level": 216,
    "needExp": 7202,
    "rewardAcoin": 400
  },
  {
    "accumulateExp": 994820,
    "level": 217,
    "needExp": 7386,
    "rewardAcoin": 450
  },
  {
    "accumulateExp": 1002406,
    "level": 218,
    "needExp": 7586,
    "rewardAcoin": 500
  },
  {
    "accumulateExp": 1010172,
    "level": 219,
    "needExp": 7766,
    "rewardAcoin": 550
  },
  {
    "accumulateExp": 1018138,
    "level": 220,
    "needExp": 7966,
    "rewardAcoin": 1500
  },
  {
    "accumulateExp": 1026282,
    "level": 221,
    "needExp": 8144,
    "rewardAcoin": 200
  },
  {
    "accumulateExp": 1034596,
    "level": 222,
    "needExp": 8314,
    "rewardAcoin": 250
  },
  {
    "accumulateExp": 1043108,
    "level": 223,
    "needExp": 8512,
    "rewardAcoin": 300
  },
  {
    "accumulateExp": 1051853,
    "level": 224,
    "needExp": 8745,
    "rewardAcoin": 350
  },
  {
    "accumulateExp": 1060837,
    "level": 225,
    "needExp": 8984,
    "rewardAcoin": 700
  },
  {
    "accumulateExp": 1065869,
    "level": 226,
    "needExp": 5032,
    "rewardAcoin": 400
  },
  {
    "accumulateExp": 1071027,
    "level": 227,
    "needExp": 5158,
    "rewardAcoin": 450
  },
  {
    "accumulateExp": 1076279,
    "level": 228,
    "needExp": 5252,
    "rewardAcoin": 500
  },
  {
    "accumulateExp": 1081623,
    "level": 229,
    "needExp": 5344,
    "rewardAcoin": 550
  },
  {
    "accumulateExp": 1087061,
    "level": 230,
    "needExp": 5438,
    "rewardAcoin": 1500
  },
  {
    "accumulateExp": 1092783,
    "level": 231,
    "needExp": 5722,
    "rewardAcoin": 200
  },
  {
    "accumulateExp": 1098729,
    "level": 232,
    "needExp": 5946,
    "rewardAcoin": 250
  },
  {
    "accumulateExp": 1104843,
    "level": 233,
    "needExp": 6114,
    "rewardAcoin": 300
  },
  {
    "accumulateExp": 1111103,
    "level": 234,
    "needExp": 6260,
    "rewardAcoin": 350
  },
  {
    "accumulateExp": 1117489,
    "level": 235,
    "needExp": 6386,
    "rewardAcoin": 700
  },
  {
    "accumulateExp": 1124001,
    "level": 236,
    "needExp": 6512,
    "rewardAcoin": 400
  },
  {
    "accumulateExp": 1130639,
    "level": 237,
    "needExp": 6638,
    "rewardAcoin": 450
  },
  {
    "accumulateExp": 1137440,
    "level": 238,
    "needExp": 6801,
    "rewardAcoin": 500
  },
  {
    "accumulateExp": 1144350,
    "level": 239,
    "needExp": 6910,
    "rewardAcoin": 550
  },
  {
    "accumulateExp": 1151382,
    "level": 240,
    "needExp": 7032,
    "rewardAcoin": 1500
  },
  {
    "accumulateExp": 1158584,
    "level": 241,
    "needExp": 7202,
    "rewardAcoin": 200
  },
  {
    "accumulateExp": 1165970,
    "level": 242,
    "needExp": 7386,
    "rewardAcoin": 250
  },
  {
    "accumulateExp": 1173556,
    "level": 243,
    "needExp": 7586,
    "rewardAcoin": 300
  },
  {
    "accumulateExp": 1181322,
    "level": 244,
    "needExp": 7766,
    "rewardAcoin": 350
  },
  {
    "accumulateExp": 1189288,
    "level": 245,
    "needExp": 7966,
    "rewardAcoin": 700
  },
  {
    "accumulateExp": 1197432,
    "level": 246,
    "needExp": 8144,
    "rewardAcoin": 400
  },
  {
    "accumulateExp": 1205746,
    "level": 247,
    "needExp": 8314,
    "rewardAcoin": 450
  },
  {
    "accumulateExp": 1214258,
    "level": 248,
    "needExp": 8512,
    "rewardAcoin": 500
  },
  {
    "accumulateExp": 1223003,
    "level": 249,
    "needExp": 8745,
    "rewardAcoin": 550
  },
  {
    "accumulateExp": 1231987,
    "level": 250,
    "needExp": 8984,
    "rewardAcoin": 1500
  },
  {
    "accumulateExp": 1237019,
    "level": 251,
    "needExp": 5032,
    "rewardAcoin": 200
  },
  {
    "accumulateExp": 1242177,
    "level": 252,
    "needExp": 5158,
    "rewardAcoin": 250
  },
  {
    "accumulateExp": 1247429,
    "level": 253,
    "needExp": 5252,
    "rewardAcoin": 300
  },
  {
    "accumulateExp": 1252773,
    "level": 254,
    "needExp": 5344,
    "rewardAcoin": 350
  },
  {
    "accumulateExp": 1258211,
    "level": 255,
    "needExp": 5438,
    "rewardAcoin": 700
  },
  {
    "accumulateExp": 1263933,
    "level": 256,
    "needExp": 5722,
    "rewardAcoin": 400
  },
  {
    "accumulateExp": 1269879,
    "level": 257,
    "needExp": 5946,
    "rewardAcoin": 450
  },
  {
    "accumulateExp": 1275993,
    "level": 258,
    "needExp": 6114,
    "rewardAcoin": 500
  },
  {
    "accumulateExp": 1282253,
    "level": 259,
    "needExp": 6260,
    "rewardAcoin": 550
  },
  {
    "accumulateExp": 1288639,
    "level": 260,
    "needExp": 6386,
    "rewardAcoin": 1500
  },
  {
    "accumulateExp": 1295151,
    "level": 261,
    "needExp": 6512,
    "rewardAcoin": 200
  },
  {
    "accumulateExp": 1301789,
    "level": 262,
    "needExp": 6638,
    "rewardAcoin": 250
  },
  {
    "accumulateExp": 1308590,
    "level": 263,
    "needExp": 6801,
    "rewardAcoin": 300
  },
  {
    "accumulateExp": 1315500,
    "level": 264,
    "needExp": 6910,
    "rewardAcoin": 350
  },
  {
    "accumulateExp": 1322532,
    "level": 265,
    "needExp": 7032,
    "rewardAcoin": 700
  },
  {
    "accumulateExp": 1329734,
    "level": 266,
    "needExp": 7202,
    "rewardAcoin": 400
  },
  {
    "accumulateExp": 1337120,
    "level": 267,
    "needExp": 7386,
    "rewardAcoin": 450
  },
  {
    "accumulateExp": 1344706,
    "level": 268,
    "needExp": 7586,
    "rewardAcoin": 500
  },
  {
    "accumulateExp": 1352472,
    "level": 269,
    "needExp": 7766,
    "rewardAcoin": 550
  },
  {
    "accumulateExp": 1360438,
    "level": 270,
    "needExp": 7966,
    "rewardAcoin": 1500
  },
  {
    "accumulateExp": 1368582,
    "level": 271,
    "needExp": 8144,
    "rewardAcoin": 200
  },
  {
    "accumulateExp": 1376896,
    "level": 272,
    "needExp": 8314,
    "rewardAcoin": 250
  },
  {
    "accumulateExp": 1385408,
    "level": 273,
    "needExp": 8512,
    "rewardAcoin": 300
  },
  {
    "accumulateExp": 1394153,
    "level": 274,
    "needExp": 8745,
    "rewardAcoin": 350
  },
  {
    "accumulateExp": 1403137,
    "level": 275,
    "needExp": 8984,
    "rewardAcoin": 700
  },
  {
    "accumulateExp": 1408169,
    "level": 276,
    "needExp": 5032,
    "rewardAcoin": 400
  },
  {
    "accumulateExp": 1413327,
    "level": 277,
    "needExp": 5158,
    "rewardAcoin": 450
  },
  {
    "accumulateExp": 1418579,
    "level": 278,
    "needExp": 5252,
    "rewardAcoin": 500
  },
  {
    "accumulateExp": 1423923,
    "level": 279,
    "needExp": 5344,
    "rewardAcoin": 550
  },
  {
    "accumulateExp": 1429361,
    "level": 280,
    "needExp": 5438,
    "rewardAcoin": 1500
  },
  {
    "accumulateExp": 1435083,
    "level": 281,
    "needExp": 5722,
    "rewardAcoin": 200
  },
  {
    "accumulateExp": 1441029,
    "level": 282,
    "needExp": 5946,
    "rewardAcoin": 250
  },
  {
    "accumulateExp": 1447143,
    "level": 283,
    "needExp": 6114,
    "rewardAcoin": 300
  },
  {
    "accumulateExp": 1453403,
    "level": 284,
    "needExp": 6260,
    "rewardAcoin": 350
  },
  {
    "accumulateExp": 1459789,
    "level": 285,
    "needExp": 6386,
    "rewardAcoin": 700
  },
  {
    "accumulateExp": 1466301,
    "level": 286,
    "needExp": 6512,
    "rewardAcoin": 400
  },
  {
    "accumulateExp": 1472939,
    "level": 287,
    "needExp": 6638,
    "rewardAcoin": 450
  },
  {
    "accumulateExp": 1479740,
    "level": 288,
    "needExp": 6801,
    "rewardAcoin": 500
  },
  {
    "accumulateExp": 1486650,
    "level": 289,
    "needExp": 6910,
    "rewardAcoin": 550
  },
  {
    "accumulateExp": 1493682,
    "level": 290,
    "needExp": 7032,
    "rewardAcoin": 1500
  },
  {
    "accumulateExp": 1500884,
    "level": 291,
    "needExp": 7202,
    "rewardAcoin": 200
  },
  {
    "accumulateExp": 1508270,
    "level": 292,
    "needExp": 7386,
    "rewardAcoin": 250
  },
  {
    "accumulateExp": 1515856,
    "level": 293,
    "needExp": 7586,
    "rewardAcoin": 300
  },
  {
    "accumulateExp": 1523622,
    "level": 294,
    "needExp": 7766,
    "rewardAcoin": 350
  },
  {
    "accumulateExp": 1531588,
    "level": 295,
    "needExp": 7966,
    "rewardAcoin": 700
  },
  {
    "accumulateExp": 1539732,
    "level": 296,
    "needExp": 8144,
    "rewardAcoin": 400
  },
  {
    "accumulateExp": 1548046,
    "level": 297,
    "needExp": 8314,
    "rewardAcoin": 450
  },
  {
    "accumulateExp": 1556558,
    "level": 298,
    "needExp": 8512,
    "rewardAcoin": 500
  },
  {
    "accumulateExp": 1565303,
    "level": 299,
    "needExp": 8745,
    "rewardAcoin": 550
  },
  {
    "accumulateExp": 1574287,
    "level": 300,
    "needExp": 8984,
    "rewardAcoin": 1500
  },
  {
    "accumulateExp": 1579319,
    "level": 301,
    "needExp": 5032,
    "rewardAcoin": 200
  },
  {
    "accumulateExp": 1584477,
    "level": 302,
    "needExp": 5158,
    "rewardAcoin": 250
  },
  {
    "accumulateExp": 1589729,
    "level": 303,
    "needExp": 5252,
    "rewardAcoin": 300
  },
  {
    "accumulateExp": 1595073,
    "level": 304,
    "needExp": 5344,
    "rewardAcoin": 350
  },
  {
    "accumulateExp": 1600511,
    "level": 305,
    "needExp": 5438,
    "rewardAcoin": 700
  },
  {
    "accumulateExp": 1606233,
    "level": 306,
    "needExp": 5722,
    "rewardAcoin": 400
  },
  {
    "accumulateExp": 1612179,
    "level": 307,
    "needExp": 5946,
    "rewardAcoin": 450
  },
  {
    "accumulateExp": 1618293,
    "level": 308,
    "needExp": 6114,
    "rewardAcoin": 500
  },
  {
    "accumulateExp": 1624553,
    "level": 309,
    "needExp": 6260,
    "rewardAcoin": 550
  },
  {
    "accumulateExp": 1630939,
    "level": 310,
    "needExp": 6386,
    "rewardAcoin": 1500
  },
  {
    "accumulateExp": 1637451,
    "level": 311,
    "needExp": 6512,
    "rewardAcoin": 200
  },
  {
    "accumulateExp": 1644089,
    "level": 312,
    "needExp": 6638,
    "rewardAcoin": 250
  },
  {
    "accumulateExp": 1650890,
    "level": 313,
    "needExp": 6801,
    "rewardAcoin": 300
  },
  {
    "accumulateExp": 1657800,
    "level": 314,
    "needExp": 6910,
    "rewardAcoin": 350
  },
  {
    "accumulateExp": 1664832,
    "level": 315,
    "needExp": 7032,
    "rewardAcoin": 700
  },
  {
    "accumulateExp": 1672034,
    "level": 316,
    "needExp": 7202,
    "rewardAcoin": 400
  },
  {
    "accumulateExp": 1679420,
    "level": 317,
    "needExp": 7386,
    "rewardAcoin": 450
  },
  {
    "accumulateExp": 1687006,
    "level": 318,
    "needExp": 7586,
    "rewardAcoin": 500
  },
  {
    "accumulateExp": 1694772,
    "level": 319,
    "needExp": 7766,
    "rewardAcoin": 550
  },
  {
    "accumulateExp": 1702738,
    "level": 320,
    "needExp": 7966,
    "rewardAcoin": 1500
  },
  {
    "accumulateExp": 1710882,
    "level": 321,
    "needExp": 8144,
    "rewardAcoin": 200
  },
  {
    "accumulateExp": 1719196,
    "level": 322,
    "needExp": 8314,
    "rewardAcoin": 250
  },
  {
    "accumulateExp": 1727708,
    "level": 323,
    "needExp": 8512,
    "rewardAcoin": 300
  },
  {
    "accumulateExp": 1736453,
    "level": 324,
    "needExp": 8745,
    "rewardAcoin": 350
  },
  {
    "accumulateExp": 1745437,
    "level": 325,
    "needExp": 8984,
    "rewardAcoin": 700
  },
  {
    "accumulateExp": 1750469,
    "level": 326,
    "needExp": 5032,
    "rewardAcoin": 400
  },
  {
    "accumulateExp": 1755627,
    "level": 327,
    "needExp": 5158,
    "rewardAcoin": 450
  },
  {
    "accumulateExp": 1760879,
    "level": 328,
    "needExp": 5252,
    "rewardAcoin": 500
  },
  {
    "accumulateExp": 1766223,
    "level": 329,
    "needExp": 5344,
    "rewardAcoin": 550
  },
  {
    "accumulateExp": 1771661,
    "level": 330,
    "needExp": 5438,
    "rewardAcoin": 1500
  },
  {
    "accumulateExp": 1777383,
    "level": 331,
    "needExp": 5722,
    "rewardAcoin": 200
  },
  {
    "accumulateExp": 1783329,
    "level": 332,
    "needExp": 5946,
    "rewardAcoin": 250
  },
  {
    "accumulateExp": 1789443,
    "level": 333,
    "needExp": 6114,
    "rewardAcoin": 300
  },
  {
    "accumulateExp": 1795703,
    "level": 334,
    "needExp": 6260,
    "rewardAcoin": 350
  },
  {
    "accumulateExp": 1802089,
    "level": 335,
    "needExp": 6386,
    "rewardAcoin": 700
  },
  {
    "accumulateExp": 1808601,
    "level": 336,
    "needExp": 6512,
    "rewardAcoin": 400
  },
  {
    "accumulateExp": 1815239,
    "level": 337,
    "needExp": 6638,
    "rewardAcoin": 450
  },
  {
    "accumulateExp": 1822040,
    "level": 338,
    "needExp": 6801,
    "rewardAcoin": 500
  },
  {
    "accumulateExp": 1828950,
    "level": 339,
    "needExp": 6910,
    "rewardAcoin": 550
  },
  {
    "accumulateExp": 1835982,
    "level": 340,
    "needExp": 7032,
    "rewardAcoin": 1500
  },
  {
    "accumulateExp": 1843184,
    "level": 341,
    "needExp": 7202,
    "rewardAcoin": 200
  },
  {
    "accumulateExp": 1850570,
    "level": 342,
    "needExp": 7386,
    "rewardAcoin": 250
  },
  {
    "accumulateExp": 1858156,
    "level": 343,
    "needExp": 7586,
    "rewardAcoin": 300
  },
  {
    "accumulateExp": 1865922,
    "level": 344,
    "needExp": 7766,
    "rewardAcoin": 350
  },
  {
    "accumulateExp": 1873888,
    "level": 345,
    "needExp": 7966,
    "rewardAcoin": 700
  },
  {
    "accumulateExp": 1882032,
    "level": 346,
    "needExp": 8144,
    "rewardAcoin": 400
  },
  {
    "accumulateExp": 1890346,
    "level": 347,
    "needExp": 8314,
    "rewardAcoin": 450
  },
  {
    "accumulateExp": 1898858,
    "level": 348,
    "needExp": 8512,
    "rewardAcoin": 500
  },
  {
    "accumulateExp": 1907603,
    "level": 349,
    "needExp": 8745,
    "rewardAcoin": 550
  },
  {
    "accumulateExp": 1916587,
    "level": 350,
    "needExp": 8984,
    "rewardAcoin": 1500
  },
  {
    "accumulateExp": 1921619,
    "level": 351,
    "needExp": 5032,
    "rewardAcoin": 200
  },
  {
    "accumulateExp": 1926777,
    "level": 352,
    "needExp": 5158,
    "rewardAcoin": 250
  },
  {
    "accumulateExp": 1932029,
    "level": 353,
    "needExp": 5252,
    "rewardAcoin": 300
  },
  {
    "accumulateExp": 1937373,
    "level": 354,
    "needExp": 5344,
    "rewardAcoin": 350
  },
  {
    "accumulateExp": 1942811,
    "level": 355,
    "needExp": 5438,
    "rewardAcoin": 700
  },
  {
    "accumulateExp": 1948533,
    "level": 356,
    "needExp": 5722,
    "rewardAcoin": 400
  },
  {
    "accumulateExp": 1954479,
    "level": 357,
    "needExp": 5946,
    "rewardAcoin": 450
  },
  {
    "accumulateExp": 1960593,
    "level": 358,
    "needExp": 6114,
    "rewardAcoin": 500
  },
  {
    "accumulateExp": 1966853,
    "level": 359,
    "needExp": 6260,
    "rewardAcoin": 550
  },
  {
    "accumulateExp": 1973239,
    "level": 360,
    "needExp": 6386,
    "rewardAcoin": 1500
  },
  {
    "accumulateExp": 1979751,
    "level": 361,
    "needExp": 6512,
    "rewardAcoin": 200
  },
  {
    "accumulateExp": 1986389,
    "level": 362,
    "needExp": 6638,
    "rewardAcoin": 250
  },
  {
    "accumulateExp": 1993190,
    "level": 363,
    "needExp": 6801,
    "rewardAcoin": 300
  },
  {
    "accumulateExp": 2000100,
    "level": 364,
    "needExp": 6910,
    "rewardAcoin": 350
  },
  {
    "accumulateExp": 2007132,
    "level": 365,
    "needExp": 7032,
    "rewardAcoin": 700
  },
  {
    "accumulateExp": 2014334,
    "level": 366,
    "needExp": 7202,
    "rewardAcoin": 400
  },
  {
    "accumulateExp": 2021720,
    "level": 367,
    "needExp": 7386,
    "rewardAcoin": 450
  },
  {
    "accumulateExp": 2029306,
    "level": 368,
    "needExp": 7586,
    "rewardAcoin": 500
  },
  {
    "accumulateExp": 2037072,
    "level": 369,
    "needExp": 7766,
    "rewardAcoin": 550
  },
  {
    "accumulateExp": 2045038,
    "level": 370,
    "needExp": 7966,
    "rewardAcoin": 1500
  },
  {
    "accumulateExp": 2053182,
    "level": 371,
    "needExp": 8144,
    "rewardAcoin": 200
  },
  {
    "accumulateExp": 2061496,
    "level": 372,
    "needExp": 8314,
    "rewardAcoin": 250
  },
  {
    "accumulateExp": 2070008,
    "level": 373,
    "needExp": 8512,
    "rewardAcoin": 300
  },
  {
    "accumulateExp": 2078753,
    "level": 374,
    "needExp": 8745,
    "rewardAcoin": 350
  },
  {
    "accumulateExp": 2087737,
    "level": 375,
    "needExp": 8984,
    "rewardAcoin": 700
  },
  {
    "accumulateExp": 2092769,
    "level": 376,
    "needExp": 5032,
    "rewardAcoin": 400
  },
  {
    "accumulateExp": 2097927,
    "level": 377,
    "needExp": 5158,
    "rewardAcoin": 450
  },
  {
    "accumulateExp": 2103179,
    "level": 378,
    "needExp": 5252,
    "rewardAcoin": 500
  },
  {
    "accumulateExp": 2108523,
    "level": 379,
    "needExp": 5344,
    "rewardAcoin": 550
  },
  {
    "accumulateExp": 2113961,
    "level": 380,
    "needExp": 5438,
    "rewardAcoin": 1500
  },
  {
    "accumulateExp": 2119683,
    "level": 381,
    "needExp": 5722,
    "rewardAcoin": 200
  },
  {
    "accumulateExp": 2125629,
    "level": 382,
    "needExp": 5946,
    "rewardAcoin": 250
  },
  {
    "accumulateExp": 2131743,
    "level": 383,
    "needExp": 6114,
    "rewardAcoin": 300
  },
  {
    "accumulateExp": 2138003,
    "level": 384,
    "needExp": 6260,
    "rewardAcoin": 350
  },
  {
    "accumulateExp": 2144389,
    "level": 385,
    "needExp": 6386,
    "rewardAcoin": 700
  },
  {
    "accumulateExp": 2150901,
    "level": 386,
    "needExp": 6512,
    "rewardAcoin": 400
  },
  {
    "accumulateExp": 2157539,
    "level": 387,
    "needExp": 6638,
    "rewardAcoin": 450
  },
  {
    "accumulateExp": 2164340,
    "level": 388,
    "needExp": 6801,
    "rewardAcoin": 500
  },
  {
    "accumulateExp": 2171250,
    "level": 389,
    "needExp": 6910,
    "rewardAcoin": 550
  },
  {
    "accumulateExp": 2178282,
    "level": 390,
    "needExp": 7032,
    "rewardAcoin": 1500
  },
  {
    "accumulateExp": 2185484,
    "level": 391,
    "needExp": 7202,
    "rewardAcoin": 200
  },
  {
    "accumulateExp": 2192870,
    "level": 392,
    "needExp": 7386,
    "rewardAcoin": 250
  },
  {
    "accumulateExp": 2200456,
    "level": 393,
    "needExp": 7586,
    "rewardAcoin": 300
  },
  {
    "accumulateExp": 2208222,
    "level": 394,
    "needExp": 7766,
    "rewardAcoin": 350
  },
  {
    "accumulateExp": 2216188,
    "level": 395,
    "needExp": 7966,
    "rewardAcoin": 700
  },
  {
    "accumulateExp": 2224332,
    "level": 396,
    "needExp": 8144,
    "rewardAcoin": 400
  },
  {
    "accumulateExp": 2232646,
    "level": 397,
    "needExp": 8314,
    "rewardAcoin": 450
  },
  {
    "accumulateExp": 2241158,
    "level": 398,
    "needExp": 8512,
    "rewardAcoin": 500
  },
  {
    "accumulateExp": 2249903,
    "level": 399,
    "needExp": 8745,
    "rewardAcoin": 550
  },
  {
    "accumulateExp": 2258887,
    "level": 400,
    "needExp": 8984,
    "rewardAcoin": 1500
  },
  {
    "accumulateExp": 1579319,
    "level": 401,
    "needExp": 5032,
    "rewardAcoin": 200
  },
  {
    "accumulateExp": 1584477,
    "level": 402,
    "needExp": 5158,
    "rewardAcoin": 250
  },
  {
    "accumulateExp": 1589729,
    "level": 403,
    "needExp": 5252,
    "rewardAcoin": 300
  },
  {
    "accumulateExp": 1595073,
    "level": 404,
    "needExp": 5344,
    "rewardAcoin": 350
  },
  {
    "accumulateExp": 1600511,
    "level": 405,
    "needExp": 5438,
    "rewardAcoin": 700
  },
  {
    "accumulateExp": 1606233,
    "level": 406,
    "needExp": 5722,
    "rewardAcoin": 400
  },
  {
    "accumulateExp": 1612179,
    "level": 407,
    "needExp": 5946,
    "rewardAcoin": 450
  },
  {
    "accumulateExp": 1618293,
    "level": 408,
    "needExp": 6114,
    "rewardAcoin": 500
  },
  {
    "accumulateExp": 1624553,
    "level": 409,
    "needExp": 6260,
    "rewardAcoin": 550
  },
  {
    "accumulateExp": 1630939,
    "level": 410,
    "needExp": 6386,
    "rewardAcoin": 1500
  },
  {
    "accumulateExp": 1637451,
    "level": 411,
    "needExp": 6512,
    "rewardAcoin": 200
  },
  {
    "accumulateExp": 1644089,
    "level": 412,
    "needExp": 6638,
    "rewardAcoin": 250
  },
  {
    "accumulateExp": 1650890,
    "level": 413,
    "needExp": 6801,
    "rewardAcoin": 300
  },
  {
    "accumulateExp": 1657800,
    "level": 414,
    "needExp": 6910,
    "rewardAcoin": 350
  },
  {
    "accumulateExp": 1664832,
    "level": 415,
    "needExp": 7032,
    "rewardAcoin": 700
  },
  {
    "accumulateExp": 1672034,
    "level": 416,
    "needExp": 7202,
    "rewardAcoin": 400
  },
  {
    "accumulateExp": 1679420,
    "level": 417,
    "needExp": 7386,
    "rewardAcoin": 450
  },
  {
    "accumulateExp": 1687006,
    "level": 418,
    "needExp": 7586,
    "rewardAcoin": 500
  },
  {
    "accumulateExp": 1694772,
    "level": 419,
    "needExp": 7766,
    "rewardAcoin": 550
  },
  {
    "accumulateExp": 1702738,
    "level": 420,
    "needExp": 7966,
    "rewardAcoin": 1500
  },
  {
    "accumulateExp": 1710882,
    "level": 421,
    "needExp": 8144,
    "rewardAcoin": 200
  },
  {
    "accumulateExp": 1719196,
    "level": 422,
    "needExp": 8314,
    "rewardAcoin": 250
  },
  {
    "accumulateExp": 1727708,
    "level": 423,
    "needExp": 8512,
    "rewardAcoin": 300
  },
  {
    "accumulateExp": 1736453,
    "level": 424,
    "needExp": 8745,
    "rewardAcoin": 350
  },
  {
    "accumulateExp": 1745437,
    "level": 425,
    "needExp": 8984,
    "rewardAcoin": 700
  },
  {
    "accumulateExp": 1750469,
    "level": 426,
    "needExp": 5032,
    "rewardAcoin": 400
  },
  {
    "accumulateExp": 1755627,
    "level": 427,
    "needExp": 5158,
    "rewardAcoin": 450
  },
  {
    "accumulateExp": 1760879,
    "level": 428,
    "needExp": 5252,
    "rewardAcoin": 500
  },
  {
    "accumulateExp": 1766223,
    "level": 429,
    "needExp": 5344,
    "rewardAcoin": 550
  },
  {
    "accumulateExp": 1771661,
    "level": 430,
    "needExp": 5438,
    "rewardAcoin": 1500
  },
  {
    "accumulateExp": 1777383,
    "level": 431,
    "needExp": 5722,
    "rewardAcoin": 200
  },
  {
    "accumulateExp": 1783329,
    "level": 432,
    "needExp": 5946,
    "rewardAcoin": 250
  },
  {
    "accumulateExp": 1789443,
    "level": 433,
    "needExp": 6114,
    "rewardAcoin": 300
  },
  {
    "accumulateExp": 1795703,
    "level": 434,
    "needExp": 6260,
    "rewardAcoin": 350
  },
  {
    "accumulateExp": 1802089,
    "level": 435,
    "needExp": 6386,
    "rewardAcoin": 700
  },
  {
    "accumulateExp": 1808601,
    "level": 436,
    "needExp": 6512,
    "rewardAcoin": 400
  },
  {
    "accumulateExp": 1815239,
    "level": 437,
    "needExp": 6638,
    "rewardAcoin": 450
  },
  {
    "accumulateExp": 1822040,
    "level": 438,
    "needExp": 6801,
    "rewardAcoin": 500
  },
  {
    "accumulateExp": 1828950,
    "level": 439,
    "needExp": 6910,
    "rewardAcoin": 550
  },
  {
    "accumulateExp": 1835982,
    "level": 440,
    "needExp": 7032,
    "rewardAcoin": 1500
  },
  {
    "accumulateExp": 1843184,
    "level": 441,
    "needExp": 7202,
    "rewardAcoin": 200
  },
  {
    "accumulateExp": 1850570,
    "level": 442,
    "needExp": 7386,
    "rewardAcoin": 250
  },
  {
    "accumulateExp": 1858156,
    "level": 443,
    "needExp": 7586,
    "rewardAcoin": 300
  },
  {
    "accumulateExp": 1865922,
    "level": 444,
    "needExp": 7766,
    "rewardAcoin": 350
  },
  {
    "accumulateExp": 1873888,
    "level": 445,
    "needExp": 7966,
    "rewardAcoin": 700
  },
  {
    "accumulateExp": 1882032,
    "level": 446,
    "needExp": 8144,
    "rewardAcoin": 400
  },
  {
    "accumulateExp": 1890346,
    "level": 447,
    "needExp": 8314,
    "rewardAcoin": 450
  },
  {
    "accumulateExp": 1898858,
    "level": 448,
    "needExp": 8512,
    "rewardAcoin": 500
  },
  {
    "accumulateExp": 1907603,
    "level": 449,
    "needExp": 8745,
    "rewardAcoin": 550
  },
  {
    "accumulateExp": 1916587,
    "level": 450,
    "needExp": 8984,
    "rewardAcoin": 1500
  },
  {
    "accumulateExp": 1921619,
    "level": 451,
    "needExp": 5032,
    "rewardAcoin": 200
  },
  {
    "accumulateExp": 1926777,
    "level": 452,
    "needExp": 5158,
    "rewardAcoin": 250
  },
  {
    "accumulateExp": 1932029,
    "level": 453,
    "needExp": 5252,
    "rewardAcoin": 300
  },
  {
    "accumulateExp": 1937373,
    "level": 454,
    "needExp": 5344,
    "rewardAcoin": 350
  },
  {
    "accumulateExp": 1942811,
    "level": 455,
    "needExp": 5438,
    "rewardAcoin": 700
  },
  {
    "accumulateExp": 1948533,
    "level": 456,
    "needExp": 5722,
    "rewardAcoin": 400
  },
  {
    "accumulateExp": 1954479,
    "level": 457,
    "needExp": 5946,
    "rewardAcoin": 450
  },
  {
    "accumulateExp": 1960593,
    "level": 458,
    "needExp": 6114,
    "rewardAcoin": 500
  },
  {
    "accumulateExp": 1966853,
    "level": 459,
    "needExp": 6260,
    "rewardAcoin": 550
  },
  {
    "accumulateExp": 1973239,
    "level": 460,
    "needExp": 6386,
    "rewardAcoin": 1500
  },
  {
    "accumulateExp": 1979751,
    "level": 461,
    "needExp": 6512,
    "rewardAcoin": 200
  },
  {
    "accumulateExp": 1986389,
    "level": 462,
    "needExp": 6638,
    "rewardAcoin": 250
  },
  {
    "accumulateExp": 1993190,
    "level": 463,
    "needExp": 6801,
    "rewardAcoin": 300
  },
  {
    "accumulateExp": 2000100,
    "level": 464,
    "needExp": 6910,
    "rewardAcoin": 350
  },
  {
    "accumulateExp": 2007132,
    "level": 465,
    "needExp": 7032,
    "rewardAcoin": 700
  },
  {
    "accumulateExp": 2014334,
    "level": 466,
    "needExp": 7202,
    "rewardAcoin": 400
  },
  {
    "accumulateExp": 2021720,
    "level": 467,
    "needExp": 7386,
    "rewardAcoin": 450
  },
  {
    "accumulateExp": 2029306,
    "level": 468,
    "needExp": 7586,
    "rewardAcoin": 500
  },
  {
    "accumulateExp": 2037072,
    "level": 469,
    "needExp": 7766,
    "rewardAcoin": 550
  },
  {
    "accumulateExp": 2045038,
    "level": 470,
    "needExp": 7966,
    "rewardAcoin": 1500
  },
  {
    "accumulateExp": 2053182,
    "level": 471,
    "needExp": 8144,
    "rewardAcoin": 200
  },
  {
    "accumulateExp": 2061496,
    "level": 472,
    "needExp": 8314,
    "rewardAcoin": 250
  },
  {
    "accumulateExp": 2070008,
    "level": 473,
    "needExp": 8512,
    "rewardAcoin": 300
  },
  {
    "accumulateExp": 2078753,
    "level": 474,
    "needExp": 8745,
    "rewardAcoin": 350
  },
  {
    "accumulateExp": 2087737,
    "level": 475,
    "needExp": 8984,
    "rewardAcoin": 700
  },
  {
    "accumulateExp": 2092769,
    "level": 476,
    "needExp": 5032,
    "rewardAcoin": 400
  },
  {
    "accumulateExp": 2097927,
    "level": 477,
    "needExp": 5158,
    "rewardAcoin": 450
  },
  {
    "accumulateExp": 2103179,
    "level": 478,
    "needExp": 5252,
    "rewardAcoin": 500
  },
  {
    "accumulateExp": 2108523,
    "level": 479,
    "needExp": 5344,
    "rewardAcoin": 550
  },
  {
    "accumulateExp": 2113961,
    "level": 480,
    "needExp": 5438,
    "rewardAcoin": 1500
  },
  {
    "accumulateExp": 2119683,
    "level": 481,
    "needExp": 5722,
    "rewardAcoin": 200
  },
  {
    "accumulateExp": 2125629,
    "level": 482,
    "needExp": 5946,
    "rewardAcoin": 250
  },
  {
    "accumulateExp": 2131743,
    "level": 483,
    "needExp": 6114,
    "rewardAcoin": 300
  },
  {
    "accumulateExp": 2138003,
    "level": 484,
    "needExp": 6260,
    "rewardAcoin": 350
  },
  {
    "accumulateExp": 2144389,
    "level": 485,
    "needExp": 6386,
    "rewardAcoin": 700
  },
  {
    "accumulateExp": 2150901,
    "level": 486,
    "needExp": 6512,
    "rewardAcoin": 400
  },
  {
    "accumulateExp": 2157539,
    "level": 487,
    "needExp": 6638,
    "rewardAcoin": 450
  },
  {
    "accumulateExp": 2164340,
    "level": 488,
    "needExp": 6801,
    "rewardAcoin": 500
  },
  {
    "accumulateExp": 2171250,
    "level": 489,
    "needExp": 6910,
    "rewardAcoin": 550
  },
  {
    "accumulateExp": 2178282,
    "level": 490,
    "needExp": 7032,
    "rewardAcoin": 1500
  },
  {
    "accumulateExp": 2185484,
    "level": 491,
    "needExp": 7202,
    "rewardAcoin": 200
  },
  {
    "accumulateExp": 2192870,
    "level": 492,
    "needExp": 7386,
    "rewardAcoin": 250
  },
  {
    "accumulateExp": 2200456,
    "level": 493,
    "needExp": 7586,
    "rewardAcoin": 300
  },
  {
    "accumulateExp": 2208222,
    "level": 494,
    "needExp": 7766,
    "rewardAcoin": 350
  },
  {
    "accumulateExp": 2216188,
    "level": 495,
    "needExp": 7966,
    "rewardAcoin": 700
  },
  {
    "accumulateExp": 2224332,
    "level": 496,
    "needExp": 8144,
    "rewardAcoin": 400
  },
  {
    "accumulateExp": 2232646,
    "level": 497,
    "needExp": 8314,
    "rewardAcoin": 450
  },
  {
    "accumulateExp": 2241158,
    "level": 498,
    "needExp": 8512,
    "rewardAcoin": 500
  },
  {
    "accumulateExp": 2249903,
    "level": 499,
    "needExp": 8745,
    "rewardAcoin": 550
  },
  {
    "accumulateExp": 2258887,
    "level": 500,
    "needExp": 8984,
    "rewardAcoin": 1500
  },
  {
    "accumulateExp": 102258886,
    "level": 501,
    "needExp": 99999999,
    "rewardAcoin": 1
  }
]