[
  {
    "code": 2504001,
    "source1": "DRONE_SearchDron_Red",
    "source2": "DRONE_SearchDron_Blue",
    "source3": "",
    "source4": "",
    "target1": "DRONE_Crow_Red",
    "target2": "DRONE_Crow_Blue",
    "target3": "",
    "target4": ""
  },
  {
    "code": 2504002,
    "source1": "DRONE_SearchDron_Red",
    "source2": "DRONE_SearchDron_Blue",
    "source3": "",
    "source4": "",
    "target1": "DRONE_FenFire_Red",
    "target2": "DRONE_FenFire_Blue",
    "target3": "",
    "target4": ""
  },
  {
    "code": 2504003,
    "source1": "DRONE_SearchDron_Red",
    "source2": "DRONE_SearchDron_Blue",
    "source3": "",
    "source4": "",
    "target1": "DRONE_Fireworks_Red",
    "target2": "DRONE_Fireworks_Blue",
    "target3": "",
    "target4": ""
  },
  {
    "code": 2504004,
    "source1": "DRONE_SearchDron_Red",
    "source2": "DRONE_SearchDron_Blue",
    "source3": "",
    "source4": "",
    "target1": "DRONE_Parachute_Red",
    "target2": "DRONE_Parachute_Blue",
    "target3": "",
    "target4": ""
  },
  {
    "code": 2504005,
    "source1": "DRONE_SearchDron_Red",
    "source2": "DRONE_SearchDron_Blue",
    "source3": "",
    "source4": "",
    "target1": "DRONE_FlyingRobot_Red",
    "target2": "DRONE_FlyingRobot_Blue",
    "target3": "",
    "target4": ""
  },
  {
    "code": 2504006,
    "source1": "DRONE_SearchDron_Red",
    "source2": "DRONE_SearchDron_Blue",
    "source3": "",
    "source4": "",
    "target1": "DRONE_ButterFly_Red",
    "target2": "DRONE_ButterFly_Blue",
    "target3": "",
    "target4": ""
  },
  {
    "code": 2504007,
    "source1": "DRONE_SearchDron_Red",
    "source2": "DRONE_SearchDron_Blue",
    "source3": "",
    "source4": "",
    "target1": "DRONE_Ufo_Red",
    "target2": "DRONE_Ufo_Blue",
    "target3": "",
    "target4": ""
  },
  {
    "code": 2504008,
    "source1": "DRONE_SearchDron_Red",
    "source2": "DRONE_SearchDron_Blue",
    "source3": "",
    "source4": "",
    "target1": "DRONE_Hellicopter_Red",
    "target2": "DRONE_Hellicopter_Blue",
    "target3": "",
    "target4": ""
  },
  {
    "code": 2604001,
    "source1": "CAMERA_CCTV",
    "source2": "",
    "source3": "",
    "source4": "",
    "target1": "CAMERA_KoreanTotem",
    "target2": "",
    "target3": "",
    "target4": ""
  },
  {
    "code": 2604002,
    "source1": "CAMERA_CCTV",
    "source2": "",
    "source3": "",
    "source4": "",
    "target1": "CAMERA_DevilEye",
    "target2": "",
    "target3": "",
    "target4": ""
  },
  {
    "code": 2604003,
    "source1": "CAMERA_CCTV",
    "source2": "",
    "source3": "",
    "source4": "",
    "target1": "CAMERA_TotemPole",
    "target2": "",
    "target3": "",
    "target4": ""
  },
  {
    "code": 2604004,
    "source1": "CAMERA_CCTV",
    "source2": "",
    "source3": "",
    "source4": "",
    "target1": "CAMERA_Lighthouse",
    "target2": "",
    "target3": "",
    "target4": ""
  },
  {
    "code": 2604005,
    "source1": "CAMERA_CCTV",
    "source2": "",
    "source3": "",
    "source4": "",
    "target1": "CAMERA_360Camera",
    "target2": "",
    "target3": "",
    "target4": ""
  },
  {
    "code": 2604006,
    "source1": "CAMERA_CCTV",
    "source2": "",
    "source3": "",
    "source4": "",
    "target1": "CAMERA_Television",
    "target2": "",
    "target3": "",
    "target4": ""
  },
  {
    "code": 2604007,
    "source1": "CAMERA_CCTV",
    "source2": "",
    "source3": "",
    "source4": "",
    "target1": "CAMERA_Moodlamp",
    "target2": "",
    "target3": "",
    "target4": ""
  },
  {
    "code": 2604008,
    "source1": "CAMERA_CCTV",
    "source2": "",
    "source3": "",
    "source4": "",
    "target1": "CAMERA_Penguin",
    "target2": "",
    "target3": "",
    "target4": ""
  }
]