[
  {
    "code": 0,
    "dropAirSupply": "None",
    "duration": 40,
    "endCondition": "None",
    "preAnnounceTime": 10,
    "revival": "Always",
    "turbineLevel": 1,
    "turretLevel": 1
  },
  {
    "code": 1,
    "dropAirSupply": "None",
    "duration": 120,
    "endCondition": "Score0",
    "preAnnounceTime": 90,
    "revival": "Always",
    "turbineLevel": 1,
    "turretLevel": 1
  },
  {
    "code": 2,
    "dropAirSupply": "StartSpawn",
    "duration": 210,
    "endCondition": "Score0",
    "preAnnounceTime": 180,
    "revival": "Always",
    "turbineLevel": 2,
    "turretLevel": 2
  },
  {
    "code": 3,
    "dropAirSupply": "OnlyBaseCampSpawn",
    "duration": 750,
    "endCondition": "Score0",
    "preAnnounceTime": 690,
    "revival": "Always",
    "turbineLevel": 3,
    "turretLevel": 3
  },
  {
    "code": 4,
    "dropAirSupply": "None",
    "duration": 60,
    "endCondition": "FirstScore",
    "preAnnounceTime": 0,
    "revival": "Never",
    "turbineLevel": 3,
    "turretLevel": 4
  }
]