[
  {
    "seasonId": 1,
    "userNum": 445662
  },
  {
    "seasonId": 1,
    "userNum": 445544
  },
  {
    "seasonId": 1,
    "userNum": 922158
  },
  {
    "seasonId": 1,
    "userNum": 490897
  },
  {
    "seasonId": 1,
    "userNum": 1303481
  },
  {
    "seasonId": 1,
    "userNum": 26710
  },
  {
    "seasonId": 1,
    "userNum": 462802
  },
  {
    "seasonId": 1,
    "userNum": 931026
  },
  {
    "seasonId": 1,
    "userNum": 658051
  },
  {
    "seasonId": 1,
    "userNum": 880459
  },
  {
    "seasonId": 1,
    "userNum": 771301
  },
  {
    "seasonId": 1,
    "userNum": 1366922
  },
  {
    "seasonId": 1,
    "userNum": 1089909
  },
  {
    "seasonId": 1,
    "userNum": 2039830
  },
  {
    "seasonId": 1,
    "userNum": 568989
  },
  {
    "seasonId": 1,
    "userNum": 419760
  },
  {
    "seasonId": 1,
    "userNum": 1861159
  },
  {
    "seasonId": 1,
    "userNum": 58106
  },
  {
    "seasonId": 1,
    "userNum": 168544
  },
  {
    "seasonId": 1,
    "userNum": 1391791
  },
  {
    "seasonId": 1,
    "userNum": 1297322
  },
  {
    "seasonId": 1,
    "userNum": 1374679
  },
  {
    "seasonId": 1,
    "userNum": 787244
  },
  {
    "seasonId": 1,
    "userNum": 903876
  },
  {
    "seasonId": 1,
    "userNum": 194526
  },
  {
    "seasonId": 1,
    "userNum": 1552746
  },
  {
    "seasonId": 1,
    "userNum": 1791593
  },
  {
    "seasonId": 1,
    "userNum": 814681
  },
  {
    "seasonId": 1,
    "userNum": 687847
  },
  {
    "seasonId": 1,
    "userNum": 814776
  },
  {
    "seasonId": 1,
    "userNum": 417551
  },
  {
    "seasonId": 1,
    "userNum": 395129
  },
  {
    "seasonId": 1,
    "userNum": 120580
  },
  {
    "seasonId": 1,
    "userNum": 213928
  },
  {
    "seasonId": 1,
    "userNum": 1382488
  },
  {
    "seasonId": 1,
    "userNum": 1398083
  },
  {
    "seasonId": 1,
    "userNum": 574924
  },
  {
    "seasonId": 1,
    "userNum": 1673870
  },
  {
    "seasonId": 1,
    "userNum": 1703176
  },
  {
    "seasonId": 1,
    "userNum": 2143461
  },
  {
    "seasonId": 1,
    "userNum": 1636173
  },
  {
    "seasonId": 1,
    "userNum": 1338587
  },
  {
    "seasonId": 1,
    "userNum": 570944
  },
  {
    "seasonId": 1,
    "userNum": 1518213
  },
  {
    "seasonId": 1,
    "userNum": 1731423
  },
  {
    "seasonId": 1,
    "userNum": 1913868
  },
  {
    "seasonId": 1,
    "userNum": 2235899
  },
  {
    "seasonId": 1,
    "userNum": 2144910
  },
  {
    "seasonId": 1,
    "userNum": 1915317
  },
  {
    "seasonId": 1,
    "userNum": 283699
  },
  {
    "seasonId": 1,
    "userNum": 161300
  },
  {
    "seasonId": 1,
    "userNum": 1068945
  },
  {
    "seasonId": 1,
    "userNum": 516595
  },
  {
    "seasonId": 1,
    "userNum": 1407987
  },
  {
    "seasonId": 1,
    "userNum": 1772543
  },
  {
    "seasonId": 1,
    "userNum": 1643838
  },
  {
    "seasonId": 1,
    "userNum": 1749120
  },
  {
    "seasonId": 1,
    "userNum": 1786989
  },
  {
    "seasonId": 1,
    "userNum": 1677385
  },
  {
    "seasonId": 1,
    "userNum": 1747125
  },
  {
    "seasonId": 1,
    "userNum": 965589
  },
  {
    "seasonId": 1,
    "userNum": 60913
  },
  {
    "seasonId": 1,
    "userNum": 461262
  },
  {
    "seasonId": 1,
    "userNum": 520889
  },
  {
    "seasonId": 1,
    "userNum": 422712
  },
  {
    "seasonId": 1,
    "userNum": 705658
  },
  {
    "seasonId": 1,
    "userNum": 779736
  },
  {
    "seasonId": 1,
    "userNum": 252458
  },
  {
    "seasonId": 1,
    "userNum": 132192
  },
  {
    "seasonId": 1,
    "userNum": 680521
  },
  {
    "seasonId": 1,
    "userNum": 728757
  },
  {
    "seasonId": 1,
    "userNum": 611574
  },
  {
    "seasonId": 1,
    "userNum": 450137
  },
  {
    "seasonId": 1,
    "userNum": 92979
  },
  {
    "seasonId": 1,
    "userNum": 163437
  },
  {
    "seasonId": 1,
    "userNum": 1159562
  },
  {
    "seasonId": 1,
    "userNum": 1159432
  },
  {
    "seasonId": 1,
    "userNum": 1193633
  },
  {
    "seasonId": 1,
    "userNum": 1250200
  },
  {
    "seasonId": 1,
    "userNum": 1217653
  },
  {
    "seasonId": 1,
    "userNum": 181685
  },
  {
    "seasonId": 1,
    "userNum": 393345
  },
  {
    "seasonId": 1,
    "userNum": 1247060
  },
  {
    "seasonId": 1,
    "userNum": 1580581
  },
  {
    "seasonId": 1,
    "userNum": 1142389
  },
  {
    "seasonId": 1,
    "userNum": 1593405
  },
  {
    "seasonId": 1,
    "userNum": 870023
  },
  {
    "seasonId": 1,
    "userNum": 1880254
  },
  {
    "seasonId": 1,
    "userNum": 1977085
  },
  {
    "seasonId": 1,
    "userNum": 2016166
  },
  {
    "seasonId": 1,
    "userNum": 1183514
  },
  {
    "seasonId": 1,
    "userNum": 2368448
  },
  {
    "seasonId": 1,
    "userNum": 813397
  },
  {
    "seasonId": 1,
    "userNum": 707609
  },
  {
    "seasonId": 1,
    "userNum": 844288
  },
  {
    "seasonId": 1,
    "userNum": 2007075
  },
  {
    "seasonId": 1,
    "userNum": 319248
  },
  {
    "seasonId": 3,
    "userNum": 26710
  },
  {
    "seasonId": 3,
    "userNum": 760047
  },
  {
    "seasonId": 3,
    "userNum": 645609
  },
  {
    "seasonId": 3,
    "userNum": 950325
  },
  {
    "seasonId": 3,
    "userNum": 1740832
  },
  {
    "seasonId": 3,
    "userNum": 1257463
  },
  {
    "seasonId": 3,
    "userNum": 1366922
  },
  {
    "seasonId": 3,
    "userNum": 1187388
  },
  {
    "seasonId": 3,
    "userNum": 998148
  },
  {
    "seasonId": 3,
    "userNum": 2112274
  },
  {
    "seasonId": 3,
    "userNum": 254530
  },
  {
    "seasonId": 3,
    "userNum": 713667
  },
  {
    "seasonId": 3,
    "userNum": 1995594
  },
  {
    "seasonId": 3,
    "userNum": 1956175
  },
  {
    "seasonId": 3,
    "userNum": 877878
  },
  {
    "seasonId": 3,
    "userNum": 973793
  },
  {
    "seasonId": 3,
    "userNum": 1350820
  },
  {
    "seasonId": 3,
    "userNum": 1636772
  },
  {
    "seasonId": 3,
    "userNum": 510080
  },
  {
    "seasonId": 3,
    "userNum": 2090241
  },
  {
    "seasonId": 3,
    "userNum": 510179
  },
  {
    "seasonId": 3,
    "userNum": 1337430
  },
  {
    "seasonId": 3,
    "userNum": 622818
  },
  {
    "seasonId": 3,
    "userNum": 880459
  },
  {
    "seasonId": 3,
    "userNum": 1812810
  },
  {
    "seasonId": 3,
    "userNum": 291076
  },
  {
    "seasonId": 3,
    "userNum": 2515922
  },
  {
    "seasonId": 3,
    "userNum": 418725
  },
  {
    "seasonId": 3,
    "userNum": 1244548
  },
  {
    "seasonId": 3,
    "userNum": 490897
  },
  {
    "seasonId": 3,
    "userNum": 744325
  },
  {
    "seasonId": 3,
    "userNum": 233060
  },
  {
    "seasonId": 3,
    "userNum": 1675495
  },
  {
    "seasonId": 3,
    "userNum": 839730
  },
  {
    "seasonId": 3,
    "userNum": 2286337
  },
  {
    "seasonId": 3,
    "userNum": 1195526
  },
  {
    "seasonId": 3,
    "userNum": 1089909
  },
  {
    "seasonId": 3,
    "userNum": 2015013
  },
  {
    "seasonId": 3,
    "userNum": 1027091
  },
  {
    "seasonId": 3,
    "userNum": 2286146
  },
  {
    "seasonId": 3,
    "userNum": 1180987
  },
  {
    "seasonId": 3,
    "userNum": 977637
  },
  {
    "seasonId": 3,
    "userNum": 180100
  },
  {
    "seasonId": 3,
    "userNum": 1132914
  },
  {
    "seasonId": 3,
    "userNum": 1603086
  },
  {
    "seasonId": 3,
    "userNum": 807543
  },
  {
    "seasonId": 3,
    "userNum": 2361423
  },
  {
    "seasonId": 3,
    "userNum": 80163
  },
  {
    "seasonId": 3,
    "userNum": 2118656
  },
  {
    "seasonId": 3,
    "userNum": 2407437
  },
  {
    "seasonId": 3,
    "userNum": 2538895
  },
  {
    "seasonId": 3,
    "userNum": 1325810
  },
  {
    "seasonId": 3,
    "userNum": 2316159
  },
  {
    "seasonId": 3,
    "userNum": 83622
  },
  {
    "seasonId": 3,
    "userNum": 2486146
  },
  {
    "seasonId": 3,
    "userNum": 497968
  },
  {
    "seasonId": 3,
    "userNum": 1796984
  },
  {
    "seasonId": 3,
    "userNum": 97087
  },
  {
    "seasonId": 3,
    "userNum": 2683661
  },
  {
    "seasonId": 3,
    "userNum": 1256397
  },
  {
    "seasonId": 3,
    "userNum": 1114931
  },
  {
    "seasonId": 3,
    "userNum": 1791593
  },
  {
    "seasonId": 3,
    "userNum": 659448
  },
  {
    "seasonId": 3,
    "userNum": 65935
  },
  {
    "seasonId": 3,
    "userNum": 1724026
  },
  {
    "seasonId": 3,
    "userNum": 13189
  },
  {
    "seasonId": 3,
    "userNum": 730493
  },
  {
    "seasonId": 3,
    "userNum": 2702121
  },
  {
    "seasonId": 3,
    "userNum": 2105276
  },
  {
    "seasonId": 3,
    "userNum": 1930426
  },
  {
    "seasonId": 3,
    "userNum": 2308353
  },
  {
    "seasonId": 3,
    "userNum": 1177489
  },
  {
    "seasonId": 3,
    "userNum": 54539
  },
  {
    "seasonId": 3,
    "userNum": 1127830
  },
  {
    "seasonId": 3,
    "userNum": 1093615
  },
  {
    "seasonId": 3,
    "userNum": 1492807
  },
  {
    "seasonId": 3,
    "userNum": 758053
  },
  {
    "seasonId": 3,
    "userNum": 1579255
  },
  {
    "seasonId": 3,
    "userNum": 69568
  },
  {
    "seasonId": 5,
    "userNum": 1180987
  },
  {
    "seasonId": 5,
    "userNum": 254530
  },
  {
    "seasonId": 5,
    "userNum": 998148
  },
  {
    "seasonId": 5,
    "userNum": 419760
  },
  {
    "seasonId": 5,
    "userNum": 2486146
  },
  {
    "seasonId": 5,
    "userNum": 510179
  },
  {
    "seasonId": 5,
    "userNum": 2207109
  },
  {
    "seasonId": 5,
    "userNum": 1956175
  },
  {
    "seasonId": 5,
    "userNum": 180100
  },
  {
    "seasonId": 5,
    "userNum": 973793
  },
  {
    "seasonId": 5,
    "userNum": 1334167
  },
  {
    "seasonId": 5,
    "userNum": 2925229
  },
  {
    "seasonId": 5,
    "userNum": 2902818
  },
  {
    "seasonId": 5,
    "userNum": 131638
  },
  {
    "seasonId": 5,
    "userNum": 889649
  },
  {
    "seasonId": 5,
    "userNum": 337839
  },
  {
    "seasonId": 5,
    "userNum": 1256397
  },
  {
    "seasonId": 5,
    "userNum": 2407437
  },
  {
    "seasonId": 5,
    "userNum": 314154
  },
  {
    "seasonId": 5,
    "userNum": 835637
  },
  {
    "seasonId": 5,
    "userNum": 514471
  },
  {
    "seasonId": 5,
    "userNum": 2876567
  },
  {
    "seasonId": 5,
    "userNum": 1095059
  },
  {
    "seasonId": 5,
    "userNum": 2849386
  },
  {
    "seasonId": 5,
    "userNum": 986232
  },
  {
    "seasonId": 5,
    "userNum": 1159062
  },
  {
    "seasonId": 5,
    "userNum": 1727360
  },
  {
    "seasonId": 5,
    "userNum": 83622
  },
  {
    "seasonId": 5,
    "userNum": 1176548
  },
  {
    "seasonId": 5,
    "userNum": 763920
  },
  {
    "seasonId": 5,
    "userNum": 3042757
  },
  {
    "seasonId": 5,
    "userNum": 2994565
  },
  {
    "seasonId": 5,
    "userNum": 497968
  },
  {
    "seasonId": 5,
    "userNum": 580159
  },
  {
    "seasonId": 5,
    "userNum": 755286
  },
  {
    "seasonId": 5,
    "userNum": 2177409
  },
  {
    "seasonId": 5,
    "userNum": 2247508
  },
  {
    "seasonId": 5,
    "userNum": 1469466
  },
  {
    "seasonId": 5,
    "userNum": 2975784
  },
  {
    "seasonId": 5,
    "userNum": 2852393
  },
  {
    "seasonId": 5,
    "userNum": 645609
  },
  {
    "seasonId": 5,
    "userNum": 2719920
  },
  {
    "seasonId": 5,
    "userNum": 3039627
  },
  {
    "seasonId": 5,
    "userNum": 2849061
  },
  {
    "seasonId": 5,
    "userNum": 45029
  },
  {
    "seasonId": 5,
    "userNum": 221597
  },
  {
    "seasonId": 5,
    "userNum": 2830146
  },
  {
    "seasonId": 5,
    "userNum": 2868061
  },
  {
    "seasonId": 5,
    "userNum": 2880215
  },
  {
    "seasonId": 5,
    "userNum": 274892
  },
  {
    "seasonId": 5,
    "userNum": 243627
  },
  {
    "seasonId": 5,
    "userNum": 776723
  },
  {
    "seasonId": 5,
    "userNum": 681615
  },
  {
    "seasonId": 5,
    "userNum": 1387702
  },
  {
    "seasonId": 5,
    "userNum": 1574550
  },
  {
    "seasonId": 5,
    "userNum": 111182
  },
  {
    "seasonId": 5,
    "userNum": 900312
  },
  {
    "seasonId": 5,
    "userNum": 2473989
  },
  {
    "seasonId": 5,
    "userNum": 599906
  },
  {
    "seasonId": 5,
    "userNum": 2693267
  },
  {
    "seasonId": 5,
    "userNum": 3116350
  },
  {
    "seasonId": 5,
    "userNum": 3068211
  },
  {
    "seasonId": 5,
    "userNum": 395848
  },
  {
    "seasonId": 5,
    "userNum": 611734
  },
  {
    "seasonId": 5,
    "userNum": 2989014
  },
  {
    "seasonId": 5,
    "userNum": 2943612
  },
  {
    "seasonId": 5,
    "userNum": 1013358
  },
  {
    "seasonId": 5,
    "userNum": 1706446
  },
  {
    "seasonId": 5,
    "userNum": 2865051
  },
  {
    "seasonId": 5,
    "userNum": 2887721
  },
  {
    "seasonId": 5,
    "userNum": 2886800
  },
  {
    "seasonId": 5,
    "userNum": 2874988
  },
  {
    "seasonId": 5,
    "userNum": 2853696
  },
  {
    "seasonId": 5,
    "userNum": 2854997
  },
  {
    "seasonId": 5,
    "userNum": 2857893
  },
  {
    "seasonId": 5,
    "userNum": 2864668
  },
  {
    "seasonId": 5,
    "userNum": 2876177
  },
  {
    "seasonId": 5,
    "userNum": 2887787
  },
  {
    "seasonId": 5,
    "userNum": 2690565
  },
  {
    "seasonId": 5,
    "userNum": 2864555
  },
  {
    "seasonId": 5,
    "userNum": 2863702
  },
  {
    "seasonId": 5,
    "userNum": 2861994
  },
  {
    "seasonId": 5,
    "userNum": 496515
  },
  {
    "seasonId": 5,
    "userNum": 707333
  },
  {
    "seasonId": 5,
    "userNum": 719554
  },
  {
    "seasonId": 5,
    "userNum": 3052550
  },
  {
    "seasonId": 5,
    "userNum": 1344528
  },
  {
    "seasonId": 5,
    "userNum": 3081186
  },
  {
    "seasonId": 5,
    "userNum": 116435
  },
  {
    "seasonId": 5,
    "userNum": 1453440
  },
  {
    "seasonId": 5,
    "userNum": 528223
  },
  {
    "seasonId": 5,
    "userNum": 1084625
  },
  {
    "seasonId": 5,
    "userNum": 2254516
  },
  {
    "seasonId": 5,
    "userNum": 2554757
  },
  {
    "seasonId": 5,
    "userNum": 3062381
  },
  {
    "seasonId": 5,
    "userNum": 189997
  },
  {
    "seasonId": 5,
    "userNum": 2689347
  },
  {
    "seasonId": 5,
    "userNum": 3074547
  },
  {
    "seasonId": 5,
    "userNum": 1413271
  },
  {
    "seasonId": 5,
    "userNum": 1825440
  },
  {
    "seasonId": 5,
    "userNum": 1998916
  },
  {
    "seasonId": 5,
    "userNum": 2601933
  },
  {
    "seasonId": 5,
    "userNum": 2709800
  },
  {
    "seasonId": 5,
    "userNum": 2798728
  },
  {
    "seasonId": 5,
    "userNum": 2826404
  },
  {
    "seasonId": 5,
    "userNum": 2873438
  },
  {
    "seasonId": 5,
    "userNum": 2974506
  },
  {
    "seasonId": 5,
    "userNum": 3057898
  },
  {
    "seasonId": 5,
    "userNum": 3070104
  },
  {
    "seasonId": 5,
    "userNum": 3115832
  },
  {
    "seasonId": 5,
    "userNum": 3143286
  },
  {
    "seasonId": 5,
    "userNum": 626620
  },
  {
    "seasonId": 5,
    "userNum": 1101688
  },
  {
    "seasonId": 5,
    "userNum": 1529066
  },
  {
    "seasonId": 5,
    "userNum": 2482641
  },
  {
    "seasonId": 5,
    "userNum": 2641704
  },
  {
    "seasonId": 5,
    "userNum": 2854451
  },
  {
    "seasonId": 5,
    "userNum": 1561205
  },
  {
    "seasonId": 5,
    "userNum": 2464110
  },
  {
    "seasonId": 5,
    "userNum": 2513031
  },
  {
    "seasonId": 5,
    "userNum": 2516501
  },
  {
    "seasonId": 5,
    "userNum": 2610946
  },
  {
    "seasonId": 5,
    "userNum": 2829420
  },
  {
    "seasonId": 5,
    "userNum": 1316820
  },
  {
    "seasonId": 5,
    "userNum": 1450695
  },
  {
    "seasonId": 5,
    "userNum": 1794962
  },
  {
    "seasonId": 5,
    "userNum": 2142309
  },
  {
    "seasonId": 5,
    "userNum": 2448316
  },
  {
    "seasonId": 5,
    "userNum": 2854266
  },
  {
    "seasonId": 5,
    "userNum": 677443
  },
  {
    "seasonId": 5,
    "userNum": 2028200
  },
  {
    "seasonId": 5,
    "userNum": 2468649
  },
  {
    "seasonId": 5,
    "userNum": 2854318
  },
  {
    "seasonId": 5,
    "userNum": 743705
  },
  {
    "seasonId": 5,
    "userNum": 1211002
  },
  {
    "seasonId": 5,
    "userNum": 1250232
  },
  {
    "seasonId": 5,
    "userNum": 2135198
  },
  {
    "seasonId": 5,
    "userNum": 2181646
  },
  {
    "seasonId": 5,
    "userNum": 2709894
  },
  {
    "seasonId": 5,
    "userNum": 2709967
  },
  {
    "seasonId": 5,
    "userNum": 2851159
  },
  {
    "seasonId": 5,
    "userNum": 2853055
  },
  {
    "seasonId": 5,
    "userNum": 2972602
  },
  {
    "seasonId": 5,
    "userNum": 3004821
  },
  {
    "seasonId": 5,
    "userNum": 3042627
  },
  {
    "seasonId": 5,
    "userNum": 3056248
  },
  {
    "seasonId": 5,
    "userNum": 3080294
  },
  {
    "seasonId": 5,
    "userNum": 1354601
  },
  {
    "seasonId": 5,
    "userNum": 1481683
  },
  {
    "seasonId": 5,
    "userNum": 2127949
  },
  {
    "seasonId": 5,
    "userNum": 2507625
  },
  {
    "seasonId": 5,
    "userNum": 2861738
  },
  {
    "seasonId": 5,
    "userNum": 767656
  },
  {
    "seasonId": 5,
    "userNum": 970455
  },
  {
    "seasonId": 5,
    "userNum": 1095509
  },
  {
    "seasonId": 5,
    "userNum": 1780475
  },
  {
    "seasonId": 5,
    "userNum": 2452344
  },
  {
    "seasonId": 5,
    "userNum": 2649678
  },
  {
    "seasonId": 5,
    "userNum": 2789481
  },
  {
    "seasonId": 5,
    "userNum": 3170177
  },
  {
    "seasonId": 5,
    "userNum": 1187747
  },
  {
    "seasonId": 5,
    "userNum": 1411373
  },
  {
    "seasonId": 5,
    "userNum": 2917478
  },
  {
    "seasonId": 5,
    "userNum": 1537347
  },
  {
    "seasonId": 5,
    "userNum": 1042846
  },
  {
    "seasonId": 5,
    "userNum": 2878261
  },
  {
    "seasonId": 5,
    "userNum": 869666
  },
  {
    "seasonId": 5,
    "userNum": 402440
  },
  {
    "seasonId": 5,
    "userNum": 506281
  },
  {
    "seasonId": 5,
    "userNum": 2744664
  },
  {
    "seasonId": 5,
    "userNum": 2854422
  },
  {
    "seasonId": 5,
    "userNum": 2855426
  },
  {
    "seasonId": 5,
    "userNum": 2945719
  },
  {
    "seasonId": 5,
    "userNum": 1827392
  },
  {
    "seasonId": 5,
    "userNum": 1932365
  },
  {
    "seasonId": 5,
    "userNum": 2744669
  },
  {
    "seasonId": 5,
    "userNum": 2524007
  },
  {
    "seasonId": 5,
    "userNum": 2891165
  },
  {
    "seasonId": 5,
    "userNum": 700558
  },
  {
    "seasonId": 5,
    "userNum": 930975
  },
  {
    "seasonId": 5,
    "userNum": 2892013
  },
  {
    "seasonId": 5,
    "userNum": 591948
  },
  {
    "seasonId": 5,
    "userNum": 1118129
  },
  {
    "seasonId": 5,
    "userNum": 276909
  },
  {
    "seasonId": 5,
    "userNum": 263101
  },
  {
    "seasonId": 5,
    "userNum": 394221
  },
  {
    "seasonId": 5,
    "userNum": 317954
  },
  {
    "seasonId": 5,
    "userNum": 371248
  },
  {
    "seasonId": 5,
    "userNum": 1256248
  },
  {
    "seasonId": 5,
    "userNum": 1845706
  },
  {
    "seasonId": 5,
    "userNum": 1298727
  },
  {
    "seasonId": 5,
    "userNum": 2540852
  },
  {
    "seasonId": 5,
    "userNum": 137386
  },
  {
    "seasonId": 5,
    "userNum": 1224318
  },
  {
    "seasonId": 5,
    "userNum": 1036517
  },
  {
    "seasonId": 5,
    "userNum": 2854791
  },
  {
    "seasonId": 5,
    "userNum": 1121570
  },
  {
    "seasonId": 5,
    "userNum": 1085077
  },
  {
    "seasonId": 5,
    "userNum": 1306550
  },
  {
    "seasonId": 5,
    "userNum": 2627833
  },
  {
    "seasonId": 5,
    "userNum": 1113331
  },
  {
    "seasonId": 5,
    "userNum": 927137
  },
  {
    "seasonId": 5,
    "userNum": 461541
  },
  {
    "seasonId": 5,
    "userNum": 511852
  },
  {
    "seasonId": 5,
    "userNum": 726823
  },
  {
    "seasonId": 5,
    "userNum": 2459918
  },
  {
    "seasonId": 5,
    "userNum": 2657398
  },
  {
    "seasonId": 5,
    "userNum": 2688249
  },
  {
    "seasonId": 5,
    "userNum": 2775949
  },
  {
    "seasonId": 5,
    "userNum": 2851287
  },
  {
    "seasonId": 5,
    "userNum": 2942111
  },
  {
    "seasonId": 5,
    "userNum": 379734
  },
  {
    "seasonId": 5,
    "userNum": 772427
  },
  {
    "seasonId": 5,
    "userNum": 128660
  },
  {
    "seasonId": 5,
    "userNum": 2105480
  },
  {
    "seasonId": 5,
    "userNum": 2637123
  },
  {
    "seasonId": 5,
    "userNum": 2740230
  },
  {
    "seasonId": 5,
    "userNum": 2746174
  },
  {
    "seasonId": 5,
    "userNum": 2777436
  },
  {
    "seasonId": 5,
    "userNum": 2793218
  },
  {
    "seasonId": 5,
    "userNum": 2809983
  },
  {
    "seasonId": 5,
    "userNum": 2852002
  },
  {
    "seasonId": 5,
    "userNum": 2900717
  },
  {
    "seasonId": 5,
    "userNum": 3004214
  },
  {
    "seasonId": 5,
    "userNum": 3066277
  },
  {
    "seasonId": 5,
    "userNum": 362568
  },
  {
    "seasonId": 5,
    "userNum": 439310
  },
  {
    "seasonId": 5,
    "userNum": 2537015
  },
  {
    "seasonId": 5,
    "userNum": 2848923
  },
  {
    "seasonId": 5,
    "userNum": 2660470
  },
  {
    "seasonId": 5,
    "userNum": 1703926
  },
  {
    "seasonId": 5,
    "userNum": 1443115
  },
  {
    "seasonId": 7,
    "userNum": 1956175
  },
  {
    "seasonId": 7,
    "userNum": 277872
  },
  {
    "seasonId": 7,
    "userNum": 180100
  },
  {
    "seasonId": 7,
    "userNum": 2849386
  },
  {
    "seasonId": 7,
    "userNum": 419760
  },
  {
    "seasonId": 7,
    "userNum": 291076
  },
  {
    "seasonId": 7,
    "userNum": 986232
  },
  {
    "seasonId": 7,
    "userNum": 2177409
  },
  {
    "seasonId": 7,
    "userNum": 998148
  },
  {
    "seasonId": 7,
    "userNum": 131638
  },
  {
    "seasonId": 7,
    "userNum": 196206
  },
  {
    "seasonId": 7,
    "userNum": 58618
  },
  {
    "seasonId": 7,
    "userNum": 2902818
  },
  {
    "seasonId": 7,
    "userNum": 2903083
  },
  {
    "seasonId": 7,
    "userNum": 3111676
  },
  {
    "seasonId": 7,
    "userNum": 466328
  },
  {
    "seasonId": 7,
    "userNum": 337839
  },
  {
    "seasonId": 7,
    "userNum": 1727360
  },
  {
    "seasonId": 7,
    "userNum": 3011915
  },
  {
    "seasonId": 7,
    "userNum": 645609
  },
  {
    "seasonId": 7,
    "userNum": 2936591
  },
  {
    "seasonId": 7,
    "userNum": 1828239
  },
  {
    "seasonId": 7,
    "userNum": 1538547
  },
  {
    "seasonId": 7,
    "userNum": 3018163
  },
  {
    "seasonId": 7,
    "userNum": 1238890
  },
  {
    "seasonId": 7,
    "userNum": 1176548
  },
  {
    "seasonId": 7,
    "userNum": 2389585
  },
  {
    "seasonId": 7,
    "userNum": 3179132
  },
  {
    "seasonId": 7,
    "userNum": 893759
  },
  {
    "seasonId": 7,
    "userNum": 2131130
  },
  {
    "seasonId": 7,
    "userNum": 1901095
  },
  {
    "seasonId": 7,
    "userNum": 1251394
  },
  {
    "seasonId": 7,
    "userNum": 1232582
  },
  {
    "seasonId": 7,
    "userNum": 2284656
  },
  {
    "seasonId": 7,
    "userNum": 1608364
  },
  {
    "seasonId": 7,
    "userNum": 1834814
  },
  {
    "seasonId": 7,
    "userNum": 1837908
  },
  {
    "seasonId": 7,
    "userNum": 892749
  },
  {
    "seasonId": 7,
    "userNum": 892736
  },
  {
    "seasonId": 7,
    "userNum": 300013
  },
  {
    "seasonId": 7,
    "userNum": 742157
  },
  {
    "seasonId": 7,
    "userNum": 3245359
  },
  {
    "seasonId": 7,
    "userNum": 3247448
  },
  {
    "seasonId": 7,
    "userNum": 2031716
  },
  {
    "seasonId": 7,
    "userNum": 2768139
  },
  {
    "seasonId": 7,
    "userNum": 1441949
  },
  {
    "seasonId": 7,
    "userNum": 1369996
  },
  {
    "seasonId": 7,
    "userNum": 1036256
  },
  {
    "seasonId": 7,
    "userNum": 1035333
  },
  {
    "seasonId": 7,
    "userNum": 1034474
  },
  {
    "seasonId": 7,
    "userNum": 996375
  },
  {
    "seasonId": 7,
    "userNum": 2544697
  },
  {
    "seasonId": 7,
    "userNum": 1861902
  },
  {
    "seasonId": 7,
    "userNum": 1905873
  },
  {
    "seasonId": 7,
    "userNum": 754219
  },
  {
    "seasonId": 7,
    "userNum": 424649
  },
  {
    "seasonId": 7,
    "userNum": 558555
  },
  {
    "seasonId": 7,
    "userNum": 342609
  },
  {
    "seasonId": 7,
    "userNum": 2850586
  },
  {
    "seasonId": 7,
    "userNum": 1953406
  },
  {
    "seasonId": 7,
    "userNum": 1503266
  },
  {
    "seasonId": 7,
    "userNum": 223427
  },
  {
    "seasonId": 7,
    "userNum": 3239077
  },
  {
    "seasonId": 7,
    "userNum": 2849738
  },
  {
    "seasonId": 7,
    "userNum": 1681744
  },
  {
    "seasonId": 7,
    "userNum": 1681848
  },
  {
    "seasonId": 7,
    "userNum": 3108796
  },
  {
    "seasonId": 7,
    "userNum": 3108797
  },
  {
    "seasonId": 7,
    "userNum": 783812
  },
  {
    "seasonId": 7,
    "userNum": 3317975
  },
  {
    "seasonId": 7,
    "userNum": 3130337
  },
  {
    "seasonId": 7,
    "userNum": 2679697
  },
  {
    "seasonId": 7,
    "userNum": 2058517
  },
  {
    "seasonId": 7,
    "userNum": 53282
  },
  {
    "seasonId": 7,
    "userNum": 2190343
  },
  {
    "seasonId": 7,
    "userNum": 2528938
  },
  {
    "seasonId": 7,
    "userNum": 2080191
  },
  {
    "seasonId": 7,
    "userNum": 158283
  },
  {
    "seasonId": 7,
    "userNum": 1827360
  },
  {
    "seasonId": 7,
    "userNum": 348317
  },
  {
    "seasonId": 7,
    "userNum": 2106046
  },
  {
    "seasonId": 7,
    "userNum": 43859
  },
  {
    "seasonId": 7,
    "userNum": 1332827
  },
  {
    "seasonId": 7,
    "userNum": 5159
  },
  {
    "seasonId": 7,
    "userNum": 474683
  },
  {
    "seasonId": 7,
    "userNum": 504197
  },
  {
    "seasonId": 7,
    "userNum": 1674500
  },
  {
    "seasonId": 7,
    "userNum": 276196
  },
  {
    "seasonId": 7,
    "userNum": 276144
  },
  {
    "seasonId": 7,
    "userNum": 288270
  },
  {
    "seasonId": 7,
    "userNum": 3277880
  },
  {
    "seasonId": 7,
    "userNum": 3278371
  },
  {
    "seasonId": 7,
    "userNum": 3279467
  },
  {
    "seasonId": 7,
    "userNum": 3279143
  },
  {
    "seasonId": 7,
    "userNum": 818715
  },
  {
    "seasonId": 7,
    "userNum": 1199387
  },
  {
    "seasonId": 7,
    "userNum": 499621
  },
  {
    "seasonId": 7,
    "userNum": 406377
  },
  {
    "seasonId": 7,
    "userNum": 198601
  },
  {
    "seasonId": 7,
    "userNum": 2636542
  },
  {
    "seasonId": 7,
    "userNum": 1038324
  },
  {
    "seasonId": 7,
    "userNum": 841608
  },
  {
    "seasonId": 7,
    "userNum": 1727495
  },
  {
    "seasonId": 7,
    "userNum": 64577
  },
  {
    "seasonId": 7,
    "userNum": 2526358
  },
  {
    "seasonId": 7,
    "userNum": 3416856
  },
  {
    "seasonId": 7,
    "userNum": 4550
  },
  {
    "seasonId": 7,
    "userNum": 3306017
  },
  {
    "seasonId": 7,
    "userNum": 112190
  },
  {
    "seasonId": 7,
    "userNum": 121761
  },
  {
    "seasonId": 7,
    "userNum": 114478
  },
  {
    "seasonId": 7,
    "userNum": 1684413
  },
  {
    "seasonId": 7,
    "userNum": 1128558
  },
  {
    "seasonId": 7,
    "userNum": 2269768
  },
  {
    "seasonId": 7,
    "userNum": 1882386
  },
  {
    "seasonId": 7,
    "userNum": 1554325
  },
  {
    "seasonId": 7,
    "userNum": 1922018
  },
  {
    "seasonId": 7,
    "userNum": 1788588
  },
  {
    "seasonId": 7,
    "userNum": 2454261
  },
  {
    "seasonId": 7,
    "userNum": 1788694
  },
  {
    "seasonId": 7,
    "userNum": 2257597
  },
  {
    "seasonId": 7,
    "userNum": 2439245
  },
  {
    "seasonId": 7,
    "userNum": 343701
  },
  {
    "seasonId": 7,
    "userNum": 2577989
  },
  {
    "seasonId": 7,
    "userNum": 828056
  },
  {
    "seasonId": 7,
    "userNum": 689448
  },
  {
    "seasonId": 7,
    "userNum": 2108794
  },
  {
    "seasonId": 9,
    "userNum": 379867
  },
  {
    "seasonId": 9,
    "userNum": 250382
  },
  {
    "seasonId": 9,
    "userNum": 128396
  },
  {
    "seasonId": 9,
    "userNum": 1035757
  },
  {
    "seasonId": 9,
    "userNum": 190857
  },
  {
    "seasonId": 9,
    "userNum": 2728015
  },
  {
    "seasonId": 9,
    "userNum": 2397092
  },
  {
    "seasonId": 9,
    "userNum": 2061835
  },
  {
    "seasonId": 9,
    "userNum": 2676609
  },
  {
    "seasonId": 9,
    "userNum": 2070776
  },
  {
    "seasonId": 9,
    "userNum": 2691273
  },
  {
    "seasonId": 9,
    "userNum": 2036696
  },
  {
    "seasonId": 9,
    "userNum": 2489739
  },
  {
    "seasonId": 9,
    "userNum": 1360581
  },
  {
    "seasonId": 9,
    "userNum": 1998954
  },
  {
    "seasonId": 9,
    "userNum": 3290647
  },
  {
    "seasonId": 9,
    "userNum": 2060087
  },
  {
    "seasonId": 9,
    "userNum": 110122
  },
  {
    "seasonId": 9,
    "userNum": 2251606
  },
  {
    "seasonId": 9,
    "userNum": 1300116
  },
  {
    "seasonId": 9,
    "userNum": 110168
  },
  {
    "seasonId": 9,
    "userNum": 2576855
  },
  {
    "seasonId": 9,
    "userNum": 2039991
  },
  {
    "seasonId": 9,
    "userNum": 1165790
  },
  {
    "seasonId": 9,
    "userNum": 739163
  },
  {
    "seasonId": 9,
    "userNum": 333040
  },
  {
    "seasonId": 9,
    "userNum": 1199025
  },
  {
    "seasonId": 9,
    "userNum": 139307
  },
  {
    "seasonId": 9,
    "userNum": 778857
  },
  {
    "seasonId": 9,
    "userNum": 2035019
  },
  {
    "seasonId": 9,
    "userNum": 2161857
  },
  {
    "seasonId": 9,
    "userNum": 1176548
  },
  {
    "seasonId": 9,
    "userNum": 277872
  },
  {
    "seasonId": 9,
    "userNum": 2903083
  },
  {
    "seasonId": 9,
    "userNum": 1904828
  },
  {
    "seasonId": 9,
    "userNum": 596171
  },
  {
    "seasonId": 9,
    "userNum": 3111676
  },
  {
    "seasonId": 9,
    "userNum": 291076
  },
  {
    "seasonId": 9,
    "userNum": 1159062
  },
  {
    "seasonId": 9,
    "userNum": 2895607
  },
  {
    "seasonId": 9,
    "userNum": 2566689
  },
  {
    "seasonId": 9,
    "userNum": 2852393
  },
  {
    "seasonId": 9,
    "userNum": 180100
  },
  {
    "seasonId": 9,
    "userNum": 2831754
  },
  {
    "seasonId": 9,
    "userNum": 419760
  },
  {
    "seasonId": 9,
    "userNum": 466328
  },
  {
    "seasonId": 9,
    "userNum": 866803
  },
  {
    "seasonId": 9,
    "userNum": 2836571
  },
  {
    "seasonId": 9,
    "userNum": 2180823
  },
  {
    "seasonId": 9,
    "userNum": 1760513
  },
  {
    "seasonId": 9,
    "userNum": 1724026
  },
  {
    "seasonId": 9,
    "userNum": 194526
  },
  {
    "seasonId": 9,
    "userNum": 3423854
  },
  {
    "seasonId": 9,
    "userNum": 3423853
  },
  {
    "seasonId": 9,
    "userNum": 3127711
  },
  {
    "seasonId": 9,
    "userNum": 2109856
  },
  {
    "seasonId": 9,
    "userNum": 1676719
  },
  {
    "seasonId": 9,
    "userNum": 1096989
  },
  {
    "seasonId": 9,
    "userNum": 629760
  },
  {
    "seasonId": 9,
    "userNum": 288406
  },
  {
    "seasonId": 9,
    "userNum": 863474
  },
  {
    "seasonId": 9,
    "userNum": 205258
  },
  {
    "seasonId": 9,
    "userNum": 1452944
  },
  {
    "seasonId": 9,
    "userNum": 2466649
  },
  {
    "seasonId": 9,
    "userNum": 1269637
  },
  {
    "seasonId": 9,
    "userNum": 769315
  },
  {
    "seasonId": 9,
    "userNum": 712513
  },
  {
    "seasonId": 9,
    "userNum": 213458
  },
  {
    "seasonId": 9,
    "userNum": 3509668
  },
  {
    "seasonId": 9,
    "userNum": 213430
  },
  {
    "seasonId": 9,
    "userNum": 207345
  },
  {
    "seasonId": 9,
    "userNum": 2306841
  },
  {
    "seasonId": 9,
    "userNum": 2158241
  },
  {
    "seasonId": 9,
    "userNum": 681615
  },
  {
    "seasonId": 9,
    "userNum": 167572
  },
  {
    "seasonId": 9,
    "userNum": 326441
  },
  {
    "seasonId": 9,
    "userNum": 805144
  },
  {
    "seasonId": 9,
    "userNum": 2749102
  },
  {
    "seasonId": 9,
    "userNum": 939135
  },
  {
    "seasonId": 9,
    "userNum": 3510909
  },
  {
    "seasonId": 9,
    "userNum": 3510750
  },
  {
    "seasonId": 9,
    "userNum": 2944643
  },
  {
    "seasonId": 9,
    "userNum": 1025150
  },
  {
    "seasonId": 9,
    "userNum": 133562
  },
  {
    "seasonId": 9,
    "userNum": 98274
  },
  {
    "seasonId": 9,
    "userNum": 1674072
  },
  {
    "seasonId": 9,
    "userNum": 1784403
  },
  {
    "seasonId": 9,
    "userNum": 1784376
  },
  {
    "seasonId": 9,
    "userNum": 1552354
  },
  {
    "seasonId": 9,
    "userNum": 3182886
  },
  {
    "seasonId": 9,
    "userNum": 934887
  },
  {
    "seasonId": 9,
    "userNum": 1636015
  },
  {
    "seasonId": 9,
    "userNum": 782963
  },
  {
    "seasonId": 9,
    "userNum": 905076
  },
  {
    "seasonId": 9,
    "userNum": 3047375
  },
  {
    "seasonId": 9,
    "userNum": 1822548
  },
  {
    "seasonId": 9,
    "userNum": 67192
  },
  {
    "seasonId": 9,
    "userNum": 2567371
  },
  {
    "seasonId": 9,
    "userNum": 2568819
  },
  {
    "seasonId": 9,
    "userNum": 2567688
  },
  {
    "seasonId": 9,
    "userNum": 3489745
  },
  {
    "seasonId": 9,
    "userNum": 2321067
  },
  {
    "seasonId": 9,
    "userNum": 1935593
  },
  {
    "seasonId": 9,
    "userNum": 3526399
  },
  {
    "seasonId": 9,
    "userNum": 187766
  },
  {
    "seasonId": 9,
    "userNum": 198019
  },
  {
    "seasonId": 9,
    "userNum": 1651844
  },
  {
    "seasonId": 9,
    "userNum": 2636964
  },
  {
    "seasonId": 9,
    "userNum": 2311947
  },
  {
    "seasonId": 9,
    "userNum": 1497010
  },
  {
    "seasonId": 9,
    "userNum": 375053
  },
  {
    "seasonId": 9,
    "userNum": 1152263
  },
  {
    "seasonId": 9,
    "userNum": 526468
  },
  {
    "seasonId": 9,
    "userNum": 419727
  },
  {
    "seasonId": 9,
    "userNum": 1866168
  },
  {
    "seasonId": 9,
    "userNum": 2406857
  },
  {
    "seasonId": 9,
    "userNum": 3559893
  },
  {
    "seasonId": 9,
    "userNum": 2614827
  },
  {
    "seasonId": 9,
    "userNum": 2181626
  },
  {
    "seasonId": 9,
    "userNum": 2605329
  },
  {
    "seasonId": 9,
    "userNum": 2594250
  },
  {
    "seasonId": 9,
    "userNum": 290517
  },
  {
    "seasonId": 9,
    "userNum": 290516
  },
  {
    "seasonId": 9,
    "userNum": 1116227
  },
  {
    "seasonId": 9,
    "userNum": 1604381
  },
  {
    "seasonId": 9,
    "userNum": 3069774
  },
  {
    "seasonId": 9,
    "userNum": 3572377
  },
  {
    "seasonId": 9,
    "userNum": 1611475
  },
  {
    "seasonId": 9,
    "userNum": 1571503
  },
  {
    "seasonId": 9,
    "userNum": 1573331
  },
  {
    "seasonId": 9,
    "userNum": 1623754
  },
  {
    "seasonId": 9,
    "userNum": 1108524
  },
  {
    "seasonId": 9,
    "userNum": 722677
  },
  {
    "seasonId": 9,
    "userNum": 1323728
  },
  {
    "seasonId": 9,
    "userNum": 111349
  },
  {
    "seasonId": 9,
    "userNum": 933272
  },
  {
    "seasonId": 9,
    "userNum": 2759755
  },
  {
    "seasonId": 9,
    "userNum": 195526
  },
  {
    "seasonId": 9,
    "userNum": 69568
  },
  {
    "seasonId": 9,
    "userNum": 3570836
  },
  {
    "seasonId": 9,
    "userNum": 3423206
  },
  {
    "seasonId": 9,
    "userNum": 1613883
  },
  {
    "seasonId": 9,
    "userNum": 1594076
  },
  {
    "seasonId": 9,
    "userNum": 3281638
  },
  {
    "seasonId": 9,
    "userNum": 2110189
  },
  {
    "seasonId": 9,
    "userNum": 2446716
  },
  {
    "seasonId": 9,
    "userNum": 821981
  },
  {
    "seasonId": 9,
    "userNum": 204259
  },
  {
    "seasonId": 9,
    "userNum": 1318232
  },
  {
    "seasonId": 9,
    "userNum": 3479714
  },
  {
    "seasonId": 9,
    "userNum": 3493234
  },
  {
    "seasonId": 9,
    "userNum": 1628606
  },
  {
    "seasonId": 9,
    "userNum": 3578246
  },
  {
    "seasonId": 9,
    "userNum": 3463403
  },
  {
    "seasonId": 9,
    "userNum": 1449829
  },
  {
    "seasonId": 9,
    "userNum": 1912301
  },
  {
    "seasonId": 11,
    "userNum": 1118145
  },
  {
    "seasonId": 11,
    "userNum": 889649
  },
  {
    "seasonId": 11,
    "userNum": 2389585
  },
  {
    "seasonId": 11,
    "userNum": 2945083
  },
  {
    "seasonId": 11,
    "userNum": 2655421
  },
  {
    "seasonId": 11,
    "userNum": 1195526
  },
  {
    "seasonId": 11,
    "userNum": 2268391
  },
  {
    "seasonId": 11,
    "userNum": 97767
  },
  {
    "seasonId": 11,
    "userNum": 1180987
  },
  {
    "seasonId": 11,
    "userNum": 2895607
  },
  {
    "seasonId": 11,
    "userNum": 275724
  },
  {
    "seasonId": 11,
    "userNum": 419760
  },
  {
    "seasonId": 11,
    "userNum": 254530
  },
  {
    "seasonId": 11,
    "userNum": 277872
  },
  {
    "seasonId": 11,
    "userNum": 596171
  },
  {
    "seasonId": 11,
    "userNum": 2866876
  },
  {
    "seasonId": 11,
    "userNum": 988526
  },
  {
    "seasonId": 11,
    "userNum": 677764
  },
  {
    "seasonId": 11,
    "userNum": 514471
  },
  {
    "seasonId": 11,
    "userNum": 1688610
  },
  {
    "seasonId": 11,
    "userNum": 3551227
  },
  {
    "seasonId": 11,
    "userNum": 445544
  },
  {
    "seasonId": 11,
    "userNum": 1169114
  },
  {
    "seasonId": 11,
    "userNum": 2549252
  },
  {
    "seasonId": 11,
    "userNum": 3755793
  },
  {
    "seasonId": 11,
    "userNum": 3737107
  },
  {
    "seasonId": 11,
    "userNum": 297365
  },
  {
    "seasonId": 11,
    "userNum": 1334167
  },
  {
    "seasonId": 11,
    "userNum": 67658
  },
  {
    "seasonId": 11,
    "userNum": 439996
  },
  {
    "seasonId": 11,
    "userNum": 583353
  },
  {
    "seasonId": 11,
    "userNum": 734838
  },
  {
    "seasonId": 11,
    "userNum": 2897635
  },
  {
    "seasonId": 11,
    "userNum": 2960608
  },
  {
    "seasonId": 11,
    "userNum": 318131
  },
  {
    "seasonId": 11,
    "userNum": 2895804
  },
  {
    "seasonId": 11,
    "userNum": 734610
  },
  {
    "seasonId": 11,
    "userNum": 460487
  },
  {
    "seasonId": 11,
    "userNum": 2831235
  },
  {
    "seasonId": 11,
    "userNum": 2999316
  },
  {
    "seasonId": 11,
    "userNum": 791860
  },
  {
    "seasonId": 11,
    "userNum": 3634348
  },
  {
    "seasonId": 11,
    "userNum": 3510880
  },
  {
    "seasonId": 11,
    "userNum": 182543
  },
  {
    "seasonId": 11,
    "userNum": 383158
  },
  {
    "seasonId": 11,
    "userNum": 9375
  },
  {
    "seasonId": 11,
    "userNum": 950895
  },
  {
    "seasonId": 11,
    "userNum": 850966
  },
  {
    "seasonId": 11,
    "userNum": 1676708
  },
  {
    "seasonId": 11,
    "userNum": 3699670
  },
  {
    "seasonId": 11,
    "userNum": 158894
  },
  {
    "seasonId": 11,
    "userNum": 2733553
  },
  {
    "seasonId": 11,
    "userNum": 1169799
  },
  {
    "seasonId": 11,
    "userNum": 241005
  },
  {
    "seasonId": 11,
    "userNum": 218439
  },
  {
    "seasonId": 11,
    "userNum": 2500939
  },
  {
    "seasonId": 11,
    "userNum": 3009716
  },
  {
    "seasonId": 11,
    "userNum": 893100
  },
  {
    "seasonId": 11,
    "userNum": 2686346
  },
  {
    "seasonId": 11,
    "userNum": 3044479
  },
  {
    "seasonId": 11,
    "userNum": 2944667
  },
  {
    "seasonId": 11,
    "userNum": 2547669
  },
  {
    "seasonId": 11,
    "userNum": 3572256
  },
  {
    "seasonId": 11,
    "userNum": 3576420
  },
  {
    "seasonId": 11,
    "userNum": 3396
  },
  {
    "seasonId": 11,
    "userNum": 26887
  },
  {
    "seasonId": 11,
    "userNum": 1728016
  },
  {
    "seasonId": 11,
    "userNum": 22885
  },
  {
    "seasonId": 11,
    "userNum": 78705
  },
  {
    "seasonId": 11,
    "userNum": 73981
  },
  {
    "seasonId": 11,
    "userNum": 399400
  },
  {
    "seasonId": 11,
    "userNum": 287695
  },
  {
    "seasonId": 11,
    "userNum": 717684
  },
  {
    "seasonId": 11,
    "userNum": 99818
  },
  {
    "seasonId": 11,
    "userNum": 901372
  },
  {
    "seasonId": 11,
    "userNum": 684317
  },
  {
    "seasonId": 11,
    "userNum": 1207877
  },
  {
    "seasonId": 11,
    "userNum": 661994
  },
  {
    "seasonId": 11,
    "userNum": 1059099
  },
  {
    "seasonId": 11,
    "userNum": 523054
  },
  {
    "seasonId": 11,
    "userNum": 348015
  },
  {
    "seasonId": 11,
    "userNum": 287961
  },
  {
    "seasonId": 11,
    "userNum": 745867
  },
  {
    "seasonId": 11,
    "userNum": 1098365
  },
  {
    "seasonId": 11,
    "userNum": 579987
  },
  {
    "seasonId": 11,
    "userNum": 579945
  },
  {
    "seasonId": 11,
    "userNum": 3695821
  },
  {
    "seasonId": 11,
    "userNum": 3695714
  },
  {
    "seasonId": 11,
    "userNum": 1368372
  },
  {
    "seasonId": 11,
    "userNum": 593506
  },
  {
    "seasonId": 11,
    "userNum": 643414
  },
  {
    "seasonId": 11,
    "userNum": 659398
  },
  {
    "seasonId": 11,
    "userNum": 962443
  },
  {
    "seasonId": 11,
    "userNum": 757824
  },
  {
    "seasonId": 11,
    "userNum": 3326380
  },
  {
    "seasonId": 11,
    "userNum": 3212869
  },
  {
    "seasonId": 11,
    "userNum": 3326520
  },
  {
    "seasonId": 11,
    "userNum": 406377
  },
  {
    "seasonId": 11,
    "userNum": 2841095
  },
  {
    "seasonId": 11,
    "userNum": 278158
  },
  {
    "seasonId": 11,
    "userNum": 264759
  },
  {
    "seasonId": 11,
    "userNum": 881079
  },
  {
    "seasonId": 11,
    "userNum": 869325
  },
  {
    "seasonId": 11,
    "userNum": 3732899
  },
  {
    "seasonId": 11,
    "userNum": 3749630
  },
  {
    "seasonId": 11,
    "userNum": 2444574
  },
  {
    "seasonId": 11,
    "userNum": 1664879
  },
  {
    "seasonId": 11,
    "userNum": 1664977
  },
  {
    "seasonId": 11,
    "userNum": 1648339
  },
  {
    "seasonId": 11,
    "userNum": 1649347
  },
  {
    "seasonId": 11,
    "userNum": 761648
  },
  {
    "seasonId": 11,
    "userNum": 756301
  },
  {
    "seasonId": 11,
    "userNum": 103485
  },
  {
    "seasonId": 11,
    "userNum": 1178280
  },
  {
    "seasonId": 11,
    "userNum": 1055332
  },
  {
    "seasonId": 11,
    "userNum": 471599
  },
  {
    "seasonId": 11,
    "userNum": 1175043
  },
  {
    "seasonId": 11,
    "userNum": 3111253
  },
  {
    "seasonId": 11,
    "userNum": 797289
  },
  {
    "seasonId": 11,
    "userNum": 1217982
  },
  {
    "seasonId": 11,
    "userNum": 966403
  },
  {
    "seasonId": 11,
    "userNum": 3281638
  },
  {
    "seasonId": 11,
    "userNum": 3490757
  },
  {
    "seasonId": 11,
    "userNum": 2858778
  },
  {
    "seasonId": 11,
    "userNum": 2359203
  },
  {
    "seasonId": 11,
    "userNum": 2802767
  },
  {
    "seasonId": 13,
    "userNum": 2944667
  },
  {
    "seasonId": 13,
    "userNum": 2715255
  },
  {
    "seasonId": 13,
    "userNum": 3732069
  },
  {
    "seasonId": 13,
    "userNum": 750045
  },
  {
    "seasonId": 13,
    "userNum": 214637
  },
  {
    "seasonId": 13,
    "userNum": 1185862
  },
  {
    "seasonId": 13,
    "userNum": 804903
  },
  {
    "seasonId": 13,
    "userNum": 804781
  },
  {
    "seasonId": 13,
    "userNum": 2767866
  },
  {
    "seasonId": 13,
    "userNum": 813704
  },
  {
    "seasonId": 13,
    "userNum": 3252062
  },
  {
    "seasonId": 13,
    "userNum": 3849320
  },
  {
    "seasonId": 13,
    "userNum": 786661
  },
  {
    "seasonId": 13,
    "userNum": 3783866
  },
  {
    "seasonId": 13,
    "userNum": 3382391
  },
  {
    "seasonId": 13,
    "userNum": 2198087
  },
  {
    "seasonId": 13,
    "userNum": 3044479
  },
  {
    "seasonId": 13,
    "userNum": 737071
  },
  {
    "seasonId": 13,
    "userNum": 2068581
  },
  {
    "seasonId": 13,
    "userNum": 207511
  },
  {
    "seasonId": 13,
    "userNum": 1253273
  },
  {
    "seasonId": 13,
    "userNum": 2897635
  },
  {
    "seasonId": 13,
    "userNum": 3804614
  },
  {
    "seasonId": 13,
    "userNum": 3807836
  },
  {
    "seasonId": 13,
    "userNum": 383158
  },
  {
    "seasonId": 13,
    "userNum": 3322373
  },
  {
    "seasonId": 13,
    "userNum": 2306734
  },
  {
    "seasonId": 13,
    "userNum": 2306743
  },
  {
    "seasonId": 13,
    "userNum": 3609545
  },
  {
    "seasonId": 13,
    "userNum": 2532453
  },
  {
    "seasonId": 13,
    "userNum": 888515
  },
  {
    "seasonId": 13,
    "userNum": 2531878
  },
  {
    "seasonId": 13,
    "userNum": 2536144
  },
  {
    "seasonId": 13,
    "userNum": 2866876
  },
  {
    "seasonId": 13,
    "userNum": 3685196
  },
  {
    "seasonId": 13,
    "userNum": 3685190
  },
  {
    "seasonId": 13,
    "userNum": 26022
  },
  {
    "seasonId": 13,
    "userNum": 1175367
  },
  {
    "seasonId": 13,
    "userNum": 1602528
  },
  {
    "seasonId": 13,
    "userNum": 1955944
  },
  {
    "seasonId": 13,
    "userNum": 1316386
  },
  {
    "seasonId": 13,
    "userNum": 274779
  },
  {
    "seasonId": 13,
    "userNum": 193033
  },
  {
    "seasonId": 13,
    "userNum": 12859
  },
  {
    "seasonId": 13,
    "userNum": 196534
  },
  {
    "seasonId": 13,
    "userNum": 1446602
  },
  {
    "seasonId": 13,
    "userNum": 1721215
  },
  {
    "seasonId": 13,
    "userNum": 204484
  },
  {
    "seasonId": 13,
    "userNum": 48629
  },
  {
    "seasonId": 13,
    "userNum": 3206040
  },
  {
    "seasonId": 13,
    "userNum": 242735
  },
  {
    "seasonId": 13,
    "userNum": 1557666
  },
  {
    "seasonId": 13,
    "userNum": 3001226
  },
  {
    "seasonId": 13,
    "userNum": 703216
  },
  {
    "seasonId": 13,
    "userNum": 724649
  },
  {
    "seasonId": 13,
    "userNum": 3304620
  },
  {
    "seasonId": 13,
    "userNum": 739163
  },
  {
    "seasonId": 13,
    "userNum": 1273114
  },
  {
    "seasonId": 13,
    "userNum": 913503
  },
  {
    "seasonId": 13,
    "userNum": 874333
  },
  {
    "seasonId": 13,
    "userNum": 348650
  },
  {
    "seasonId": 13,
    "userNum": 338474
  },
  {
    "seasonId": 13,
    "userNum": 322472
  },
  {
    "seasonId": 13,
    "userNum": 276761
  },
  {
    "seasonId": 13,
    "userNum": 2167753
  },
  {
    "seasonId": 13,
    "userNum": 2199435
  },
  {
    "seasonId": 13,
    "userNum": 2182477
  },
  {
    "seasonId": 13,
    "userNum": 2198682
  },
  {
    "seasonId": 13,
    "userNum": 1407559
  },
  {
    "seasonId": 13,
    "userNum": 3933900
  },
  {
    "seasonId": 13,
    "userNum": 1755801
  },
  {
    "seasonId": 13,
    "userNum": 2253874
  },
  {
    "seasonId": 13,
    "userNum": 679738
  },
  {
    "seasonId": 13,
    "userNum": 1817984
  },
  {
    "seasonId": 13,
    "userNum": 7445
  },
  {
    "seasonId": 13,
    "userNum": 93444
  },
  {
    "seasonId": 13,
    "userNum": 109917
  },
  {
    "seasonId": 13,
    "userNum": 110122
  },
  {
    "seasonId": 13,
    "userNum": 110168
  },
  {
    "seasonId": 13,
    "userNum": 118981
  },
  {
    "seasonId": 13,
    "userNum": 128396
  },
  {
    "seasonId": 13,
    "userNum": 134753
  },
  {
    "seasonId": 13,
    "userNum": 144530
  },
  {
    "seasonId": 13,
    "userNum": 167572
  },
  {
    "seasonId": 13,
    "userNum": 189209
  },
  {
    "seasonId": 13,
    "userNum": 189597
  },
  {
    "seasonId": 13,
    "userNum": 206224
  },
  {
    "seasonId": 13,
    "userNum": 210278
  },
  {
    "seasonId": 13,
    "userNum": 218064
  },
  {
    "seasonId": 13,
    "userNum": 225033
  },
  {
    "seasonId": 13,
    "userNum": 250382
  },
  {
    "seasonId": 13,
    "userNum": 318539
  },
  {
    "seasonId": 13,
    "userNum": 333040
  },
  {
    "seasonId": 13,
    "userNum": 333973
  },
  {
    "seasonId": 13,
    "userNum": 336549
  },
  {
    "seasonId": 13,
    "userNum": 379867
  },
  {
    "seasonId": 13,
    "userNum": 531823
  },
  {
    "seasonId": 13,
    "userNum": 540707
  },
  {
    "seasonId": 13,
    "userNum": 550729
  },
  {
    "seasonId": 13,
    "userNum": 577216
  },
  {
    "seasonId": 13,
    "userNum": 578910
  },
  {
    "seasonId": 13,
    "userNum": 593655
  },
  {
    "seasonId": 13,
    "userNum": 599906
  },
  {
    "seasonId": 13,
    "userNum": 691284
  },
  {
    "seasonId": 13,
    "userNum": 702593
  },
  {
    "seasonId": 13,
    "userNum": 778060
  },
  {
    "seasonId": 13,
    "userNum": 902931
  },
  {
    "seasonId": 13,
    "userNum": 1000161
  },
  {
    "seasonId": 13,
    "userNum": 1006163
  },
  {
    "seasonId": 13,
    "userNum": 1103355
  },
  {
    "seasonId": 13,
    "userNum": 1207334
  },
  {
    "seasonId": 13,
    "userNum": 1300116
  },
  {
    "seasonId": 13,
    "userNum": 1315192
  },
  {
    "seasonId": 13,
    "userNum": 1336149
  },
  {
    "seasonId": 13,
    "userNum": 1420390
  },
  {
    "seasonId": 13,
    "userNum": 1506935
  },
  {
    "seasonId": 13,
    "userNum": 1509589
  },
  {
    "seasonId": 13,
    "userNum": 1544210
  },
  {
    "seasonId": 13,
    "userNum": 1547682
  },
  {
    "seasonId": 13,
    "userNum": 1548261
  },
  {
    "seasonId": 13,
    "userNum": 1560491
  },
  {
    "seasonId": 13,
    "userNum": 1577807
  },
  {
    "seasonId": 13,
    "userNum": 1601910
  },
  {
    "seasonId": 13,
    "userNum": 1616425
  },
  {
    "seasonId": 13,
    "userNum": 1631462
  },
  {
    "seasonId": 13,
    "userNum": 1738004
  },
  {
    "seasonId": 13,
    "userNum": 1766129
  },
  {
    "seasonId": 13,
    "userNum": 1788588
  },
  {
    "seasonId": 13,
    "userNum": 1863191
  },
  {
    "seasonId": 13,
    "userNum": 1890451
  },
  {
    "seasonId": 13,
    "userNum": 1927375
  },
  {
    "seasonId": 13,
    "userNum": 1930426
  },
  {
    "seasonId": 13,
    "userNum": 1976945
  },
  {
    "seasonId": 13,
    "userNum": 1980770
  },
  {
    "seasonId": 13,
    "userNum": 1994268
  },
  {
    "seasonId": 13,
    "userNum": 1998954
  },
  {
    "seasonId": 13,
    "userNum": 2036696
  },
  {
    "seasonId": 13,
    "userNum": 2041252
  },
  {
    "seasonId": 13,
    "userNum": 2060087
  },
  {
    "seasonId": 13,
    "userNum": 2061835
  },
  {
    "seasonId": 13,
    "userNum": 2064822
  },
  {
    "seasonId": 13,
    "userNum": 2070776
  },
  {
    "seasonId": 13,
    "userNum": 2109856
  },
  {
    "seasonId": 13,
    "userNum": 2133012
  },
  {
    "seasonId": 13,
    "userNum": 2134709
  },
  {
    "seasonId": 13,
    "userNum": 2140801
  },
  {
    "seasonId": 13,
    "userNum": 2201013
  },
  {
    "seasonId": 13,
    "userNum": 2242599
  },
  {
    "seasonId": 13,
    "userNum": 2251606
  },
  {
    "seasonId": 13,
    "userNum": 2273360
  },
  {
    "seasonId": 13,
    "userNum": 2305148
  },
  {
    "seasonId": 13,
    "userNum": 2305807
  },
  {
    "seasonId": 13,
    "userNum": 2306295
  },
  {
    "seasonId": 13,
    "userNum": 2306841
  },
  {
    "seasonId": 13,
    "userNum": 2331316
  },
  {
    "seasonId": 13,
    "userNum": 2349498
  },
  {
    "seasonId": 13,
    "userNum": 2352126
  },
  {
    "seasonId": 13,
    "userNum": 2358601
  },
  {
    "seasonId": 13,
    "userNum": 2370863
  },
  {
    "seasonId": 13,
    "userNum": 2397092
  },
  {
    "seasonId": 13,
    "userNum": 2412680
  },
  {
    "seasonId": 13,
    "userNum": 2438468
  },
  {
    "seasonId": 13,
    "userNum": 2439245
  },
  {
    "seasonId": 13,
    "userNum": 2440936
  },
  {
    "seasonId": 13,
    "userNum": 2469764
  },
  {
    "seasonId": 13,
    "userNum": 2478227
  },
  {
    "seasonId": 13,
    "userNum": 2483262
  },
  {
    "seasonId": 13,
    "userNum": 2488795
  },
  {
    "seasonId": 13,
    "userNum": 2489739
  },
  {
    "seasonId": 13,
    "userNum": 2499601
  },
  {
    "seasonId": 13,
    "userNum": 2505696
  },
  {
    "seasonId": 13,
    "userNum": 2576855
  },
  {
    "seasonId": 13,
    "userNum": 2597498
  },
  {
    "seasonId": 13,
    "userNum": 2617386
  },
  {
    "seasonId": 13,
    "userNum": 2636096
  },
  {
    "seasonId": 13,
    "userNum": 2653949
  },
  {
    "seasonId": 13,
    "userNum": 2675728
  },
  {
    "seasonId": 13,
    "userNum": 2692339
  },
  {
    "seasonId": 13,
    "userNum": 2706236
  },
  {
    "seasonId": 13,
    "userNum": 2770956
  },
  {
    "seasonId": 13,
    "userNum": 2778377
  },
  {
    "seasonId": 13,
    "userNum": 2839438
  },
  {
    "seasonId": 13,
    "userNum": 2864112
  },
  {
    "seasonId": 13,
    "userNum": 2892755
  },
  {
    "seasonId": 13,
    "userNum": 2943772
  },
  {
    "seasonId": 13,
    "userNum": 2954255
  },
  {
    "seasonId": 13,
    "userNum": 2992243
  },
  {
    "seasonId": 13,
    "userNum": 3022179
  },
  {
    "seasonId": 13,
    "userNum": 3041841
  },
  {
    "seasonId": 13,
    "userNum": 3046163
  },
  {
    "seasonId": 13,
    "userNum": 3061248
  },
  {
    "seasonId": 13,
    "userNum": 3108409
  },
  {
    "seasonId": 13,
    "userNum": 3135863
  },
  {
    "seasonId": 13,
    "userNum": 3182571
  },
  {
    "seasonId": 13,
    "userNum": 3199386
  },
  {
    "seasonId": 13,
    "userNum": 3238096
  },
  {
    "seasonId": 13,
    "userNum": 3262302
  },
  {
    "seasonId": 13,
    "userNum": 3403835
  },
  {
    "seasonId": 13,
    "userNum": 3418228
  },
  {
    "seasonId": 13,
    "userNum": 3443000
  },
  {
    "seasonId": 13,
    "userNum": 3509833
  },
  {
    "seasonId": 13,
    "userNum": 3671197
  },
  {
    "seasonId": 13,
    "userNum": 3759987
  },
  {
    "seasonId": 13,
    "userNum": 3777028
  },
  {
    "seasonId": 13,
    "userNum": 3831896
  },
  {
    "seasonId": 15,
    "userNum": 318657
  },
  {
    "seasonId": 15,
    "userNum": 193033
  },
  {
    "seasonId": 15,
    "userNum": 2353023
  },
  {
    "seasonId": 15,
    "userNum": 3028149
  },
  {
    "seasonId": 15,
    "userNum": 1895776
  },
  {
    "seasonId": 15,
    "userNum": 394025
  },
  {
    "seasonId": 15,
    "userNum": 706573
  },
  {
    "seasonId": 15,
    "userNum": 673506
  },
  {
    "seasonId": 15,
    "userNum": 644584
  },
  {
    "seasonId": 15,
    "userNum": 589280
  },
  {
    "seasonId": 15,
    "userNum": 2010282
  },
  {
    "seasonId": 15,
    "userNum": 289411
  },
  {
    "seasonId": 15,
    "userNum": 905217
  },
  {
    "seasonId": 15,
    "userNum": 3547274
  },
  {
    "seasonId": 15,
    "userNum": 950895
  },
  {
    "seasonId": 15,
    "userNum": 3547309
  },
  {
    "seasonId": 15,
    "userNum": 988981
  },
  {
    "seasonId": 15,
    "userNum": 634735
  },
  {
    "seasonId": 15,
    "userNum": 299614
  },
  {
    "seasonId": 15,
    "userNum": 1875299
  },
  {
    "seasonId": 15,
    "userNum": 1890205
  },
  {
    "seasonId": 15,
    "userNum": 1892535
  },
  {
    "seasonId": 15,
    "userNum": 3577295
  },
  {
    "seasonId": 15,
    "userNum": 3741409
  },
  {
    "seasonId": 15,
    "userNum": 3769545
  },
  {
    "seasonId": 15,
    "userNum": 524167
  },
  {
    "seasonId": 15,
    "userNum": 725716
  },
  {
    "seasonId": 15,
    "userNum": 2119110
  },
  {
    "seasonId": 15,
    "userNum": 837607
  },
  {
    "seasonId": 15,
    "userNum": 1118064
  },
  {
    "seasonId": 15,
    "userNum": 3878523
  },
  {
    "seasonId": 15,
    "userNum": 2943772
  },
  {
    "seasonId": 15,
    "userNum": 2478744
  },
  {
    "seasonId": 15,
    "userNum": 2809444
  },
  {
    "seasonId": 15,
    "userNum": 694612
  },
  {
    "seasonId": 15,
    "userNum": 1441801
  },
  {
    "seasonId": 15,
    "userNum": 3081967
  },
  {
    "seasonId": 15,
    "userNum": 1602528
  },
  {
    "seasonId": 15,
    "userNum": 83301
  },
  {
    "seasonId": 15,
    "userNum": 809061
  },
  {
    "seasonId": 15,
    "userNum": 3783866
  },
  {
    "seasonId": 15,
    "userNum": 3980540
  },
  {
    "seasonId": 15,
    "userNum": 3359355
  },
  {
    "seasonId": 15,
    "userNum": 3995941
  },
  {
    "seasonId": 15,
    "userNum": 2006871
  },
  {
    "seasonId": 15,
    "userNum": 276720
  },
  {
    "seasonId": 15,
    "userNum": 3998256
  },
  {
    "seasonId": 15,
    "userNum": 991416
  },
  {
    "seasonId": 15,
    "userNum": 878951
  },
  {
    "seasonId": 15,
    "userNum": 901300
  },
  {
    "seasonId": 15,
    "userNum": 881965
  },
  {
    "seasonId": 15,
    "userNum": 3983344
  },
  {
    "seasonId": 15,
    "userNum": 1100959
  },
  {
    "seasonId": 15,
    "userNum": 1652591
  },
  {
    "seasonId": 15,
    "userNum": 2866876
  },
  {
    "seasonId": 15,
    "userNum": 1219580
  },
  {
    "seasonId": 15,
    "userNum": 286566
  },
  {
    "seasonId": 15,
    "userNum": 1941688
  },
  {
    "seasonId": 15,
    "userNum": 1987692
  },
  {
    "seasonId": 15,
    "userNum": 214979
  },
  {
    "seasonId": 15,
    "userNum": 2035710
  },
  {
    "seasonId": 15,
    "userNum": 2108823
  },
  {
    "seasonId": 15,
    "userNum": 768435
  },
  {
    "seasonId": 15,
    "userNum": 2091394
  },
  {
    "seasonId": 15,
    "userNum": 2099391
  },
  {
    "seasonId": 15,
    "userNum": 3166579
  },
  {
    "seasonId": 15,
    "userNum": 3170115
  },
  {
    "seasonId": 15,
    "userNum": 282242
  },
  {
    "seasonId": 15,
    "userNum": 318869
  },
  {
    "seasonId": 15,
    "userNum": 94358
  },
  {
    "seasonId": 15,
    "userNum": 417055
  },
  {
    "seasonId": 15,
    "userNum": 1230219
  },
  {
    "seasonId": 15,
    "userNum": 1530817
  },
  {
    "seasonId": 15,
    "userNum": 2255751
  },
  {
    "seasonId": 15,
    "userNum": 232114
  },
  {
    "seasonId": 15,
    "userNum": 1998954
  },
  {
    "seasonId": 15,
    "userNum": 2041252
  },
  {
    "seasonId": 15,
    "userNum": 599906
  },
  {
    "seasonId": 15,
    "userNum": 1577807
  },
  {
    "seasonId": 15,
    "userNum": 2161857
  },
  {
    "seasonId": 15,
    "userNum": 3199386
  },
  {
    "seasonId": 15,
    "userNum": 540707
  },
  {
    "seasonId": 15,
    "userNum": 3276088
  },
  {
    "seasonId": 15,
    "userNum": 2061835
  },
  {
    "seasonId": 15,
    "userNum": 2839438
  },
  {
    "seasonId": 15,
    "userNum": 2306841
  },
  {
    "seasonId": 15,
    "userNum": 3071331
  },
  {
    "seasonId": 15,
    "userNum": 356552
  },
  {
    "seasonId": 15,
    "userNum": 110122
  },
  {
    "seasonId": 15,
    "userNum": 3238096
  },
  {
    "seasonId": 15,
    "userNum": 1738004
  },
  {
    "seasonId": 15,
    "userNum": 333040
  },
  {
    "seasonId": 15,
    "userNum": 2440936
  },
  {
    "seasonId": 15,
    "userNum": 3280728
  },
  {
    "seasonId": 15,
    "userNum": 2420526
  },
  {
    "seasonId": 15,
    "userNum": 2352126
  },
  {
    "seasonId": 15,
    "userNum": 2134709
  },
  {
    "seasonId": 15,
    "userNum": 2474939
  },
  {
    "seasonId": 15,
    "userNum": 3035661
  },
  {
    "seasonId": 15,
    "userNum": 236542
  },
  {
    "seasonId": 15,
    "userNum": 2265170
  },
  {
    "seasonId": 15,
    "userNum": 933418
  },
  {
    "seasonId": 15,
    "userNum": 1315192
  },
  {
    "seasonId": 15,
    "userNum": 139307
  },
  {
    "seasonId": 15,
    "userNum": 2070776
  },
  {
    "seasonId": 15,
    "userNum": 1103079
  },
  {
    "seasonId": 15,
    "userNum": 109917
  },
  {
    "seasonId": 15,
    "userNum": 110168
  },
  {
    "seasonId": 15,
    "userNum": 2035380
  },
  {
    "seasonId": 15,
    "userNum": 1284642
  },
  {
    "seasonId": 15,
    "userNum": 2605164
  },
  {
    "seasonId": 15,
    "userNum": 1506935
  },
  {
    "seasonId": 15,
    "userNum": 467156
  },
  {
    "seasonId": 15,
    "userNum": 2060087
  },
  {
    "seasonId": 15,
    "userNum": 2653949
  },
  {
    "seasonId": 15,
    "userNum": 1997755
  },
  {
    "seasonId": 15,
    "userNum": 1668494
  },
  {
    "seasonId": 15,
    "userNum": 2763979
  },
  {
    "seasonId": 15,
    "userNum": 1631462
  },
  {
    "seasonId": 15,
    "userNum": 2606385
  },
  {
    "seasonId": 15,
    "userNum": 1103355
  },
  {
    "seasonId": 15,
    "userNum": 2884865
  },
  {
    "seasonId": 15,
    "userNum": 2091916
  },
  {
    "seasonId": 15,
    "userNum": 2684442
  },
  {
    "seasonId": 15,
    "userNum": 2503299
  },
  {
    "seasonId": 15,
    "userNum": 2903575
  },
  {
    "seasonId": 15,
    "userNum": 2475538
  },
  {
    "seasonId": 15,
    "userNum": 3182571
  },
  {
    "seasonId": 15,
    "userNum": 2706236
  },
  {
    "seasonId": 15,
    "userNum": 2676559
  },
  {
    "seasonId": 15,
    "userNum": 1886524
  },
  {
    "seasonId": 15,
    "userNum": 1948256
  },
  {
    "seasonId": 15,
    "userNum": 2254680
  },
  {
    "seasonId": 15,
    "userNum": 1220054
  },
  {
    "seasonId": 15,
    "userNum": 2075223
  },
  {
    "seasonId": 15,
    "userNum": 3295422
  },
  {
    "seasonId": 15,
    "userNum": 3265957
  },
  {
    "seasonId": 15,
    "userNum": 3509833
  },
  {
    "seasonId": 15,
    "userNum": 189597
  },
  {
    "seasonId": 15,
    "userNum": 54613
  },
  {
    "seasonId": 15,
    "userNum": 1286536
  },
  {
    "seasonId": 15,
    "userNum": 1938593
  },
  {
    "seasonId": 15,
    "userNum": 2458777
  },
  {
    "seasonId": 15,
    "userNum": 3455511
  },
  {
    "seasonId": 15,
    "userNum": 835071
  },
  {
    "seasonId": 15,
    "userNum": 2326966
  },
  {
    "seasonId": 15,
    "userNum": 2483262
  },
  {
    "seasonId": 15,
    "userNum": 1927375
  },
  {
    "seasonId": 15,
    "userNum": 2109856
  },
  {
    "seasonId": 15,
    "userNum": 1336149
  },
  {
    "seasonId": 15,
    "userNum": 3183762
  },
  {
    "seasonId": 15,
    "userNum": 2438468
  },
  {
    "seasonId": 15,
    "userNum": 1313881
  },
  {
    "seasonId": 15,
    "userNum": 2398723
  },
  {
    "seasonId": 15,
    "userNum": 1207334
  },
  {
    "seasonId": 15,
    "userNum": 333973
  },
  {
    "seasonId": 15,
    "userNum": 3418228
  },
  {
    "seasonId": 15,
    "userNum": 333867
  },
  {
    "seasonId": 15,
    "userNum": 1547682
  },
  {
    "seasonId": 15,
    "userNum": 691284
  },
  {
    "seasonId": 15,
    "userNum": 118981
  },
  {
    "seasonId": 15,
    "userNum": 3252756
  },
  {
    "seasonId": 15,
    "userNum": 2358601
  },
  {
    "seasonId": 15,
    "userNum": 3022179
  },
  {
    "seasonId": 15,
    "userNum": 2242599
  },
  {
    "seasonId": 15,
    "userNum": 196244
  },
  {
    "seasonId": 15,
    "userNum": 550729
  },
  {
    "seasonId": 15,
    "userNum": 1994268
  },
  {
    "seasonId": 15,
    "userNum": 2499601
  },
  {
    "seasonId": 15,
    "userNum": 1066122
  },
  {
    "seasonId": 15,
    "userNum": 2617386
  },
  {
    "seasonId": 15,
    "userNum": 2597498
  },
  {
    "seasonId": 15,
    "userNum": 1577807
  },
  {
    "seasonId": 15,
    "userNum": 2036696
  },
  {
    "seasonId": 15,
    "userNum": 1890451
  },
  {
    "seasonId": 15,
    "userNum": 1103355
  },
  {
    "seasonId": 15,
    "userNum": 2475538
  },
  {
    "seasonId": 15,
    "userNum": 1577807
  },
  {
    "seasonId": 15,
    "userNum": 2036696
  },
  {
    "seasonId": 15,
    "userNum": 2201013
  },
  {
    "seasonId": 15,
    "userNum": 2237673
  },
  {
    "seasonId": 15,
    "userNum": 2284877
  }
]