[
  {
    "title": "Add UI Indicators that Route is Being Generated",
    "lines": [
      "Previously, the UI would just freeze when routes were being generated.",
      "There is now a 'Looking for routes' message when generating routes.",
      "Additionally, there is a message suggesting people to try turning off the 'Only Use 1 Loot Cluster Per Zone' option if it was enabled and no routes were found."
    ],
    "time": "October 14, 2021",
    "epoch_time": 1634187737.00159
  },
  {
    "title": "Routing Configuration Panel",
    "lines": [
      "You can now configure the advanced routing algorithm options.",
      "NOTE: The routing config also affect the build-able items area!",
      "Features include:",
      "* turning inventory protection on/off",
      "* changing the number of max zones",
      "* some other stuff too"
    ],
    "time": "October 06, 2021",
    "epoch_time": 1633579667.4173155
  },
  {
    "title": "Inv Sim & Route Gen now use Team/Rare Items",
    "lines": [
      "The items added to the Team/Rare Items section are now used by both Inventory Sim and Advanced Routing.",
      "It assumes you will get the items in your 3rd zone.",
      "NOTE: It is not used/respected for simple route generation."
    ],
    "time": "October 10, 2021",
    "epoch_time": 1633921263.540644
  },
  {
    "title": "Can Now Add Zone Constraints",
    "lines": [
      "Routing Config allows you to set which zones you want to allow for your 1st zone, 2nd zone, etc."
    ],
    "time": "October 10, 2021",
    "epoch_time": 1633921137.1647575
  },
  {
    "title": "Route Gen and Inventory Sim Can Utilize Loot Distribution",
    "lines": [
      "You can now limit the inventory sim and routing algorithms to use only 1 loot distribution cluster per zone.",
      "When enabled, route generation will have to go through multiple zones for a component if there's too many for a single zone.",
      "e.g. If you need 3 feathers, it will route you through 2-3 feather zones instead of just 1.",
      "NOTE: At the time of this writing Forest actually has 2 feathers per distribution zone so you could get 3 feathers in 2 zones."
    ],
    "time": "October 06, 2021",
    "epoch_time": 1633582529.3960311
  },
  {
    "title": "Items Grabbed in Each Zone Shown in Inventory Sim",
    "lines": [
      "Inventory sim now shows what gets grabbed in each area.",
      "This feature is needed now that the 1 loot distribution cluster option exists.",
      "Otherwise, it would be less clear how much of something is grabbed each zone."
    ],
    "time": "October 06, 2021",
    "epoch_time": 1633581690.4246843
  },
  {
    "title": "Can now select multiple weapon types (again)",
    "lines": [
      "After one of the bigger UI refactors you could only select 1 weapon type per character.",
      "This was especially bad for Alex, and kinda bad for multi-weapon characters."
    ],
    "time": "October 06, 2021",
    "epoch_time": 1633579830.3591619
  },
  {
    "title": "\"What's New?\" Button",
    "lines": [
      "There is now a UI element to show when there's new stuff!",
      "We've been wanting to do this for awhile, and I finally got around to it!",
      "This should help people know when there are subtle, but important changes/improvements to the site.",
      "This will be our alternative to using version numbers for the site.",
      "I figure this is better than subtly incrementing a version number (e.g. from 0.46.7 -> 0.46.8).",
      "The badge will go away if you open and close this."
    ],
    "time": "October 06, 2021",
    "epoch_time": 1633582106.642142
  }
]